%!PS-Adobe-3.0 EPSF-3.0
%%Creator: (MATLAB, The Mathworks, Inc. Version 9.1.0.441655 \(R2016b\). Operating System: Windows 7)
%%Title: ../Dokument/Abbildungen/akf_akf.eps
%%CreationDate: 2017-08-31T17:30:37
%%Pages: (atend)
%%BoundingBox:     5     1   200   153
%%LanguageLevel: 3
%%EndComments
%%BeginProlog
%%BeginResource: procset (Apache XML Graphics Std ProcSet) 1.2 0
%%Version: 1.2 0
%%Copyright: (Copyright 2001-2003,2010 The Apache Software Foundation. License terms: http://www.apache.org/licenses/LICENSE-2.0)
/bd{bind def}bind def
/ld{load def}bd
/GR/grestore ld
/M/moveto ld
/LJ/setlinejoin ld
/C/curveto ld
/f/fill ld
/LW/setlinewidth ld
/GC/setgray ld
/t/show ld
/N/newpath ld
/CT/concat ld
/cp/closepath ld
/S/stroke ld
/L/lineto ld
/CC/setcmykcolor ld
/A/ashow ld
/GS/gsave ld
/RC/setrgbcolor ld
/RM/rmoveto ld
/ML/setmiterlimit ld
/re {4 2 roll M
1 index 0 rlineto
0 exch rlineto
neg 0 rlineto
cp } bd
/_ctm matrix def
/_tm matrix def
/BT { _ctm currentmatrix pop matrix _tm copy pop 0 0 moveto } bd
/ET { _ctm setmatrix } bd
/iTm { _ctm setmatrix _tm concat } bd
/Tm { _tm astore pop iTm 0 0 moveto } bd
/ux 0.0 def
/uy 0.0 def
/F {
  /Tp exch def
  /Tf exch def
  Tf findfont Tp scalefont setfont
  /cf Tf def  /cs Tp def
} bd
/ULS {currentpoint /uy exch def /ux exch def} bd
/ULE {
  /Tcx currentpoint pop def
  gsave
  newpath
  cf findfont cs scalefont dup
  /FontMatrix get 0 get /Ts exch def /FontInfo get dup
  /UnderlinePosition get Ts mul /To exch def
  /UnderlineThickness get Ts mul /Tt exch def
  ux uy To add moveto  Tcx uy To add lineto
  Tt setlinewidth stroke
  grestore
} bd
/OLE {
  /Tcx currentpoint pop def
  gsave
  newpath
  cf findfont cs scalefont dup
  /FontMatrix get 0 get /Ts exch def /FontInfo get dup
  /UnderlinePosition get Ts mul /To exch def
  /UnderlineThickness get Ts mul /Tt exch def
  ux uy To add cs add moveto Tcx uy To add cs add lineto
  Tt setlinewidth stroke
  grestore
} bd
/SOE {
  /Tcx currentpoint pop def
  gsave
  newpath
  cf findfont cs scalefont dup
  /FontMatrix get 0 get /Ts exch def /FontInfo get dup
  /UnderlinePosition get Ts mul /To exch def
  /UnderlineThickness get Ts mul /Tt exch def
  ux uy To add cs 10 mul 26 idiv add moveto Tcx uy To add cs 10 mul 26 idiv add lineto
  Tt setlinewidth stroke
  grestore
} bd
/QT {
/Y22 exch store
/X22 exch store
/Y21 exch store
/X21 exch store
currentpoint
/Y21 load 2 mul add 3 div exch
/X21 load 2 mul add 3 div exch
/X21 load 2 mul /X22 load add 3 div
/Y21 load 2 mul /Y22 load add 3 div
/X22 load /Y22 load curveto
} bd
/SSPD {
dup length /d exch dict def
{
/v exch def
/k exch def
currentpagedevice k known {
/cpdv currentpagedevice k get def
v cpdv ne {
/upd false def
/nullv v type /nulltype eq def
/nullcpdv cpdv type /nulltype eq def
nullv nullcpdv or
{
/upd true def
} {
/sametype v type cpdv type eq def
sametype {
v type /arraytype eq {
/vlen v length def
/cpdvlen cpdv length def
vlen cpdvlen eq {
0 1 vlen 1 sub {
/i exch def
/obj v i get def
/cpdobj cpdv i get def
obj cpdobj ne {
/upd true def
exit
} if
} for
} {
/upd true def
} ifelse
} {
v type /dicttype eq {
v {
/dv exch def
/dk exch def
/cpddv cpdv dk get def
dv cpddv ne {
/upd true def
exit
} if
} forall
} {
/upd true def
} ifelse
} ifelse
} if
} ifelse
upd true eq {
d k v put
} if
} if
} if
} forall
d length 0 gt {
d setpagedevice
} if
} bd
/RE { % /NewFontName [NewEncodingArray] /FontName RE -
  findfont dup length dict begin
  {
    1 index /FID ne
    {def} {pop pop} ifelse
  } forall
  /Encoding exch def
  /FontName 1 index def
  currentdict definefont pop
  end
} bind def
%%EndResource
%%BeginResource: procset (Apache XML Graphics EPS ProcSet) 1.0 0
%%Version: 1.0 0
%%Copyright: (Copyright 2002-2003 The Apache Software Foundation. License terms: http://www.apache.org/licenses/LICENSE-2.0)
/BeginEPSF { %def
/b4_Inc_state save def         % Save state for cleanup
/dict_count countdictstack def % Count objects on dict stack
/op_count count 1 sub def      % Count objects on operand stack
userdict begin                 % Push userdict on dict stack
/showpage { } def              % Redefine showpage, { } = null proc
0 setgray 0 setlinecap         % Prepare graphics state
1 setlinewidth 0 setlinejoin
10 setmiterlimit [ ] 0 setdash newpath
/languagelevel where           % If level not equal to 1 then
{pop languagelevel             % set strokeadjust and
1 ne                           % overprint to their defaults.
{false setstrokeadjust false setoverprint
} if
} if
} bd
/EndEPSF { %def
count op_count sub {pop} repeat            % Clean up stacks
countdictstack dict_count sub {end} repeat
b4_Inc_state restore
} bd
%%EndResource
%FOPBeginFontDict
%%IncludeResource: font Courier-Bold
%%IncludeResource: font Helvetica
%%IncludeResource: font Courier-BoldOblique
%%IncludeResource: font Courier-Oblique
%%IncludeResource: font Times-Roman
%%IncludeResource: font Helvetica-BoldOblique
%%IncludeResource: font Helvetica-Bold
%%IncludeResource: font Helvetica-Oblique
%%IncludeResource: font Times-BoldItalic
%%IncludeResource: font Courier
%%IncludeResource: font Times-Italic
%%IncludeResource: font Times-Bold
%%IncludeResource: font Symbol
%%IncludeResource: font ZapfDingbats
%FOPEndFontDict
%%BeginResource: encoding WinAnsiEncoding
/WinAnsiEncoding [
/.notdef /.notdef /.notdef /.notdef /.notdef
/.notdef /.notdef /.notdef /.notdef /.notdef
/.notdef /.notdef /.notdef /.notdef /.notdef
/.notdef /.notdef /.notdef /.notdef /.notdef
/.notdef /.notdef /.notdef /.notdef /.notdef
/.notdef /.notdef /.notdef /.notdef /.notdef
/.notdef /.notdef /space /exclam /quotedbl
/numbersign /dollar /percent /ampersand /quotesingle
/parenleft /parenright /asterisk /plus /comma
/hyphen /period /slash /zero /one
/two /three /four /five /six
/seven /eight /nine /colon /semicolon
/less /equal /greater /question /at
/A /B /C /D /E
/F /G /H /I /J
/K /L /M /N /O
/P /Q /R /S /T
/U /V /W /X /Y
/Z /bracketleft /backslash /bracketright /asciicircum
/underscore /quoteleft /a /b /c
/d /e /f /g /h
/i /j /k /l /m
/n /o /p /q /r
/s /t /u /v /w
/x /y /z /braceleft /bar
/braceright /asciitilde /bullet /Euro /bullet
/quotesinglbase /florin /quotedblbase /ellipsis /dagger
/daggerdbl /circumflex /perthousand /Scaron /guilsinglleft
/OE /bullet /Zcaron /bullet /bullet
/quoteleft /quoteright /quotedblleft /quotedblright /bullet
/endash /emdash /asciitilde /trademark /scaron
/guilsinglright /oe /bullet /zcaron /Ydieresis
/space /exclamdown /cent /sterling /currency
/yen /brokenbar /section /dieresis /copyright
/ordfeminine /guillemotleft /logicalnot /sfthyphen /registered
/macron /degree /plusminus /twosuperior /threesuperior
/acute /mu /paragraph /middot /cedilla
/onesuperior /ordmasculine /guillemotright /onequarter /onehalf
/threequarters /questiondown /Agrave /Aacute /Acircumflex
/Atilde /Adieresis /Aring /AE /Ccedilla
/Egrave /Eacute /Ecircumflex /Edieresis /Igrave
/Iacute /Icircumflex /Idieresis /Eth /Ntilde
/Ograve /Oacute /Ocircumflex /Otilde /Odieresis
/multiply /Oslash /Ugrave /Uacute /Ucircumflex
/Udieresis /Yacute /Thorn /germandbls /agrave
/aacute /acircumflex /atilde /adieresis /aring
/ae /ccedilla /egrave /eacute /ecircumflex
/edieresis /igrave /iacute /icircumflex /idieresis
/eth /ntilde /ograve /oacute /ocircumflex
/otilde /odieresis /divide /oslash /ugrave
/uacute /ucircumflex /udieresis /yacute /thorn
/ydieresis
] def
%%EndResource
%FOPBeginFontReencode
/Courier-Bold findfont
dup length dict begin
  {1 index /FID ne {def} {pop pop} ifelse} forall
  /Encoding WinAnsiEncoding def
  currentdict
end
/Courier-Bold exch definefont pop
/Helvetica findfont
dup length dict begin
  {1 index /FID ne {def} {pop pop} ifelse} forall
  /Encoding WinAnsiEncoding def
  currentdict
end
/Helvetica exch definefont pop
/Courier-BoldOblique findfont
dup length dict begin
  {1 index /FID ne {def} {pop pop} ifelse} forall
  /Encoding WinAnsiEncoding def
  currentdict
end
/Courier-BoldOblique exch definefont pop
/Courier-Oblique findfont
dup length dict begin
  {1 index /FID ne {def} {pop pop} ifelse} forall
  /Encoding WinAnsiEncoding def
  currentdict
end
/Courier-Oblique exch definefont pop
/Times-Roman findfont
dup length dict begin
  {1 index /FID ne {def} {pop pop} ifelse} forall
  /Encoding WinAnsiEncoding def
  currentdict
end
/Times-Roman exch definefont pop
/Helvetica-BoldOblique findfont
dup length dict begin
  {1 index /FID ne {def} {pop pop} ifelse} forall
  /Encoding WinAnsiEncoding def
  currentdict
end
/Helvetica-BoldOblique exch definefont pop
/Helvetica-Bold findfont
dup length dict begin
  {1 index /FID ne {def} {pop pop} ifelse} forall
  /Encoding WinAnsiEncoding def
  currentdict
end
/Helvetica-Bold exch definefont pop
/Helvetica-Oblique findfont
dup length dict begin
  {1 index /FID ne {def} {pop pop} ifelse} forall
  /Encoding WinAnsiEncoding def
  currentdict
end
/Helvetica-Oblique exch definefont pop
/Times-BoldItalic findfont
dup length dict begin
  {1 index /FID ne {def} {pop pop} ifelse} forall
  /Encoding WinAnsiEncoding def
  currentdict
end
/Times-BoldItalic exch definefont pop
/Courier findfont
dup length dict begin
  {1 index /FID ne {def} {pop pop} ifelse} forall
  /Encoding WinAnsiEncoding def
  currentdict
end
/Courier exch definefont pop
/Times-Italic findfont
dup length dict begin
  {1 index /FID ne {def} {pop pop} ifelse} forall
  /Encoding WinAnsiEncoding def
  currentdict
end
/Times-Italic exch definefont pop
/Times-Bold findfont
dup length dict begin
  {1 index /FID ne {def} {pop pop} ifelse} forall
  /Encoding WinAnsiEncoding def
  currentdict
end
/Times-Bold exch definefont pop
%FOPEndFontReencode
%%EndProlog
%%Page: 1 1
%%PageBoundingBox: 0 0 213 161
%%BeginPageSetup
[1 0 0 -1 0 161] CT
%%EndPageSetup
GS
[0.75 0 0 0.75 0 0.5] CT
1 GC
N
0 0 284 214 re
f
GR
GS
[0.75 0 0 0.75 0 0.5] CT
1 GC
N
0 0 284 214 re
f
GR
GS
[0.75 0 0 0.75 0 0.5] CT
1 GC
N
37 174 M
257 174 L
257 16 L
37 16 L
cp
f
GR
GS
[0.75 0 0 0.75 0 0.5] CT
0.873 GC
1 LJ
0.667 LW
N
37 174 M
37 16 L
S
GR
GS
[0.75 0 0 0.75 0 0.5] CT
0.873 GC
1 LJ
0.667 LW
N
92 174 M
92 16 L
S
GR
GS
[0.75 0 0 0.75 0 0.5] CT
0.873 GC
1 LJ
0.667 LW
N
147 174 M
147 16 L
S
GR
GS
[0.75 0 0 0.75 0 0.5] CT
0.873 GC
1 LJ
0.667 LW
N
202 174 M
202 16 L
S
GR
GS
[0.75 0 0 0.75 0 0.5] CT
0.873 GC
1 LJ
0.667 LW
N
257 174 M
257 16 L
S
GR
GS
[0.75 0 0 0.75 0 0.5] CT
0.873 GC
1 LJ
0.667 LW
N
257 174 M
37 174 L
S
GR
GS
[0.75 0 0 0.75 0 0.5] CT
0.873 GC
1 LJ
0.667 LW
N
257 134.5 M
37 134.5 L
S
GR
GS
[0.75 0 0 0.75 0 0.5] CT
0.873 GC
1 LJ
0.667 LW
N
257 95 M
37 95 L
S
GR
GS
[0.75 0 0 0.75 0 0.5] CT
0.873 GC
1 LJ
0.667 LW
N
257 55.5 M
37 55.5 L
S
GR
GS
[0.75 0 0 0.75 0 0.5] CT
0.873 GC
1 LJ
0.667 LW
N
257 16 M
37 16 L
S
GR
GS
[0.75 0 0 0.75 0 0.5] CT
0.149 GC
2 setlinecap
1 LJ
0.667 LW
N
37 174 M
257 174 L
S
GR
GS
[0.75 0 0 0.75 0 0.5] CT
0.149 GC
2 setlinecap
1 LJ
0.667 LW
N
37 16 M
257 16 L
S
GR
GS
[0.75 0 0 0.75 0 0.5] CT
0.149 GC
2 setlinecap
1 LJ
0.667 LW
N
37 174 M
37 171.8 L
S
GR
GS
[0.75 0 0 0.75 0 0.5] CT
0.149 GC
2 setlinecap
1 LJ
0.667 LW
N
92 174 M
92 171.8 L
S
GR
GS
[0.75 0 0 0.75 0 0.5] CT
0.149 GC
2 setlinecap
1 LJ
0.667 LW
N
147 174 M
147 171.8 L
S
GR
GS
[0.75 0 0 0.75 0 0.5] CT
0.149 GC
2 setlinecap
1 LJ
0.667 LW
N
202 174 M
202 171.8 L
S
GR
GS
[0.75 0 0 0.75 0 0.5] CT
0.149 GC
2 setlinecap
1 LJ
0.667 LW
N
257 174 M
257 171.8 L
S
GR
GS
[0.75 0 0 0.75 0 0.5] CT
0.149 GC
2 setlinecap
1 LJ
0.667 LW
N
37 16 M
37 18.2 L
S
GR
GS
[0.75 0 0 0.75 0 0.5] CT
0.149 GC
2 setlinecap
1 LJ
0.667 LW
N
92 16 M
92 18.2 L
S
GR
GS
[0.75 0 0 0.75 0 0.5] CT
0.149 GC
2 setlinecap
1 LJ
0.667 LW
N
147 16 M
147 18.2 L
S
GR
GS
[0.75 0 0 0.75 0 0.5] CT
0.149 GC
2 setlinecap
1 LJ
0.667 LW
N
202 16 M
202 18.2 L
S
GR
GS
[0.75 0 0 0.75 0 0.5] CT
0.149 GC
2 setlinecap
1 LJ
0.667 LW
N
257 16 M
257 18.2 L
S
GR
GS
[0.75 0 0 0.75 27.75 135] CT
0.149 GC
N
-12.082 8.794 M
-12.082 7.981 L
-8.628 7.981 L
-8.628 8.794 L
-12.082 8.794 L
cp
f
GR
GS
[0.75 0 0 0.75 27.75 135] CT
0.149 GC
N
-7.137 11.2 M
-7.137 10.856 L
-7.137 10.825 -7.106 10.778 QT
-5.09 8.544 L
-4.622 8.044 -4.34 7.708 QT
-4.059 7.372 -3.778 6.934 QT
-3.497 6.497 -3.332 6.044 QT
-3.168 5.591 -3.168 5.091 QT
-3.168 4.559 -3.372 4.067 QT
-3.575 3.575 -3.965 3.286 QT
-4.356 2.997 -4.903 2.997 QT
-5.465 2.997 -5.918 3.341 QT
-6.372 3.684 -6.559 4.216 QT
-6.497 4.2 -6.418 4.2 QT
-6.122 4.2 -5.918 4.395 QT
-5.715 4.591 -5.715 4.903 QT
-5.715 5.2 -5.918 5.411 QT
-6.122 5.622 -6.418 5.622 QT
-6.715 5.622 -6.926 5.411 QT
-7.137 5.2 -7.137 4.903 QT
-7.137 4.419 -6.95 3.989 QT
-6.762 3.559 -6.418 3.231 QT
-6.075 2.903 -5.637 2.723 QT
-5.2 2.544 -4.715 2.544 QT
-3.965 2.544 -3.325 2.856 QT
-2.684 3.169 -2.309 3.747 QT
-1.934 4.325 -1.934 5.091 QT
-1.934 5.653 -2.184 6.161 QT
-2.434 6.669 -2.817 7.083 QT
-3.2 7.497 -3.809 8.028 QT
-4.418 8.559 -4.606 8.731 QT
-6.075 10.153 L
-4.825 10.153 L
-3.903 10.153 -3.286 10.137 QT
-2.668 10.122 -2.637 10.075 QT
-2.481 9.919 -2.325 8.887 QT
-1.934 8.887 L
-2.309 11.2 L
-7.137 11.2 L
cp
f
GR
GS
[0.75 0 0 0.75 27.75 135] CT
0.149 GC
N
2.139 11.481 M
0.545 11.481 -0.025 10.169 QT
-0.595 8.856 -0.595 7.059 QT
-0.595 5.919 -0.392 4.927 QT
-0.189 3.934 0.42 3.239 QT
1.03 2.544 2.139 2.544 QT
2.998 2.544 3.545 2.958 QT
4.092 3.372 4.373 4.036 QT
4.655 4.7 4.764 5.458 QT
4.873 6.216 4.873 7.059 QT
4.873 8.169 4.662 9.145 QT
4.451 10.122 3.85 10.802 QT
3.248 11.481 2.139 11.481 QT
cp
2.139 11.153 M
2.858 11.153 3.217 10.411 QT
3.576 9.669 3.655 8.762 QT
3.733 7.856 3.733 6.841 QT
3.733 5.872 3.655 5.044 QT
3.576 4.216 3.225 3.544 QT
2.873 2.872 2.139 2.872 QT
1.405 2.872 1.045 3.552 QT
0.686 4.231 0.608 5.052 QT
0.53 5.872 0.53 6.841 QT
0.53 7.575 0.561 8.216 QT
0.592 8.856 0.748 9.536 QT
0.905 10.216 1.24 10.684 QT
1.576 11.153 2.139 11.153 QT
cp
f
GR
GS
[0.75 0 0 0.75 27.75 135] CT
0.149 GC
N
8.806 11.481 M
7.212 11.481 6.641 10.169 QT
6.071 8.856 6.071 7.059 QT
6.071 5.919 6.274 4.927 QT
6.477 3.934 7.087 3.239 QT
7.696 2.544 8.806 2.544 QT
9.665 2.544 10.212 2.958 QT
10.759 3.372 11.04 4.036 QT
11.321 4.7 11.431 5.458 QT
11.54 6.216 11.54 7.059 QT
11.54 8.169 11.329 9.145 QT
11.118 10.122 10.517 10.802 QT
9.915 11.481 8.806 11.481 QT
cp
8.806 11.153 M
9.524 11.153 9.884 10.411 QT
10.243 9.669 10.321 8.762 QT
10.399 7.856 10.399 6.841 QT
10.399 5.872 10.321 5.044 QT
10.243 4.216 9.892 3.544 QT
9.54 2.872 8.806 2.872 QT
8.071 2.872 7.712 3.552 QT
7.352 4.231 7.274 5.052 QT
7.196 5.872 7.196 6.841 QT
7.196 7.575 7.227 8.216 QT
7.259 8.856 7.415 9.536 QT
7.571 10.216 7.907 10.684 QT
8.243 11.153 8.806 11.153 QT
cp
f
GR
GS
[0.75 0 0 0.75 69 135] CT
0.149 GC
N
/f-185863724{-12.082 8.794 M
-12.082 7.981 L
-8.628 7.981 L
-8.628 8.794 L
-12.082 8.794 L
cp}def
f-185863724
f
GR
GS
[0.75 0 0 0.75 69 135] CT
0.149 GC
N
/f1818753982{-6.575 11.2 M
-6.575 10.747 L
-4.95 10.747 -4.95 10.325 QT
-4.95 3.512 L
-5.622 3.825 -6.653 3.825 QT
-6.653 3.372 L
-5.059 3.372 -4.247 2.544 QT
-4.059 2.544 L
-4.012 2.544 -3.973 2.575 QT
-3.934 2.606 -3.934 2.653 QT
-3.934 10.325 L
-3.934 10.747 -2.309 10.747 QT
-2.309 11.2 L
-6.575 11.2 L
cp}def
f1818753982
f
GR
GS
[0.75 0 0 0.75 69 135] CT
0.149 GC
N
/f-1613006092{2.139 11.481 M
0.545 11.481 -0.025 10.169 QT
-0.595 8.856 -0.595 7.059 QT
-0.595 5.919 -0.392 4.927 QT
-0.189 3.934 0.42 3.239 QT
1.03 2.544 2.139 2.544 QT
2.998 2.544 3.545 2.958 QT
4.092 3.372 4.373 4.036 QT
4.655 4.7 4.764 5.458 QT
4.873 6.216 4.873 7.059 QT
4.873 8.169 4.662 9.145 QT
4.451 10.122 3.85 10.802 QT
3.248 11.481 2.139 11.481 QT
cp
2.139 11.153 M
2.858 11.153 3.217 10.411 QT
3.576 9.669 3.655 8.762 QT
3.733 7.856 3.733 6.841 QT
3.733 5.872 3.655 5.044 QT
3.576 4.216 3.225 3.544 QT
2.873 2.872 2.139 2.872 QT
1.405 2.872 1.045 3.552 QT
0.686 4.231 0.608 5.052 QT
0.53 5.872 0.53 6.841 QT
0.53 7.575 0.561 8.216 QT
0.592 8.856 0.748 9.536 QT
0.905 10.216 1.24 10.684 QT
1.576 11.153 2.139 11.153 QT
cp}def
f-1613006092
f
GR
GS
[0.75 0 0 0.75 69 135] CT
0.149 GC
N
/f-1849351281{8.806 11.481 M
7.212 11.481 6.641 10.169 QT
6.071 8.856 6.071 7.059 QT
6.071 5.919 6.274 4.927 QT
6.477 3.934 7.087 3.239 QT
7.696 2.544 8.806 2.544 QT
9.665 2.544 10.212 2.958 QT
10.759 3.372 11.04 4.036 QT
11.321 4.7 11.431 5.458 QT
11.54 6.216 11.54 7.059 QT
11.54 8.169 11.329 9.145 QT
11.118 10.122 10.517 10.802 QT
9.915 11.481 8.806 11.481 QT
cp
8.806 11.153 M
9.524 11.153 9.884 10.411 QT
10.243 9.669 10.321 8.762 QT
10.399 7.856 10.399 6.841 QT
10.399 5.872 10.321 5.044 QT
10.243 4.216 9.892 3.544 QT
9.54 2.872 8.806 2.872 QT
8.071 2.872 7.712 3.552 QT
7.352 4.231 7.274 5.052 QT
7.196 5.872 7.196 6.841 QT
7.196 7.575 7.227 8.216 QT
7.259 8.856 7.415 9.536 QT
7.571 10.216 7.907 10.684 QT
8.243 11.153 8.806 11.153 QT
cp}def
f-1849351281
f
GR
GS
[0.75 0 0 0.75 110.25 135] CT
0.149 GC
N
/f1061832871{-0.083 11.481 M
-1.677 11.481 -2.247 10.169 QT
-2.818 8.856 -2.818 7.059 QT
-2.818 5.919 -2.615 4.927 QT
-2.411 3.934 -1.802 3.239 QT
-1.193 2.544 -0.083 2.544 QT
0.776 2.544 1.323 2.958 QT
1.87 3.372 2.151 4.036 QT
2.432 4.7 2.542 5.458 QT
2.651 6.216 2.651 7.059 QT
2.651 8.169 2.44 9.145 QT
2.229 10.122 1.628 10.802 QT
1.026 11.481 -0.083 11.481 QT
cp
-0.083 11.153 M
0.635 11.153 0.995 10.411 QT
1.354 9.669 1.432 8.762 QT
1.51 7.856 1.51 6.841 QT
1.51 5.872 1.432 5.044 QT
1.354 4.216 1.003 3.544 QT
0.651 2.872 -0.083 2.872 QT
-0.818 2.872 -1.177 3.552 QT
-1.536 4.231 -1.615 5.052 QT
-1.693 5.872 -1.693 6.841 QT
-1.693 7.575 -1.661 8.216 QT
-1.63 8.856 -1.474 9.536 QT
-1.318 10.216 -0.982 10.684 QT
-0.646 11.153 -0.083 11.153 QT
cp}def
f1061832871
f
GR
GS
[0.75 0 0 0.75 151.5 135] CT
0.149 GC
N
/f64805956{-8.797 11.2 M
-8.797 10.747 L
-7.172 10.747 -7.172 10.325 QT
-7.172 3.512 L
-7.844 3.825 -8.875 3.825 QT
-8.875 3.372 L
-7.281 3.372 -6.469 2.544 QT
-6.281 2.544 L
-6.234 2.544 -6.195 2.575 QT
-6.156 2.606 -6.156 2.653 QT
-6.156 10.325 L
-6.156 10.747 -4.531 10.747 QT
-4.531 11.2 L
-8.797 11.2 L
cp}def
f64805956
f
GR
GS
[0.75 0 0 0.75 151.5 135] CT
0.149 GC
N
f1061832871
f
GR
GS
[0.75 0 0 0.75 151.5 135] CT
0.149 GC
N
/f-1844528368{6.583 11.481 M
4.99 11.481 4.419 10.169 QT
3.849 8.856 3.849 7.059 QT
3.849 5.919 4.052 4.927 QT
4.255 3.934 4.865 3.239 QT
5.474 2.544 6.583 2.544 QT
7.443 2.544 7.99 2.958 QT
8.536 3.372 8.818 4.036 QT
9.099 4.7 9.208 5.458 QT
9.318 6.216 9.318 7.059 QT
9.318 8.169 9.107 9.145 QT
8.896 10.122 8.294 10.802 QT
7.693 11.481 6.583 11.481 QT
cp
6.583 11.153 M
7.302 11.153 7.661 10.411 QT
8.021 9.669 8.099 8.762 QT
8.177 7.856 8.177 6.841 QT
8.177 5.872 8.099 5.044 QT
8.021 4.216 7.669 3.544 QT
7.318 2.872 6.583 2.872 QT
5.849 2.872 5.49 3.552 QT
5.13 4.231 5.052 5.052 QT
4.974 5.872 4.974 6.841 QT
4.974 7.575 5.005 8.216 QT
5.036 8.856 5.193 9.536 QT
5.349 10.216 5.685 10.684 QT
6.021 11.153 6.583 11.153 QT
cp}def
f-1844528368
f
GR
GS
[0.75 0 0 0.75 192.75 135] CT
0.149 GC
N
/f-303371173{-9.359 11.2 M
-9.359 10.856 L
-9.359 10.825 -9.328 10.778 QT
-7.313 8.544 L
-6.844 8.044 -6.563 7.708 QT
-6.281 7.372 -6 6.934 QT
-5.719 6.497 -5.555 6.044 QT
-5.391 5.591 -5.391 5.091 QT
-5.391 4.559 -5.594 4.067 QT
-5.797 3.575 -6.188 3.286 QT
-6.578 2.997 -7.125 2.997 QT
-7.688 2.997 -8.141 3.341 QT
-8.594 3.684 -8.781 4.216 QT
-8.719 4.2 -8.641 4.2 QT
-8.344 4.2 -8.141 4.395 QT
-7.938 4.591 -7.938 4.903 QT
-7.938 5.2 -8.141 5.411 QT
-8.344 5.622 -8.641 5.622 QT
-8.938 5.622 -9.148 5.411 QT
-9.359 5.2 -9.359 4.903 QT
-9.359 4.419 -9.172 3.989 QT
-8.984 3.559 -8.641 3.231 QT
-8.297 2.903 -7.859 2.723 QT
-7.422 2.544 -6.938 2.544 QT
-6.188 2.544 -5.547 2.856 QT
-4.906 3.169 -4.531 3.747 QT
-4.156 4.325 -4.156 5.091 QT
-4.156 5.653 -4.406 6.161 QT
-4.656 6.669 -5.039 7.083 QT
-5.422 7.497 -6.031 8.028 QT
-6.641 8.559 -6.828 8.731 QT
-8.297 10.153 L
-7.047 10.153 L
-6.125 10.153 -5.508 10.137 QT
-4.891 10.122 -4.859 10.075 QT
-4.703 9.919 -4.547 8.887 QT
-4.156 8.887 L
-4.531 11.2 L
-9.359 11.2 L
cp}def
f-303371173
f
GR
GS
[0.75 0 0 0.75 192.75 135] CT
0.149 GC
N
f1061832871
f
GR
GS
[0.75 0 0 0.75 192.75 135] CT
0.149 GC
N
f-1844528368
f
GR
GS
[0.75 0 0 0.75 110.25008 147.8] CT
0.149 GC
N
/f-1978773873{-15.661 11.101 M
-15.661 10.882 -15.63 10.679 QT
-14.536 6.382 L
-16.114 6.382 L
-16.27 6.382 -16.27 6.179 QT
-16.208 5.851 -16.067 5.851 QT
-14.411 5.851 L
-13.802 3.414 L
-13.755 3.211 -13.575 3.07 QT
-13.395 2.929 -13.177 2.929 QT
-12.989 2.929 -12.856 3.047 QT
-12.723 3.164 -12.723 3.351 QT
-12.723 3.398 -12.731 3.422 QT
-12.739 3.445 -12.739 3.476 QT
-13.348 5.851 L
-11.802 5.851 L
-11.645 5.851 -11.645 6.054 QT
-11.661 6.086 -11.677 6.172 QT
-11.692 6.257 -11.731 6.32 QT
-11.77 6.382 -11.848 6.382 QT
-13.473 6.382 L
-14.552 10.711 L
-14.661 11.148 -14.661 11.445 QT
-14.661 12.086 -14.223 12.086 QT
-13.567 12.086 -13.059 11.468 QT
-12.552 10.851 -12.27 10.117 QT
-12.223 10.023 -12.161 10.023 QT
-11.973 10.023 L
-11.911 10.023 -11.88 10.062 QT
-11.848 10.101 -11.848 10.164 QT
-11.848 10.195 -11.864 10.211 QT
-12.192 11.117 -12.817 11.804 QT
-13.442 12.492 -14.255 12.492 QT
-14.848 12.492 -15.255 12.101 QT
-15.661 11.711 -15.661 11.101 QT
cp}def
f-1978773873
f
GR
GS
[0.75 0 0 0.75 110.25008 147.8] CT
0.149 GC
N
/f-994565675{-9.537 16.07 M
-9.537 1.07 L
-7.474 1.07 L
-7.474 1.664 L
-8.927 1.664 L
-8.927 15.476 L
-7.474 15.476 L
-7.474 16.07 L
-9.537 16.07 L
cp}def
f-994565675
f
GR
GS
[0.75 0 0 0.75 110.25008 147.8] CT
0.149 GC
N
/f1452753449{-6.072 12.07 M
-6.072 11.976 -6.056 11.929 QT
-4.931 7.461 L
-4.822 7.039 -4.822 6.726 QT
-4.822 6.086 -5.259 6.086 QT
-5.728 6.086 -5.955 6.64 QT
-6.181 7.195 -6.4 8.054 QT
-6.4 8.101 -6.447 8.125 QT
-6.494 8.148 -6.525 8.148 QT
-6.697 8.148 L
-6.759 8.148 -6.791 8.093 QT
-6.822 8.039 -6.822 7.992 QT
-6.666 7.351 -6.517 6.898 QT
-6.369 6.445 -6.048 6.07 QT
-5.728 5.695 -5.244 5.695 QT
-4.681 5.695 -4.252 6.047 QT
-3.822 6.398 -3.822 6.945 QT
-3.369 6.367 -2.775 6.031 QT
-2.181 5.695 -1.494 5.695 QT
-0.791 5.695 -0.275 6.054 QT
0.241 6.414 0.241 7.086 QT
0.709 6.429 1.327 6.062 QT
1.944 5.695 2.678 5.695 QT
3.444 5.695 3.92 6.117 QT
4.397 6.539 4.397 7.304 QT
4.397 7.929 4.123 8.797 QT
3.85 9.664 3.444 10.742 QT
3.225 11.257 3.225 11.648 QT
3.225 12.086 3.569 12.086 QT
4.163 12.086 4.553 11.461 QT
4.944 10.836 5.1 10.117 QT
5.147 10.023 5.225 10.023 QT
5.397 10.023 L
5.459 10.023 5.498 10.062 QT
5.538 10.101 5.538 10.164 QT
5.538 10.179 5.522 10.211 QT
5.319 11.054 4.811 11.773 QT
4.303 12.492 3.538 12.492 QT
3.006 12.492 2.639 12.125 QT
2.272 11.757 2.272 11.242 QT
2.272 10.976 2.381 10.664 QT
2.819 9.523 3.1 8.64 QT
3.381 7.757 3.381 7.086 QT
3.381 6.664 3.209 6.375 QT
3.038 6.086 2.647 6.086 QT
1.819 6.086 1.225 6.586 QT
0.631 7.086 0.178 7.914 QT
0.163 8.054 0.147 8.132 QT
-0.822 11.992 L
-0.884 12.195 -1.064 12.343 QT
-1.244 12.492 -1.462 12.492 QT
-1.634 12.492 -1.767 12.375 QT
-1.9 12.257 -1.9 12.07 QT
-1.9 11.976 -1.884 11.929 QT
-0.931 8.101 L
-0.775 7.492 -0.775 7.086 QT
-0.775 6.664 -0.947 6.375 QT
-1.119 6.086 -1.525 6.086 QT
-2.072 6.086 -2.541 6.328 QT
-3.009 6.57 -3.353 6.968 QT
-3.697 7.367 -3.978 7.914 QT
-4.994 11.992 L
-5.041 12.195 -5.22 12.343 QT
-5.4 12.492 -5.619 12.492 QT
-5.806 12.492 -5.939 12.375 QT
-6.072 12.257 -6.072 12.07 QT
cp}def
f1452753449
f
GR
GS
[0.75 0 0 0.75 110.25008 147.8] CT
0.149 GC
N
/f1905909846{6.946 11.398 M
7.353 12.086 8.571 12.086 QT
9.103 12.086 9.579 11.906 QT
10.056 11.726 10.368 11.375 QT
10.681 11.023 10.681 10.507 QT
10.681 10.117 10.399 9.867 QT
10.118 9.617 9.712 9.523 QT
8.899 9.367 L
8.353 9.226 7.993 8.843 QT
7.634 8.461 7.634 7.929 QT
7.634 7.257 7.993 6.742 QT
8.353 6.226 8.946 5.961 QT
9.54 5.695 10.181 5.695 QT
10.853 5.695 11.392 6.015 QT
11.931 6.336 11.931 6.976 QT
11.931 7.32 11.735 7.586 QT
11.54 7.851 11.196 7.851 QT
11.009 7.851 10.86 7.726 QT
10.712 7.601 10.712 7.398 QT
10.712 7.226 10.813 7.062 QT
10.915 6.898 11.079 6.797 QT
11.243 6.695 11.415 6.695 QT
11.29 6.367 10.931 6.226 QT
10.571 6.086 10.149 6.086 QT
9.759 6.086 9.384 6.234 QT
9.009 6.382 8.774 6.679 QT
8.54 6.976 8.54 7.382 QT
8.54 7.648 8.735 7.859 QT
8.931 8.07 9.196 8.148 QT
10.071 8.336 L
10.493 8.414 10.837 8.64 QT
11.181 8.867 11.384 9.203 QT
11.587 9.539 11.587 9.976 QT
11.587 10.539 11.274 11.078 QT
10.962 11.617 10.509 11.945 QT
9.712 12.492 8.556 12.492 QT
7.759 12.492 7.095 12.125 QT
6.431 11.757 6.431 11.023 QT
6.431 10.617 6.665 10.312 QT
6.899 10.007 7.306 10.007 QT
7.556 10.007 7.72 10.156 QT
7.884 10.304 7.884 10.554 QT
7.884 10.898 7.626 11.148 QT
7.368 11.398 7.024 11.398 QT
6.946 11.398 L
cp}def
f1905909846
f
GR
GS
[0.75 0 0 0.75 110.25008 147.8] CT
0.149 GC
N
/f-284609745{12.853 16.07 M
12.853 15.476 L
14.306 15.476 L
14.306 1.664 L
12.853 1.664 L
12.853 1.07 L
14.915 1.07 L
14.915 16.07 L
12.853 16.07 L
cp}def
f-284609745
f
GR
GS
[0.75 0 0 0.75 0 0.5] CT
0.149 GC
2 setlinecap
1 LJ
0.667 LW
N
37 174 M
37 16 L
S
GR
GS
[0.75 0 0 0.75 0 0.5] CT
0.149 GC
2 setlinecap
1 LJ
0.667 LW
N
257 174 M
257 16 L
S
GR
GS
[0.75 0 0 0.75 0 0.5] CT
0.149 GC
2 setlinecap
1 LJ
0.667 LW
N
37 174 M
39.2 174 L
S
GR
GS
[0.75 0 0 0.75 0 0.5] CT
0.149 GC
2 setlinecap
1 LJ
0.667 LW
N
37 134.5 M
39.2 134.5 L
S
GR
GS
[0.75 0 0 0.75 0 0.5] CT
0.149 GC
2 setlinecap
1 LJ
0.667 LW
N
37 95 M
39.2 95 L
S
GR
GS
[0.75 0 0 0.75 0 0.5] CT
0.149 GC
2 setlinecap
1 LJ
0.667 LW
N
37 55.5 M
39.2 55.5 L
S
GR
GS
[0.75 0 0 0.75 0 0.5] CT
0.149 GC
2 setlinecap
1 LJ
0.667 LW
N
37 16 M
39.2 16 L
S
GR
GS
[0.75 0 0 0.75 0 0.5] CT
0.149 GC
2 setlinecap
1 LJ
0.667 LW
N
257 174 M
254.8 174 L
S
GR
GS
[0.75 0 0 0.75 0 0.5] CT
0.149 GC
2 setlinecap
1 LJ
0.667 LW
N
257 134.5 M
254.8 134.5 L
S
GR
GS
[0.75 0 0 0.75 0 0.5] CT
0.149 GC
2 setlinecap
1 LJ
0.667 LW
N
257 95 M
254.8 95 L
S
GR
GS
[0.75 0 0 0.75 0 0.5] CT
0.149 GC
2 setlinecap
1 LJ
0.667 LW
N
257 55.5 M
254.8 55.5 L
S
GR
GS
[0.75 0 0 0.75 0 0.5] CT
0.149 GC
2 setlinecap
1 LJ
0.667 LW
N
257 16 M
254.8 16 L
S
GR
GS
[0.75 0 0 0.75 23.75 131] CT
0.149 GC
N
/f590191074{-24.304 0.794 M
-24.304 -0.019 L
-20.851 -0.019 L
-20.851 0.794 L
-24.304 0.794 L
cp}def
f590191074
f
GR
GS
[0.75 0 0 0.75 23.75 131] CT
0.149 GC
N
/f1153255893{-18.797 3.2 M
-18.797 2.747 L
-17.172 2.747 -17.172 2.325 QT
-17.172 -4.488 L
-17.844 -4.175 -18.875 -4.175 QT
-18.875 -4.628 L
-17.281 -4.628 -16.469 -5.456 QT
-16.281 -5.456 L
-16.234 -5.456 -16.195 -5.425 QT
-16.156 -5.394 -16.156 -5.347 QT
-16.156 2.325 L
-16.156 2.747 -14.531 2.747 QT
-14.531 3.2 L
-18.797 3.2 L
cp}def
f1153255893
f
GR
GS
[0.75 0 0 0.75 23.75 131] CT
0.149 GC
N
/f660764968{-10.083 3.481 M
-11.677 3.481 -12.247 2.169 QT
-12.818 0.856 -12.818 -0.941 QT
-12.818 -2.081 -12.615 -3.073 QT
-12.411 -4.066 -11.802 -4.761 QT
-11.193 -5.456 -10.083 -5.456 QT
-9.224 -5.456 -8.677 -5.042 QT
-8.13 -4.628 -7.849 -3.964 QT
-7.568 -3.3 -7.458 -2.542 QT
-7.349 -1.784 -7.349 -0.941 QT
-7.349 0.169 -7.56 1.145 QT
-7.771 2.122 -8.372 2.802 QT
-8.974 3.481 -10.083 3.481 QT
cp
-10.083 3.153 M
-9.365 3.153 -9.005 2.411 QT
-8.646 1.669 -8.568 0.762 QT
-8.49 -0.144 -8.49 -1.159 QT
-8.49 -2.128 -8.568 -2.956 QT
-8.646 -3.784 -8.997 -4.456 QT
-9.349 -5.128 -10.083 -5.128 QT
-10.818 -5.128 -11.177 -4.448 QT
-11.536 -3.769 -11.615 -2.948 QT
-11.693 -2.128 -11.693 -1.159 QT
-11.693 -0.425 -11.661 0.216 QT
-11.63 0.856 -11.474 1.536 QT
-11.318 2.216 -10.982 2.684 QT
-10.646 3.153 -10.083 3.153 QT
cp}def
f660764968
f
GR
GS
[0.75 0 0 0.75 23.75 131] CT
0.149 GC
N
/f-2026418800{-3.417 3.481 M
-5.01 3.481 -5.581 2.169 QT
-6.151 0.856 -6.151 -0.941 QT
-6.151 -2.081 -5.948 -3.073 QT
-5.745 -4.066 -5.135 -4.761 QT
-4.526 -5.456 -3.417 -5.456 QT
-2.557 -5.456 -2.01 -5.042 QT
-1.464 -4.628 -1.182 -3.964 QT
-0.901 -3.3 -0.792 -2.542 QT
-0.682 -1.784 -0.682 -0.941 QT
-0.682 0.169 -0.893 1.145 QT
-1.104 2.122 -1.706 2.802 QT
-2.307 3.481 -3.417 3.481 QT
cp
-3.417 3.153 M
-2.698 3.153 -2.339 2.411 QT
-1.979 1.669 -1.901 0.762 QT
-1.823 -0.144 -1.823 -1.159 QT
-1.823 -2.128 -1.901 -2.956 QT
-1.979 -3.784 -2.331 -4.456 QT
-2.682 -5.128 -3.417 -5.128 QT
-4.151 -5.128 -4.51 -4.448 QT
-4.87 -3.769 -4.948 -2.948 QT
-5.026 -2.128 -5.026 -1.159 QT
-5.026 -0.425 -4.995 0.216 QT
-4.964 0.856 -4.807 1.536 QT
-4.651 2.216 -4.315 2.684 QT
-3.979 3.153 -3.417 3.153 QT
cp}def
f-2026418800
f
GR
GS
[0.75 0 0 0.75 23.75 101.375] CT
0.149 GC
N
/f314435565{-17.637 0.794 M
-17.637 -0.019 L
-14.184 -0.019 L
-14.184 0.794 L
-17.637 0.794 L
cp}def
f314435565
f
GR
GS
[0.75 0 0 0.75 23.75 101.375] CT
0.149 GC
N
/f359432539{-12.208 1.716 M
-12.068 2.106 -11.794 2.419 QT
-11.521 2.731 -11.138 2.903 QT
-10.755 3.075 -10.349 3.075 QT
-9.411 3.075 -9.06 2.341 QT
-8.708 1.606 -8.708 0.575 QT
-8.708 0.122 -8.724 -0.183 QT
-8.74 -0.488 -8.802 -0.784 QT
-8.927 -1.238 -9.232 -1.581 QT
-9.536 -1.925 -9.974 -1.925 QT
-10.411 -1.925 -10.724 -1.792 QT
-11.036 -1.659 -11.232 -1.48 QT
-11.427 -1.3 -11.583 -1.105 QT
-11.74 -0.909 -11.771 -0.894 QT
-11.911 -0.894 L
-11.943 -0.894 -11.997 -0.933 QT
-12.052 -0.972 -12.052 -1.019 QT
-12.052 -5.363 L
-12.052 -5.394 -12.005 -5.425 QT
-11.958 -5.456 -11.911 -5.456 QT
-11.88 -5.456 L
-11.005 -5.034 -10.021 -5.034 QT
-9.052 -5.034 -8.161 -5.456 QT
-8.115 -5.456 L
-8.083 -5.456 -8.044 -5.425 QT
-8.005 -5.394 -8.005 -5.363 QT
-8.005 -5.238 L
-8.005 -5.175 -8.021 -5.175 QT
-8.474 -4.581 -9.146 -4.253 QT
-9.818 -3.925 -10.521 -3.925 QT
-11.052 -3.925 -11.599 -4.066 QT
-11.599 -1.613 L
-11.161 -1.956 -10.826 -2.105 QT
-10.49 -2.253 -9.958 -2.253 QT
-9.24 -2.253 -8.669 -1.847 QT
-8.099 -1.441 -7.794 -0.777 QT
-7.49 -0.113 -7.49 0.591 QT
-7.49 1.372 -7.872 2.036 QT
-8.255 2.7 -8.919 3.091 QT
-9.583 3.481 -10.349 3.481 QT
-10.99 3.481 -11.529 3.153 QT
-12.068 2.825 -12.38 2.27 QT
-12.693 1.716 -12.693 1.075 QT
-12.693 0.794 -12.497 0.606 QT
-12.302 0.419 -12.021 0.419 QT
-11.74 0.419 -11.544 0.606 QT
-11.349 0.794 -11.349 1.075 QT
-11.349 1.356 -11.544 1.552 QT
-11.74 1.747 -12.021 1.747 QT
-12.068 1.747 -12.122 1.739 QT
-12.177 1.731 -12.208 1.716 QT
cp}def
f359432539
f
GR
GS
[0.75 0 0 0.75 23.75 101.375] CT
0.149 GC
N
f-2026418800
f
GR
GS
[0.75 0 0 0.75 23.75 71.75] CT
0.149 GC
N
f-2026418800
f
GR
GS
[0.75 0 0 0.75 23.75 42.125] CT
0.149 GC
N
f359432539
f
GR
GS
[0.75 0 0 0.75 23.75 42.125] CT
0.149 GC
N
f-2026418800
f
GR
GS
[0.75 0 0 0.75 23.75 12.5] CT
0.149 GC
N
f1153255893
f
GR
GS
[0.75 0 0 0.75 23.75 12.5] CT
0.149 GC
N
f660764968
f
GR
GS
[0.75 0 0 0.75 23.75 12.5] CT
0.149 GC
N
f-2026418800
f
GR
GS
[0.75 0 0 0.75 0 0.5] CT
0 0.447 0.741 RC
1 LJ
0.667 LW
N
76.6 94.973 M
77.15 95.048 L
77.7 95.098 L
78.25 95.099 L
78.8 95.025 L
79.35 95.661 L
79.9 95.738 L
80.45 96.415 L
81 96.4 L
81.55 97.579 L
82.1 98.471 L
82.65 99.303 L
83.2 99.822 L
83.75 100.583 L
84.3 101.045 L
84.85 101.521 L
85.4 100.706 L
85.95 100.958 L
86.5 99.609 L
87.05 98.854 L
87.6 97.776 L
88.15 96.722 L
88.7 94.556 L
89.25 93.4 L
89.8 91.467 L
90.35 90.481 L
90.9 88.301 L
91.45 86.533 L
92 85.067 L
92.55 83.575 L
93.1 82.796 L
93.65 81.946 L
94.2 82.578 L
94.75 83.387 L
95.3 84.159 L
95.85 86.55 L
96.4 89.137 L
96.95 90.847 L
97.5 94.082 L
98.05 97.267 L
98.6 100.983 L
99.15 102.809 L
99.7 106.031 L
100.25 107.715 L
100.8 110.383 L
101.35 111.418 L
101.9 112.671 L
102.45 113.245 L
103 112.875 L
103.55 111.033 L
104.1 109.618 L
104.65 107.355 L
105.2 104.448 L
105.75 100.132 L
106.3 97.502 L
106.85 92.742 L
107.4 88.753 L
107.95 84.749 L
108.5 81.072 L
109.05 77.836 L
109.6 74.375 L
110.15 71.897 L
110.7 71.287 L
111.25 70.966 L
111.8 70.481 L
112.35 71.838 L
112.9 74.174 L
113.45 77.964 L
114 80.898 L
114.55 86.188 L
115.1 91.421 L
115.65 95.512 L
116.2 101.365 L
116.75 106.553 L
117.3 110.691 L
117.85 115.826 L
118.4 119.542 L
118.95 123.197 L
119.5 124.987 L
120.05 126.256 L
120.6 125.519 L
121.15 124.587 L
121.7 122.29 L
122.25 117.978 L
122.8 114.292 L
123.35 108.746 L
123.9 101.284 L
124.45 97.031 L
125 90.279 L
125.55 84.071 L
126.1 77.569 L
126.65 70.828 L
127.2 67.786 L
127.75 64.269 L
128.3 60.531 L
128.85 58.981 L
129.4 60.197 L
129.95 59.648 L
130.5 61.605 L
131.05 66.175 L
131.6 71.468 L
132.15 76.721 L
132.7 83.078 L
133.25 89.658 L
133.8 98.643 L
134.35 105.625 L
134.9 113.729 L
135.45 120.603 L
136 126.745 L
136.55 131.634 L
137.1 135.451 L
137.65 137.554 L
138.2 138.253 L
138.75 136.746 L
139.3 134.108 L
139.85 130.352 L
140.4 123.117 L
140.95 117.979 L
141.5 110.481 L
142.05 102.407 L
142.6 92.708 L
143.15 84.984 L
143.7 75.514 L
144.25 67.997 L
144.8 60.183 L
145.35 54.387 L
145.9 49.725 L
146.45 47.243 L
147 38.752 L
147.55 47.243 L
148.1 49.725 L
148.65 54.387 L
149.2 60.183 L
149.75 67.997 L
150.3 75.514 L
150.85 84.984 L
151.4 92.708 L
151.95 102.407 L
152.5 110.481 L
153.05 117.979 L
153.6 123.117 L
154.15 130.352 L
154.7 134.108 L
155.25 136.746 L
155.8 138.253 L
156.35 137.554 L
156.9 135.451 L
157.45 131.634 L
158 126.745 L
158.55 120.603 L
159.1 113.729 L
159.65 105.625 L
160.2 98.643 L
160.75 89.658 L
161.3 83.078 L
161.85 76.721 L
162.4 71.468 L
162.95 66.175 L
163.5 61.605 L
164.05 59.648 L
164.6 60.197 L
165.15 58.981 L
165.7 60.531 L
166.25 64.269 L
166.8 67.786 L
167.35 70.828 L
167.9 77.569 L
168.45 84.071 L
169 90.279 L
169.55 97.031 L
170.1 101.284 L
170.65 108.746 L
171.2 114.292 L
171.75 117.978 L
172.3 122.29 L
172.85 124.587 L
173.4 125.519 L
173.95 126.256 L
174.5 124.987 L
175.05 123.197 L
175.6 119.542 L
176.15 115.826 L
176.7 110.691 L
177.25 106.553 L
177.8 101.365 L
178.35 95.512 L
178.9 91.421 L
179.45 86.188 L
180 80.898 L
180.55 77.964 L
181.1 74.174 L
181.65 71.838 L
182.2 70.481 L
182.75 70.966 L
183.3 71.287 L
183.85 71.897 L
184.4 74.375 L
184.95 77.836 L
185.5 81.072 L
186.05 84.749 L
186.6 88.753 L
187.15 92.742 L
187.7 97.502 L
188.25 100.132 L
188.8 104.448 L
189.35 107.355 L
189.9 109.618 L
190.45 111.033 L
191 112.875 L
191.55 113.245 L
192.1 112.671 L
192.65 111.418 L
193.2 110.383 L
193.75 107.715 L
194.3 106.031 L
194.85 102.809 L
195.4 100.983 L
195.95 97.267 L
196.5 94.082 L
197.05 90.847 L
197.6 89.137 L
198.15 86.55 L
198.7 84.159 L
199.25 83.387 L
199.8 82.578 L
200.35 81.946 L
200.9 82.796 L
201.45 83.575 L
202 85.067 L
202.55 86.533 L
203.1 88.301 L
203.65 90.481 L
204.2 91.467 L
204.75 93.4 L
205.3 94.556 L
205.85 96.722 L
206.4 97.776 L
206.95 98.854 L
207.5 99.609 L
208.05 100.958 L
208.6 100.706 L
209.15 101.521 L
209.7 101.045 L
210.25 100.583 L
210.8 99.822 L
211.35 99.303 L
211.9 98.471 L
212.45 97.579 L
213 96.4 L
213.55 96.415 L
214.1 95.738 L
214.65 95.661 L
215.2 95.025 L
215.75 95.099 L
216.3 95.098 L
216.85 95.048 L
217.4 94.973 L
S
GR
%%Trailer
%%Pages: 1
%%EOF
