%!PS-Adobe-3.0 EPSF-3.0
%%Creator: (MATLAB, The Mathworks, Inc. Version 9.1.0.441655 \(R2016b\). Operating System: Windows 7)
%%Title: ../Dokument/Abbildungen/akf_rohsignal.eps
%%CreationDate: 2017-08-31T17:29:43
%%Pages: (atend)
%%BoundingBox:    15     1   200   153
%%LanguageLevel: 3
%%EndComments
%%BeginProlog
%%BeginResource: procset (Apache XML Graphics Std ProcSet) 1.2 0
%%Version: 1.2 0
%%Copyright: (Copyright 2001-2003,2010 The Apache Software Foundation. License terms: http://www.apache.org/licenses/LICENSE-2.0)
/bd{bind def}bind def
/ld{load def}bd
/GR/grestore ld
/M/moveto ld
/LJ/setlinejoin ld
/C/curveto ld
/f/fill ld
/LW/setlinewidth ld
/GC/setgray ld
/t/show ld
/N/newpath ld
/CT/concat ld
/cp/closepath ld
/S/stroke ld
/L/lineto ld
/CC/setcmykcolor ld
/A/ashow ld
/GS/gsave ld
/RC/setrgbcolor ld
/RM/rmoveto ld
/ML/setmiterlimit ld
/re {4 2 roll M
1 index 0 rlineto
0 exch rlineto
neg 0 rlineto
cp } bd
/_ctm matrix def
/_tm matrix def
/BT { _ctm currentmatrix pop matrix _tm copy pop 0 0 moveto } bd
/ET { _ctm setmatrix } bd
/iTm { _ctm setmatrix _tm concat } bd
/Tm { _tm astore pop iTm 0 0 moveto } bd
/ux 0.0 def
/uy 0.0 def
/F {
  /Tp exch def
  /Tf exch def
  Tf findfont Tp scalefont setfont
  /cf Tf def  /cs Tp def
} bd
/ULS {currentpoint /uy exch def /ux exch def} bd
/ULE {
  /Tcx currentpoint pop def
  gsave
  newpath
  cf findfont cs scalefont dup
  /FontMatrix get 0 get /Ts exch def /FontInfo get dup
  /UnderlinePosition get Ts mul /To exch def
  /UnderlineThickness get Ts mul /Tt exch def
  ux uy To add moveto  Tcx uy To add lineto
  Tt setlinewidth stroke
  grestore
} bd
/OLE {
  /Tcx currentpoint pop def
  gsave
  newpath
  cf findfont cs scalefont dup
  /FontMatrix get 0 get /Ts exch def /FontInfo get dup
  /UnderlinePosition get Ts mul /To exch def
  /UnderlineThickness get Ts mul /Tt exch def
  ux uy To add cs add moveto Tcx uy To add cs add lineto
  Tt setlinewidth stroke
  grestore
} bd
/SOE {
  /Tcx currentpoint pop def
  gsave
  newpath
  cf findfont cs scalefont dup
  /FontMatrix get 0 get /Ts exch def /FontInfo get dup
  /UnderlinePosition get Ts mul /To exch def
  /UnderlineThickness get Ts mul /Tt exch def
  ux uy To add cs 10 mul 26 idiv add moveto Tcx uy To add cs 10 mul 26 idiv add lineto
  Tt setlinewidth stroke
  grestore
} bd
/QT {
/Y22 exch store
/X22 exch store
/Y21 exch store
/X21 exch store
currentpoint
/Y21 load 2 mul add 3 div exch
/X21 load 2 mul add 3 div exch
/X21 load 2 mul /X22 load add 3 div
/Y21 load 2 mul /Y22 load add 3 div
/X22 load /Y22 load curveto
} bd
/SSPD {
dup length /d exch dict def
{
/v exch def
/k exch def
currentpagedevice k known {
/cpdv currentpagedevice k get def
v cpdv ne {
/upd false def
/nullv v type /nulltype eq def
/nullcpdv cpdv type /nulltype eq def
nullv nullcpdv or
{
/upd true def
} {
/sametype v type cpdv type eq def
sametype {
v type /arraytype eq {
/vlen v length def
/cpdvlen cpdv length def
vlen cpdvlen eq {
0 1 vlen 1 sub {
/i exch def
/obj v i get def
/cpdobj cpdv i get def
obj cpdobj ne {
/upd true def
exit
} if
} for
} {
/upd true def
} ifelse
} {
v type /dicttype eq {
v {
/dv exch def
/dk exch def
/cpddv cpdv dk get def
dv cpddv ne {
/upd true def
exit
} if
} forall
} {
/upd true def
} ifelse
} ifelse
} if
} ifelse
upd true eq {
d k v put
} if
} if
} if
} forall
d length 0 gt {
d setpagedevice
} if
} bd
/RE { % /NewFontName [NewEncodingArray] /FontName RE -
  findfont dup length dict begin
  {
    1 index /FID ne
    {def} {pop pop} ifelse
  } forall
  /Encoding exch def
  /FontName 1 index def
  currentdict definefont pop
  end
} bind def
%%EndResource
%%BeginResource: procset (Apache XML Graphics EPS ProcSet) 1.0 0
%%Version: 1.0 0
%%Copyright: (Copyright 2002-2003 The Apache Software Foundation. License terms: http://www.apache.org/licenses/LICENSE-2.0)
/BeginEPSF { %def
/b4_Inc_state save def         % Save state for cleanup
/dict_count countdictstack def % Count objects on dict stack
/op_count count 1 sub def      % Count objects on operand stack
userdict begin                 % Push userdict on dict stack
/showpage { } def              % Redefine showpage, { } = null proc
0 setgray 0 setlinecap         % Prepare graphics state
1 setlinewidth 0 setlinejoin
10 setmiterlimit [ ] 0 setdash newpath
/languagelevel where           % If level not equal to 1 then
{pop languagelevel             % set strokeadjust and
1 ne                           % overprint to their defaults.
{false setstrokeadjust false setoverprint
} if
} if
} bd
/EndEPSF { %def
count op_count sub {pop} repeat            % Clean up stacks
countdictstack dict_count sub {end} repeat
b4_Inc_state restore
} bd
%%EndResource
%FOPBeginFontDict
%%IncludeResource: font Courier-Bold
%%IncludeResource: font Helvetica
%%IncludeResource: font Courier-BoldOblique
%%IncludeResource: font Courier-Oblique
%%IncludeResource: font Times-Roman
%%IncludeResource: font Helvetica-BoldOblique
%%IncludeResource: font Helvetica-Bold
%%IncludeResource: font Helvetica-Oblique
%%IncludeResource: font Times-BoldItalic
%%IncludeResource: font Courier
%%IncludeResource: font Times-Italic
%%IncludeResource: font Times-Bold
%%IncludeResource: font Symbol
%%IncludeResource: font ZapfDingbats
%FOPEndFontDict
%%BeginResource: encoding WinAnsiEncoding
/WinAnsiEncoding [
/.notdef /.notdef /.notdef /.notdef /.notdef
/.notdef /.notdef /.notdef /.notdef /.notdef
/.notdef /.notdef /.notdef /.notdef /.notdef
/.notdef /.notdef /.notdef /.notdef /.notdef
/.notdef /.notdef /.notdef /.notdef /.notdef
/.notdef /.notdef /.notdef /.notdef /.notdef
/.notdef /.notdef /space /exclam /quotedbl
/numbersign /dollar /percent /ampersand /quotesingle
/parenleft /parenright /asterisk /plus /comma
/hyphen /period /slash /zero /one
/two /three /four /five /six
/seven /eight /nine /colon /semicolon
/less /equal /greater /question /at
/A /B /C /D /E
/F /G /H /I /J
/K /L /M /N /O
/P /Q /R /S /T
/U /V /W /X /Y
/Z /bracketleft /backslash /bracketright /asciicircum
/underscore /quoteleft /a /b /c
/d /e /f /g /h
/i /j /k /l /m
/n /o /p /q /r
/s /t /u /v /w
/x /y /z /braceleft /bar
/braceright /asciitilde /bullet /Euro /bullet
/quotesinglbase /florin /quotedblbase /ellipsis /dagger
/daggerdbl /circumflex /perthousand /Scaron /guilsinglleft
/OE /bullet /Zcaron /bullet /bullet
/quoteleft /quoteright /quotedblleft /quotedblright /bullet
/endash /emdash /asciitilde /trademark /scaron
/guilsinglright /oe /bullet /zcaron /Ydieresis
/space /exclamdown /cent /sterling /currency
/yen /brokenbar /section /dieresis /copyright
/ordfeminine /guillemotleft /logicalnot /sfthyphen /registered
/macron /degree /plusminus /twosuperior /threesuperior
/acute /mu /paragraph /middot /cedilla
/onesuperior /ordmasculine /guillemotright /onequarter /onehalf
/threequarters /questiondown /Agrave /Aacute /Acircumflex
/Atilde /Adieresis /Aring /AE /Ccedilla
/Egrave /Eacute /Ecircumflex /Edieresis /Igrave
/Iacute /Icircumflex /Idieresis /Eth /Ntilde
/Ograve /Oacute /Ocircumflex /Otilde /Odieresis
/multiply /Oslash /Ugrave /Uacute /Ucircumflex
/Udieresis /Yacute /Thorn /germandbls /agrave
/aacute /acircumflex /atilde /adieresis /aring
/ae /ccedilla /egrave /eacute /ecircumflex
/edieresis /igrave /iacute /icircumflex /idieresis
/eth /ntilde /ograve /oacute /ocircumflex
/otilde /odieresis /divide /oslash /ugrave
/uacute /ucircumflex /udieresis /yacute /thorn
/ydieresis
] def
%%EndResource
%FOPBeginFontReencode
/Courier-Bold findfont
dup length dict begin
  {1 index /FID ne {def} {pop pop} ifelse} forall
  /Encoding WinAnsiEncoding def
  currentdict
end
/Courier-Bold exch definefont pop
/Helvetica findfont
dup length dict begin
  {1 index /FID ne {def} {pop pop} ifelse} forall
  /Encoding WinAnsiEncoding def
  currentdict
end
/Helvetica exch definefont pop
/Courier-BoldOblique findfont
dup length dict begin
  {1 index /FID ne {def} {pop pop} ifelse} forall
  /Encoding WinAnsiEncoding def
  currentdict
end
/Courier-BoldOblique exch definefont pop
/Courier-Oblique findfont
dup length dict begin
  {1 index /FID ne {def} {pop pop} ifelse} forall
  /Encoding WinAnsiEncoding def
  currentdict
end
/Courier-Oblique exch definefont pop
/Times-Roman findfont
dup length dict begin
  {1 index /FID ne {def} {pop pop} ifelse} forall
  /Encoding WinAnsiEncoding def
  currentdict
end
/Times-Roman exch definefont pop
/Helvetica-BoldOblique findfont
dup length dict begin
  {1 index /FID ne {def} {pop pop} ifelse} forall
  /Encoding WinAnsiEncoding def
  currentdict
end
/Helvetica-BoldOblique exch definefont pop
/Helvetica-Bold findfont
dup length dict begin
  {1 index /FID ne {def} {pop pop} ifelse} forall
  /Encoding WinAnsiEncoding def
  currentdict
end
/Helvetica-Bold exch definefont pop
/Helvetica-Oblique findfont
dup length dict begin
  {1 index /FID ne {def} {pop pop} ifelse} forall
  /Encoding WinAnsiEncoding def
  currentdict
end
/Helvetica-Oblique exch definefont pop
/Times-BoldItalic findfont
dup length dict begin
  {1 index /FID ne {def} {pop pop} ifelse} forall
  /Encoding WinAnsiEncoding def
  currentdict
end
/Times-BoldItalic exch definefont pop
/Courier findfont
dup length dict begin
  {1 index /FID ne {def} {pop pop} ifelse} forall
  /Encoding WinAnsiEncoding def
  currentdict
end
/Courier exch definefont pop
/Times-Italic findfont
dup length dict begin
  {1 index /FID ne {def} {pop pop} ifelse} forall
  /Encoding WinAnsiEncoding def
  currentdict
end
/Times-Italic exch definefont pop
/Times-Bold findfont
dup length dict begin
  {1 index /FID ne {def} {pop pop} ifelse} forall
  /Encoding WinAnsiEncoding def
  currentdict
end
/Times-Bold exch definefont pop
%FOPEndFontReencode
%%EndProlog
%%Page: 1 1
%%PageBoundingBox: 0 0 213 161
%%BeginPageSetup
[1 0 0 -1 0 161] CT
%%EndPageSetup
GS
[0.75 0 0 0.75 0 0.5] CT
1 GC
N
0 0 284 214 re
f
GR
GS
[0.75 0 0 0.75 0 0.5] CT
1 GC
N
0 0 284 214 re
f
GR
GS
[0.75 0 0 0.75 0 0.5] CT
1 GC
N
37 174 M
257 174 L
257 16 L
37 16 L
cp
f
GR
GS
[0.75 0 0 0.75 0 0.5] CT
0.873 GC
1 LJ
0.667 LW
N
37 174 M
37 16 L
S
GR
GS
[0.75 0 0 0.75 0 0.5] CT
0.873 GC
1 LJ
0.667 LW
N
110.333 174 M
110.333 16 L
S
GR
GS
[0.75 0 0 0.75 0 0.5] CT
0.873 GC
1 LJ
0.667 LW
N
183.667 174 M
183.667 16 L
S
GR
GS
[0.75 0 0 0.75 0 0.5] CT
0.873 GC
1 LJ
0.667 LW
N
257 174 M
257 16 L
S
GR
GS
[0.75 0 0 0.75 0 0.5] CT
0.873 GC
1 LJ
0.667 LW
N
257 174 M
37 174 L
S
GR
GS
[0.75 0 0 0.75 0 0.5] CT
0.873 GC
1 LJ
0.667 LW
N
257 134.5 M
37 134.5 L
S
GR
GS
[0.75 0 0 0.75 0 0.5] CT
0.873 GC
1 LJ
0.667 LW
N
257 95 M
37 95 L
S
GR
GS
[0.75 0 0 0.75 0 0.5] CT
0.873 GC
1 LJ
0.667 LW
N
257 55.5 M
37 55.5 L
S
GR
GS
[0.75 0 0 0.75 0 0.5] CT
0.873 GC
1 LJ
0.667 LW
N
257 16 M
37 16 L
S
GR
GS
[0.75 0 0 0.75 0 0.5] CT
0.149 GC
2 setlinecap
1 LJ
0.667 LW
N
37 174 M
257 174 L
S
GR
GS
[0.75 0 0 0.75 0 0.5] CT
0.149 GC
2 setlinecap
1 LJ
0.667 LW
N
37 16 M
257 16 L
S
GR
GS
[0.75 0 0 0.75 0 0.5] CT
0.149 GC
2 setlinecap
1 LJ
0.667 LW
N
37 174 M
37 171.8 L
S
GR
GS
[0.75 0 0 0.75 0 0.5] CT
0.149 GC
2 setlinecap
1 LJ
0.667 LW
N
110.333 174 M
110.333 171.8 L
S
GR
GS
[0.75 0 0 0.75 0 0.5] CT
0.149 GC
2 setlinecap
1 LJ
0.667 LW
N
183.667 174 M
183.667 171.8 L
S
GR
GS
[0.75 0 0 0.75 0 0.5] CT
0.149 GC
2 setlinecap
1 LJ
0.667 LW
N
257 174 M
257 171.8 L
S
GR
GS
[0.75 0 0 0.75 0 0.5] CT
0.149 GC
2 setlinecap
1 LJ
0.667 LW
N
37 16 M
37 18.2 L
S
GR
GS
[0.75 0 0 0.75 0 0.5] CT
0.149 GC
2 setlinecap
1 LJ
0.667 LW
N
110.333 16 M
110.333 18.2 L
S
GR
GS
[0.75 0 0 0.75 0 0.5] CT
0.149 GC
2 setlinecap
1 LJ
0.667 LW
N
183.667 16 M
183.667 18.2 L
S
GR
GS
[0.75 0 0 0.75 0 0.5] CT
0.149 GC
2 setlinecap
1 LJ
0.667 LW
N
257 16 M
257 18.2 L
S
GR
GS
[0.75 0 0 0.75 27.75 135.00001] CT
0.149 GC
N
-0.083 11.481 M
-1.677 11.481 -2.247 10.169 QT
-2.818 8.856 -2.818 7.059 QT
-2.818 5.919 -2.615 4.927 QT
-2.411 3.934 -1.802 3.239 QT
-1.193 2.544 -0.083 2.544 QT
0.776 2.544 1.323 2.958 QT
1.87 3.372 2.151 4.036 QT
2.432 4.7 2.542 5.458 QT
2.651 6.216 2.651 7.059 QT
2.651 8.169 2.44 9.145 QT
2.229 10.122 1.628 10.802 QT
1.026 11.481 -0.083 11.481 QT
cp
-0.083 11.153 M
0.635 11.153 0.995 10.411 QT
1.354 9.669 1.432 8.762 QT
1.51 7.856 1.51 6.841 QT
1.51 5.872 1.432 5.044 QT
1.354 4.216 1.003 3.544 QT
0.651 2.872 -0.083 2.872 QT
-0.818 2.872 -1.177 3.552 QT
-1.536 4.231 -1.615 5.052 QT
-1.693 5.872 -1.693 6.841 QT
-1.693 7.575 -1.661 8.216 QT
-1.63 8.856 -1.474 9.536 QT
-1.318 10.216 -0.982 10.684 QT
-0.646 11.153 -0.083 11.153 QT
cp
f
GR
GS
[0.75 0 0 0.75 82.75 135.00001] CT
0.149 GC
N
-5.542 9.716 M
-5.401 10.106 -5.128 10.419 QT
-4.854 10.731 -4.471 10.903 QT
-4.089 11.075 -3.682 11.075 QT
-2.745 11.075 -2.393 10.341 QT
-2.042 9.606 -2.042 8.575 QT
-2.042 8.122 -2.057 7.817 QT
-2.073 7.512 -2.135 7.216 QT
-2.26 6.762 -2.565 6.419 QT
-2.87 6.075 -3.307 6.075 QT
-3.745 6.075 -4.057 6.208 QT
-4.37 6.341 -4.565 6.52 QT
-4.76 6.7 -4.917 6.895 QT
-5.073 7.091 -5.104 7.106 QT
-5.245 7.106 L
-5.276 7.106 -5.331 7.067 QT
-5.385 7.028 -5.385 6.981 QT
-5.385 2.637 L
-5.385 2.606 -5.339 2.575 QT
-5.292 2.544 -5.245 2.544 QT
-5.214 2.544 L
-4.339 2.966 -3.354 2.966 QT
-2.385 2.966 -1.495 2.544 QT
-1.448 2.544 L
-1.417 2.544 -1.378 2.575 QT
-1.339 2.606 -1.339 2.637 QT
-1.339 2.762 L
-1.339 2.825 -1.354 2.825 QT
-1.807 3.419 -2.479 3.747 QT
-3.151 4.075 -3.854 4.075 QT
-4.385 4.075 -4.932 3.934 QT
-4.932 6.387 L
-4.495 6.044 -4.159 5.895 QT
-3.823 5.747 -3.292 5.747 QT
-2.573 5.747 -2.003 6.153 QT
-1.432 6.559 -1.128 7.223 QT
-0.823 7.887 -0.823 8.591 QT
-0.823 9.372 -1.206 10.036 QT
-1.589 10.7 -2.253 11.091 QT
-2.917 11.481 -3.682 11.481 QT
-4.323 11.481 -4.862 11.153 QT
-5.401 10.825 -5.714 10.27 QT
-6.026 9.716 -6.026 9.075 QT
-6.026 8.794 -5.831 8.606 QT
-5.635 8.419 -5.354 8.419 QT
-5.073 8.419 -4.878 8.606 QT
-4.682 8.794 -4.682 9.075 QT
-4.682 9.356 -4.878 9.552 QT
-5.073 9.747 -5.354 9.747 QT
-5.401 9.747 -5.456 9.739 QT
-5.51 9.731 -5.542 9.716 QT
cp
f
GR
GS
[0.75 0 0 0.75 82.75 135.00001] CT
0.149 GC
N
3.25 11.481 M
1.656 11.481 1.086 10.169 QT
0.516 8.856 0.516 7.059 QT
0.516 5.919 0.719 4.927 QT
0.922 3.934 1.531 3.239 QT
2.141 2.544 3.25 2.544 QT
4.109 2.544 4.656 2.958 QT
5.203 3.372 5.484 4.036 QT
5.766 4.7 5.875 5.458 QT
5.984 6.216 5.984 7.059 QT
5.984 8.169 5.773 9.145 QT
5.563 10.122 4.961 10.802 QT
4.359 11.481 3.25 11.481 QT
cp
3.25 11.153 M
3.969 11.153 4.328 10.411 QT
4.688 9.669 4.766 8.762 QT
4.844 7.856 4.844 6.841 QT
4.844 5.872 4.766 5.044 QT
4.688 4.216 4.336 3.544 QT
3.984 2.872 3.25 2.872 QT
2.516 2.872 2.156 3.552 QT
1.797 4.231 1.719 5.052 QT
1.641 5.872 1.641 6.841 QT
1.641 7.575 1.672 8.216 QT
1.703 8.856 1.859 9.536 QT
2.016 10.216 2.352 10.684 QT
2.688 11.153 3.25 11.153 QT
cp
f
GR
GS
[0.75 0 0 0.75 137.75 135.00001] CT
0.149 GC
N
-8.797 11.2 M
-8.797 10.747 L
-7.172 10.747 -7.172 10.325 QT
-7.172 3.512 L
-7.844 3.825 -8.875 3.825 QT
-8.875 3.372 L
-7.281 3.372 -6.469 2.544 QT
-6.281 2.544 L
-6.234 2.544 -6.195 2.575 QT
-6.156 2.606 -6.156 2.653 QT
-6.156 10.325 L
-6.156 10.747 -4.531 10.747 QT
-4.531 11.2 L
-8.797 11.2 L
cp
f
GR
GS
[0.75 0 0 0.75 137.75 135.00001] CT
0.149 GC
N
/f1061832871{-0.083 11.481 M
-1.677 11.481 -2.247 10.169 QT
-2.818 8.856 -2.818 7.059 QT
-2.818 5.919 -2.615 4.927 QT
-2.411 3.934 -1.802 3.239 QT
-1.193 2.544 -0.083 2.544 QT
0.776 2.544 1.323 2.958 QT
1.87 3.372 2.151 4.036 QT
2.432 4.7 2.542 5.458 QT
2.651 6.216 2.651 7.059 QT
2.651 8.169 2.44 9.145 QT
2.229 10.122 1.628 10.802 QT
1.026 11.481 -0.083 11.481 QT
cp
-0.083 11.153 M
0.635 11.153 0.995 10.411 QT
1.354 9.669 1.432 8.762 QT
1.51 7.856 1.51 6.841 QT
1.51 5.872 1.432 5.044 QT
1.354 4.216 1.003 3.544 QT
0.651 2.872 -0.083 2.872 QT
-0.818 2.872 -1.177 3.552 QT
-1.536 4.231 -1.615 5.052 QT
-1.693 5.872 -1.693 6.841 QT
-1.693 7.575 -1.661 8.216 QT
-1.63 8.856 -1.474 9.536 QT
-1.318 10.216 -0.982 10.684 QT
-0.646 11.153 -0.083 11.153 QT
cp}def
f1061832871
f
GR
GS
[0.75 0 0 0.75 137.75 135.00001] CT
0.149 GC
N
/f-1844528368{6.583 11.481 M
4.99 11.481 4.419 10.169 QT
3.849 8.856 3.849 7.059 QT
3.849 5.919 4.052 4.927 QT
4.255 3.934 4.865 3.239 QT
5.474 2.544 6.583 2.544 QT
7.443 2.544 7.99 2.958 QT
8.536 3.372 8.818 4.036 QT
9.099 4.7 9.208 5.458 QT
9.318 6.216 9.318 7.059 QT
9.318 8.169 9.107 9.145 QT
8.896 10.122 8.294 10.802 QT
7.693 11.481 6.583 11.481 QT
cp
6.583 11.153 M
7.302 11.153 7.661 10.411 QT
8.021 9.669 8.099 8.762 QT
8.177 7.856 8.177 6.841 QT
8.177 5.872 8.099 5.044 QT
8.021 4.216 7.669 3.544 QT
7.318 2.872 6.583 2.872 QT
5.849 2.872 5.49 3.552 QT
5.13 4.231 5.052 5.052 QT
4.974 5.872 4.974 6.841 QT
4.974 7.575 5.005 8.216 QT
5.036 8.856 5.193 9.536 QT
5.349 10.216 5.685 10.684 QT
6.021 11.153 6.583 11.153 QT
cp}def
f-1844528368
f
GR
GS
[0.75 0 0 0.75 192.75 135.00001] CT
0.149 GC
N
/f64805956{-8.797 11.2 M
-8.797 10.747 L
-7.172 10.747 -7.172 10.325 QT
-7.172 3.512 L
-7.844 3.825 -8.875 3.825 QT
-8.875 3.372 L
-7.281 3.372 -6.469 2.544 QT
-6.281 2.544 L
-6.234 2.544 -6.195 2.575 QT
-6.156 2.606 -6.156 2.653 QT
-6.156 10.325 L
-6.156 10.747 -4.531 10.747 QT
-4.531 11.2 L
-8.797 11.2 L
cp}def
f64805956
f
GR
GS
[0.75 0 0 0.75 192.75 135.00001] CT
0.149 GC
N
/f-1256051255{-2.208 9.716 M
-2.068 10.106 -1.794 10.419 QT
-1.521 10.731 -1.138 10.903 QT
-0.755 11.075 -0.349 11.075 QT
0.589 11.075 0.94 10.341 QT
1.292 9.606 1.292 8.575 QT
1.292 8.122 1.276 7.817 QT
1.26 7.512 1.198 7.216 QT
1.073 6.762 0.768 6.419 QT
0.464 6.075 0.026 6.075 QT
-0.411 6.075 -0.724 6.208 QT
-1.036 6.341 -1.232 6.52 QT
-1.427 6.7 -1.583 6.895 QT
-1.74 7.091 -1.771 7.106 QT
-1.911 7.106 L
-1.943 7.106 -1.997 7.067 QT
-2.052 7.028 -2.052 6.981 QT
-2.052 2.637 L
-2.052 2.606 -2.005 2.575 QT
-1.958 2.544 -1.911 2.544 QT
-1.88 2.544 L
-1.005 2.966 -0.021 2.966 QT
0.948 2.966 1.839 2.544 QT
1.885 2.544 L
1.917 2.544 1.956 2.575 QT
1.995 2.606 1.995 2.637 QT
1.995 2.762 L
1.995 2.825 1.979 2.825 QT
1.526 3.419 0.854 3.747 QT
0.182 4.075 -0.521 4.075 QT
-1.052 4.075 -1.599 3.934 QT
-1.599 6.387 L
-1.161 6.044 -0.826 5.895 QT
-0.49 5.747 0.042 5.747 QT
0.76 5.747 1.331 6.153 QT
1.901 6.559 2.206 7.223 QT
2.51 7.887 2.51 8.591 QT
2.51 9.372 2.128 10.036 QT
1.745 10.7 1.081 11.091 QT
0.417 11.481 -0.349 11.481 QT
-0.99 11.481 -1.529 11.153 QT
-2.068 10.825 -2.38 10.27 QT
-2.693 9.716 -2.693 9.075 QT
-2.693 8.794 -2.497 8.606 QT
-2.302 8.419 -2.021 8.419 QT
-1.74 8.419 -1.544 8.606 QT
-1.349 8.794 -1.349 9.075 QT
-1.349 9.356 -1.544 9.552 QT
-1.74 9.747 -2.021 9.747 QT
-2.068 9.747 -2.122 9.739 QT
-2.177 9.731 -2.208 9.716 QT
cp}def
f-1256051255
f
GR
GS
[0.75 0 0 0.75 192.75 135.00001] CT
0.149 GC
N
f-1844528368
f
GR
GS
[0.75 0 0 0.75 110.25008 147.8] CT
0.149 GC
N
/f-1978773873{-15.661 11.101 M
-15.661 10.882 -15.63 10.679 QT
-14.536 6.382 L
-16.114 6.382 L
-16.27 6.382 -16.27 6.179 QT
-16.208 5.851 -16.067 5.851 QT
-14.411 5.851 L
-13.802 3.414 L
-13.755 3.211 -13.575 3.07 QT
-13.395 2.929 -13.177 2.929 QT
-12.989 2.929 -12.856 3.047 QT
-12.723 3.164 -12.723 3.351 QT
-12.723 3.398 -12.731 3.422 QT
-12.739 3.445 -12.739 3.476 QT
-13.348 5.851 L
-11.802 5.851 L
-11.645 5.851 -11.645 6.054 QT
-11.661 6.086 -11.677 6.172 QT
-11.692 6.257 -11.731 6.32 QT
-11.77 6.382 -11.848 6.382 QT
-13.473 6.382 L
-14.552 10.711 L
-14.661 11.148 -14.661 11.445 QT
-14.661 12.086 -14.223 12.086 QT
-13.567 12.086 -13.059 11.468 QT
-12.552 10.851 -12.27 10.117 QT
-12.223 10.023 -12.161 10.023 QT
-11.973 10.023 L
-11.911 10.023 -11.88 10.062 QT
-11.848 10.101 -11.848 10.164 QT
-11.848 10.195 -11.864 10.211 QT
-12.192 11.117 -12.817 11.804 QT
-13.442 12.492 -14.255 12.492 QT
-14.848 12.492 -15.255 12.101 QT
-15.661 11.711 -15.661 11.101 QT
cp}def
f-1978773873
f
GR
GS
[0.75 0 0 0.75 110.25008 147.8] CT
0.149 GC
N
/f-994565675{-9.537 16.07 M
-9.537 1.07 L
-7.474 1.07 L
-7.474 1.664 L
-8.927 1.664 L
-8.927 15.476 L
-7.474 15.476 L
-7.474 16.07 L
-9.537 16.07 L
cp}def
f-994565675
f
GR
GS
[0.75 0 0 0.75 110.25008 147.8] CT
0.149 GC
N
/f1452753449{-6.072 12.07 M
-6.072 11.976 -6.056 11.929 QT
-4.931 7.461 L
-4.822 7.039 -4.822 6.726 QT
-4.822 6.086 -5.259 6.086 QT
-5.728 6.086 -5.955 6.64 QT
-6.181 7.195 -6.4 8.054 QT
-6.4 8.101 -6.447 8.125 QT
-6.494 8.148 -6.525 8.148 QT
-6.697 8.148 L
-6.759 8.148 -6.791 8.093 QT
-6.822 8.039 -6.822 7.992 QT
-6.666 7.351 -6.517 6.898 QT
-6.369 6.445 -6.048 6.07 QT
-5.728 5.695 -5.244 5.695 QT
-4.681 5.695 -4.252 6.047 QT
-3.822 6.398 -3.822 6.945 QT
-3.369 6.367 -2.775 6.031 QT
-2.181 5.695 -1.494 5.695 QT
-0.791 5.695 -0.275 6.054 QT
0.241 6.414 0.241 7.086 QT
0.709 6.429 1.327 6.062 QT
1.944 5.695 2.678 5.695 QT
3.444 5.695 3.92 6.117 QT
4.397 6.539 4.397 7.304 QT
4.397 7.929 4.123 8.797 QT
3.85 9.664 3.444 10.742 QT
3.225 11.257 3.225 11.648 QT
3.225 12.086 3.569 12.086 QT
4.163 12.086 4.553 11.461 QT
4.944 10.836 5.1 10.117 QT
5.147 10.023 5.225 10.023 QT
5.397 10.023 L
5.459 10.023 5.498 10.062 QT
5.538 10.101 5.538 10.164 QT
5.538 10.179 5.522 10.211 QT
5.319 11.054 4.811 11.773 QT
4.303 12.492 3.538 12.492 QT
3.006 12.492 2.639 12.125 QT
2.272 11.757 2.272 11.242 QT
2.272 10.976 2.381 10.664 QT
2.819 9.523 3.1 8.64 QT
3.381 7.757 3.381 7.086 QT
3.381 6.664 3.209 6.375 QT
3.038 6.086 2.647 6.086 QT
1.819 6.086 1.225 6.586 QT
0.631 7.086 0.178 7.914 QT
0.163 8.054 0.147 8.132 QT
-0.822 11.992 L
-0.884 12.195 -1.064 12.343 QT
-1.244 12.492 -1.462 12.492 QT
-1.634 12.492 -1.767 12.375 QT
-1.9 12.257 -1.9 12.07 QT
-1.9 11.976 -1.884 11.929 QT
-0.931 8.101 L
-0.775 7.492 -0.775 7.086 QT
-0.775 6.664 -0.947 6.375 QT
-1.119 6.086 -1.525 6.086 QT
-2.072 6.086 -2.541 6.328 QT
-3.009 6.57 -3.353 6.968 QT
-3.697 7.367 -3.978 7.914 QT
-4.994 11.992 L
-5.041 12.195 -5.22 12.343 QT
-5.4 12.492 -5.619 12.492 QT
-5.806 12.492 -5.939 12.375 QT
-6.072 12.257 -6.072 12.07 QT
cp}def
f1452753449
f
GR
GS
[0.75 0 0 0.75 110.25008 147.8] CT
0.149 GC
N
/f1905909846{6.946 11.398 M
7.353 12.086 8.571 12.086 QT
9.103 12.086 9.579 11.906 QT
10.056 11.726 10.368 11.375 QT
10.681 11.023 10.681 10.507 QT
10.681 10.117 10.399 9.867 QT
10.118 9.617 9.712 9.523 QT
8.899 9.367 L
8.353 9.226 7.993 8.843 QT
7.634 8.461 7.634 7.929 QT
7.634 7.257 7.993 6.742 QT
8.353 6.226 8.946 5.961 QT
9.54 5.695 10.181 5.695 QT
10.853 5.695 11.392 6.015 QT
11.931 6.336 11.931 6.976 QT
11.931 7.32 11.735 7.586 QT
11.54 7.851 11.196 7.851 QT
11.009 7.851 10.86 7.726 QT
10.712 7.601 10.712 7.398 QT
10.712 7.226 10.813 7.062 QT
10.915 6.898 11.079 6.797 QT
11.243 6.695 11.415 6.695 QT
11.29 6.367 10.931 6.226 QT
10.571 6.086 10.149 6.086 QT
9.759 6.086 9.384 6.234 QT
9.009 6.382 8.774 6.679 QT
8.54 6.976 8.54 7.382 QT
8.54 7.648 8.735 7.859 QT
8.931 8.07 9.196 8.148 QT
10.071 8.336 L
10.493 8.414 10.837 8.64 QT
11.181 8.867 11.384 9.203 QT
11.587 9.539 11.587 9.976 QT
11.587 10.539 11.274 11.078 QT
10.962 11.617 10.509 11.945 QT
9.712 12.492 8.556 12.492 QT
7.759 12.492 7.095 12.125 QT
6.431 11.757 6.431 11.023 QT
6.431 10.617 6.665 10.312 QT
6.899 10.007 7.306 10.007 QT
7.556 10.007 7.72 10.156 QT
7.884 10.304 7.884 10.554 QT
7.884 10.898 7.626 11.148 QT
7.368 11.398 7.024 11.398 QT
6.946 11.398 L
cp}def
f1905909846
f
GR
GS
[0.75 0 0 0.75 110.25008 147.8] CT
0.149 GC
N
/f-284609745{12.853 16.07 M
12.853 15.476 L
14.306 15.476 L
14.306 1.664 L
12.853 1.664 L
12.853 1.07 L
14.915 1.07 L
14.915 16.07 L
12.853 16.07 L
cp}def
f-284609745
f
GR
GS
[0.75 0 0 0.75 0 0.5] CT
0.149 GC
2 setlinecap
1 LJ
0.667 LW
N
37 174 M
37 16 L
S
GR
GS
[0.75 0 0 0.75 0 0.5] CT
0.149 GC
2 setlinecap
1 LJ
0.667 LW
N
257 174 M
257 16 L
S
GR
GS
[0.75 0 0 0.75 0 0.5] CT
0.149 GC
2 setlinecap
1 LJ
0.667 LW
N
37 174 M
39.2 174 L
S
GR
GS
[0.75 0 0 0.75 0 0.5] CT
0.149 GC
2 setlinecap
1 LJ
0.667 LW
N
37 134.5 M
39.2 134.5 L
S
GR
GS
[0.75 0 0 0.75 0 0.5] CT
0.149 GC
2 setlinecap
1 LJ
0.667 LW
N
37 95 M
39.2 95 L
S
GR
GS
[0.75 0 0 0.75 0 0.5] CT
0.149 GC
2 setlinecap
1 LJ
0.667 LW
N
37 55.5 M
39.2 55.5 L
S
GR
GS
[0.75 0 0 0.75 0 0.5] CT
0.149 GC
2 setlinecap
1 LJ
0.667 LW
N
37 16 M
39.2 16 L
S
GR
GS
[0.75 0 0 0.75 0 0.5] CT
0.149 GC
2 setlinecap
1 LJ
0.667 LW
N
257 174 M
254.8 174 L
S
GR
GS
[0.75 0 0 0.75 0 0.5] CT
0.149 GC
2 setlinecap
1 LJ
0.667 LW
N
257 134.5 M
254.8 134.5 L
S
GR
GS
[0.75 0 0 0.75 0 0.5] CT
0.149 GC
2 setlinecap
1 LJ
0.667 LW
N
257 95 M
254.8 95 L
S
GR
GS
[0.75 0 0 0.75 0 0.5] CT
0.149 GC
2 setlinecap
1 LJ
0.667 LW
N
257 55.5 M
254.8 55.5 L
S
GR
GS
[0.75 0 0 0.75 0 0.5] CT
0.149 GC
2 setlinecap
1 LJ
0.667 LW
N
257 16 M
254.8 16 L
S
GR
GS
[0.75 0 0 0.75 23.75 131] CT
0.149 GC
N
/f77300102{-10.97 0.794 M
-10.97 -0.019 L
-7.517 -0.019 L
-7.517 0.794 L
-10.97 0.794 L
cp}def
f77300102
f
GR
GS
[0.75 0 0 0.75 23.75 131] CT
0.149 GC
N
/f-1507413402{-6.026 3.2 M
-6.026 2.856 L
-6.026 2.825 -5.995 2.778 QT
-3.979 0.544 L
-3.51 0.044 -3.229 -0.292 QT
-2.948 -0.628 -2.667 -1.066 QT
-2.385 -1.503 -2.221 -1.956 QT
-2.057 -2.409 -2.057 -2.909 QT
-2.057 -3.441 -2.26 -3.933 QT
-2.464 -4.425 -2.854 -4.714 QT
-3.245 -5.003 -3.792 -5.003 QT
-4.354 -5.003 -4.807 -4.659 QT
-5.26 -4.316 -5.448 -3.784 QT
-5.385 -3.8 -5.307 -3.8 QT
-5.01 -3.8 -4.807 -3.605 QT
-4.604 -3.409 -4.604 -3.097 QT
-4.604 -2.8 -4.807 -2.589 QT
-5.01 -2.378 -5.307 -2.378 QT
-5.604 -2.378 -5.815 -2.589 QT
-6.026 -2.8 -6.026 -3.097 QT
-6.026 -3.581 -5.839 -4.011 QT
-5.651 -4.441 -5.307 -4.769 QT
-4.964 -5.097 -4.526 -5.277 QT
-4.089 -5.456 -3.604 -5.456 QT
-2.854 -5.456 -2.214 -5.144 QT
-1.573 -4.831 -1.198 -4.253 QT
-0.823 -3.675 -0.823 -2.909 QT
-0.823 -2.347 -1.073 -1.839 QT
-1.323 -1.331 -1.706 -0.917 QT
-2.089 -0.503 -2.698 0.028 QT
-3.307 0.559 -3.495 0.731 QT
-4.964 2.153 L
-3.714 2.153 L
-2.792 2.153 -2.174 2.137 QT
-1.557 2.122 -1.526 2.075 QT
-1.37 1.919 -1.214 0.887 QT
-0.823 0.887 L
-1.198 3.2 L
-6.026 3.2 L
cp}def
f-1507413402
f
GR
GS
[0.75 0 0 0.75 23.75 101.375] CT
0.149 GC
N
f77300102
f
GR
GS
[0.75 0 0 0.75 23.75 101.375] CT
0.149 GC
N
/f-1405947355{-5.464 3.2 M
-5.464 2.747 L
-3.839 2.747 -3.839 2.325 QT
-3.839 -4.488 L
-4.51 -4.175 -5.542 -4.175 QT
-5.542 -4.628 L
-3.948 -4.628 -3.135 -5.456 QT
-2.948 -5.456 L
-2.901 -5.456 -2.862 -5.425 QT
-2.823 -5.394 -2.823 -5.347 QT
-2.823 2.325 L
-2.823 2.747 -1.198 2.747 QT
-1.198 3.2 L
-5.464 3.2 L
cp}def
f-1405947355
f
GR
GS
[0.75 0 0 0.75 23.75 71.75] CT
0.149 GC
N
/f-2026418800{-3.417 3.481 M
-5.01 3.481 -5.581 2.169 QT
-6.151 0.856 -6.151 -0.941 QT
-6.151 -2.081 -5.948 -3.073 QT
-5.745 -4.066 -5.135 -4.761 QT
-4.526 -5.456 -3.417 -5.456 QT
-2.557 -5.456 -2.01 -5.042 QT
-1.464 -4.628 -1.182 -3.964 QT
-0.901 -3.3 -0.792 -2.542 QT
-0.682 -1.784 -0.682 -0.941 QT
-0.682 0.169 -0.893 1.145 QT
-1.104 2.122 -1.706 2.802 QT
-2.307 3.481 -3.417 3.481 QT
cp
-3.417 3.153 M
-2.698 3.153 -2.339 2.411 QT
-1.979 1.669 -1.901 0.762 QT
-1.823 -0.144 -1.823 -1.159 QT
-1.823 -2.128 -1.901 -2.956 QT
-1.979 -3.784 -2.331 -4.456 QT
-2.682 -5.128 -3.417 -5.128 QT
-4.151 -5.128 -4.51 -4.448 QT
-4.87 -3.769 -4.948 -2.948 QT
-5.026 -2.128 -5.026 -1.159 QT
-5.026 -0.425 -4.995 0.216 QT
-4.964 0.856 -4.807 1.536 QT
-4.651 2.216 -4.315 2.684 QT
-3.979 3.153 -3.417 3.153 QT
cp}def
f-2026418800
f
GR
GS
[0.75 0 0 0.75 23.75 42.125] CT
0.149 GC
N
f-1405947355
f
GR
GS
[0.75 0 0 0.75 23.75 12.5] CT
0.149 GC
N
f-1507413402
f
GR
GS
[0.75 0 0 0.75 0 0.5] CT
0 0.447 0.741 RC
1 LJ
0.667 LW
N
37 100.8 M
38.467 74.668 L
39.933 99.14 L
41.4 91.261 L
42.867 80.32 L
44.333 56.44 L
45.8 49.498 L
47.267 50.51 L
48.733 57.442 L
50.2 54.297 L
51.667 66.319 L
53.133 52.117 L
54.6 78.834 L
56.067 65.011 L
57.533 91.587 L
59 91.578 L
60.467 89.045 L
61.933 90.6 L
63.4 125.624 L
64.867 98.994 L
66.333 111.149 L
67.8 127.623 L
69.267 133.483 L
70.733 135.539 L
72.2 142.121 L
73.667 133.678 L
75.133 131.655 L
76.6 116.198 L
78.067 112.486 L
79.533 112.717 L
81 116.613 L
82.467 92.275 L
83.933 95.688 L
85.4 95.208 L
86.867 64.513 L
88.333 60.043 L
89.8 66.711 L
91.267 58.649 L
92.733 56.035 L
94.2 68.348 L
95.667 63.429 L
97.133 56.992 L
98.6 68.235 L
100.067 47.151 L
101.533 77.264 L
103 81.616 L
104.467 90.296 L
105.933 95.215 L
107.4 94.564 L
108.867 107.166 L
110.333 90.483 L
111.8 117.003 L
113.267 133.008 L
114.733 109.912 L
116.2 111.131 L
117.667 135.346 L
119.133 149.708 L
120.6 143.831 L
122.067 136.323 L
123.533 125.985 L
125 134.828 L
126.467 115.924 L
127.933 105.25 L
129.4 117.487 L
130.867 114.076 L
132.333 99.314 L
133.8 90.9 L
135.267 79.622 L
136.733 69.896 L
138.2 81.096 L
139.667 69.768 L
141.133 45.467 L
142.6 74.348 L
144.067 38.692 L
145.533 47.902 L
147 60.255 L
148.467 60.84 L
149.933 79.63 L
151.4 77.163 L
152.867 64.266 L
154.333 88.201 L
155.8 96.893 L
157.267 115.905 L
158.733 112.927 L
160.2 114.113 L
161.667 117.554 L
163.133 133.252 L
164.6 137.566 L
166.067 114.848 L
167.533 152.696 L
169 118.045 L
170.467 114.309 L
171.933 114.963 L
173.4 137.343 L
174.867 124.726 L
176.333 114.884 L
177.8 93.835 L
179.267 107.619 L
180.733 76.92 L
182.2 93.94 L
183.667 65.709 L
185.133 66.267 L
186.6 50.363 L
188.067 49.512 L
189.533 40.079 L
191 40.078 L
192.467 63.057 L
193.933 51.098 L
195.4 74.691 L
196.867 86.324 L
198.333 64.194 L
199.8 80.689 L
201.267 88.88 L
202.733 79.758 L
204.2 99.035 L
205.667 106.04 L
207.133 103.209 L
208.6 111.213 L
210.067 125.052 L
211.533 144.159 L
213 144.073 L
214.467 119.232 L
215.933 152.322 L
217.4 131.844 L
218.867 140.925 L
220.333 104.023 L
221.8 108.595 L
223.267 110.212 L
224.733 104.031 L
S
GR
%%Trailer
%%Pages: 1
%%EOF
