%!PS-Adobe-3.0 EPSF-3.0
%%Creator: (MATLAB, The Mathworks, Inc. Version 9.1.0.441655 \(R2016b\). Operating System: Windows 8)
%%Title: ../Dokument/Abbildungen/dft_sinus_zeit.eps
%%CreationDate: 2017-09-03T23:08:15
%%Pages: (atend)
%%BoundingBox:     0     3   201   152
%%LanguageLevel: 3
%%EndComments
%%BeginProlog
%%BeginResource: procset (Apache XML Graphics Std ProcSet) 1.2 0
%%Version: 1.2 0
%%Copyright: (Copyright 2001-2003,2010 The Apache Software Foundation. License terms: http://www.apache.org/licenses/LICENSE-2.0)
/bd{bind def}bind def
/ld{load def}bd
/GR/grestore ld
/M/moveto ld
/LJ/setlinejoin ld
/C/curveto ld
/f/fill ld
/LW/setlinewidth ld
/GC/setgray ld
/t/show ld
/N/newpath ld
/CT/concat ld
/cp/closepath ld
/S/stroke ld
/L/lineto ld
/CC/setcmykcolor ld
/A/ashow ld
/GS/gsave ld
/RC/setrgbcolor ld
/RM/rmoveto ld
/ML/setmiterlimit ld
/re {4 2 roll M
1 index 0 rlineto
0 exch rlineto
neg 0 rlineto
cp } bd
/_ctm matrix def
/_tm matrix def
/BT { _ctm currentmatrix pop matrix _tm copy pop 0 0 moveto } bd
/ET { _ctm setmatrix } bd
/iTm { _ctm setmatrix _tm concat } bd
/Tm { _tm astore pop iTm 0 0 moveto } bd
/ux 0.0 def
/uy 0.0 def
/F {
  /Tp exch def
  /Tf exch def
  Tf findfont Tp scalefont setfont
  /cf Tf def  /cs Tp def
} bd
/ULS {currentpoint /uy exch def /ux exch def} bd
/ULE {
  /Tcx currentpoint pop def
  gsave
  newpath
  cf findfont cs scalefont dup
  /FontMatrix get 0 get /Ts exch def /FontInfo get dup
  /UnderlinePosition get Ts mul /To exch def
  /UnderlineThickness get Ts mul /Tt exch def
  ux uy To add moveto  Tcx uy To add lineto
  Tt setlinewidth stroke
  grestore
} bd
/OLE {
  /Tcx currentpoint pop def
  gsave
  newpath
  cf findfont cs scalefont dup
  /FontMatrix get 0 get /Ts exch def /FontInfo get dup
  /UnderlinePosition get Ts mul /To exch def
  /UnderlineThickness get Ts mul /Tt exch def
  ux uy To add cs add moveto Tcx uy To add cs add lineto
  Tt setlinewidth stroke
  grestore
} bd
/SOE {
  /Tcx currentpoint pop def
  gsave
  newpath
  cf findfont cs scalefont dup
  /FontMatrix get 0 get /Ts exch def /FontInfo get dup
  /UnderlinePosition get Ts mul /To exch def
  /UnderlineThickness get Ts mul /Tt exch def
  ux uy To add cs 10 mul 26 idiv add moveto Tcx uy To add cs 10 mul 26 idiv add lineto
  Tt setlinewidth stroke
  grestore
} bd
/QT {
/Y22 exch store
/X22 exch store
/Y21 exch store
/X21 exch store
currentpoint
/Y21 load 2 mul add 3 div exch
/X21 load 2 mul add 3 div exch
/X21 load 2 mul /X22 load add 3 div
/Y21 load 2 mul /Y22 load add 3 div
/X22 load /Y22 load curveto
} bd
/SSPD {
dup length /d exch dict def
{
/v exch def
/k exch def
currentpagedevice k known {
/cpdv currentpagedevice k get def
v cpdv ne {
/upd false def
/nullv v type /nulltype eq def
/nullcpdv cpdv type /nulltype eq def
nullv nullcpdv or
{
/upd true def
} {
/sametype v type cpdv type eq def
sametype {
v type /arraytype eq {
/vlen v length def
/cpdvlen cpdv length def
vlen cpdvlen eq {
0 1 vlen 1 sub {
/i exch def
/obj v i get def
/cpdobj cpdv i get def
obj cpdobj ne {
/upd true def
exit
} if
} for
} {
/upd true def
} ifelse
} {
v type /dicttype eq {
v {
/dv exch def
/dk exch def
/cpddv cpdv dk get def
dv cpddv ne {
/upd true def
exit
} if
} forall
} {
/upd true def
} ifelse
} ifelse
} if
} ifelse
upd true eq {
d k v put
} if
} if
} if
} forall
d length 0 gt {
d setpagedevice
} if
} bd
/RE { % /NewFontName [NewEncodingArray] /FontName RE -
  findfont dup length dict begin
  {
    1 index /FID ne
    {def} {pop pop} ifelse
  } forall
  /Encoding exch def
  /FontName 1 index def
  currentdict definefont pop
  end
} bind def
%%EndResource
%%BeginResource: procset (Apache XML Graphics EPS ProcSet) 1.0 0
%%Version: 1.0 0
%%Copyright: (Copyright 2002-2003 The Apache Software Foundation. License terms: http://www.apache.org/licenses/LICENSE-2.0)
/BeginEPSF { %def
/b4_Inc_state save def         % Save state for cleanup
/dict_count countdictstack def % Count objects on dict stack
/op_count count 1 sub def      % Count objects on operand stack
userdict begin                 % Push userdict on dict stack
/showpage { } def              % Redefine showpage, { } = null proc
0 setgray 0 setlinecap         % Prepare graphics state
1 setlinewidth 0 setlinejoin
10 setmiterlimit [ ] 0 setdash newpath
/languagelevel where           % If level not equal to 1 then
{pop languagelevel             % set strokeadjust and
1 ne                           % overprint to their defaults.
{false setstrokeadjust false setoverprint
} if
} if
} bd
/EndEPSF { %def
count op_count sub {pop} repeat            % Clean up stacks
countdictstack dict_count sub {end} repeat
b4_Inc_state restore
} bd
%%EndResource
%FOPBeginFontDict
%%IncludeResource: font Courier-Bold
%%IncludeResource: font Helvetica
%%IncludeResource: font Courier-BoldOblique
%%IncludeResource: font Courier-Oblique
%%IncludeResource: font Times-Roman
%%IncludeResource: font Helvetica-BoldOblique
%%IncludeResource: font Helvetica-Bold
%%IncludeResource: font Helvetica-Oblique
%%IncludeResource: font Times-BoldItalic
%%IncludeResource: font Courier
%%IncludeResource: font Times-Italic
%%IncludeResource: font Times-Bold
%%IncludeResource: font Symbol
%%IncludeResource: font ZapfDingbats
%FOPEndFontDict
%%BeginResource: encoding WinAnsiEncoding
/WinAnsiEncoding [
/.notdef /.notdef /.notdef /.notdef /.notdef
/.notdef /.notdef /.notdef /.notdef /.notdef
/.notdef /.notdef /.notdef /.notdef /.notdef
/.notdef /.notdef /.notdef /.notdef /.notdef
/.notdef /.notdef /.notdef /.notdef /.notdef
/.notdef /.notdef /.notdef /.notdef /.notdef
/.notdef /.notdef /space /exclam /quotedbl
/numbersign /dollar /percent /ampersand /quotesingle
/parenleft /parenright /asterisk /plus /comma
/hyphen /period /slash /zero /one
/two /three /four /five /six
/seven /eight /nine /colon /semicolon
/less /equal /greater /question /at
/A /B /C /D /E
/F /G /H /I /J
/K /L /M /N /O
/P /Q /R /S /T
/U /V /W /X /Y
/Z /bracketleft /backslash /bracketright /asciicircum
/underscore /quoteleft /a /b /c
/d /e /f /g /h
/i /j /k /l /m
/n /o /p /q /r
/s /t /u /v /w
/x /y /z /braceleft /bar
/braceright /asciitilde /bullet /Euro /bullet
/quotesinglbase /florin /quotedblbase /ellipsis /dagger
/daggerdbl /circumflex /perthousand /Scaron /guilsinglleft
/OE /bullet /Zcaron /bullet /bullet
/quoteleft /quoteright /quotedblleft /quotedblright /bullet
/endash /emdash /asciitilde /trademark /scaron
/guilsinglright /oe /bullet /zcaron /Ydieresis
/space /exclamdown /cent /sterling /currency
/yen /brokenbar /section /dieresis /copyright
/ordfeminine /guillemotleft /logicalnot /sfthyphen /registered
/macron /degree /plusminus /twosuperior /threesuperior
/acute /mu /paragraph /middot /cedilla
/onesuperior /ordmasculine /guillemotright /onequarter /onehalf
/threequarters /questiondown /Agrave /Aacute /Acircumflex
/Atilde /Adieresis /Aring /AE /Ccedilla
/Egrave /Eacute /Ecircumflex /Edieresis /Igrave
/Iacute /Icircumflex /Idieresis /Eth /Ntilde
/Ograve /Oacute /Ocircumflex /Otilde /Odieresis
/multiply /Oslash /Ugrave /Uacute /Ucircumflex
/Udieresis /Yacute /Thorn /germandbls /agrave
/aacute /acircumflex /atilde /adieresis /aring
/ae /ccedilla /egrave /eacute /ecircumflex
/edieresis /igrave /iacute /icircumflex /idieresis
/eth /ntilde /ograve /oacute /ocircumflex
/otilde /odieresis /divide /oslash /ugrave
/uacute /ucircumflex /udieresis /yacute /thorn
/ydieresis
] def
%%EndResource
%FOPBeginFontReencode
/Courier-Bold findfont
dup length dict begin
  {1 index /FID ne {def} {pop pop} ifelse} forall
  /Encoding WinAnsiEncoding def
  currentdict
end
/Courier-Bold exch definefont pop
/Helvetica findfont
dup length dict begin
  {1 index /FID ne {def} {pop pop} ifelse} forall
  /Encoding WinAnsiEncoding def
  currentdict
end
/Helvetica exch definefont pop
/Courier-BoldOblique findfont
dup length dict begin
  {1 index /FID ne {def} {pop pop} ifelse} forall
  /Encoding WinAnsiEncoding def
  currentdict
end
/Courier-BoldOblique exch definefont pop
/Courier-Oblique findfont
dup length dict begin
  {1 index /FID ne {def} {pop pop} ifelse} forall
  /Encoding WinAnsiEncoding def
  currentdict
end
/Courier-Oblique exch definefont pop
/Times-Roman findfont
dup length dict begin
  {1 index /FID ne {def} {pop pop} ifelse} forall
  /Encoding WinAnsiEncoding def
  currentdict
end
/Times-Roman exch definefont pop
/Helvetica-BoldOblique findfont
dup length dict begin
  {1 index /FID ne {def} {pop pop} ifelse} forall
  /Encoding WinAnsiEncoding def
  currentdict
end
/Helvetica-BoldOblique exch definefont pop
/Helvetica-Bold findfont
dup length dict begin
  {1 index /FID ne {def} {pop pop} ifelse} forall
  /Encoding WinAnsiEncoding def
  currentdict
end
/Helvetica-Bold exch definefont pop
/Helvetica-Oblique findfont
dup length dict begin
  {1 index /FID ne {def} {pop pop} ifelse} forall
  /Encoding WinAnsiEncoding def
  currentdict
end
/Helvetica-Oblique exch definefont pop
/Times-BoldItalic findfont
dup length dict begin
  {1 index /FID ne {def} {pop pop} ifelse} forall
  /Encoding WinAnsiEncoding def
  currentdict
end
/Times-BoldItalic exch definefont pop
/Courier findfont
dup length dict begin
  {1 index /FID ne {def} {pop pop} ifelse} forall
  /Encoding WinAnsiEncoding def
  currentdict
end
/Courier exch definefont pop
/Times-Italic findfont
dup length dict begin
  {1 index /FID ne {def} {pop pop} ifelse} forall
  /Encoding WinAnsiEncoding def
  currentdict
end
/Times-Italic exch definefont pop
/Times-Bold findfont
dup length dict begin
  {1 index /FID ne {def} {pop pop} ifelse} forall
  /Encoding WinAnsiEncoding def
  currentdict
end
/Times-Bold exch definefont pop
%FOPEndFontReencode
%%EndProlog
%%Page: 1 1
%%PageBoundingBox: 0 0 219 164
%%BeginPageSetup
[1 0 0 -1 0 164] CT
%%EndPageSetup
GS
[0.75 0 0 0.75 0 0.5] CT
1 GC
N
0 0 292 218 re
f
GR
GS
[0.75 0 0 0.75 0 0.5] CT
1 GC
N
0 0 292 218 re
f
GR
GS
[0.75 0 0 0.75 0 0.5] CT
1 GC
N
58 178 M
264 178 L
264 16 L
58 16 L
cp
f
GR
GS
[0.75 0 0 0.75 0 0.5] CT
0.873 GC
1 LJ
0.667 LW
N
58 178 M
58 16 L
S
GR
GS
[0.75 0 0 0.75 0 0.5] CT
0.873 GC
1 LJ
0.667 LW
N
109.5 178 M
109.5 16 L
S
GR
GS
[0.75 0 0 0.75 0 0.5] CT
0.873 GC
1 LJ
0.667 LW
N
161 178 M
161 16 L
S
GR
GS
[0.75 0 0 0.75 0 0.5] CT
0.873 GC
1 LJ
0.667 LW
N
212.5 178 M
212.5 16 L
S
GR
GS
[0.75 0 0 0.75 0 0.5] CT
0.873 GC
1 LJ
0.667 LW
N
264 178 M
264 16 L
S
GR
GS
[0.75 0 0 0.75 0 0.5] CT
0.873 GC
1 LJ
0.667 LW
N
264 161.8 M
58 161.8 L
S
GR
GS
[0.75 0 0 0.75 0 0.5] CT
0.873 GC
1 LJ
0.667 LW
N
264 142.821 M
58 142.821 L
S
GR
GS
[0.75 0 0 0.75 0 0.5] CT
0.873 GC
1 LJ
0.667 LW
N
264 97 M
58 97 L
S
GR
GS
[0.75 0 0 0.75 0 0.5] CT
0.873 GC
1 LJ
0.667 LW
N
264 51.179 M
58 51.179 L
S
GR
GS
[0.75 0 0 0.75 0 0.5] CT
0.873 GC
1 LJ
0.667 LW
N
264 32.2 M
58 32.2 L
S
GR
GS
[0.75 0 0 0.75 0 0.5] CT
0.149 GC
2 setlinecap
1 LJ
0.667 LW
N
58 178 M
264 178 L
S
GR
GS
[0.75 0 0 0.75 0 0.5] CT
0.149 GC
2 setlinecap
1 LJ
0.667 LW
N
58 16 M
264 16 L
S
GR
GS
[0.75 0 0 0.75 0 0.5] CT
0.149 GC
2 setlinecap
1 LJ
0.667 LW
N
58 178 M
58 175.94 L
S
GR
GS
[0.75 0 0 0.75 0 0.5] CT
0.149 GC
2 setlinecap
1 LJ
0.667 LW
N
109.5 178 M
109.5 175.94 L
S
GR
GS
[0.75 0 0 0.75 0 0.5] CT
0.149 GC
2 setlinecap
1 LJ
0.667 LW
N
161 178 M
161 175.94 L
S
GR
GS
[0.75 0 0 0.75 0 0.5] CT
0.149 GC
2 setlinecap
1 LJ
0.667 LW
N
212.5 178 M
212.5 175.94 L
S
GR
GS
[0.75 0 0 0.75 0 0.5] CT
0.149 GC
2 setlinecap
1 LJ
0.667 LW
N
264 178 M
264 175.94 L
S
GR
GS
[0.75 0 0 0.75 0 0.5] CT
0.149 GC
2 setlinecap
1 LJ
0.667 LW
N
58 16 M
58 18.06 L
S
GR
GS
[0.75 0 0 0.75 0 0.5] CT
0.149 GC
2 setlinecap
1 LJ
0.667 LW
N
109.5 16 M
109.5 18.06 L
S
GR
GS
[0.75 0 0 0.75 0 0.5] CT
0.149 GC
2 setlinecap
1 LJ
0.667 LW
N
161 16 M
161 18.06 L
S
GR
GS
[0.75 0 0 0.75 0 0.5] CT
0.149 GC
2 setlinecap
1 LJ
0.667 LW
N
212.5 16 M
212.5 18.06 L
S
GR
GS
[0.75 0 0 0.75 0 0.5] CT
0.149 GC
2 setlinecap
1 LJ
0.667 LW
N
264 16 M
264 18.06 L
S
GR
GS
[0.75 0 0 0.75 43.5 138] CT
0.149 GC
N
-5.415 8.794 M
-5.415 7.981 L
-1.962 7.981 L
-1.962 8.794 L
-5.415 8.794 L
cp
f
GR
GS
[0.75 0 0 0.75 43.5 138] CT
0.149 GC
N
-0.752 9.059 M
-0.752 8.591 L
3.264 2.606 L
3.311 2.544 3.405 2.544 QT
3.592 2.544 L
3.733 2.544 3.733 2.684 QT
3.733 8.591 L
5.014 8.591 L
5.014 9.059 L
3.733 9.059 L
3.733 10.325 L
3.733 10.591 4.115 10.669 QT
4.498 10.747 4.998 10.747 QT
4.998 11.2 L
1.42 11.2 L
1.42 10.747 L
1.92 10.747 2.303 10.669 QT
2.686 10.591 2.686 10.325 QT
2.686 9.059 L
-0.752 9.059 L
cp
-0.314 8.591 M
2.764 8.591 L
2.764 3.997 L
-0.314 8.591 L
cp
f
GR
GS
[0.75 0 0 0.75 82.125 138] CT
0.149 GC
N
/f1088565852{-5.415 8.794 M
-5.415 7.981 L
-1.962 7.981 L
-1.962 8.794 L
-5.415 8.794 L
cp}def
f1088565852
f
GR
GS
[0.75 0 0 0.75 82.125 138] CT
0.149 GC
N
/f-859342203{-0.47 11.2 M
-0.47 10.856 L
-0.47 10.825 -0.439 10.778 QT
1.576 8.544 L
2.045 8.044 2.326 7.708 QT
2.608 7.372 2.889 6.934 QT
3.17 6.497 3.334 6.044 QT
3.498 5.591 3.498 5.091 QT
3.498 4.559 3.295 4.067 QT
3.092 3.575 2.701 3.286 QT
2.311 2.997 1.764 2.997 QT
1.201 2.997 0.748 3.341 QT
0.295 3.684 0.108 4.216 QT
0.17 4.2 0.248 4.2 QT
0.545 4.2 0.748 4.395 QT
0.951 4.591 0.951 4.903 QT
0.951 5.2 0.748 5.411 QT
0.545 5.622 0.248 5.622 QT
-0.049 5.622 -0.26 5.411 QT
-0.47 5.2 -0.47 4.903 QT
-0.47 4.419 -0.283 3.989 QT
-0.095 3.559 0.248 3.231 QT
0.592 2.903 1.03 2.723 QT
1.467 2.544 1.951 2.544 QT
2.701 2.544 3.342 2.856 QT
3.983 3.169 4.358 3.747 QT
4.733 4.325 4.733 5.091 QT
4.733 5.653 4.483 6.161 QT
4.233 6.669 3.85 7.083 QT
3.467 7.497 2.858 8.028 QT
2.248 8.559 2.061 8.731 QT
0.592 10.153 L
1.842 10.153 L
2.764 10.153 3.381 10.137 QT
3.998 10.122 4.03 10.075 QT
4.186 9.919 4.342 8.887 QT
4.733 8.887 L
4.358 11.2 L
-0.47 11.2 L
cp}def
f-859342203
f
GR
GS
[0.75 0 0 0.75 120.75 138] CT
0.149 GC
N
/f1061832871{-0.083 11.481 M
-1.677 11.481 -2.247 10.169 QT
-2.818 8.856 -2.818 7.059 QT
-2.818 5.919 -2.615 4.927 QT
-2.411 3.934 -1.802 3.239 QT
-1.193 2.544 -0.083 2.544 QT
0.776 2.544 1.323 2.958 QT
1.87 3.372 2.151 4.036 QT
2.432 4.7 2.542 5.458 QT
2.651 6.216 2.651 7.059 QT
2.651 8.169 2.44 9.145 QT
2.229 10.122 1.628 10.802 QT
1.026 11.481 -0.083 11.481 QT
cp
-0.083 11.153 M
0.635 11.153 0.995 10.411 QT
1.354 9.669 1.432 8.762 QT
1.51 7.856 1.51 6.841 QT
1.51 5.872 1.432 5.044 QT
1.354 4.216 1.003 3.544 QT
0.651 2.872 -0.083 2.872 QT
-0.818 2.872 -1.177 3.552 QT
-1.536 4.231 -1.615 5.052 QT
-1.693 5.872 -1.693 6.841 QT
-1.693 7.575 -1.661 8.216 QT
-1.63 8.856 -1.474 9.536 QT
-1.318 10.216 -0.982 10.684 QT
-0.646 11.153 -0.083 11.153 QT
cp}def
f1061832871
f
GR
GS
[0.75 0 0 0.75 159.375 138] CT
0.149 GC
N
/f2112990141{-2.693 11.2 M
-2.693 10.856 L
-2.693 10.825 -2.661 10.778 QT
-0.646 8.544 L
-0.177 8.044 0.104 7.708 QT
0.385 7.372 0.667 6.934 QT
0.948 6.497 1.112 6.044 QT
1.276 5.591 1.276 5.091 QT
1.276 4.559 1.073 4.067 QT
0.87 3.575 0.479 3.286 QT
0.089 2.997 -0.458 2.997 QT
-1.021 2.997 -1.474 3.341 QT
-1.927 3.684 -2.115 4.216 QT
-2.052 4.2 -1.974 4.2 QT
-1.677 4.2 -1.474 4.395 QT
-1.271 4.591 -1.271 4.903 QT
-1.271 5.2 -1.474 5.411 QT
-1.677 5.622 -1.974 5.622 QT
-2.271 5.622 -2.482 5.411 QT
-2.693 5.2 -2.693 4.903 QT
-2.693 4.419 -2.505 3.989 QT
-2.318 3.559 -1.974 3.231 QT
-1.63 2.903 -1.193 2.723 QT
-0.755 2.544 -0.271 2.544 QT
0.479 2.544 1.12 2.856 QT
1.76 3.169 2.135 3.747 QT
2.51 4.325 2.51 5.091 QT
2.51 5.653 2.26 6.161 QT
2.01 6.669 1.628 7.083 QT
1.245 7.497 0.635 8.028 QT
0.026 8.559 -0.161 8.731 QT
-1.63 10.153 L
-0.38 10.153 L
0.542 10.153 1.159 10.137 QT
1.776 10.122 1.807 10.075 QT
1.964 9.919 2.12 8.887 QT
2.51 8.887 L
2.135 11.2 L
-2.693 11.2 L
cp}def
f2112990141
f
GR
GS
[0.75 0 0 0.75 198 138] CT
0.149 GC
N
/f700788237{-2.974 9.059 M
-2.974 8.591 L
1.042 2.606 L
1.089 2.544 1.182 2.544 QT
1.37 2.544 L
1.51 2.544 1.51 2.684 QT
1.51 8.591 L
2.792 8.591 L
2.792 9.059 L
1.51 9.059 L
1.51 10.325 L
1.51 10.591 1.893 10.669 QT
2.276 10.747 2.776 10.747 QT
2.776 11.2 L
-0.802 11.2 L
-0.802 10.747 L
-0.302 10.747 0.081 10.669 QT
0.464 10.591 0.464 10.325 QT
0.464 9.059 L
-2.974 9.059 L
cp
-2.536 8.591 M
0.542 8.591 L
0.542 3.997 L
-2.536 8.591 L
cp}def
f700788237
f
GR
GS
[0.75 0 0 0.75 120.75007 151] CT
0.149 GC
N
/f828762352{-3.252 12.054 M
-3.252 11.961 -3.236 11.914 QT
-1.064 3.242 L
-1.002 2.992 -0.986 2.836 QT
-0.986 2.601 -1.955 2.601 QT
-2.111 2.601 -2.111 2.398 QT
-2.111 2.367 -2.08 2.273 QT
-2.049 2.179 -2.01 2.125 QT
-1.97 2.07 -1.908 2.07 QT
0.123 1.914 L
0.17 1.914 L
0.17 1.929 0.217 1.953 QT
0.264 1.976 0.28 1.992 QT
0.295 2.054 0.295 2.101 QT
-1.267 8.367 L
-0.736 8.148 0.092 7.297 QT
0.92 6.445 1.381 6.07 QT
1.842 5.695 2.545 5.695 QT
2.967 5.695 3.264 5.976 QT
3.561 6.257 3.561 6.679 QT
3.561 6.945 3.451 7.172 QT
3.342 7.398 3.139 7.531 QT
2.936 7.664 2.67 7.664 QT
2.436 7.664 2.272 7.515 QT
2.108 7.367 2.108 7.132 QT
2.108 6.773 2.358 6.523 QT
2.608 6.273 2.967 6.273 QT
2.826 6.086 2.514 6.086 QT
2.076 6.086 1.662 6.336 QT
1.248 6.586 0.772 7.07 QT
0.295 7.554 -0.103 7.953 QT
-0.502 8.351 -0.845 8.554 QT
0.045 8.664 0.694 9.023 QT
1.342 9.382 1.342 10.132 QT
1.342 10.289 1.295 10.523 QT
1.155 11.086 1.155 11.414 QT
1.155 12.086 1.623 12.086 QT
2.17 12.086 2.451 11.5 QT
2.733 10.914 2.905 10.117 QT
2.936 10.023 3.03 10.023 QT
3.217 10.023 L
3.264 10.023 3.303 10.062 QT
3.342 10.101 3.342 10.164 QT
3.342 10.179 3.342 10.211 QT
2.764 12.492 1.592 12.492 QT
1.17 12.492 0.842 12.289 QT
0.514 12.086 0.342 11.75 QT
0.17 11.414 0.17 10.992 QT
0.17 10.742 0.233 10.492 QT
0.28 10.32 0.28 10.164 QT
0.28 9.586 -0.236 9.281 QT
-0.752 8.976 -1.408 8.914 QT
-2.174 11.976 L
-2.236 12.195 -2.4 12.343 QT
-2.564 12.492 -2.783 12.492 QT
-2.986 12.492 -3.119 12.359 QT
-3.252 12.226 -3.252 12.054 QT
cp}def
f828762352
f
GR
GS
[0.75 0 0 0.75 0 0.5] CT
0.149 GC
2 setlinecap
1 LJ
0.667 LW
N
58 178 M
58 16 L
S
GR
GS
[0.75 0 0 0.75 0 0.5] CT
0.149 GC
2 setlinecap
1 LJ
0.667 LW
N
264 178 M
264 16 L
S
GR
GS
[0.75 0 0 0.75 0 0.5] CT
0.149 GC
2 setlinecap
1 LJ
0.667 LW
N
58 161.8 M
60.06 161.8 L
S
GR
GS
[0.75 0 0 0.75 0 0.5] CT
0.149 GC
2 setlinecap
1 LJ
0.667 LW
N
58 142.821 M
60.06 142.821 L
S
GR
GS
[0.75 0 0 0.75 0 0.5] CT
0.149 GC
2 setlinecap
1 LJ
0.667 LW
N
58 97 M
60.06 97 L
S
GR
GS
[0.75 0 0 0.75 0 0.5] CT
0.149 GC
2 setlinecap
1 LJ
0.667 LW
N
58 51.179 M
60.06 51.179 L
S
GR
GS
[0.75 0 0 0.75 0 0.5] CT
0.149 GC
2 setlinecap
1 LJ
0.667 LW
N
58 32.2 M
60.06 32.2 L
S
GR
GS
[0.75 0 0 0.75 0 0.5] CT
0.149 GC
2 setlinecap
1 LJ
0.667 LW
N
264 161.8 M
261.94 161.8 L
S
GR
GS
[0.75 0 0 0.75 0 0.5] CT
0.149 GC
2 setlinecap
1 LJ
0.667 LW
N
264 142.821 M
261.94 142.821 L
S
GR
GS
[0.75 0 0 0.75 0 0.5] CT
0.149 GC
2 setlinecap
1 LJ
0.667 LW
N
264 97 M
261.94 97 L
S
GR
GS
[0.75 0 0 0.75 0 0.5] CT
0.149 GC
2 setlinecap
1 LJ
0.667 LW
N
264 51.179 M
261.94 51.179 L
S
GR
GS
[0.75 0 0 0.75 0 0.5] CT
0.149 GC
2 setlinecap
1 LJ
0.667 LW
N
264 32.2 M
261.94 32.2 L
S
GR
GS
[0.75 0 0 0.75 39.5 121.85] CT
0.149 GC
N
/f1189749272{-15.709 0.216 M
-15.818 0.216 -15.889 0.13 QT
-15.959 0.044 -15.959 -0.05 QT
-15.959 -0.144 -15.889 -0.23 QT
-15.818 -0.316 -15.709 -0.316 QT
-8.256 -0.316 L
-8.146 -0.316 -8.084 -0.23 QT
-8.021 -0.144 -8.021 -0.05 QT
-8.021 0.044 -8.084 0.13 QT
-8.146 0.216 -8.256 0.216 QT
-15.709 0.216 L
cp}def
f1189749272
f
GR
GS
[0.75 0 0 0.75 39.5 121.85] CT
0.149 GC
N
/f-1405947355{-5.464 3.2 M
-5.464 2.747 L
-3.839 2.747 -3.839 2.325 QT
-3.839 -4.488 L
-4.51 -4.175 -5.542 -4.175 QT
-5.542 -4.628 L
-3.948 -4.628 -3.135 -5.456 QT
-2.948 -5.456 L
-2.901 -5.456 -2.862 -5.425 QT
-2.823 -5.394 -2.823 -5.347 QT
-2.823 2.325 L
-2.823 2.747 -1.198 2.747 QT
-1.198 3.2 L
-5.464 3.2 L
cp}def
f-1405947355
f
GR
GS
[0.75 0 0 0.75 39.5 107.61539] CT
0.149 GC
N
/f1077448958{-30.02 -0.378 M
-30.129 -0.378 -30.2 -0.464 QT
-30.27 -0.55 -30.27 -0.644 QT
-30.27 -0.737 -30.2 -0.823 QT
-30.129 -0.909 -30.02 -0.909 QT
-22.567 -0.909 L
-22.458 -0.909 -22.395 -0.823 QT
-22.333 -0.737 -22.333 -0.644 QT
-22.333 -0.55 -22.395 -0.464 QT
-22.458 -0.378 -22.567 -0.378 QT
-30.02 -0.378 L
cp}def
f1077448958
f
GR
GS
[0.75 0 0 0.75 39.5 107.61539] CT
0.149 GC
N
/f1159389510{-12.619 -6.414 M
-12.619 -6.867 L
-10.994 -6.867 -10.994 -7.289 QT
-10.994 -14.101 L
-11.666 -13.789 -12.697 -13.789 QT
-12.697 -14.242 L
-11.103 -14.242 -10.291 -15.07 QT
-10.103 -15.07 L
-10.057 -15.07 -10.018 -15.039 QT
-9.978 -15.007 -9.978 -14.961 QT
-9.978 -7.289 L
-9.978 -6.867 -8.353 -6.867 QT
-8.353 -6.414 L
-12.619 -6.414 L
cp}def
f1159389510
f
GR
GS
[0.75 0 0 0.75 39.5 107.61539] CT
0.149 GC
N
-19.378 -0.994 17.778 0.533 re
f
GR
GS
[0.75 0 0 0.75 39.5 107.61539] CT
0.149 GC
N
/f-255578676{-14.815 14.613 M
-17.409 8.909 L
-18.175 9.503 L
-18.206 9.534 -18.253 9.534 QT
-18.315 9.534 -18.378 9.48 QT
-18.44 9.425 -18.44 9.347 QT
-18.44 9.284 -18.393 9.253 QT
-16.847 8.081 L
-16.8 8.05 -16.753 8.05 QT
-16.675 8.05 -16.628 8.128 QT
-14.3 13.253 L
-8.768 1.8 L
-8.706 1.691 -8.55 1.691 QT
-8.44 1.691 -8.362 1.761 QT
-8.284 1.831 -8.284 1.941 QT
-8.284 2.003 -8.3 2.034 QT
-14.347 14.566 L
-14.425 14.691 -14.55 14.691 QT
-14.706 14.691 L
-14.768 14.691 -14.815 14.613 QT
cp}def
f-255578676
f
GR
GS
[0.75 0 0 0.75 39.5 107.61539] CT
0.149 GC
N
-8.267 1.673 6.667 0.533 re
f
GR
GS
[0.75 0 0 0.75 39.5 107.61539] CT
0.149 GC
N
/f-201298553{-7.626 13.236 M
-7.626 12.892 L
-7.626 12.861 -7.595 12.814 QT
-5.579 10.58 L
-5.11 10.08 -4.829 9.744 QT
-4.548 9.408 -4.267 8.97 QT
-3.985 8.533 -3.821 8.08 QT
-3.657 7.627 -3.657 7.127 QT
-3.657 6.595 -3.86 6.103 QT
-4.064 5.611 -4.454 5.322 QT
-4.845 5.033 -5.392 5.033 QT
-5.954 5.033 -6.407 5.377 QT
-6.86 5.72 -7.048 6.252 QT
-6.985 6.236 -6.907 6.236 QT
-6.61 6.236 -6.407 6.431 QT
-6.204 6.627 -6.204 6.939 QT
-6.204 7.236 -6.407 7.447 QT
-6.61 7.658 -6.907 7.658 QT
-7.204 7.658 -7.415 7.447 QT
-7.626 7.236 -7.626 6.939 QT
-7.626 6.455 -7.439 6.025 QT
-7.251 5.595 -6.907 5.267 QT
-6.564 4.939 -6.126 4.759 QT
-5.689 4.58 -5.204 4.58 QT
-4.454 4.58 -3.814 4.892 QT
-3.173 5.205 -2.798 5.783 QT
-2.423 6.361 -2.423 7.127 QT
-2.423 7.689 -2.673 8.197 QT
-2.923 8.705 -3.306 9.119 QT
-3.689 9.533 -4.298 10.064 QT
-4.907 10.595 -5.095 10.767 QT
-6.564 12.189 L
-5.314 12.189 L
-4.392 12.189 -3.774 12.173 QT
-3.157 12.158 -3.126 12.111 QT
-2.97 11.955 -2.814 10.923 QT
-2.423 10.923 L
-2.798 13.236 L
-7.626 13.236 L
cp}def
f-201298553
f
GR
GS
[0.75 0 0 0.75 39.5 73.25] CT
0.149 GC
N
/f-2026418800{-3.417 3.481 M
-5.01 3.481 -5.581 2.169 QT
-6.151 0.856 -6.151 -0.941 QT
-6.151 -2.081 -5.948 -3.073 QT
-5.745 -4.066 -5.135 -4.761 QT
-4.526 -5.456 -3.417 -5.456 QT
-2.557 -5.456 -2.01 -5.042 QT
-1.464 -4.628 -1.182 -3.964 QT
-0.901 -3.3 -0.792 -2.542 QT
-0.682 -1.784 -0.682 -0.941 QT
-0.682 0.169 -0.893 1.145 QT
-1.104 2.122 -1.706 2.802 QT
-2.307 3.481 -3.417 3.481 QT
cp
-3.417 3.153 M
-2.698 3.153 -2.339 2.411 QT
-1.979 1.669 -1.901 0.762 QT
-1.823 -0.144 -1.823 -1.159 QT
-1.823 -2.128 -1.901 -2.956 QT
-1.979 -3.784 -2.331 -4.456 QT
-2.682 -5.128 -3.417 -5.128 QT
-4.151 -5.128 -4.51 -4.448 QT
-4.87 -3.769 -4.948 -2.948 QT
-5.026 -2.128 -5.026 -1.159 QT
-5.026 -0.425 -4.995 0.216 QT
-4.964 0.856 -4.807 1.536 QT
-4.651 2.216 -4.315 2.684 QT
-3.979 3.153 -3.417 3.153 QT
cp}def
f-2026418800
f
GR
GS
[0.75 0 0 0.75 39.5 38.88461] CT
0.149 GC
N
f1159389510
f
GR
GS
[0.75 0 0 0.75 39.5 38.88461] CT
0.149 GC
N
-19.378 -0.994 17.778 0.533 re
f
GR
GS
[0.75 0 0 0.75 39.5 38.88461] CT
0.149 GC
N
f-255578676
f
GR
GS
[0.75 0 0 0.75 39.5 38.88461] CT
0.149 GC
N
-8.267 1.673 6.667 0.533 re
f
GR
GS
[0.75 0 0 0.75 39.5 38.88461] CT
0.149 GC
N
f-201298553
f
GR
GS
[0.75 0 0 0.75 39.5 24.65] CT
0.149 GC
N
f-1405947355
f
GR
GS
[0 -0.75 0.75 0 12.98883 73.24994] CT
0.149 GC
N
/f-635182659{-33.534 -5.28 M
-33.534 -5.811 L
-32.19 -5.811 -31.894 -6.686 QT
-28.737 -15.858 L
-28.69 -16.014 -28.503 -16.014 QT
-28.3 -16.014 L
-28.112 -16.014 -28.065 -15.858 QT
-24.769 -6.28 L
-24.644 -5.968 -24.245 -5.889 QT
-23.847 -5.811 -23.269 -5.811 QT
-23.269 -5.28 L
-27.456 -5.28 L
-27.456 -5.811 L
-26.206 -5.811 -26.206 -6.218 QT
-26.206 -6.28 L
-27.019 -8.624 L
-30.659 -8.624 L
-31.331 -6.686 L
-31.347 -6.639 -31.347 -6.546 QT
-31.347 -6.171 -30.987 -5.991 QT
-30.628 -5.811 -30.222 -5.811 QT
-30.222 -5.28 L
-33.534 -5.28 L
cp
-30.487 -9.155 M
-27.19 -9.155 L
-28.847 -13.936 L
-30.487 -9.155 L
cp}def
f-635182659
f
GR
GS
[0 -0.75 0.75 0 12.98883 73.24994] CT
0.149 GC
N
/f-1906024864{-22.565 -5.28 M
-22.565 -5.811 L
-22.065 -5.811 -21.73 -5.889 QT
-21.394 -5.968 -21.394 -6.28 QT
-21.394 -10.374 L
-21.394 -10.78 -21.519 -10.96 QT
-21.644 -11.139 -21.87 -11.178 QT
-22.097 -11.218 -22.565 -11.218 QT
-22.565 -11.749 L
-20.394 -11.905 L
-20.394 -10.436 L
-20.097 -11.093 -19.503 -11.499 QT
-18.909 -11.905 -18.222 -11.905 QT
-16.487 -11.905 -16.19 -10.499 QT
-15.894 -11.139 -15.315 -11.522 QT
-14.737 -11.905 -14.05 -11.905 QT
-13.362 -11.905 -12.901 -11.686 QT
-12.44 -11.468 -12.206 -11.014 QT
-11.972 -10.561 -11.972 -9.889 QT
-11.972 -6.28 L
-11.972 -5.968 -11.636 -5.889 QT
-11.3 -5.811 -10.8 -5.811 QT
-10.8 -5.28 L
-14.222 -5.28 L
-14.222 -5.811 L
-13.722 -5.811 -13.386 -5.889 QT
-13.05 -5.968 -13.05 -6.28 QT
-13.05 -9.843 L
-13.05 -10.593 -13.269 -11.053 QT
-13.487 -11.514 -14.144 -11.514 QT
-15.003 -11.514 -15.565 -10.819 QT
-16.128 -10.124 -16.128 -9.249 QT
-16.128 -6.28 L
-16.128 -5.968 -15.8 -5.889 QT
-15.472 -5.811 -14.956 -5.811 QT
-14.956 -5.28 L
-18.394 -5.28 L
-18.394 -5.811 L
-17.878 -5.811 -17.55 -5.889 QT
-17.222 -5.968 -17.222 -6.28 QT
-17.222 -9.843 L
-17.222 -10.577 -17.433 -11.046 QT
-17.644 -11.514 -18.315 -11.514 QT
-19.175 -11.514 -19.737 -10.819 QT
-20.3 -10.124 -20.3 -9.249 QT
-20.3 -6.28 L
-20.3 -5.968 -19.972 -5.889 QT
-19.644 -5.811 -19.144 -5.811 QT
-19.144 -5.28 L
-22.565 -5.28 L
cp}def
f-1906024864
f
GR
GS
[0 -0.75 0.75 0 12.98883 73.24994] CT
0.149 GC
N
/f623790312{-10.406 -2.374 M
-10.406 -2.889 L
-9.89 -2.889 -9.562 -2.975 QT
-9.234 -3.061 -9.234 -3.374 QT
-9.234 -10.608 L
-9.234 -11.014 -9.531 -11.116 QT
-9.828 -11.218 -10.406 -11.218 QT
-10.406 -11.749 L
-8.187 -11.905 L
-8.187 -10.983 L
-7.781 -11.436 -7.234 -11.671 QT
-6.687 -11.905 -6.078 -11.905 QT
-5.187 -11.905 -4.476 -11.428 QT
-3.765 -10.952 -3.367 -10.171 QT
-2.968 -9.389 -2.968 -8.514 QT
-2.968 -7.608 -3.414 -6.827 QT
-3.859 -6.046 -4.624 -5.577 QT
-5.39 -5.108 -6.296 -5.108 QT
-7.39 -5.108 -8.14 -5.999 QT
-8.14 -3.374 L
-8.14 -3.061 -7.812 -2.975 QT
-7.484 -2.889 -6.968 -2.889 QT
-6.968 -2.374 L
-10.406 -2.374 L
cp
-8.14 -6.733 M
-7.874 -6.202 -7.406 -5.858 QT
-6.937 -5.514 -6.39 -5.514 QT
-5.874 -5.514 -5.468 -5.788 QT
-5.062 -6.061 -4.796 -6.53 QT
-4.531 -6.999 -4.398 -7.514 QT
-4.265 -8.03 -4.265 -8.514 QT
-4.265 -9.124 -4.484 -9.819 QT
-4.703 -10.514 -5.148 -10.999 QT
-5.593 -11.483 -6.218 -11.483 QT
-6.828 -11.483 -7.335 -11.171 QT
-7.843 -10.858 -8.14 -10.327 QT
-8.14 -6.733 L
cp}def
f623790312
f
GR
GS
[0 -0.75 0.75 0 12.98883 73.24994] CT
0.149 GC
N
/f-1130989129{-2.179 -5.28 M
-2.179 -5.811 L
-1.679 -5.811 -1.343 -5.889 QT
-1.008 -5.968 -1.008 -6.28 QT
-1.008 -14.155 L
-1.008 -14.561 -1.133 -14.741 QT
-1.258 -14.921 -1.484 -14.96 QT
-1.711 -14.999 -2.179 -14.999 QT
-2.179 -15.53 L
0.039 -15.686 L
0.039 -6.28 L
0.039 -5.968 0.367 -5.889 QT
0.696 -5.811 1.211 -5.811 QT
1.211 -5.28 L
-2.179 -5.28 L
cp}def
f-1130989129
f
GR
GS
[0 -0.75 0.75 0 12.98883 73.24994] CT
0.149 GC
N
/f1778272899{1.895 -5.28 M
1.895 -5.811 L
2.395 -5.811 2.731 -5.889 QT
3.067 -5.968 3.067 -6.28 QT
3.067 -10.374 L
3.067 -10.952 2.84 -11.085 QT
2.613 -11.218 1.957 -11.218 QT
1.957 -11.749 L
4.113 -11.905 L
4.113 -6.28 L
4.113 -5.968 4.402 -5.889 QT
4.692 -5.811 5.16 -5.811 QT
5.16 -5.28 L
1.895 -5.28 L
cp
2.52 -14.483 M
2.52 -14.811 2.77 -15.061 QT
3.02 -15.311 3.348 -15.311 QT
3.551 -15.311 3.754 -15.202 QT
3.957 -15.093 4.067 -14.897 QT
4.176 -14.702 4.176 -14.483 QT
4.176 -14.171 3.926 -13.921 QT
3.676 -13.671 3.348 -13.671 QT
3.02 -13.671 2.77 -13.921 QT
2.52 -14.171 2.52 -14.483 QT
cp}def
f1778272899
f
GR
GS
[0 -0.75 0.75 0 12.98883 73.24994] CT
0.149 GC
N
/f-331511160{7.031 -7.077 M
7.031 -11.218 L
5.781 -11.218 L
5.781 -11.608 L
6.766 -11.608 7.227 -12.522 QT
7.688 -13.436 7.688 -14.514 QT
8.125 -14.514 L
8.125 -11.749 L
10.234 -11.749 L
10.234 -11.218 L
8.125 -11.218 L
8.125 -7.108 L
8.125 -6.483 8.336 -6.014 QT
8.547 -5.546 9.078 -5.546 QT
9.594 -5.546 9.82 -6.046 QT
10.047 -6.546 10.047 -7.108 QT
10.047 -7.999 L
10.484 -7.999 L
10.484 -7.077 L
10.484 -6.608 10.313 -6.155 QT
10.141 -5.702 9.805 -5.405 QT
9.469 -5.108 8.984 -5.108 QT
8.078 -5.108 7.555 -5.647 QT
7.031 -6.186 7.031 -7.077 QT
cp}def
f-331511160
f
GR
GS
[0 -0.75 0.75 0 12.98883 73.24994] CT
0.149 GC
N
/f-332655191{12.829 -7.061 M
12.829 -10.374 L
12.829 -10.78 12.704 -10.96 QT
12.579 -11.139 12.352 -11.178 QT
12.126 -11.218 11.657 -11.218 QT
11.657 -11.749 L
13.922 -11.905 L
13.922 -7.061 L
13.922 -6.483 14.008 -6.155 QT
14.094 -5.827 14.368 -5.671 QT
14.641 -5.514 15.235 -5.514 QT
16.047 -5.514 16.524 -6.186 QT
17.001 -6.858 17.001 -7.718 QT
17.001 -10.374 L
17.001 -10.78 16.876 -10.96 QT
16.751 -11.139 16.524 -11.178 QT
16.297 -11.218 15.829 -11.218 QT
15.829 -11.749 L
18.094 -11.905 L
18.094 -6.639 L
18.094 -6.249 18.212 -6.069 QT
18.329 -5.889 18.555 -5.85 QT
18.782 -5.811 19.266 -5.811 QT
19.266 -5.28 L
17.047 -5.108 L
17.047 -6.374 L
16.766 -5.811 16.266 -5.46 QT
15.766 -5.108 15.172 -5.108 QT
14.094 -5.108 13.462 -5.569 QT
12.829 -6.03 12.829 -7.061 QT
cp}def
f-332655191
f
GR
GS
[0 -0.75 0.75 0 12.98883 73.24994] CT
0.149 GC
N
/f622013074{23.008 -5.108 M
22.133 -5.108 21.399 -5.593 QT
20.664 -6.077 20.258 -6.858 QT
19.852 -7.639 19.852 -8.514 QT
19.852 -9.421 20.297 -10.202 QT
20.743 -10.983 21.5 -11.444 QT
22.258 -11.905 23.18 -11.905 QT
23.727 -11.905 24.219 -11.678 QT
24.711 -11.452 25.071 -11.03 QT
25.071 -14.155 L
25.071 -14.561 24.946 -14.741 QT
24.821 -14.921 24.602 -14.96 QT
24.383 -14.999 23.899 -14.999 QT
23.899 -15.53 L
26.118 -15.686 L
26.118 -6.639 L
26.118 -6.249 26.243 -6.069 QT
26.368 -5.889 26.586 -5.85 QT
26.805 -5.811 27.289 -5.811 QT
27.289 -5.28 L
25.024 -5.108 L
25.024 -6.061 L
24.633 -5.608 24.102 -5.358 QT
23.571 -5.108 23.008 -5.108 QT
cp
21.477 -6.577 M
21.743 -6.093 22.172 -5.803 QT
22.602 -5.514 23.102 -5.514 QT
23.727 -5.514 24.243 -5.866 QT
24.758 -6.218 25.024 -6.796 QT
25.024 -10.389 L
24.852 -10.718 24.578 -10.983 QT
24.305 -11.249 23.977 -11.382 QT
23.649 -11.514 23.274 -11.514 QT
22.493 -11.514 22.016 -11.077 QT
21.539 -10.639 21.344 -9.952 QT
21.149 -9.264 21.149 -8.499 QT
21.149 -7.905 21.211 -7.46 QT
21.274 -7.014 21.477 -6.577 QT
cp}def
f622013074
f
GR
GS
[0 -0.75 0.75 0 12.98883 73.24994] CT
0.149 GC
N
/f917036437{31.234 -5.108 M
30.313 -5.108 29.555 -5.593 QT
28.797 -6.077 28.359 -6.874 QT
27.922 -7.671 27.922 -8.561 QT
27.922 -9.452 28.32 -10.241 QT
28.719 -11.03 29.43 -11.514 QT
30.141 -11.999 31.016 -11.999 QT
31.719 -11.999 32.227 -11.772 QT
32.734 -11.546 33.063 -11.132 QT
33.391 -10.718 33.555 -10.163 QT
33.719 -9.608 33.719 -8.936 QT
33.719 -8.749 33.578 -8.749 QT
29.234 -8.749 L
29.234 -8.577 L
29.234 -7.343 29.734 -6.444 QT
30.234 -5.546 31.375 -5.546 QT
31.828 -5.546 32.219 -5.757 QT
32.609 -5.968 32.899 -6.327 QT
33.188 -6.686 33.297 -7.108 QT
33.313 -7.155 33.352 -7.202 QT
33.391 -7.249 33.438 -7.249 QT
33.578 -7.249 L
33.719 -7.249 33.719 -7.046 QT
33.516 -6.202 32.813 -5.655 QT
32.109 -5.108 31.234 -5.108 QT
cp
29.25 -9.124 M
32.656 -9.124 L
32.656 -9.686 32.5 -10.264 QT
32.344 -10.843 31.977 -11.225 QT
31.609 -11.608 31.016 -11.608 QT
30.172 -11.608 29.711 -10.811 QT
29.25 -10.014 29.25 -9.124 QT
cp}def
f917036437
f
GR
GS
[0.75 0 0 0.75 0 0.5] CT
0.149 GC
1 LJ
0.667 LW
N
58 97 M
264 97 L
S
GR
GS
[0.75 0 0 0.75 62.8125 107.61539] CT
0 0.447 0.741 RC
10.0 ML
0.667 LW
N
3.5 -0.5 M
3.5 -2.709 1.709 -4.5 -0.5 -4.5 C
-2.709 -4.5 -4.5 -2.709 -4.5 -0.5 C
-4.5 1.709 -2.709 3.5 -0.5 3.5 C
1.709 3.5 3.5 1.709 3.5 -0.5 C
S
GR
GS
[0.75 0 0 0.75 82.125 121.85] CT
0 0.447 0.741 RC
10.0 ML
0.667 LW
N
3.5 -0.5 M
3.5 -2.709 1.709 -4.5 -0.5 -4.5 C
-2.709 -4.5 -4.5 -2.709 -4.5 -0.5 C
-4.5 1.709 -2.709 3.5 -0.5 3.5 C
1.709 3.5 3.5 1.709 3.5 -0.5 C
S
GR
GS
[0.75 0 0 0.75 101.4375 107.61539] CT
0 0.447 0.741 RC
10.0 ML
0.667 LW
N
3.5 -0.5 M
3.5 -2.709 1.709 -4.5 -0.5 -4.5 C
-2.709 -4.5 -4.5 -2.709 -4.5 -0.5 C
-4.5 1.709 -2.709 3.5 -0.5 3.5 C
1.709 3.5 3.5 1.709 3.5 -0.5 C
S
GR
GS
[0.75 0 0 0.75 120.75 73.25] CT
0 0.447 0.741 RC
10.0 ML
0.667 LW
N
3.5 -0.5 M
3.5 -2.709 1.709 -4.5 -0.5 -4.5 C
-2.709 -4.5 -4.5 -2.709 -4.5 -0.5 C
-4.5 1.709 -2.709 3.5 -0.5 3.5 C
1.709 3.5 3.5 1.709 3.5 -0.5 C
S
GR
GS
[0.75 0 0 0.75 140.0625 38.88461] CT
0 0.447 0.741 RC
10.0 ML
0.667 LW
N
3.5 -0.5 M
3.5 -2.709 1.709 -4.5 -0.5 -4.5 C
-2.709 -4.5 -4.5 -2.709 -4.5 -0.5 C
-4.5 1.709 -2.709 3.5 -0.5 3.5 C
1.709 3.5 3.5 1.709 3.5 -0.5 C
S
GR
GS
[0.75 0 0 0.75 159.375 24.65] CT
0 0.447 0.741 RC
10.0 ML
0.667 LW
N
3.5 -0.5 M
3.5 -2.709 1.709 -4.5 -0.5 -4.5 C
-2.709 -4.5 -4.5 -2.709 -4.5 -0.5 C
-4.5 1.709 -2.709 3.5 -0.5 3.5 C
1.709 3.5 3.5 1.709 3.5 -0.5 C
S
GR
GS
[0.75 0 0 0.75 178.6875 38.88461] CT
0 0.447 0.741 RC
10.0 ML
0.667 LW
N
3.5 -0.5 M
3.5 -2.709 1.709 -4.5 -0.5 -4.5 C
-2.709 -4.5 -4.5 -2.709 -4.5 -0.5 C
-4.5 1.709 -2.709 3.5 -0.5 3.5 C
1.709 3.5 3.5 1.709 3.5 -0.5 C
S
GR
GS
[0.75 0 0 0.75 198 73.25] CT
0 0.447 0.741 RC
10.0 ML
0.667 LW
N
3.5 -0.5 M
3.5 -2.709 1.709 -4.5 -0.5 -4.5 C
-2.709 -4.5 -4.5 -2.709 -4.5 -0.5 C
-4.5 1.709 -2.709 3.5 -0.5 3.5 C
1.709 3.5 3.5 1.709 3.5 -0.5 C
S
GR
GS
[0.75 0 0 0.75 0 0.5] CT
0 0.447 0.741 RC
1 LJ
0.667 LW
N
83.75 97 M
83.75 142.821 L
S
GR
GS
[0.75 0 0 0.75 0 0.5] CT
0 0.447 0.741 RC
1 LJ
0.667 LW
N
109.5 97 M
109.5 161.8 L
S
GR
GS
[0.75 0 0 0.75 0 0.5] CT
0 0.447 0.741 RC
1 LJ
0.667 LW
N
135.25 97 M
135.25 142.821 L
S
GR
GS
[0.75 0 0 0.75 0 0.5] CT
0 0.447 0.741 RC
1 LJ
0.667 LW
N
161 97 M
161 97 L
S
GR
GS
[0.75 0 0 0.75 0 0.5] CT
0 0.447 0.741 RC
1 LJ
0.667 LW
N
186.75 97 M
186.75 51.179 L
S
GR
GS
[0.75 0 0 0.75 0 0.5] CT
0 0.447 0.741 RC
1 LJ
0.667 LW
N
212.5 97 M
212.5 32.2 L
S
GR
GS
[0.75 0 0 0.75 0 0.5] CT
0 0.447 0.741 RC
1 LJ
0.667 LW
N
238.25 97 M
238.25 51.179 L
S
GR
GS
[0.75 0 0 0.75 0 0.5] CT
0 0.447 0.741 RC
1 LJ
0.667 LW
N
264 97 M
264 97 L
S
GR
%%Trailer
%%Pages: 1
%%EOF
