%!PS-Adobe-3.0 EPSF-3.0
%%Creator: (MATLAB, The Mathworks, Inc. Version 9.1.0.441655 \(R2016b\). Operating System: Windows 8)
%%Title: ../Dokument/Abbildungen/dft_sinus_bild.eps
%%CreationDate: 2017-09-03T23:08:16
%%Pages: (atend)
%%BoundingBox:     1     3   216   152
%%LanguageLevel: 3
%%EndComments
%%BeginProlog
%%BeginResource: procset (Apache XML Graphics Std ProcSet) 1.2 0
%%Version: 1.2 0
%%Copyright: (Copyright 2001-2003,2010 The Apache Software Foundation. License terms: http://www.apache.org/licenses/LICENSE-2.0)
/bd{bind def}bind def
/ld{load def}bd
/GR/grestore ld
/M/moveto ld
/LJ/setlinejoin ld
/C/curveto ld
/f/fill ld
/LW/setlinewidth ld
/GC/setgray ld
/t/show ld
/N/newpath ld
/CT/concat ld
/cp/closepath ld
/S/stroke ld
/L/lineto ld
/CC/setcmykcolor ld
/A/ashow ld
/GS/gsave ld
/RC/setrgbcolor ld
/RM/rmoveto ld
/ML/setmiterlimit ld
/re {4 2 roll M
1 index 0 rlineto
0 exch rlineto
neg 0 rlineto
cp } bd
/_ctm matrix def
/_tm matrix def
/BT { _ctm currentmatrix pop matrix _tm copy pop 0 0 moveto } bd
/ET { _ctm setmatrix } bd
/iTm { _ctm setmatrix _tm concat } bd
/Tm { _tm astore pop iTm 0 0 moveto } bd
/ux 0.0 def
/uy 0.0 def
/F {
  /Tp exch def
  /Tf exch def
  Tf findfont Tp scalefont setfont
  /cf Tf def  /cs Tp def
} bd
/ULS {currentpoint /uy exch def /ux exch def} bd
/ULE {
  /Tcx currentpoint pop def
  gsave
  newpath
  cf findfont cs scalefont dup
  /FontMatrix get 0 get /Ts exch def /FontInfo get dup
  /UnderlinePosition get Ts mul /To exch def
  /UnderlineThickness get Ts mul /Tt exch def
  ux uy To add moveto  Tcx uy To add lineto
  Tt setlinewidth stroke
  grestore
} bd
/OLE {
  /Tcx currentpoint pop def
  gsave
  newpath
  cf findfont cs scalefont dup
  /FontMatrix get 0 get /Ts exch def /FontInfo get dup
  /UnderlinePosition get Ts mul /To exch def
  /UnderlineThickness get Ts mul /Tt exch def
  ux uy To add cs add moveto Tcx uy To add cs add lineto
  Tt setlinewidth stroke
  grestore
} bd
/SOE {
  /Tcx currentpoint pop def
  gsave
  newpath
  cf findfont cs scalefont dup
  /FontMatrix get 0 get /Ts exch def /FontInfo get dup
  /UnderlinePosition get Ts mul /To exch def
  /UnderlineThickness get Ts mul /Tt exch def
  ux uy To add cs 10 mul 26 idiv add moveto Tcx uy To add cs 10 mul 26 idiv add lineto
  Tt setlinewidth stroke
  grestore
} bd
/QT {
/Y22 exch store
/X22 exch store
/Y21 exch store
/X21 exch store
currentpoint
/Y21 load 2 mul add 3 div exch
/X21 load 2 mul add 3 div exch
/X21 load 2 mul /X22 load add 3 div
/Y21 load 2 mul /Y22 load add 3 div
/X22 load /Y22 load curveto
} bd
/SSPD {
dup length /d exch dict def
{
/v exch def
/k exch def
currentpagedevice k known {
/cpdv currentpagedevice k get def
v cpdv ne {
/upd false def
/nullv v type /nulltype eq def
/nullcpdv cpdv type /nulltype eq def
nullv nullcpdv or
{
/upd true def
} {
/sametype v type cpdv type eq def
sametype {
v type /arraytype eq {
/vlen v length def
/cpdvlen cpdv length def
vlen cpdvlen eq {
0 1 vlen 1 sub {
/i exch def
/obj v i get def
/cpdobj cpdv i get def
obj cpdobj ne {
/upd true def
exit
} if
} for
} {
/upd true def
} ifelse
} {
v type /dicttype eq {
v {
/dv exch def
/dk exch def
/cpddv cpdv dk get def
dv cpddv ne {
/upd true def
exit
} if
} forall
} {
/upd true def
} ifelse
} ifelse
} if
} ifelse
upd true eq {
d k v put
} if
} if
} if
} forall
d length 0 gt {
d setpagedevice
} if
} bd
/RE { % /NewFontName [NewEncodingArray] /FontName RE -
  findfont dup length dict begin
  {
    1 index /FID ne
    {def} {pop pop} ifelse
  } forall
  /Encoding exch def
  /FontName 1 index def
  currentdict definefont pop
  end
} bind def
%%EndResource
%%BeginResource: procset (Apache XML Graphics EPS ProcSet) 1.0 0
%%Version: 1.0 0
%%Copyright: (Copyright 2002-2003 The Apache Software Foundation. License terms: http://www.apache.org/licenses/LICENSE-2.0)
/BeginEPSF { %def
/b4_Inc_state save def         % Save state for cleanup
/dict_count countdictstack def % Count objects on dict stack
/op_count count 1 sub def      % Count objects on operand stack
userdict begin                 % Push userdict on dict stack
/showpage { } def              % Redefine showpage, { } = null proc
0 setgray 0 setlinecap         % Prepare graphics state
1 setlinewidth 0 setlinejoin
10 setmiterlimit [ ] 0 setdash newpath
/languagelevel where           % If level not equal to 1 then
{pop languagelevel             % set strokeadjust and
1 ne                           % overprint to their defaults.
{false setstrokeadjust false setoverprint
} if
} if
} bd
/EndEPSF { %def
count op_count sub {pop} repeat            % Clean up stacks
countdictstack dict_count sub {end} repeat
b4_Inc_state restore
} bd
%%EndResource
%FOPBeginFontDict
%%IncludeResource: font Courier-Bold
%%IncludeResource: font Helvetica
%%IncludeResource: font Courier-BoldOblique
%%IncludeResource: font Courier-Oblique
%%IncludeResource: font Times-Roman
%%IncludeResource: font Helvetica-BoldOblique
%%IncludeResource: font Helvetica-Bold
%%IncludeResource: font Helvetica-Oblique
%%IncludeResource: font Times-BoldItalic
%%IncludeResource: font Courier
%%IncludeResource: font Times-Italic
%%IncludeResource: font Times-Bold
%%IncludeResource: font Symbol
%%IncludeResource: font ZapfDingbats
%FOPEndFontDict
%%BeginResource: encoding WinAnsiEncoding
/WinAnsiEncoding [
/.notdef /.notdef /.notdef /.notdef /.notdef
/.notdef /.notdef /.notdef /.notdef /.notdef
/.notdef /.notdef /.notdef /.notdef /.notdef
/.notdef /.notdef /.notdef /.notdef /.notdef
/.notdef /.notdef /.notdef /.notdef /.notdef
/.notdef /.notdef /.notdef /.notdef /.notdef
/.notdef /.notdef /space /exclam /quotedbl
/numbersign /dollar /percent /ampersand /quotesingle
/parenleft /parenright /asterisk /plus /comma
/hyphen /period /slash /zero /one
/two /three /four /five /six
/seven /eight /nine /colon /semicolon
/less /equal /greater /question /at
/A /B /C /D /E
/F /G /H /I /J
/K /L /M /N /O
/P /Q /R /S /T
/U /V /W /X /Y
/Z /bracketleft /backslash /bracketright /asciicircum
/underscore /quoteleft /a /b /c
/d /e /f /g /h
/i /j /k /l /m
/n /o /p /q /r
/s /t /u /v /w
/x /y /z /braceleft /bar
/braceright /asciitilde /bullet /Euro /bullet
/quotesinglbase /florin /quotedblbase /ellipsis /dagger
/daggerdbl /circumflex /perthousand /Scaron /guilsinglleft
/OE /bullet /Zcaron /bullet /bullet
/quoteleft /quoteright /quotedblleft /quotedblright /bullet
/endash /emdash /asciitilde /trademark /scaron
/guilsinglright /oe /bullet /zcaron /Ydieresis
/space /exclamdown /cent /sterling /currency
/yen /brokenbar /section /dieresis /copyright
/ordfeminine /guillemotleft /logicalnot /sfthyphen /registered
/macron /degree /plusminus /twosuperior /threesuperior
/acute /mu /paragraph /middot /cedilla
/onesuperior /ordmasculine /guillemotright /onequarter /onehalf
/threequarters /questiondown /Agrave /Aacute /Acircumflex
/Atilde /Adieresis /Aring /AE /Ccedilla
/Egrave /Eacute /Ecircumflex /Edieresis /Igrave
/Iacute /Icircumflex /Idieresis /Eth /Ntilde
/Ograve /Oacute /Ocircumflex /Otilde /Odieresis
/multiply /Oslash /Ugrave /Uacute /Ucircumflex
/Udieresis /Yacute /Thorn /germandbls /agrave
/aacute /acircumflex /atilde /adieresis /aring
/ae /ccedilla /egrave /eacute /ecircumflex
/edieresis /igrave /iacute /icircumflex /idieresis
/eth /ntilde /ograve /oacute /ocircumflex
/otilde /odieresis /divide /oslash /ugrave
/uacute /ucircumflex /udieresis /yacute /thorn
/ydieresis
] def
%%EndResource
%FOPBeginFontReencode
/Courier-Bold findfont
dup length dict begin
  {1 index /FID ne {def} {pop pop} ifelse} forall
  /Encoding WinAnsiEncoding def
  currentdict
end
/Courier-Bold exch definefont pop
/Helvetica findfont
dup length dict begin
  {1 index /FID ne {def} {pop pop} ifelse} forall
  /Encoding WinAnsiEncoding def
  currentdict
end
/Helvetica exch definefont pop
/Courier-BoldOblique findfont
dup length dict begin
  {1 index /FID ne {def} {pop pop} ifelse} forall
  /Encoding WinAnsiEncoding def
  currentdict
end
/Courier-BoldOblique exch definefont pop
/Courier-Oblique findfont
dup length dict begin
  {1 index /FID ne {def} {pop pop} ifelse} forall
  /Encoding WinAnsiEncoding def
  currentdict
end
/Courier-Oblique exch definefont pop
/Times-Roman findfont
dup length dict begin
  {1 index /FID ne {def} {pop pop} ifelse} forall
  /Encoding WinAnsiEncoding def
  currentdict
end
/Times-Roman exch definefont pop
/Helvetica-BoldOblique findfont
dup length dict begin
  {1 index /FID ne {def} {pop pop} ifelse} forall
  /Encoding WinAnsiEncoding def
  currentdict
end
/Helvetica-BoldOblique exch definefont pop
/Helvetica-Bold findfont
dup length dict begin
  {1 index /FID ne {def} {pop pop} ifelse} forall
  /Encoding WinAnsiEncoding def
  currentdict
end
/Helvetica-Bold exch definefont pop
/Helvetica-Oblique findfont
dup length dict begin
  {1 index /FID ne {def} {pop pop} ifelse} forall
  /Encoding WinAnsiEncoding def
  currentdict
end
/Helvetica-Oblique exch definefont pop
/Times-BoldItalic findfont
dup length dict begin
  {1 index /FID ne {def} {pop pop} ifelse} forall
  /Encoding WinAnsiEncoding def
  currentdict
end
/Times-BoldItalic exch definefont pop
/Courier findfont
dup length dict begin
  {1 index /FID ne {def} {pop pop} ifelse} forall
  /Encoding WinAnsiEncoding def
  currentdict
end
/Courier exch definefont pop
/Times-Italic findfont
dup length dict begin
  {1 index /FID ne {def} {pop pop} ifelse} forall
  /Encoding WinAnsiEncoding def
  currentdict
end
/Times-Italic exch definefont pop
/Times-Bold findfont
dup length dict begin
  {1 index /FID ne {def} {pop pop} ifelse} forall
  /Encoding WinAnsiEncoding def
  currentdict
end
/Times-Bold exch definefont pop
%FOPEndFontReencode
%%EndProlog
%%Page: 1 1
%%PageBoundingBox: 0 0 219 164
%%BeginPageSetup
[1 0 0 -1 0 164] CT
%%EndPageSetup
GS
[0.75 0 0 0.75 0 0.5] CT
1 GC
N
0 0 292 218 re
f
GR
GS
[0.75 0 0 0.75 0 0.5] CT
1 GC
N
0 0 292 218 re
f
GR
GS
[0.75 0 0 0.75 0 0.5] CT
1 GC
N
59 178 M
264 178 L
264 16 L
59 16 L
cp
f
GR
GS
[0.75 0 0 0.75 0 0.5] CT
0.873 GC
1 LJ
0.667 LW
N
59 178 M
59 16 L
S
GR
GS
[0.75 0 0 0.75 0 0.5] CT
0.873 GC
1 LJ
0.667 LW
N
110.25 178 M
110.25 16 L
S
GR
GS
[0.75 0 0 0.75 0 0.5] CT
0.873 GC
1 LJ
0.667 LW
N
161.5 178 M
161.5 16 L
S
GR
GS
[0.75 0 0 0.75 0 0.5] CT
0.873 GC
1 LJ
0.667 LW
N
212.75 178 M
212.75 16 L
S
GR
GS
[0.75 0 0 0.75 0 0.5] CT
0.873 GC
1 LJ
0.667 LW
N
264 178 M
264 16 L
S
GR
GS
[0.75 0 0 0.75 0 0.5] CT
0.851 0.918 0.961 RC
1 LJ
0.667 LW
N
264 157.75 M
59 157.75 L
S
GR
GS
[0.75 0 0 0.75 0 0.5] CT
0.851 0.918 0.961 RC
1 LJ
0.667 LW
N
264 97 M
59 97 L
S
GR
GS
[0.75 0 0 0.75 0 0.5] CT
0.851 0.918 0.961 RC
1 LJ
0.667 LW
N
264 36.25 M
59 36.25 L
S
GR
GS
[0.75 0 0 0.75 0 0.5] CT
0.149 GC
2 setlinecap
1 LJ
0.667 LW
N
59 178 M
264 178 L
S
GR
GS
[0.75 0 0 0.75 0 0.5] CT
0.149 GC
2 setlinecap
1 LJ
0.667 LW
N
59 16 M
264 16 L
S
GR
GS
[0.75 0 0 0.75 0 0.5] CT
0.149 GC
2 setlinecap
1 LJ
0.667 LW
N
59 178 M
59 175.95 L
S
GR
GS
[0.75 0 0 0.75 0 0.5] CT
0.149 GC
2 setlinecap
1 LJ
0.667 LW
N
110.25 178 M
110.25 175.95 L
S
GR
GS
[0.75 0 0 0.75 0 0.5] CT
0.149 GC
2 setlinecap
1 LJ
0.667 LW
N
161.5 178 M
161.5 175.95 L
S
GR
GS
[0.75 0 0 0.75 0 0.5] CT
0.149 GC
2 setlinecap
1 LJ
0.667 LW
N
212.75 178 M
212.75 175.95 L
S
GR
GS
[0.75 0 0 0.75 0 0.5] CT
0.149 GC
2 setlinecap
1 LJ
0.667 LW
N
264 178 M
264 175.95 L
S
GR
GS
[0.75 0 0 0.75 0 0.5] CT
0.149 GC
2 setlinecap
1 LJ
0.667 LW
N
59 16 M
59 18.05 L
S
GR
GS
[0.75 0 0 0.75 0 0.5] CT
0.149 GC
2 setlinecap
1 LJ
0.667 LW
N
110.25 16 M
110.25 18.05 L
S
GR
GS
[0.75 0 0 0.75 0 0.5] CT
0.149 GC
2 setlinecap
1 LJ
0.667 LW
N
161.5 16 M
161.5 18.05 L
S
GR
GS
[0.75 0 0 0.75 0 0.5] CT
0.149 GC
2 setlinecap
1 LJ
0.667 LW
N
212.75 16 M
212.75 18.05 L
S
GR
GS
[0.75 0 0 0.75 0 0.5] CT
0.149 GC
2 setlinecap
1 LJ
0.667 LW
N
264 16 M
264 18.05 L
S
GR
GS
[0.75 0 0 0.75 44.25 138] CT
0.149 GC
N
-5.415 8.794 M
-5.415 7.981 L
-1.962 7.981 L
-1.962 8.794 L
-5.415 8.794 L
cp
f
GR
GS
[0.75 0 0 0.75 44.25 138] CT
0.149 GC
N
-0.752 9.059 M
-0.752 8.591 L
3.264 2.606 L
3.311 2.544 3.405 2.544 QT
3.592 2.544 L
3.733 2.544 3.733 2.684 QT
3.733 8.591 L
5.014 8.591 L
5.014 9.059 L
3.733 9.059 L
3.733 10.325 L
3.733 10.591 4.115 10.669 QT
4.498 10.747 4.998 10.747 QT
4.998 11.2 L
1.42 11.2 L
1.42 10.747 L
1.92 10.747 2.303 10.669 QT
2.686 10.591 2.686 10.325 QT
2.686 9.059 L
-0.752 9.059 L
cp
-0.314 8.591 M
2.764 8.591 L
2.764 3.997 L
-0.314 8.591 L
cp
f
GR
GS
[0.75 0 0 0.75 82.6875 138] CT
0.149 GC
N
/f1088565852{-5.415 8.794 M
-5.415 7.981 L
-1.962 7.981 L
-1.962 8.794 L
-5.415 8.794 L
cp}def
f1088565852
f
GR
GS
[0.75 0 0 0.75 82.6875 138] CT
0.149 GC
N
/f-859342203{-0.47 11.2 M
-0.47 10.856 L
-0.47 10.825 -0.439 10.778 QT
1.576 8.544 L
2.045 8.044 2.326 7.708 QT
2.608 7.372 2.889 6.934 QT
3.17 6.497 3.334 6.044 QT
3.498 5.591 3.498 5.091 QT
3.498 4.559 3.295 4.067 QT
3.092 3.575 2.701 3.286 QT
2.311 2.997 1.764 2.997 QT
1.201 2.997 0.748 3.341 QT
0.295 3.684 0.108 4.216 QT
0.17 4.2 0.248 4.2 QT
0.545 4.2 0.748 4.395 QT
0.951 4.591 0.951 4.903 QT
0.951 5.2 0.748 5.411 QT
0.545 5.622 0.248 5.622 QT
-0.049 5.622 -0.26 5.411 QT
-0.47 5.2 -0.47 4.903 QT
-0.47 4.419 -0.283 3.989 QT
-0.095 3.559 0.248 3.231 QT
0.592 2.903 1.03 2.723 QT
1.467 2.544 1.951 2.544 QT
2.701 2.544 3.342 2.856 QT
3.983 3.169 4.358 3.747 QT
4.733 4.325 4.733 5.091 QT
4.733 5.653 4.483 6.161 QT
4.233 6.669 3.85 7.083 QT
3.467 7.497 2.858 8.028 QT
2.248 8.559 2.061 8.731 QT
0.592 10.153 L
1.842 10.153 L
2.764 10.153 3.381 10.137 QT
3.998 10.122 4.03 10.075 QT
4.186 9.919 4.342 8.887 QT
4.733 8.887 L
4.358 11.2 L
-0.47 11.2 L
cp}def
f-859342203
f
GR
GS
[0.75 0 0 0.75 121.125 138] CT
0.149 GC
N
/f1061832871{-0.083 11.481 M
-1.677 11.481 -2.247 10.169 QT
-2.818 8.856 -2.818 7.059 QT
-2.818 5.919 -2.615 4.927 QT
-2.411 3.934 -1.802 3.239 QT
-1.193 2.544 -0.083 2.544 QT
0.776 2.544 1.323 2.958 QT
1.87 3.372 2.151 4.036 QT
2.432 4.7 2.542 5.458 QT
2.651 6.216 2.651 7.059 QT
2.651 8.169 2.44 9.145 QT
2.229 10.122 1.628 10.802 QT
1.026 11.481 -0.083 11.481 QT
cp
-0.083 11.153 M
0.635 11.153 0.995 10.411 QT
1.354 9.669 1.432 8.762 QT
1.51 7.856 1.51 6.841 QT
1.51 5.872 1.432 5.044 QT
1.354 4.216 1.003 3.544 QT
0.651 2.872 -0.083 2.872 QT
-0.818 2.872 -1.177 3.552 QT
-1.536 4.231 -1.615 5.052 QT
-1.693 5.872 -1.693 6.841 QT
-1.693 7.575 -1.661 8.216 QT
-1.63 8.856 -1.474 9.536 QT
-1.318 10.216 -0.982 10.684 QT
-0.646 11.153 -0.083 11.153 QT
cp}def
f1061832871
f
GR
GS
[0.75 0 0 0.75 159.5625 138] CT
0.149 GC
N
/f2112990141{-2.693 11.2 M
-2.693 10.856 L
-2.693 10.825 -2.661 10.778 QT
-0.646 8.544 L
-0.177 8.044 0.104 7.708 QT
0.385 7.372 0.667 6.934 QT
0.948 6.497 1.112 6.044 QT
1.276 5.591 1.276 5.091 QT
1.276 4.559 1.073 4.067 QT
0.87 3.575 0.479 3.286 QT
0.089 2.997 -0.458 2.997 QT
-1.021 2.997 -1.474 3.341 QT
-1.927 3.684 -2.115 4.216 QT
-2.052 4.2 -1.974 4.2 QT
-1.677 4.2 -1.474 4.395 QT
-1.271 4.591 -1.271 4.903 QT
-1.271 5.2 -1.474 5.411 QT
-1.677 5.622 -1.974 5.622 QT
-2.271 5.622 -2.482 5.411 QT
-2.693 5.2 -2.693 4.903 QT
-2.693 4.419 -2.505 3.989 QT
-2.318 3.559 -1.974 3.231 QT
-1.63 2.903 -1.193 2.723 QT
-0.755 2.544 -0.271 2.544 QT
0.479 2.544 1.12 2.856 QT
1.76 3.169 2.135 3.747 QT
2.51 4.325 2.51 5.091 QT
2.51 5.653 2.26 6.161 QT
2.01 6.669 1.628 7.083 QT
1.245 7.497 0.635 8.028 QT
0.026 8.559 -0.161 8.731 QT
-1.63 10.153 L
-0.38 10.153 L
0.542 10.153 1.159 10.137 QT
1.776 10.122 1.807 10.075 QT
1.964 9.919 2.12 8.887 QT
2.51 8.887 L
2.135 11.2 L
-2.693 11.2 L
cp}def
f2112990141
f
GR
GS
[0.75 0 0 0.75 198 138] CT
0.149 GC
N
/f700788237{-2.974 9.059 M
-2.974 8.591 L
1.042 2.606 L
1.089 2.544 1.182 2.544 QT
1.37 2.544 L
1.51 2.544 1.51 2.684 QT
1.51 8.591 L
2.792 8.591 L
2.792 9.059 L
1.51 9.059 L
1.51 10.325 L
1.51 10.591 1.893 10.669 QT
2.276 10.747 2.776 10.747 QT
2.776 11.2 L
-0.802 11.2 L
-0.802 10.747 L
-0.302 10.747 0.081 10.669 QT
0.464 10.591 0.464 10.325 QT
0.464 9.059 L
-2.974 9.059 L
cp
-2.536 8.591 M
0.542 8.591 L
0.542 3.997 L
-2.536 8.591 L
cp}def
f700788237
f
GR
GS
[0.75 0 0 0.75 121.12507 151] CT
0.149 GC
N
/f-208766586{-3.245 12.07 M
-3.245 11.976 -3.23 11.929 QT
-2.105 7.461 L
-1.995 7.039 -1.995 6.726 QT
-1.995 6.086 -2.433 6.086 QT
-2.902 6.086 -3.128 6.64 QT
-3.355 7.195 -3.574 8.054 QT
-3.574 8.101 -3.62 8.125 QT
-3.667 8.148 -3.699 8.148 QT
-3.87 8.148 L
-3.933 8.148 -3.964 8.093 QT
-3.995 8.039 -3.995 7.992 QT
-3.839 7.351 -3.691 6.898 QT
-3.542 6.445 -3.222 6.07 QT
-2.902 5.695 -2.417 5.695 QT
-1.855 5.695 -1.425 6.047 QT
-0.995 6.398 -0.995 6.945 QT
-0.542 6.367 0.051 6.031 QT
0.645 5.695 1.333 5.695 QT
1.864 5.695 2.247 5.875 QT
2.63 6.054 2.848 6.429 QT
3.067 6.804 3.067 7.304 QT
3.067 7.929 2.794 8.797 QT
2.52 9.664 2.114 10.742 QT
1.895 11.242 1.895 11.648 QT
1.895 12.086 2.239 12.086 QT
2.833 12.086 3.223 11.461 QT
3.614 10.836 3.77 10.117 QT
3.801 10.023 3.895 10.023 QT
4.067 10.023 L
4.13 10.023 4.169 10.062 QT
4.208 10.101 4.208 10.164 QT
4.208 10.179 4.192 10.211 QT
3.989 11.054 3.481 11.773 QT
2.973 12.492 2.208 12.492 QT
1.692 12.492 1.317 12.125 QT
0.942 11.757 0.942 11.242 QT
0.942 10.961 1.051 10.664 QT
1.239 10.164 1.489 9.484 QT
1.739 8.804 1.895 8.179 QT
2.051 7.554 2.051 7.086 QT
2.051 6.664 1.88 6.375 QT
1.708 6.086 1.301 6.086 QT
0.755 6.086 0.286 6.328 QT
-0.183 6.57 -0.527 6.968 QT
-0.87 7.367 -1.152 7.914 QT
-2.167 11.992 L
-2.214 12.195 -2.394 12.343 QT
-2.574 12.492 -2.792 12.492 QT
-2.98 12.492 -3.113 12.375 QT
-3.245 12.257 -3.245 12.07 QT
cp}def
f-208766586
f
GR
GS
[0.75 0 0 0.75 0 0.5] CT
0 0.447 0.741 RC
2 setlinecap
1 LJ
0.667 LW
N
59 178 M
59 16 L
S
GR
GS
[0.75 0 0 0.75 0 0.5] CT
0 0.447 0.741 RC
2 setlinecap
1 LJ
0.667 LW
N
59 157.75 M
61.05 157.75 L
S
GR
GS
[0.75 0 0 0.75 0 0.5] CT
0 0.447 0.741 RC
2 setlinecap
1 LJ
0.667 LW
N
59 97 M
61.05 97 L
S
GR
GS
[0.75 0 0 0.75 0 0.5] CT
0 0.447 0.741 RC
2 setlinecap
1 LJ
0.667 LW
N
59 36.25 M
61.05 36.25 L
S
GR
GS
[0.75 0 0 0.75 40.25 118.8125] CT
0 0.447 0.741 RC
N
/f-1061877480{-30.663 1.508 M
-30.772 1.508 -30.843 1.422 QT
-30.913 1.336 -30.913 1.243 QT
-30.913 1.149 -30.843 1.063 QT
-30.772 0.977 -30.663 0.977 QT
-23.21 0.977 L
-23.1 0.977 -23.038 1.063 QT
-22.975 1.149 -22.975 1.243 QT
-22.975 1.336 -23.038 1.422 QT
-23.1 1.508 -23.21 1.508 QT
-30.663 1.508 L
cp}def
f-1061877480
f
GR
GS
[0.75 0 0 0.75 40.25 118.8125] CT
0 0.447 0.741 RC
N
/f764414945{-20.192 -2.684 M
-20.192 -2.996 -19.974 -3.231 QT
-19.755 -3.465 -19.442 -3.465 QT
-19.224 -3.465 -19.083 -3.332 QT
-18.942 -3.199 -18.942 -2.996 QT
-18.942 -2.746 -19.099 -2.543 QT
-19.255 -2.34 -19.489 -2.278 QT
-19.255 -2.199 -19.036 -2.199 QT
-18.474 -2.199 -18.067 -2.707 QT
-17.661 -3.215 -17.505 -3.856 QT
-16.271 -8.746 L
-16.192 -9.121 -16.192 -9.371 QT
-16.192 -9.934 -16.567 -9.934 QT
-17.146 -9.934 -17.575 -9.418 QT
-18.005 -8.903 -18.271 -8.215 QT
-18.286 -8.137 -18.364 -8.137 QT
-18.521 -8.137 L
-18.63 -8.137 -18.63 -8.262 QT
-18.63 -8.293 L
-18.333 -9.074 -17.794 -9.676 QT
-17.255 -10.278 -16.552 -10.278 QT
-16.005 -10.278 -15.661 -9.942 QT
-15.317 -9.606 -15.317 -9.074 QT
-15.317 -8.903 -15.349 -8.715 QT
-16.583 -3.778 L
-16.724 -3.246 -17.099 -2.809 QT
-17.474 -2.371 -17.989 -2.113 QT
-18.505 -1.856 -19.052 -1.856 QT
-19.489 -1.856 -19.841 -2.067 QT
-20.192 -2.278 -20.192 -2.684 QT
cp
-16.083 -12.403 M
-16.083 -12.684 -15.857 -12.903 QT
-15.63 -13.121 -15.349 -13.121 QT
-15.13 -13.121 -14.989 -12.988 QT
-14.849 -12.856 -14.849 -12.637 QT
-14.849 -12.356 -15.083 -12.129 QT
-15.317 -11.903 -15.583 -11.903 QT
-15.802 -11.903 -15.942 -12.051 QT
-16.083 -12.199 -16.083 -12.403 QT
cp}def
f764414945
f
GR
GS
[0.75 0 0 0.75 40.25 118.8125] CT
0 0.447 0.741 RC
N
/f683033978{-13.157 -4.528 M
-13.282 -4.528 -13.282 -4.699 QT
-13.282 -4.731 -13.259 -4.809 QT
-13.235 -4.887 -13.204 -4.934 QT
-13.173 -4.981 -13.126 -4.981 QT
-11.876 -4.981 -11.673 -5.778 QT
-9.907 -12.887 L
-10.267 -12.949 -11.048 -12.949 QT
-11.173 -12.949 -11.173 -13.121 QT
-11.173 -13.153 -11.149 -13.231 QT
-11.126 -13.309 -11.095 -13.356 QT
-11.063 -13.403 -11.017 -13.403 QT
-8.767 -13.403 L
-8.673 -13.403 -8.642 -13.324 QT
-5.751 -6.449 L
-4.313 -12.215 L
-4.282 -12.356 -4.282 -12.403 QT
-4.282 -12.949 -5.298 -12.949 QT
-5.423 -12.949 -5.423 -13.121 QT
-5.376 -13.293 -5.353 -13.348 QT
-5.329 -13.403 -5.204 -13.403 QT
-2.423 -13.403 L
-2.282 -13.403 -2.282 -13.231 QT
-2.298 -13.199 -2.313 -13.121 QT
-2.329 -13.043 -2.368 -12.996 QT
-2.407 -12.949 -2.454 -12.949 QT
-3.704 -12.949 -3.907 -12.153 QT
-5.767 -4.637 L
-5.813 -4.528 -5.907 -4.528 QT
-6.063 -4.528 L
-6.142 -4.528 -6.173 -4.621 QT
-9.485 -12.481 L
-9.517 -12.559 L
-9.532 -12.59 -9.532 -12.606 QT
-11.267 -5.715 L
-11.267 -5.684 -11.274 -5.637 QT
-11.282 -5.59 -11.298 -5.528 QT
-11.298 -5.199 -11.009 -5.09 QT
-10.72 -4.981 -10.282 -4.981 QT
-10.157 -4.981 -10.157 -4.809 QT
-10.204 -4.637 -10.235 -4.582 QT
-10.267 -4.528 -10.376 -4.528 QT
-13.157 -4.528 L
cp}def
f683033978
f
GR
GS
[0.75 0 0 0.75 40.25 118.8125] CT
0 0.447 0.741 RC
N
-20.021 0.893 18.421 0.533 re
f
GR
GS
[0.75 0 0 0.75 40.25 118.8125] CT
0 0.447 0.741 RC
N
/f-1109494756{-13.503 13.639 M
-13.503 13.295 L
-13.503 13.264 -13.472 13.217 QT
-11.456 10.982 L
-10.987 10.482 -10.706 10.146 QT
-10.425 9.81 -10.144 9.373 QT
-9.862 8.935 -9.698 8.482 QT
-9.534 8.029 -9.534 7.529 QT
-9.534 6.998 -9.737 6.506 QT
-9.941 6.014 -10.331 5.725 QT
-10.722 5.435 -11.269 5.435 QT
-11.831 5.435 -12.284 5.779 QT
-12.737 6.123 -12.925 6.654 QT
-12.862 6.639 -12.784 6.639 QT
-12.487 6.639 -12.284 6.834 QT
-12.081 7.029 -12.081 7.342 QT
-12.081 7.639 -12.284 7.85 QT
-12.487 8.06 -12.784 8.06 QT
-13.081 8.06 -13.292 7.85 QT
-13.503 7.639 -13.503 7.342 QT
-13.503 6.857 -13.316 6.428 QT
-13.128 5.998 -12.784 5.67 QT
-12.441 5.342 -12.003 5.162 QT
-11.566 4.982 -11.081 4.982 QT
-10.331 4.982 -9.691 5.295 QT
-9.05 5.607 -8.675 6.185 QT
-8.3 6.764 -8.3 7.529 QT
-8.3 8.092 -8.55 8.6 QT
-8.8 9.107 -9.183 9.521 QT
-9.566 9.935 -10.175 10.467 QT
-10.784 10.998 -10.972 11.17 QT
-12.441 12.592 L
-11.191 12.592 L
-10.269 12.592 -9.651 12.576 QT
-9.034 12.56 -9.003 12.514 QT
-8.847 12.357 -8.691 11.326 QT
-8.3 11.326 L
-8.675 13.639 L
-13.503 13.639 L
cp}def
f-1109494756
f
GR
GS
[0.75 0 0 0.75 40.25 73.25] CT
0 0.447 0.741 RC
N
/f-2026418800{-3.417 3.481 M
-5.01 3.481 -5.581 2.169 QT
-6.151 0.856 -6.151 -0.941 QT
-6.151 -2.081 -5.948 -3.073 QT
-5.745 -4.066 -5.135 -4.761 QT
-4.526 -5.456 -3.417 -5.456 QT
-2.557 -5.456 -2.01 -5.042 QT
-1.464 -4.628 -1.182 -3.964 QT
-0.901 -3.3 -0.792 -2.542 QT
-0.682 -1.784 -0.682 -0.941 QT
-0.682 0.169 -0.893 1.145 QT
-1.104 2.122 -1.706 2.802 QT
-2.307 3.481 -3.417 3.481 QT
cp
-3.417 3.153 M
-2.698 3.153 -2.339 2.411 QT
-1.979 1.669 -1.901 0.762 QT
-1.823 -0.144 -1.823 -1.159 QT
-1.823 -2.128 -1.901 -2.956 QT
-1.979 -3.784 -2.331 -4.456 QT
-2.682 -5.128 -3.417 -5.128 QT
-4.151 -5.128 -4.51 -4.448 QT
-4.87 -3.769 -4.948 -2.948 QT
-5.026 -2.128 -5.026 -1.159 QT
-5.026 -0.425 -4.995 0.216 QT
-4.964 0.856 -4.807 1.536 QT
-4.651 2.216 -4.315 2.684 QT
-3.979 3.153 -3.417 3.153 QT
cp}def
f-2026418800
f
GR
GS
[0.75 0 0 0.75 40.25 27.6875] CT
0 0.447 0.741 RC
N
f764414945
f
GR
GS
[0.75 0 0 0.75 40.25 27.6875] CT
0 0.447 0.741 RC
N
f683033978
f
GR
GS
[0.75 0 0 0.75 40.25 27.6875] CT
0 0.447 0.741 RC
N
-20.021 0.893 18.421 0.533 re
f
GR
GS
[0.75 0 0 0.75 40.25 27.6875] CT
0 0.447 0.741 RC
N
f-1109494756
f
GR
GS
[0 -0.75 0.75 0 13.25675 73.24994] CT
0 0.447 0.741 RC
N
/f-635182659{-33.534 -5.28 M
-33.534 -5.811 L
-32.19 -5.811 -31.894 -6.686 QT
-28.737 -15.858 L
-28.69 -16.014 -28.503 -16.014 QT
-28.3 -16.014 L
-28.112 -16.014 -28.065 -15.858 QT
-24.769 -6.28 L
-24.644 -5.968 -24.245 -5.889 QT
-23.847 -5.811 -23.269 -5.811 QT
-23.269 -5.28 L
-27.456 -5.28 L
-27.456 -5.811 L
-26.206 -5.811 -26.206 -6.218 QT
-26.206 -6.28 L
-27.019 -8.624 L
-30.659 -8.624 L
-31.331 -6.686 L
-31.347 -6.639 -31.347 -6.546 QT
-31.347 -6.171 -30.987 -5.991 QT
-30.628 -5.811 -30.222 -5.811 QT
-30.222 -5.28 L
-33.534 -5.28 L
cp
-30.487 -9.155 M
-27.19 -9.155 L
-28.847 -13.936 L
-30.487 -9.155 L
cp}def
f-635182659
f
GR
GS
[0 -0.75 0.75 0 13.25675 73.24994] CT
0 0.447 0.741 RC
N
/f-1906024864{-22.565 -5.28 M
-22.565 -5.811 L
-22.065 -5.811 -21.73 -5.889 QT
-21.394 -5.968 -21.394 -6.28 QT
-21.394 -10.374 L
-21.394 -10.78 -21.519 -10.96 QT
-21.644 -11.139 -21.87 -11.178 QT
-22.097 -11.218 -22.565 -11.218 QT
-22.565 -11.749 L
-20.394 -11.905 L
-20.394 -10.436 L
-20.097 -11.093 -19.503 -11.499 QT
-18.909 -11.905 -18.222 -11.905 QT
-16.487 -11.905 -16.19 -10.499 QT
-15.894 -11.139 -15.315 -11.522 QT
-14.737 -11.905 -14.05 -11.905 QT
-13.362 -11.905 -12.901 -11.686 QT
-12.44 -11.468 -12.206 -11.014 QT
-11.972 -10.561 -11.972 -9.889 QT
-11.972 -6.28 L
-11.972 -5.968 -11.636 -5.889 QT
-11.3 -5.811 -10.8 -5.811 QT
-10.8 -5.28 L
-14.222 -5.28 L
-14.222 -5.811 L
-13.722 -5.811 -13.386 -5.889 QT
-13.05 -5.968 -13.05 -6.28 QT
-13.05 -9.843 L
-13.05 -10.593 -13.269 -11.053 QT
-13.487 -11.514 -14.144 -11.514 QT
-15.003 -11.514 -15.565 -10.819 QT
-16.128 -10.124 -16.128 -9.249 QT
-16.128 -6.28 L
-16.128 -5.968 -15.8 -5.889 QT
-15.472 -5.811 -14.956 -5.811 QT
-14.956 -5.28 L
-18.394 -5.28 L
-18.394 -5.811 L
-17.878 -5.811 -17.55 -5.889 QT
-17.222 -5.968 -17.222 -6.28 QT
-17.222 -9.843 L
-17.222 -10.577 -17.433 -11.046 QT
-17.644 -11.514 -18.315 -11.514 QT
-19.175 -11.514 -19.737 -10.819 QT
-20.3 -10.124 -20.3 -9.249 QT
-20.3 -6.28 L
-20.3 -5.968 -19.972 -5.889 QT
-19.644 -5.811 -19.144 -5.811 QT
-19.144 -5.28 L
-22.565 -5.28 L
cp}def
f-1906024864
f
GR
GS
[0 -0.75 0.75 0 13.25675 73.24994] CT
0 0.447 0.741 RC
N
/f623790312{-10.406 -2.374 M
-10.406 -2.889 L
-9.89 -2.889 -9.562 -2.975 QT
-9.234 -3.061 -9.234 -3.374 QT
-9.234 -10.608 L
-9.234 -11.014 -9.531 -11.116 QT
-9.828 -11.218 -10.406 -11.218 QT
-10.406 -11.749 L
-8.187 -11.905 L
-8.187 -10.983 L
-7.781 -11.436 -7.234 -11.671 QT
-6.687 -11.905 -6.078 -11.905 QT
-5.187 -11.905 -4.476 -11.428 QT
-3.765 -10.952 -3.367 -10.171 QT
-2.968 -9.389 -2.968 -8.514 QT
-2.968 -7.608 -3.414 -6.827 QT
-3.859 -6.046 -4.624 -5.577 QT
-5.39 -5.108 -6.296 -5.108 QT
-7.39 -5.108 -8.14 -5.999 QT
-8.14 -3.374 L
-8.14 -3.061 -7.812 -2.975 QT
-7.484 -2.889 -6.968 -2.889 QT
-6.968 -2.374 L
-10.406 -2.374 L
cp
-8.14 -6.733 M
-7.874 -6.202 -7.406 -5.858 QT
-6.937 -5.514 -6.39 -5.514 QT
-5.874 -5.514 -5.468 -5.788 QT
-5.062 -6.061 -4.796 -6.53 QT
-4.531 -6.999 -4.398 -7.514 QT
-4.265 -8.03 -4.265 -8.514 QT
-4.265 -9.124 -4.484 -9.819 QT
-4.703 -10.514 -5.148 -10.999 QT
-5.593 -11.483 -6.218 -11.483 QT
-6.828 -11.483 -7.335 -11.171 QT
-7.843 -10.858 -8.14 -10.327 QT
-8.14 -6.733 L
cp}def
f623790312
f
GR
GS
[0 -0.75 0.75 0 13.25675 73.24994] CT
0 0.447 0.741 RC
N
/f-1130989129{-2.179 -5.28 M
-2.179 -5.811 L
-1.679 -5.811 -1.343 -5.889 QT
-1.008 -5.968 -1.008 -6.28 QT
-1.008 -14.155 L
-1.008 -14.561 -1.133 -14.741 QT
-1.258 -14.921 -1.484 -14.96 QT
-1.711 -14.999 -2.179 -14.999 QT
-2.179 -15.53 L
0.039 -15.686 L
0.039 -6.28 L
0.039 -5.968 0.367 -5.889 QT
0.696 -5.811 1.211 -5.811 QT
1.211 -5.28 L
-2.179 -5.28 L
cp}def
f-1130989129
f
GR
GS
[0 -0.75 0.75 0 13.25675 73.24994] CT
0 0.447 0.741 RC
N
/f1778272899{1.895 -5.28 M
1.895 -5.811 L
2.395 -5.811 2.731 -5.889 QT
3.067 -5.968 3.067 -6.28 QT
3.067 -10.374 L
3.067 -10.952 2.84 -11.085 QT
2.613 -11.218 1.957 -11.218 QT
1.957 -11.749 L
4.113 -11.905 L
4.113 -6.28 L
4.113 -5.968 4.402 -5.889 QT
4.692 -5.811 5.16 -5.811 QT
5.16 -5.28 L
1.895 -5.28 L
cp
2.52 -14.483 M
2.52 -14.811 2.77 -15.061 QT
3.02 -15.311 3.348 -15.311 QT
3.551 -15.311 3.754 -15.202 QT
3.957 -15.093 4.067 -14.897 QT
4.176 -14.702 4.176 -14.483 QT
4.176 -14.171 3.926 -13.921 QT
3.676 -13.671 3.348 -13.671 QT
3.02 -13.671 2.77 -13.921 QT
2.52 -14.171 2.52 -14.483 QT
cp}def
f1778272899
f
GR
GS
[0 -0.75 0.75 0 13.25675 73.24994] CT
0 0.447 0.741 RC
N
/f-331511160{7.031 -7.077 M
7.031 -11.218 L
5.781 -11.218 L
5.781 -11.608 L
6.766 -11.608 7.227 -12.522 QT
7.688 -13.436 7.688 -14.514 QT
8.125 -14.514 L
8.125 -11.749 L
10.234 -11.749 L
10.234 -11.218 L
8.125 -11.218 L
8.125 -7.108 L
8.125 -6.483 8.336 -6.014 QT
8.547 -5.546 9.078 -5.546 QT
9.594 -5.546 9.82 -6.046 QT
10.047 -6.546 10.047 -7.108 QT
10.047 -7.999 L
10.484 -7.999 L
10.484 -7.077 L
10.484 -6.608 10.313 -6.155 QT
10.141 -5.702 9.805 -5.405 QT
9.469 -5.108 8.984 -5.108 QT
8.078 -5.108 7.555 -5.647 QT
7.031 -6.186 7.031 -7.077 QT
cp}def
f-331511160
f
GR
GS
[0 -0.75 0.75 0 13.25675 73.24994] CT
0 0.447 0.741 RC
N
/f-332655191{12.829 -7.061 M
12.829 -10.374 L
12.829 -10.78 12.704 -10.96 QT
12.579 -11.139 12.352 -11.178 QT
12.126 -11.218 11.657 -11.218 QT
11.657 -11.749 L
13.922 -11.905 L
13.922 -7.061 L
13.922 -6.483 14.008 -6.155 QT
14.094 -5.827 14.368 -5.671 QT
14.641 -5.514 15.235 -5.514 QT
16.047 -5.514 16.524 -6.186 QT
17.001 -6.858 17.001 -7.718 QT
17.001 -10.374 L
17.001 -10.78 16.876 -10.96 QT
16.751 -11.139 16.524 -11.178 QT
16.297 -11.218 15.829 -11.218 QT
15.829 -11.749 L
18.094 -11.905 L
18.094 -6.639 L
18.094 -6.249 18.212 -6.069 QT
18.329 -5.889 18.555 -5.85 QT
18.782 -5.811 19.266 -5.811 QT
19.266 -5.28 L
17.047 -5.108 L
17.047 -6.374 L
16.766 -5.811 16.266 -5.46 QT
15.766 -5.108 15.172 -5.108 QT
14.094 -5.108 13.462 -5.569 QT
12.829 -6.03 12.829 -7.061 QT
cp}def
f-332655191
f
GR
GS
[0 -0.75 0.75 0 13.25675 73.24994] CT
0 0.447 0.741 RC
N
/f622013074{23.008 -5.108 M
22.133 -5.108 21.399 -5.593 QT
20.664 -6.077 20.258 -6.858 QT
19.852 -7.639 19.852 -8.514 QT
19.852 -9.421 20.297 -10.202 QT
20.743 -10.983 21.5 -11.444 QT
22.258 -11.905 23.18 -11.905 QT
23.727 -11.905 24.219 -11.678 QT
24.711 -11.452 25.071 -11.03 QT
25.071 -14.155 L
25.071 -14.561 24.946 -14.741 QT
24.821 -14.921 24.602 -14.96 QT
24.383 -14.999 23.899 -14.999 QT
23.899 -15.53 L
26.118 -15.686 L
26.118 -6.639 L
26.118 -6.249 26.243 -6.069 QT
26.368 -5.889 26.586 -5.85 QT
26.805 -5.811 27.289 -5.811 QT
27.289 -5.28 L
25.024 -5.108 L
25.024 -6.061 L
24.633 -5.608 24.102 -5.358 QT
23.571 -5.108 23.008 -5.108 QT
cp
21.477 -6.577 M
21.743 -6.093 22.172 -5.803 QT
22.602 -5.514 23.102 -5.514 QT
23.727 -5.514 24.243 -5.866 QT
24.758 -6.218 25.024 -6.796 QT
25.024 -10.389 L
24.852 -10.718 24.578 -10.983 QT
24.305 -11.249 23.977 -11.382 QT
23.649 -11.514 23.274 -11.514 QT
22.493 -11.514 22.016 -11.077 QT
21.539 -10.639 21.344 -9.952 QT
21.149 -9.264 21.149 -8.499 QT
21.149 -7.905 21.211 -7.46 QT
21.274 -7.014 21.477 -6.577 QT
cp}def
f622013074
f
GR
GS
[0 -0.75 0.75 0 13.25675 73.24994] CT
0 0.447 0.741 RC
N
/f917036437{31.234 -5.108 M
30.313 -5.108 29.555 -5.593 QT
28.797 -6.077 28.359 -6.874 QT
27.922 -7.671 27.922 -8.561 QT
27.922 -9.452 28.32 -10.241 QT
28.719 -11.03 29.43 -11.514 QT
30.141 -11.999 31.016 -11.999 QT
31.719 -11.999 32.227 -11.772 QT
32.734 -11.546 33.063 -11.132 QT
33.391 -10.718 33.555 -10.163 QT
33.719 -9.608 33.719 -8.936 QT
33.719 -8.749 33.578 -8.749 QT
29.234 -8.749 L
29.234 -8.577 L
29.234 -7.343 29.734 -6.444 QT
30.234 -5.546 31.375 -5.546 QT
31.828 -5.546 32.219 -5.757 QT
32.609 -5.968 32.899 -6.327 QT
33.188 -6.686 33.297 -7.108 QT
33.313 -7.155 33.352 -7.202 QT
33.391 -7.249 33.438 -7.249 QT
33.578 -7.249 L
33.719 -7.249 33.719 -7.046 QT
33.516 -6.202 32.813 -5.655 QT
32.109 -5.108 31.234 -5.108 QT
cp
29.25 -9.124 M
32.656 -9.124 L
32.656 -9.686 32.5 -10.264 QT
32.344 -10.843 31.977 -11.225 QT
31.609 -11.608 31.016 -11.608 QT
30.172 -11.608 29.711 -10.811 QT
29.25 -10.014 29.25 -9.124 QT
cp}def
f917036437
f
GR
GS
[0.75 0 0 0.75 0 0.5] CT
0.851 0.325 0.098 RC
2 setlinecap
1 LJ
0.667 LW
N
264 178 M
264 16 L
S
GR
GS
[0.75 0 0 0.75 0 0.5] CT
0.851 0.325 0.098 RC
2 setlinecap
1 LJ
0.667 LW
N
264 157.75 M
261.95 157.75 L
S
GR
GS
[0.75 0 0 0.75 0 0.5] CT
0.851 0.325 0.098 RC
2 setlinecap
1 LJ
0.667 LW
N
264 97 M
261.95 97 L
S
GR
GS
[0.75 0 0 0.75 0 0.5] CT
0.851 0.325 0.098 RC
2 setlinecap
1 LJ
0.667 LW
N
264 36.25 M
261.95 36.25 L
S
GR
GS
[0.75 0 0 0.75 201.99998 118.8125] CT
0.851 0.325 0.098 RC
N
/f1729207539{1.328 1.35 M
1.219 1.35 1.148 1.264 QT
1.078 1.178 1.078 1.084 QT
1.078 0.99 1.148 0.904 QT
1.219 0.818 1.328 0.818 QT
8.781 0.818 L
8.891 0.818 8.953 0.904 QT
9.016 0.99 9.016 1.084 QT
9.016 1.178 8.953 1.264 QT
8.891 1.35 8.781 1.35 QT
1.328 1.35 L
cp}def
f1729207539
f
GR
GS
[0.75 0 0 0.75 201.99998 118.8125] CT
0.851 0.325 0.098 RC
N
/f1364847639{12.005 -2.842 M
12.005 -3.155 12.224 -3.389 QT
12.442 -3.624 12.755 -3.624 QT
12.974 -3.624 13.114 -3.491 QT
13.255 -3.358 13.255 -3.155 QT
13.255 -2.905 13.099 -2.702 QT
12.942 -2.499 12.708 -2.436 QT
12.942 -2.358 13.161 -2.358 QT
13.724 -2.358 14.13 -2.866 QT
14.536 -3.374 14.692 -4.014 QT
15.927 -8.905 L
16.005 -9.28 16.005 -9.53 QT
16.005 -10.092 15.63 -10.092 QT
15.052 -10.092 14.622 -9.577 QT
14.192 -9.061 13.927 -8.374 QT
13.911 -8.296 13.833 -8.296 QT
13.677 -8.296 L
13.567 -8.296 13.567 -8.421 QT
13.567 -8.452 L
13.864 -9.233 14.403 -9.835 QT
14.942 -10.436 15.646 -10.436 QT
16.192 -10.436 16.536 -10.1 QT
16.88 -9.764 16.88 -9.233 QT
16.88 -9.061 16.849 -8.874 QT
15.614 -3.936 L
15.474 -3.405 15.099 -2.967 QT
14.724 -2.53 14.208 -2.272 QT
13.692 -2.014 13.146 -2.014 QT
12.708 -2.014 12.356 -2.225 QT
12.005 -2.436 12.005 -2.842 QT
cp
16.114 -12.561 M
16.114 -12.842 16.341 -13.061 QT
16.567 -13.28 16.849 -13.28 QT
17.067 -13.28 17.208 -13.147 QT
17.349 -13.014 17.349 -12.796 QT
17.349 -12.514 17.114 -12.288 QT
16.88 -12.061 16.614 -12.061 QT
16.396 -12.061 16.255 -12.21 QT
16.114 -12.358 16.114 -12.561 QT
cp}def
f1364847639
f
GR
GS
[0.75 0 0 0.75 201.99998 118.8125] CT
0.851 0.325 0.098 RC
N
11.97 0.734 6.667 0.533 re
f
GR
GS
[0.75 0 0 0.75 201.99998 118.8125] CT
0.851 0.325 0.098 RC
N
/f-1358444741{12.611 13.48 M
12.611 13.136 L
12.611 13.105 12.642 13.058 QT
14.658 10.824 L
15.127 10.324 15.408 9.988 QT
15.689 9.652 15.97 9.214 QT
16.252 8.777 16.416 8.324 QT
16.58 7.871 16.58 7.371 QT
16.58 6.839 16.377 6.347 QT
16.174 5.855 15.783 5.566 QT
15.392 5.277 14.845 5.277 QT
14.283 5.277 13.83 5.621 QT
13.377 5.964 13.189 6.496 QT
13.252 6.48 13.33 6.48 QT
13.627 6.48 13.83 6.675 QT
14.033 6.871 14.033 7.183 QT
14.033 7.48 13.83 7.691 QT
13.627 7.902 13.33 7.902 QT
13.033 7.902 12.822 7.691 QT
12.611 7.48 12.611 7.183 QT
12.611 6.699 12.799 6.269 QT
12.986 5.839 13.33 5.511 QT
13.674 5.183 14.111 5.003 QT
14.549 4.824 15.033 4.824 QT
15.783 4.824 16.424 5.136 QT
17.064 5.449 17.439 6.027 QT
17.814 6.605 17.814 7.371 QT
17.814 7.933 17.564 8.441 QT
17.314 8.949 16.931 9.363 QT
16.549 9.777 15.939 10.308 QT
15.33 10.839 15.142 11.011 QT
13.674 12.433 L
14.924 12.433 L
15.845 12.433 16.463 12.417 QT
17.08 12.402 17.111 12.355 QT
17.267 12.199 17.424 11.167 QT
17.814 11.167 L
17.439 13.48 L
12.611 13.48 L
cp}def
f-1358444741
f
GR
GS
[0.75 0 0 0.75 201.99998 73.25] CT
0.851 0.325 0.098 RC
N
/f1462615791{3.25 3.481 M
1.656 3.481 1.086 2.169 QT
0.516 0.856 0.516 -0.941 QT
0.516 -2.081 0.719 -3.073 QT
0.922 -4.066 1.531 -4.761 QT
2.141 -5.456 3.25 -5.456 QT
4.109 -5.456 4.656 -5.042 QT
5.203 -4.628 5.484 -3.964 QT
5.766 -3.3 5.875 -2.542 QT
5.984 -1.784 5.984 -0.941 QT
5.984 0.169 5.773 1.145 QT
5.563 2.122 4.961 2.802 QT
4.359 3.481 3.25 3.481 QT
cp
3.25 3.153 M
3.969 3.153 4.328 2.411 QT
4.688 1.669 4.766 0.762 QT
4.844 -0.144 4.844 -1.159 QT
4.844 -2.128 4.766 -2.956 QT
4.688 -3.784 4.336 -4.456 QT
3.984 -5.128 3.25 -5.128 QT
2.516 -5.128 2.156 -4.448 QT
1.797 -3.769 1.719 -2.948 QT
1.641 -2.128 1.641 -1.159 QT
1.641 -0.425 1.672 0.216 QT
1.703 0.856 1.859 1.536 QT
2.016 2.216 2.352 2.684 QT
2.688 3.153 3.25 3.153 QT
cp}def
f1462615791
f
GR
GS
[0.75 0 0 0.75 201.99998 27.6875] CT
0.851 0.325 0.098 RC
N
/f-1223303311{1.634 -2.842 M
1.634 -3.155 1.853 -3.389 QT
2.072 -3.624 2.384 -3.624 QT
2.603 -3.624 2.744 -3.491 QT
2.884 -3.358 2.884 -3.155 QT
2.884 -2.905 2.728 -2.702 QT
2.572 -2.499 2.338 -2.436 QT
2.572 -2.358 2.791 -2.358 QT
3.353 -2.358 3.759 -2.866 QT
4.166 -3.374 4.322 -4.014 QT
5.556 -8.905 L
5.634 -9.28 5.634 -9.53 QT
5.634 -10.092 5.259 -10.092 QT
4.681 -10.092 4.252 -9.577 QT
3.822 -9.061 3.556 -8.374 QT
3.541 -8.296 3.463 -8.296 QT
3.306 -8.296 L
3.197 -8.296 3.197 -8.421 QT
3.197 -8.452 L
3.494 -9.233 4.033 -9.835 QT
4.572 -10.436 5.275 -10.436 QT
5.822 -10.436 6.166 -10.1 QT
6.509 -9.764 6.509 -9.233 QT
6.509 -9.061 6.478 -8.874 QT
5.244 -3.936 L
5.103 -3.405 4.728 -2.967 QT
4.353 -2.53 3.838 -2.272 QT
3.322 -2.014 2.775 -2.014 QT
2.338 -2.014 1.986 -2.225 QT
1.634 -2.436 1.634 -2.842 QT
cp
5.744 -12.561 M
5.744 -12.842 5.97 -13.061 QT
6.197 -13.28 6.478 -13.28 QT
6.697 -13.28 6.838 -13.147 QT
6.978 -13.014 6.978 -12.796 QT
6.978 -12.514 6.744 -12.288 QT
6.509 -12.061 6.244 -12.061 QT
6.025 -12.061 5.884 -12.21 QT
5.744 -12.358 5.744 -12.561 QT
cp}def
f-1223303311
f
GR
GS
[0.75 0 0 0.75 201.99998 27.6875] CT
0.851 0.325 0.098 RC
N
1.6 0.734 6.667 0.533 re
f
GR
GS
[0.75 0 0 0.75 201.99998 27.6875] CT
0.851 0.325 0.098 RC
N
/f-449265829{2.241 13.48 M
2.241 13.136 L
2.241 13.105 2.272 13.058 QT
4.287 10.824 L
4.756 10.324 5.037 9.988 QT
5.319 9.652 5.6 9.214 QT
5.881 8.777 6.045 8.324 QT
6.209 7.871 6.209 7.371 QT
6.209 6.839 6.006 6.347 QT
5.803 5.855 5.412 5.566 QT
5.022 5.277 4.475 5.277 QT
3.912 5.277 3.459 5.621 QT
3.006 5.964 2.819 6.496 QT
2.881 6.48 2.959 6.48 QT
3.256 6.48 3.459 6.675 QT
3.662 6.871 3.662 7.183 QT
3.662 7.48 3.459 7.691 QT
3.256 7.902 2.959 7.902 QT
2.662 7.902 2.452 7.691 QT
2.241 7.48 2.241 7.183 QT
2.241 6.699 2.428 6.269 QT
2.616 5.839 2.959 5.511 QT
3.303 5.183 3.741 5.003 QT
4.178 4.824 4.662 4.824 QT
5.412 4.824 6.053 5.136 QT
6.694 5.449 7.069 6.027 QT
7.444 6.605 7.444 7.371 QT
7.444 7.933 7.194 8.441 QT
6.944 8.949 6.561 9.363 QT
6.178 9.777 5.569 10.308 QT
4.959 10.839 4.772 11.011 QT
3.303 12.433 L
4.553 12.433 L
5.475 12.433 6.092 12.417 QT
6.709 12.402 6.741 12.355 QT
6.897 12.199 7.053 11.167 QT
7.444 11.167 L
7.069 13.48 L
2.241 13.48 L
cp}def
f-449265829
f
GR
GS
[0.75 0 0 0.75 0 0.5] CT
0 0.447 0.741 RC
1 LJ
0.667 LW
N
59 97 M
264 97 L
S
GR
GS
[0.75 0 0 0.75 63.46875 73.25] CT
0 0.447 0.741 RC
10.0 ML
0.667 LW
N
3.5 -0.5 M
3.5 -2.709 1.709 -4.5 -0.5 -4.5 C
-2.709 -4.5 -4.5 -2.709 -4.5 -0.5 C
-4.5 1.709 -2.709 3.5 -0.5 3.5 C
1.709 3.5 3.5 1.709 3.5 -0.5 C
S
GR
GS
[0.75 0 0 0.75 82.6875 73.25] CT
0 0.447 0.741 RC
10.0 ML
0.667 LW
N
3.5 -0.5 M
3.5 -2.709 1.709 -4.5 -0.5 -4.5 C
-2.709 -4.5 -4.5 -2.709 -4.5 -0.5 C
-4.5 1.709 -2.709 3.5 -0.5 3.5 C
1.709 3.5 3.5 1.709 3.5 -0.5 C
S
GR
GS
[0.75 0 0 0.75 101.90625 27.6875] CT
0 0.447 0.741 RC
10.0 ML
0.667 LW
N
3.5 -0.5 M
3.5 -2.709 1.709 -4.5 -0.5 -4.5 C
-2.709 -4.5 -4.5 -2.709 -4.5 -0.5 C
-4.5 1.709 -2.709 3.5 -0.5 3.5 C
1.709 3.5 3.5 1.709 3.5 -0.5 C
S
GR
GS
[0.75 0 0 0.75 121.125 73.25] CT
0 0.447 0.741 RC
10.0 ML
0.667 LW
N
3.5 -0.5 M
3.5 -2.709 1.709 -4.5 -0.5 -4.5 C
-2.709 -4.5 -4.5 -2.709 -4.5 -0.5 C
-4.5 1.709 -2.709 3.5 -0.5 3.5 C
1.709 3.5 3.5 1.709 3.5 -0.5 C
S
GR
GS
[0.75 0 0 0.75 140.34375 118.8125] CT
0 0.447 0.741 RC
10.0 ML
0.667 LW
N
3.5 -0.5 M
3.5 -2.709 1.709 -4.5 -0.5 -4.5 C
-2.709 -4.5 -4.5 -2.709 -4.5 -0.5 C
-4.5 1.709 -2.709 3.5 -0.5 3.5 C
1.709 3.5 3.5 1.709 3.5 -0.5 C
S
GR
GS
[0.75 0 0 0.75 159.5625 73.25] CT
0 0.447 0.741 RC
10.0 ML
0.667 LW
N
3.5 -0.5 M
3.5 -2.709 1.709 -4.5 -0.5 -4.5 C
-2.709 -4.5 -4.5 -2.709 -4.5 -0.5 C
-4.5 1.709 -2.709 3.5 -0.5 3.5 C
1.709 3.5 3.5 1.709 3.5 -0.5 C
S
GR
GS
[0.75 0 0 0.75 178.78125 73.25] CT
0 0.447 0.741 RC
10.0 ML
0.667 LW
N
3.5 -0.5 M
3.5 -2.709 1.709 -4.5 -0.5 -4.5 C
-2.709 -4.5 -4.5 -2.709 -4.5 -0.5 C
-4.5 1.709 -2.709 3.5 -0.5 3.5 C
1.709 3.5 3.5 1.709 3.5 -0.5 C
S
GR
GS
[0.75 0 0 0.75 198 73.25] CT
0 0.447 0.741 RC
10.0 ML
0.667 LW
N
3.5 -0.5 M
3.5 -2.709 1.709 -4.5 -0.5 -4.5 C
-2.709 -4.5 -4.5 -2.709 -4.5 -0.5 C
-4.5 1.709 -2.709 3.5 -0.5 3.5 C
1.709 3.5 3.5 1.709 3.5 -0.5 C
S
GR
GS
[0.75 0 0 0.75 0 0.5] CT
N
59 16 M
265 16 L
265 179 L
59 179 L
59 16 L
cp
clip
0 0.447 0.741 RC
1 LJ
0.667 LW
N
84.625 97 M
84.625 97 L
S
GR
GS
[0.75 0 0 0.75 0 0.5] CT
N
59 16 M
265 16 L
265 179 L
59 179 L
59 16 L
cp
clip
0 0.447 0.741 RC
1 LJ
0.667 LW
N
110.25 97 M
110.25 97 L
S
GR
GS
[0.75 0 0 0.75 0 0.5] CT
N
59 16 M
265 16 L
265 179 L
59 179 L
59 16 L
cp
clip
0 0.447 0.741 RC
1 LJ
0.667 LW
N
135.875 97 M
135.875 36.25 L
S
GR
GS
[0.75 0 0 0.75 0 0.5] CT
N
59 16 M
265 16 L
265 179 L
59 179 L
59 16 L
cp
clip
0 0.447 0.741 RC
1 LJ
0.667 LW
N
161.5 97 M
161.5 97 L
S
GR
GS
[0.75 0 0 0.75 0 0.5] CT
N
59 16 M
265 16 L
265 179 L
59 179 L
59 16 L
cp
clip
0 0.447 0.741 RC
1 LJ
0.667 LW
N
187.125 97 M
187.125 157.75 L
S
GR
GS
[0.75 0 0 0.75 0 0.5] CT
N
59 16 M
265 16 L
265 179 L
59 179 L
59 16 L
cp
clip
0 0.447 0.741 RC
1 LJ
0.667 LW
N
212.75 97 M
212.75 97 L
S
GR
GS
[0.75 0 0 0.75 0 0.5] CT
N
59 16 M
265 16 L
265 179 L
59 179 L
59 16 L
cp
clip
0 0.447 0.741 RC
1 LJ
0.667 LW
N
238.375 97 M
238.375 97 L
S
GR
GS
[0.75 0 0 0.75 0 0.5] CT
N
59 16 M
265 16 L
265 179 L
59 179 L
59 16 L
cp
clip
0 0.447 0.741 RC
1 LJ
0.667 LW
N
264 97 M
264 97 L
S
GR
GS
[0.75 0 0 0.75 0 0.5] CT
0.851 0.325 0.098 RC
[10 6] 0 setdash
2 LJ
0.667 LW
N
59 97 M
59.308 96.902 L
59.615 96.803 L
59.923 96.703 L
60.23 96.603 L
60.537 96.501 L
60.845 96.399 L
61.153 96.296 L
61.46 96.193 L
61.768 96.09 L
62.075 95.987 L
62.382 95.884 L
62.69 95.781 L
62.997 95.679 L
63.305 95.577 L
63.613 95.475 L
63.92 95.375 L
64.228 95.276 L
64.535 95.177 L
64.842 95.08 L
65.15 94.985 L
65.458 94.891 L
65.765 94.799 L
66.073 94.709 L
66.38 94.62 L
66.688 94.534 L
66.995 94.451 L
67.302 94.37 L
67.61 94.291 L
67.918 94.216 L
68.225 94.143 L
68.533 94.074 L
68.84 94.008 L
69.147 93.945 L
69.455 93.885 L
69.763 93.83 L
70.07 93.778 L
70.378 93.73 L
70.685 93.686 L
70.993 93.647 L
71.3 93.611 L
71.608 93.58 L
71.915 93.554 L
72.223 93.532 L
72.53 93.515 L
72.838 93.503 L
73.145 93.495 L
73.452 93.493 L
73.76 93.496 L
74.068 93.504 L
74.375 93.517 L
74.683 93.535 L
74.99 93.559 L
75.298 93.588 L
75.605 93.623 L
75.912 93.663 L
76.22 93.708 L
76.528 93.76 L
76.835 93.816 L
77.143 93.878 L
77.45 93.946 L
77.757 94.02 L
78.065 94.099 L
78.372 94.183 L
78.68 94.273 L
78.988 94.369 L
79.295 94.47 L
79.603 94.576 L
79.91 94.687 L
80.217 94.804 L
80.525 94.926 L
80.832 95.054 L
81.14 95.186 L
81.447 95.323 L
81.755 95.465 L
82.063 95.612 L
82.37 95.763 L
82.677 95.919 L
82.985 96.079 L
83.292 96.244 L
83.6 96.412 L
83.907 96.584 L
84.215 96.76 L
84.522 96.939 L
84.83 97.122 L
85.137 97.308 L
85.445 97.497 L
85.752 97.689 L
86.06 97.883 L
86.368 98.079 L
86.675 98.278 L
86.982 98.478 L
87.29 98.68 L
87.597 98.884 L
87.905 99.088 L
88.213 99.294 L
88.52 99.499 L
88.827 99.706 L
89.135 99.912 L
89.442 100.118 L
89.75 100.323 L
90.057 100.528 L
90.365 100.732 L
90.673 100.934 L
90.98 101.134 L
91.287 101.332 L
91.595 101.528 L
91.902 101.721 L
92.21 101.912 L
92.518 102.099 L
92.825 102.282 L
93.132 102.461 L
93.44 102.636 L
93.747 102.806 L
94.055 102.972 L
94.363 103.132 L
94.67 103.286 L
94.978 103.435 L
95.285 103.577 L
95.592 103.712 L
95.9 103.841 L
96.207 103.962 L
96.515 104.075 L
96.823 104.181 L
97.13 104.278 L
97.438 104.367 L
97.745 104.446 L
98.052 104.517 L
98.36 104.577 L
98.668 104.628 L
98.975 104.669 L
99.283 104.699 L
99.59 104.719 L
99.897 104.727 L
100.205 104.724 L
100.512 104.709 L
100.82 104.683 L
101.128 104.644 L
101.435 104.592 L
101.743 104.528 L
102.05 104.451 L
102.357 104.361 L
102.665 104.257 L
102.973 104.14 L
103.28 104.009 L
103.588 103.864 L
103.895 103.704 L
104.202 103.53 L
104.51 103.341 L
104.818 103.138 L
105.125 102.92 L
105.433 102.687 L
105.74 102.438 L
106.048 102.174 L
106.355 101.895 L
106.662 101.6 L
106.97 101.29 L
107.278 100.964 L
107.585 100.622 L
107.893 100.265 L
108.2 99.891 L
108.507 99.502 L
108.815 99.098 L
109.123 98.677 L
109.43 98.24 L
109.738 97.788 L
110.045 97.321 L
110.353 96.837 L
110.66 96.338 L
110.967 95.824 L
111.275 95.294 L
111.583 94.749 L
111.89 94.189 L
112.198 93.615 L
112.505 93.025 L
112.813 92.421 L
113.12 91.803 L
113.427 91.17 L
113.735 90.524 L
114.043 89.863 L
114.35 89.19 L
114.658 88.503 L
114.965 87.804 L
115.272 87.092 L
115.58 86.367 L
115.887 85.631 L
116.195 84.883 L
116.503 84.124 L
116.81 83.355 L
117.118 82.574 L
117.425 81.784 L
117.732 80.984 L
118.04 80.174 L
118.347 79.356 L
118.655 78.53 L
118.963 77.696 L
119.27 76.854 L
119.577 76.005 L
119.885 75.15 L
120.192 74.289 L
120.5 73.422 L
120.807 72.55 L
121.115 71.674 L
121.423 70.795 L
121.73 69.911 L
122.037 69.026 L
122.345 68.138 L
122.652 67.248 L
122.96 66.357 L
123.268 65.466 L
123.575 64.575 L
123.882 63.685 L
124.19 62.796 L
124.497 61.91 L
124.805 61.026 L
125.113 60.145 L
125.42 59.268 L
125.728 58.395 L
126.035 57.528 L
126.342 56.666 L
126.65 55.811 L
126.957 54.963 L
127.265 54.123 L
127.573 53.291 L
127.88 52.468 L
128.188 51.654 L
128.495 50.851 L
128.803 50.059 L
129.11 49.278 L
129.417 48.51 L
129.725 47.754 L
130.033 47.012 L
130.34 46.284 L
130.648 45.57 L
130.955 44.872 L
131.262 44.189 L
131.57 43.523 L
131.878 42.875 L
132.185 42.244 L
132.493 41.631 L
132.8 41.037 L
133.107 40.462 L
133.415 39.907 L
133.723 39.373 L
134.03 38.86 L
134.337 38.368 L
134.645 37.898 L
134.952 37.451 L
135.26 37.027 L
135.568 36.627 L
S
GR
GS
[0.75 0 0 0.75 0 0.5] CT
0.851 0.325 0.098 RC
[10 6] 0 setdash
2 LJ
0.667 LW
N
136.182 35.898 M
136.49 35.57 L
136.798 35.268 L
137.105 34.992 L
137.413 34.741 L
137.72 34.517 L
138.027 34.32 L
138.335 34.15 L
138.643 34.007 L
138.95 33.892 L
139.258 33.805 L
139.565 33.747 L
139.872 33.717 L
140.18 33.715 L
140.488 33.743 L
140.795 33.8 L
141.102 33.887 L
141.41 34.002 L
141.717 34.148 L
142.025 34.323 L
142.333 34.529 L
142.64 34.764 L
142.947 35.029 L
143.255 35.325 L
143.563 35.65 L
143.87 36.006 L
144.178 36.391 L
144.485 36.807 L
144.792 37.253 L
145.1 37.729 L
145.408 38.234 L
145.715 38.769 L
146.023 39.334 L
146.33 39.928 L
146.637 40.551 L
146.945 41.203 L
147.253 41.884 L
147.56 42.593 L
147.867 43.331 L
148.175 44.097 L
148.482 44.89 L
148.79 45.71 L
149.098 46.558 L
149.405 47.432 L
149.712 48.332 L
150.02 49.258 L
150.327 50.21 L
150.635 51.186 L
150.943 52.187 L
151.25 53.212 L
151.557 54.261 L
151.865 55.332 L
152.173 56.426 L
152.48 57.542 L
152.788 58.679 L
153.095 59.837 L
153.402 61.016 L
153.71 62.214 L
154.018 63.43 L
154.325 64.666 L
154.633 65.919 L
154.94 67.189 L
155.247 68.475 L
155.555 69.777 L
155.863 71.094 L
156.17 72.425 L
156.477 73.77 L
156.785 75.128 L
157.092 76.498 L
157.4 77.879 L
157.708 79.271 L
158.015 80.672 L
158.322 82.083 L
158.63 83.502 L
158.938 84.928 L
159.245 86.361 L
159.553 87.8 L
159.86 89.245 L
160.167 90.693 L
160.475 92.145 L
160.783 93.6 L
161.09 95.056 L
161.398 96.514 L
161.705 97.972 L
162.012 99.429 L
162.32 100.885 L
162.628 102.339 L
162.935 103.79 L
163.242 105.237 L
163.55 106.68 L
163.857 108.117 L
164.165 109.548 L
164.473 110.972 L
164.78 112.388 L
165.087 113.796 L
165.395 115.194 L
165.702 116.583 L
166.01 117.96 L
166.318 119.326 L
166.625 120.68 L
166.932 122.02 L
167.24 123.347 L
167.548 124.659 L
167.855 125.956 L
168.163 127.237 L
168.47 128.501 L
168.777 129.748 L
169.085 130.977 L
169.393 132.188 L
169.7 133.379 L
170.007 134.551 L
170.315 135.702 L
170.622 136.832 L
170.93 137.941 L
171.238 139.028 L
171.545 140.091 L
171.852 141.132 L
172.16 142.149 L
172.467 143.142 L
172.775 144.11 L
173.083 145.053 L
173.39 145.971 L
173.697 146.862 L
174.005 147.728 L
174.313 148.566 L
174.62 149.378 L
174.928 150.162 L
175.235 150.918 L
175.542 151.646 L
175.85 152.346 L
176.158 153.018 L
176.465 153.66 L
176.773 154.274 L
177.08 154.858 L
177.387 155.413 L
177.695 155.938 L
178.003 156.433 L
178.31 156.899 L
178.617 157.335 L
178.925 157.74 L
179.232 158.116 L
179.54 158.462 L
179.848 158.777 L
180.155 159.063 L
180.462 159.318 L
180.77 159.543 L
181.077 159.738 L
181.385 159.904 L
181.693 160.04 L
182 160.146 L
182.307 160.222 L
182.615 160.269 L
182.923 160.287 L
183.23 160.276 L
183.538 160.237 L
183.845 160.169 L
184.152 160.072 L
184.46 159.948 L
184.768 159.796 L
185.075 159.617 L
185.382 159.411 L
185.69 159.178 L
185.997 158.919 L
186.305 158.634 L
186.613 158.323 L
186.92 157.988 L
187.227 157.627 L
187.535 157.242 L
187.842 156.834 L
188.15 156.402 L
188.458 155.948 L
188.765 155.47 L
189.072 154.972 L
189.38 154.451 L
189.688 153.91 L
189.995 153.349 L
190.303 152.768 L
190.61 152.167 L
190.917 151.548 L
191.225 150.911 L
191.533 150.256 L
191.84 149.585 L
192.148 148.897 L
192.455 148.194 L
192.762 147.475 L
193.07 146.742 L
193.378 145.995 L
193.685 145.235 L
193.992 144.463 L
194.3 143.678 L
194.607 142.882 L
194.915 142.076 L
195.223 141.259 L
195.53 140.433 L
195.837 139.598 L
196.145 138.755 L
196.452 137.904 L
196.76 137.047 L
197.068 136.183 L
197.375 135.314 L
197.682 134.44 L
197.99 133.562 L
198.298 132.68 L
198.605 131.795 L
198.913 130.907 L
199.22 130.018 L
199.527 129.128 L
199.835 128.237 L
200.143 127.346 L
200.45 126.455 L
200.757 125.566 L
201.065 124.679 L
201.372 123.794 L
201.68 122.912 L
201.988 122.033 L
202.295 121.159 L
202.602 120.289 L
202.91 119.424 L
203.217 118.564 L
203.525 117.711 L
203.833 116.865 L
204.14 116.025 L
204.447 115.194 L
204.755 114.37 L
205.063 113.555 L
205.37 112.748 L
205.678 111.952 L
205.985 111.165 L
206.292 110.388 L
206.6 109.621 L
206.908 108.866 L
207.215 108.122 L
207.523 107.39 L
207.83 106.67 L
208.137 105.962 L
208.445 105.266 L
208.753 104.584 L
209.06 103.915 L
209.368 103.259 L
209.675 102.618 L
209.982 101.99 L
210.29 101.376 L
210.598 100.777 L
210.905 100.192 L
211.212 99.622 L
211.52 99.067 L
211.827 98.528 L
212.135 98.003 L
212.443 97.494 L
212.75 97 L
213.057 96.522 L
213.365 96.059 L
213.673 95.612 L
213.98 95.181 L
214.288 94.766 L
214.595 94.366 L
214.902 93.982 L
215.21 93.614 L
215.518 93.262 L
215.825 92.926 L
216.132 92.605 L
216.44 92.3 L
216.747 92.01 L
217.055 91.736 L
217.363 91.477 L
217.67 91.234 L
217.977 91.006 L
218.285 90.792 L
218.592 90.594 L
218.9 90.41 L
219.208 90.241 L
219.515 90.086 L
219.822 89.946 L
220.13 89.819 L
220.438 89.707 L
220.745 89.607 L
221.052 89.522 L
221.36 89.449 L
221.667 89.389 L
221.975 89.342 L
222.283 89.307 L
222.59 89.285 L
222.897 89.274 L
223.205 89.275 L
223.512 89.287 L
223.82 89.31 L
224.128 89.343 L
224.435 89.387 L
224.742 89.442 L
225.05 89.506 L
225.357 89.579 L
225.665 89.662 L
225.973 89.753 L
226.28 89.854 L
226.587 89.962 L
226.895 90.078 L
227.202 90.201 L
227.51 90.332 L
227.818 90.47 L
228.125 90.614 L
228.432 90.765 L
228.74 90.921 L
229.048 91.083 L
229.355 91.25 L
229.663 91.422 L
229.97 91.598 L
230.277 91.779 L
230.585 91.963 L
230.893 92.151 L
231.2 92.343 L
231.508 92.537 L
231.815 92.734 L
232.122 92.933 L
232.43 93.134 L
232.738 93.336 L
233.045 93.54 L
233.352 93.745 L
233.66 93.951 L
233.967 94.157 L
234.275 94.363 L
234.583 94.569 L
234.89 94.775 L
235.197 94.98 L
235.505 95.184 L
235.813 95.387 L
236.12 95.589 L
236.428 95.789 L
236.735 95.986 L
237.042 96.182 L
237.35 96.375 L
237.658 96.566 L
237.965 96.754 L
238.273 96.939 L
238.58 97.121 L
238.887 97.299 L
239.195 97.474 L
239.503 97.645 L
239.81 97.812 L
240.118 97.975 L
240.425 98.133 L
240.732 98.288 L
241.04 98.437 L
241.348 98.583 L
241.655 98.723 L
241.963 98.859 L
242.27 98.989 L
242.577 99.115 L
242.885 99.235 L
243.193 99.35 L
243.5 99.46 L
243.807 99.565 L
244.115 99.664 L
244.423 99.758 L
244.73 99.846 L
245.038 99.928 L
245.345 100.005 L
245.652 100.077 L
245.96 100.143 L
246.268 100.203 L
246.575 100.258 L
246.883 100.307 L
247.19 100.351 L
247.497 100.389 L
247.805 100.422 L
248.113 100.449 L
248.42 100.471 L
248.728 100.488 L
249.035 100.499 L
249.342 100.506 L
249.65 100.507 L
249.958 100.503 L
250.265 100.494 L
250.572 100.48 L
250.88 100.461 L
251.188 100.438 L
251.495 100.41 L
251.803 100.377 L
252.11 100.341 L
252.417 100.3 L
252.725 100.254 L
253.033 100.205 L
253.34 100.152 L
253.647 100.095 L
253.955 100.035 L
254.262 99.971 L
254.57 99.903 L
254.878 99.833 L
255.185 99.759 L
255.492 99.683 L
255.8 99.603 L
256.107 99.522 L
256.415 99.437 L
256.723 99.351 L
257.03 99.262 L
257.337 99.171 L
257.645 99.078 L
257.952 98.984 L
258.26 98.887 L
258.568 98.79 L
258.875 98.691 L
259.182 98.592 L
259.49 98.491 L
259.797 98.389 L
260.105 98.287 L
260.413 98.185 L
260.72 98.082 L
261.027 97.979 L
261.335 97.875 L
261.642 97.772 L
261.95 97.669 L
262.258 97.567 L
262.565 97.465 L
262.872 97.364 L
263.18 97.263 L
263.487 97.164 L
263.795 97.065 L
S
GR
%%Trailer
%%Pages: 1
%%EOF
