%!PS-Adobe-3.0 EPSF-3.0
%%Creator: (MATLAB, The Mathworks, Inc. Version 9.1.0.441655 \(R2016b\). Operating System: Windows 8)
%%Title: ../Dokument/Abbildungen/Durchgangswiderstand_Emitter.eps
%%CreationDate: 2017-09-03T23:15:56
%%Pages: (atend)
%%BoundingBox:     0     0   205   156
%%LanguageLevel: 3
%%EndComments
%%BeginProlog
%%BeginResource: procset (Apache XML Graphics Std ProcSet) 1.2 0
%%Version: 1.2 0
%%Copyright: (Copyright 2001-2003,2010 The Apache Software Foundation. License terms: http://www.apache.org/licenses/LICENSE-2.0)
/bd{bind def}bind def
/ld{load def}bd
/GR/grestore ld
/M/moveto ld
/LJ/setlinejoin ld
/C/curveto ld
/f/fill ld
/LW/setlinewidth ld
/GC/setgray ld
/t/show ld
/N/newpath ld
/CT/concat ld
/cp/closepath ld
/S/stroke ld
/L/lineto ld
/CC/setcmykcolor ld
/A/ashow ld
/GS/gsave ld
/RC/setrgbcolor ld
/RM/rmoveto ld
/ML/setmiterlimit ld
/re {4 2 roll M
1 index 0 rlineto
0 exch rlineto
neg 0 rlineto
cp } bd
/_ctm matrix def
/_tm matrix def
/BT { _ctm currentmatrix pop matrix _tm copy pop 0 0 moveto } bd
/ET { _ctm setmatrix } bd
/iTm { _ctm setmatrix _tm concat } bd
/Tm { _tm astore pop iTm 0 0 moveto } bd
/ux 0.0 def
/uy 0.0 def
/F {
  /Tp exch def
  /Tf exch def
  Tf findfont Tp scalefont setfont
  /cf Tf def  /cs Tp def
} bd
/ULS {currentpoint /uy exch def /ux exch def} bd
/ULE {
  /Tcx currentpoint pop def
  gsave
  newpath
  cf findfont cs scalefont dup
  /FontMatrix get 0 get /Ts exch def /FontInfo get dup
  /UnderlinePosition get Ts mul /To exch def
  /UnderlineThickness get Ts mul /Tt exch def
  ux uy To add moveto  Tcx uy To add lineto
  Tt setlinewidth stroke
  grestore
} bd
/OLE {
  /Tcx currentpoint pop def
  gsave
  newpath
  cf findfont cs scalefont dup
  /FontMatrix get 0 get /Ts exch def /FontInfo get dup
  /UnderlinePosition get Ts mul /To exch def
  /UnderlineThickness get Ts mul /Tt exch def
  ux uy To add cs add moveto Tcx uy To add cs add lineto
  Tt setlinewidth stroke
  grestore
} bd
/SOE {
  /Tcx currentpoint pop def
  gsave
  newpath
  cf findfont cs scalefont dup
  /FontMatrix get 0 get /Ts exch def /FontInfo get dup
  /UnderlinePosition get Ts mul /To exch def
  /UnderlineThickness get Ts mul /Tt exch def
  ux uy To add cs 10 mul 26 idiv add moveto Tcx uy To add cs 10 mul 26 idiv add lineto
  Tt setlinewidth stroke
  grestore
} bd
/QT {
/Y22 exch store
/X22 exch store
/Y21 exch store
/X21 exch store
currentpoint
/Y21 load 2 mul add 3 div exch
/X21 load 2 mul add 3 div exch
/X21 load 2 mul /X22 load add 3 div
/Y21 load 2 mul /Y22 load add 3 div
/X22 load /Y22 load curveto
} bd
/SSPD {
dup length /d exch dict def
{
/v exch def
/k exch def
currentpagedevice k known {
/cpdv currentpagedevice k get def
v cpdv ne {
/upd false def
/nullv v type /nulltype eq def
/nullcpdv cpdv type /nulltype eq def
nullv nullcpdv or
{
/upd true def
} {
/sametype v type cpdv type eq def
sametype {
v type /arraytype eq {
/vlen v length def
/cpdvlen cpdv length def
vlen cpdvlen eq {
0 1 vlen 1 sub {
/i exch def
/obj v i get def
/cpdobj cpdv i get def
obj cpdobj ne {
/upd true def
exit
} if
} for
} {
/upd true def
} ifelse
} {
v type /dicttype eq {
v {
/dv exch def
/dk exch def
/cpddv cpdv dk get def
dv cpddv ne {
/upd true def
exit
} if
} forall
} {
/upd true def
} ifelse
} ifelse
} if
} ifelse
upd true eq {
d k v put
} if
} if
} if
} forall
d length 0 gt {
d setpagedevice
} if
} bd
/RE { % /NewFontName [NewEncodingArray] /FontName RE -
  findfont dup length dict begin
  {
    1 index /FID ne
    {def} {pop pop} ifelse
  } forall
  /Encoding exch def
  /FontName 1 index def
  currentdict definefont pop
  end
} bind def
%%EndResource
%%BeginResource: procset (Apache XML Graphics EPS ProcSet) 1.0 0
%%Version: 1.0 0
%%Copyright: (Copyright 2002-2003 The Apache Software Foundation. License terms: http://www.apache.org/licenses/LICENSE-2.0)
/BeginEPSF { %def
/b4_Inc_state save def         % Save state for cleanup
/dict_count countdictstack def % Count objects on dict stack
/op_count count 1 sub def      % Count objects on operand stack
userdict begin                 % Push userdict on dict stack
/showpage { } def              % Redefine showpage, { } = null proc
0 setgray 0 setlinecap         % Prepare graphics state
1 setlinewidth 0 setlinejoin
10 setmiterlimit [ ] 0 setdash newpath
/languagelevel where           % If level not equal to 1 then
{pop languagelevel             % set strokeadjust and
1 ne                           % overprint to their defaults.
{false setstrokeadjust false setoverprint
} if
} if
} bd
/EndEPSF { %def
count op_count sub {pop} repeat            % Clean up stacks
countdictstack dict_count sub {end} repeat
b4_Inc_state restore
} bd
%%EndResource
%FOPBeginFontDict
%%IncludeResource: font Courier-Bold
%%IncludeResource: font Helvetica
%%IncludeResource: font Courier-BoldOblique
%%IncludeResource: font Courier-Oblique
%%IncludeResource: font Times-Roman
%%IncludeResource: font Helvetica-BoldOblique
%%IncludeResource: font Helvetica-Bold
%%IncludeResource: font Helvetica-Oblique
%%IncludeResource: font Times-BoldItalic
%%IncludeResource: font Courier
%%IncludeResource: font Times-Italic
%%IncludeResource: font Times-Bold
%%IncludeResource: font Symbol
%%IncludeResource: font ZapfDingbats
%FOPEndFontDict
%%BeginResource: encoding WinAnsiEncoding
/WinAnsiEncoding [
/.notdef /.notdef /.notdef /.notdef /.notdef
/.notdef /.notdef /.notdef /.notdef /.notdef
/.notdef /.notdef /.notdef /.notdef /.notdef
/.notdef /.notdef /.notdef /.notdef /.notdef
/.notdef /.notdef /.notdef /.notdef /.notdef
/.notdef /.notdef /.notdef /.notdef /.notdef
/.notdef /.notdef /space /exclam /quotedbl
/numbersign /dollar /percent /ampersand /quotesingle
/parenleft /parenright /asterisk /plus /comma
/hyphen /period /slash /zero /one
/two /three /four /five /six
/seven /eight /nine /colon /semicolon
/less /equal /greater /question /at
/A /B /C /D /E
/F /G /H /I /J
/K /L /M /N /O
/P /Q /R /S /T
/U /V /W /X /Y
/Z /bracketleft /backslash /bracketright /asciicircum
/underscore /quoteleft /a /b /c
/d /e /f /g /h
/i /j /k /l /m
/n /o /p /q /r
/s /t /u /v /w
/x /y /z /braceleft /bar
/braceright /asciitilde /bullet /Euro /bullet
/quotesinglbase /florin /quotedblbase /ellipsis /dagger
/daggerdbl /circumflex /perthousand /Scaron /guilsinglleft
/OE /bullet /Zcaron /bullet /bullet
/quoteleft /quoteright /quotedblleft /quotedblright /bullet
/endash /emdash /asciitilde /trademark /scaron
/guilsinglright /oe /bullet /zcaron /Ydieresis
/space /exclamdown /cent /sterling /currency
/yen /brokenbar /section /dieresis /copyright
/ordfeminine /guillemotleft /logicalnot /sfthyphen /registered
/macron /degree /plusminus /twosuperior /threesuperior
/acute /mu /paragraph /middot /cedilla
/onesuperior /ordmasculine /guillemotright /onequarter /onehalf
/threequarters /questiondown /Agrave /Aacute /Acircumflex
/Atilde /Adieresis /Aring /AE /Ccedilla
/Egrave /Eacute /Ecircumflex /Edieresis /Igrave
/Iacute /Icircumflex /Idieresis /Eth /Ntilde
/Ograve /Oacute /Ocircumflex /Otilde /Odieresis
/multiply /Oslash /Ugrave /Uacute /Ucircumflex
/Udieresis /Yacute /Thorn /germandbls /agrave
/aacute /acircumflex /atilde /adieresis /aring
/ae /ccedilla /egrave /eacute /ecircumflex
/edieresis /igrave /iacute /icircumflex /idieresis
/eth /ntilde /ograve /oacute /ocircumflex
/otilde /odieresis /divide /oslash /ugrave
/uacute /ucircumflex /udieresis /yacute /thorn
/ydieresis
] def
%%EndResource
%FOPBeginFontReencode
/Courier-Bold findfont
dup length dict begin
  {1 index /FID ne {def} {pop pop} ifelse} forall
  /Encoding WinAnsiEncoding def
  currentdict
end
/Courier-Bold exch definefont pop
/Helvetica findfont
dup length dict begin
  {1 index /FID ne {def} {pop pop} ifelse} forall
  /Encoding WinAnsiEncoding def
  currentdict
end
/Helvetica exch definefont pop
/Courier-BoldOblique findfont
dup length dict begin
  {1 index /FID ne {def} {pop pop} ifelse} forall
  /Encoding WinAnsiEncoding def
  currentdict
end
/Courier-BoldOblique exch definefont pop
/Courier-Oblique findfont
dup length dict begin
  {1 index /FID ne {def} {pop pop} ifelse} forall
  /Encoding WinAnsiEncoding def
  currentdict
end
/Courier-Oblique exch definefont pop
/Times-Roman findfont
dup length dict begin
  {1 index /FID ne {def} {pop pop} ifelse} forall
  /Encoding WinAnsiEncoding def
  currentdict
end
/Times-Roman exch definefont pop
/Helvetica-BoldOblique findfont
dup length dict begin
  {1 index /FID ne {def} {pop pop} ifelse} forall
  /Encoding WinAnsiEncoding def
  currentdict
end
/Helvetica-BoldOblique exch definefont pop
/Helvetica-Bold findfont
dup length dict begin
  {1 index /FID ne {def} {pop pop} ifelse} forall
  /Encoding WinAnsiEncoding def
  currentdict
end
/Helvetica-Bold exch definefont pop
/Helvetica-Oblique findfont
dup length dict begin
  {1 index /FID ne {def} {pop pop} ifelse} forall
  /Encoding WinAnsiEncoding def
  currentdict
end
/Helvetica-Oblique exch definefont pop
/Times-BoldItalic findfont
dup length dict begin
  {1 index /FID ne {def} {pop pop} ifelse} forall
  /Encoding WinAnsiEncoding def
  currentdict
end
/Times-BoldItalic exch definefont pop
/Courier findfont
dup length dict begin
  {1 index /FID ne {def} {pop pop} ifelse} forall
  /Encoding WinAnsiEncoding def
  currentdict
end
/Courier exch definefont pop
/Times-Italic findfont
dup length dict begin
  {1 index /FID ne {def} {pop pop} ifelse} forall
  /Encoding WinAnsiEncoding def
  currentdict
end
/Times-Italic exch definefont pop
/Times-Bold findfont
dup length dict begin
  {1 index /FID ne {def} {pop pop} ifelse} forall
  /Encoding WinAnsiEncoding def
  currentdict
end
/Times-Bold exch definefont pop
%FOPEndFontReencode
%%EndProlog
%%Page: 1 1
%%PageBoundingBox: 0 0 219 164
%%BeginPageSetup
[1 0 0 -1 0 164] CT
%%EndPageSetup
GS
[0.75 0 0 0.75 0 0.5] CT
1 GC
N
0 0 292 218 re
f
GR
GS
[0.75 0 0 0.75 0 0.5] CT
1 GC
N
0 0 292 218 re
f
GR
GS
[0.75 0 0 0.75 0 0.5] CT
1 GC
N
40 178 M
264 178 L
264 16 L
40 16 L
cp
f
GR
GS
[0.75 0 0 0.75 0 0.5] CT
0.775 GC
[1 3] 0 setdash
2 LJ
0.667 LW
N
56.858 178 M
56.858 16 L
S
GR
GS
[0.75 0 0 0.75 0 0.5] CT
0.775 GC
[1 3] 0 setdash
2 LJ
0.667 LW
N
66.719 178 M
66.719 16 L
S
GR
GS
[0.75 0 0 0.75 0 0.5] CT
0.775 GC
[1 3] 0 setdash
2 LJ
0.667 LW
N
73.715 178 M
73.715 16 L
S
GR
GS
[0.75 0 0 0.75 0 0.5] CT
0.775 GC
[1 3] 0 setdash
2 LJ
0.667 LW
N
79.142 178 M
79.142 16 L
S
GR
GS
[0.75 0 0 0.75 0 0.5] CT
0.775 GC
[1 3] 0 setdash
2 LJ
0.667 LW
N
83.576 178 M
83.576 16 L
S
GR
GS
[0.75 0 0 0.75 0 0.5] CT
0.775 GC
[1 3] 0 setdash
2 LJ
0.667 LW
N
87.325 178 M
87.325 16 L
S
GR
GS
[0.75 0 0 0.75 0 0.5] CT
0.775 GC
[1 3] 0 setdash
2 LJ
0.667 LW
N
90.573 178 M
90.573 16 L
S
GR
GS
[0.75 0 0 0.75 0 0.5] CT
0.775 GC
[1 3] 0 setdash
2 LJ
0.667 LW
N
93.438 178 M
93.438 16 L
S
GR
GS
[0.75 0 0 0.75 0 0.5] CT
0.775 GC
[1 3] 0 setdash
2 LJ
0.667 LW
N
96 178 M
96 16 L
S
GR
GS
[0.75 0 0 0.75 0 0.5] CT
0.775 GC
[1 3] 0 setdash
2 LJ
0.667 LW
N
112.858 178 M
112.858 16 L
S
GR
GS
[0.75 0 0 0.75 0 0.5] CT
0.775 GC
[1 3] 0 setdash
2 LJ
0.667 LW
N
122.719 178 M
122.719 16 L
S
GR
GS
[0.75 0 0 0.75 0 0.5] CT
0.775 GC
[1 3] 0 setdash
2 LJ
0.667 LW
N
129.715 178 M
129.715 16 L
S
GR
GS
[0.75 0 0 0.75 0 0.5] CT
0.775 GC
[1 3] 0 setdash
2 LJ
0.667 LW
N
135.142 178 M
135.142 16 L
S
GR
GS
[0.75 0 0 0.75 0 0.5] CT
0.775 GC
[1 3] 0 setdash
2 LJ
0.667 LW
N
139.576 178 M
139.576 16 L
S
GR
GS
[0.75 0 0 0.75 0 0.5] CT
0.775 GC
[1 3] 0 setdash
2 LJ
0.667 LW
N
143.325 178 M
143.325 16 L
S
GR
GS
[0.75 0 0 0.75 0 0.5] CT
0.775 GC
[1 3] 0 setdash
2 LJ
0.667 LW
N
146.573 178 M
146.573 16 L
S
GR
GS
[0.75 0 0 0.75 0 0.5] CT
0.775 GC
[1 3] 0 setdash
2 LJ
0.667 LW
N
149.438 178 M
149.438 16 L
S
GR
GS
[0.75 0 0 0.75 0 0.5] CT
0.775 GC
[1 3] 0 setdash
2 LJ
0.667 LW
N
168.858 178 M
168.858 16 L
S
GR
GS
[0.75 0 0 0.75 0 0.5] CT
0.775 GC
[1 3] 0 setdash
2 LJ
0.667 LW
N
178.719 178 M
178.719 16 L
S
GR
GS
[0.75 0 0 0.75 0 0.5] CT
0.775 GC
[1 3] 0 setdash
2 LJ
0.667 LW
N
185.715 178 M
185.715 16 L
S
GR
GS
[0.75 0 0 0.75 0 0.5] CT
0.775 GC
[1 3] 0 setdash
2 LJ
0.667 LW
N
191.142 178 M
191.142 16 L
S
GR
GS
[0.75 0 0 0.75 0 0.5] CT
0.775 GC
[1 3] 0 setdash
2 LJ
0.667 LW
N
195.576 178 M
195.576 16 L
S
GR
GS
[0.75 0 0 0.75 0 0.5] CT
0.775 GC
[1 3] 0 setdash
2 LJ
0.667 LW
N
199.325 178 M
199.325 16 L
S
GR
GS
[0.75 0 0 0.75 0 0.5] CT
0.775 GC
[1 3] 0 setdash
2 LJ
0.667 LW
N
202.573 178 M
202.573 16 L
S
GR
GS
[0.75 0 0 0.75 0 0.5] CT
0.775 GC
[1 3] 0 setdash
2 LJ
0.667 LW
N
205.438 178 M
205.438 16 L
S
GR
GS
[0.75 0 0 0.75 0 0.5] CT
0.775 GC
[1 3] 0 setdash
2 LJ
0.667 LW
N
208 178 M
208 16 L
S
GR
GS
[0.75 0 0 0.75 0 0.5] CT
0.775 GC
[1 3] 0 setdash
2 LJ
0.667 LW
N
224.858 178 M
224.858 16 L
S
GR
GS
[0.75 0 0 0.75 0 0.5] CT
0.775 GC
[1 3] 0 setdash
2 LJ
0.667 LW
N
234.719 178 M
234.719 16 L
S
GR
GS
[0.75 0 0 0.75 0 0.5] CT
0.775 GC
[1 3] 0 setdash
2 LJ
0.667 LW
N
241.715 178 M
241.715 16 L
S
GR
GS
[0.75 0 0 0.75 0 0.5] CT
0.775 GC
[1 3] 0 setdash
2 LJ
0.667 LW
N
247.142 178 M
247.142 16 L
S
GR
GS
[0.75 0 0 0.75 0 0.5] CT
0.775 GC
[1 3] 0 setdash
2 LJ
0.667 LW
N
251.576 178 M
251.576 16 L
S
GR
GS
[0.75 0 0 0.75 0 0.5] CT
0.775 GC
[1 3] 0 setdash
2 LJ
0.667 LW
N
255.325 178 M
255.325 16 L
S
GR
GS
[0.75 0 0 0.75 0 0.5] CT
0.775 GC
[1 3] 0 setdash
2 LJ
0.667 LW
N
258.573 178 M
258.573 16 L
S
GR
GS
[0.75 0 0 0.75 0 0.5] CT
0.775 GC
[1 3] 0 setdash
2 LJ
0.667 LW
N
261.438 178 M
261.438 16 L
S
GR
GS
[0.75 0 0 0.75 0 0.5] CT
0.873 GC
1 LJ
0.667 LW
N
40 178 M
40 16 L
S
GR
GS
[0.75 0 0 0.75 0 0.5] CT
0.873 GC
1 LJ
0.667 LW
N
152 178 M
152 16 L
S
GR
GS
[0.75 0 0 0.75 0 0.5] CT
0.873 GC
1 LJ
0.667 LW
N
264 178 M
264 16 L
S
GR
GS
[0.75 0 0 0.75 0 0.5] CT
0.873 GC
1 LJ
0.667 LW
N
264 178 M
40 178 L
S
GR
GS
[0.75 0 0 0.75 0 0.5] CT
0.873 GC
1 LJ
0.667 LW
N
264 137.5 M
40 137.5 L
S
GR
GS
[0.75 0 0 0.75 0 0.5] CT
0.873 GC
1 LJ
0.667 LW
N
264 97 M
40 97 L
S
GR
GS
[0.75 0 0 0.75 0 0.5] CT
0.873 GC
1 LJ
0.667 LW
N
264 56.5 M
40 56.5 L
S
GR
GS
[0.75 0 0 0.75 0 0.5] CT
0.873 GC
1 LJ
0.667 LW
N
264 16 M
40 16 L
S
GR
GS
[0.75 0 0 0.75 0 0.5] CT
0.149 GC
2 setlinecap
1 LJ
0.667 LW
N
40 178 M
264 178 L
S
GR
GS
[0.75 0 0 0.75 0 0.5] CT
0.149 GC
2 setlinecap
1 LJ
0.667 LW
N
40 16 M
264 16 L
S
GR
GS
[0.75 0 0 0.75 0 0.5] CT
0.149 GC
2 setlinecap
1 LJ
0.667 LW
N
40 178 M
40 175.76 L
S
GR
GS
[0.75 0 0 0.75 0 0.5] CT
0.149 GC
2 setlinecap
1 LJ
0.667 LW
N
152 178 M
152 175.76 L
S
GR
GS
[0.75 0 0 0.75 0 0.5] CT
0.149 GC
2 setlinecap
1 LJ
0.667 LW
N
264 178 M
264 175.76 L
S
GR
GS
[0.75 0 0 0.75 0 0.5] CT
0.149 GC
2 setlinecap
1 LJ
0.667 LW
N
40 16 M
40 18.24 L
S
GR
GS
[0.75 0 0 0.75 0 0.5] CT
0.149 GC
2 setlinecap
1 LJ
0.667 LW
N
152 16 M
152 18.24 L
S
GR
GS
[0.75 0 0 0.75 0 0.5] CT
0.149 GC
2 setlinecap
1 LJ
0.667 LW
N
264 16 M
264 18.24 L
S
GR
GS
[0.75 0 0 0.75 0 0.5] CT
0.149 GC
2 setlinecap
1 LJ
0.667 LW
N
40 178 M
40 176.88 L
S
GR
GS
[0.75 0 0 0.75 0 0.5] CT
0.149 GC
2 setlinecap
1 LJ
0.667 LW
N
56.858 178 M
56.858 176.88 L
S
GR
GS
[0.75 0 0 0.75 0 0.5] CT
0.149 GC
2 setlinecap
1 LJ
0.667 LW
N
66.719 178 M
66.719 176.88 L
S
GR
GS
[0.75 0 0 0.75 0 0.5] CT
0.149 GC
2 setlinecap
1 LJ
0.667 LW
N
73.715 178 M
73.715 176.88 L
S
GR
GS
[0.75 0 0 0.75 0 0.5] CT
0.149 GC
2 setlinecap
1 LJ
0.667 LW
N
79.142 178 M
79.142 176.88 L
S
GR
GS
[0.75 0 0 0.75 0 0.5] CT
0.149 GC
2 setlinecap
1 LJ
0.667 LW
N
83.576 178 M
83.576 176.88 L
S
GR
GS
[0.75 0 0 0.75 0 0.5] CT
0.149 GC
2 setlinecap
1 LJ
0.667 LW
N
87.325 178 M
87.325 176.88 L
S
GR
GS
[0.75 0 0 0.75 0 0.5] CT
0.149 GC
2 setlinecap
1 LJ
0.667 LW
N
90.573 178 M
90.573 176.88 L
S
GR
GS
[0.75 0 0 0.75 0 0.5] CT
0.149 GC
2 setlinecap
1 LJ
0.667 LW
N
93.438 178 M
93.438 176.88 L
S
GR
GS
[0.75 0 0 0.75 0 0.5] CT
0.149 GC
2 setlinecap
1 LJ
0.667 LW
N
96 178 M
96 176.88 L
S
GR
GS
[0.75 0 0 0.75 0 0.5] CT
0.149 GC
2 setlinecap
1 LJ
0.667 LW
N
112.858 178 M
112.858 176.88 L
S
GR
GS
[0.75 0 0 0.75 0 0.5] CT
0.149 GC
2 setlinecap
1 LJ
0.667 LW
N
122.719 178 M
122.719 176.88 L
S
GR
GS
[0.75 0 0 0.75 0 0.5] CT
0.149 GC
2 setlinecap
1 LJ
0.667 LW
N
129.715 178 M
129.715 176.88 L
S
GR
GS
[0.75 0 0 0.75 0 0.5] CT
0.149 GC
2 setlinecap
1 LJ
0.667 LW
N
135.142 178 M
135.142 176.88 L
S
GR
GS
[0.75 0 0 0.75 0 0.5] CT
0.149 GC
2 setlinecap
1 LJ
0.667 LW
N
139.576 178 M
139.576 176.88 L
S
GR
GS
[0.75 0 0 0.75 0 0.5] CT
0.149 GC
2 setlinecap
1 LJ
0.667 LW
N
143.325 178 M
143.325 176.88 L
S
GR
GS
[0.75 0 0 0.75 0 0.5] CT
0.149 GC
2 setlinecap
1 LJ
0.667 LW
N
146.573 178 M
146.573 176.88 L
S
GR
GS
[0.75 0 0 0.75 0 0.5] CT
0.149 GC
2 setlinecap
1 LJ
0.667 LW
N
149.438 178 M
149.438 176.88 L
S
GR
GS
[0.75 0 0 0.75 0 0.5] CT
0.149 GC
2 setlinecap
1 LJ
0.667 LW
N
152 178 M
152 176.88 L
S
GR
GS
[0.75 0 0 0.75 0 0.5] CT
0.149 GC
2 setlinecap
1 LJ
0.667 LW
N
168.858 178 M
168.858 176.88 L
S
GR
GS
[0.75 0 0 0.75 0 0.5] CT
0.149 GC
2 setlinecap
1 LJ
0.667 LW
N
178.719 178 M
178.719 176.88 L
S
GR
GS
[0.75 0 0 0.75 0 0.5] CT
0.149 GC
2 setlinecap
1 LJ
0.667 LW
N
185.715 178 M
185.715 176.88 L
S
GR
GS
[0.75 0 0 0.75 0 0.5] CT
0.149 GC
2 setlinecap
1 LJ
0.667 LW
N
191.142 178 M
191.142 176.88 L
S
GR
GS
[0.75 0 0 0.75 0 0.5] CT
0.149 GC
2 setlinecap
1 LJ
0.667 LW
N
195.576 178 M
195.576 176.88 L
S
GR
GS
[0.75 0 0 0.75 0 0.5] CT
0.149 GC
2 setlinecap
1 LJ
0.667 LW
N
199.325 178 M
199.325 176.88 L
S
GR
GS
[0.75 0 0 0.75 0 0.5] CT
0.149 GC
2 setlinecap
1 LJ
0.667 LW
N
202.573 178 M
202.573 176.88 L
S
GR
GS
[0.75 0 0 0.75 0 0.5] CT
0.149 GC
2 setlinecap
1 LJ
0.667 LW
N
205.438 178 M
205.438 176.88 L
S
GR
GS
[0.75 0 0 0.75 0 0.5] CT
0.149 GC
2 setlinecap
1 LJ
0.667 LW
N
208 178 M
208 176.88 L
S
GR
GS
[0.75 0 0 0.75 0 0.5] CT
0.149 GC
2 setlinecap
1 LJ
0.667 LW
N
224.858 178 M
224.858 176.88 L
S
GR
GS
[0.75 0 0 0.75 0 0.5] CT
0.149 GC
2 setlinecap
1 LJ
0.667 LW
N
234.719 178 M
234.719 176.88 L
S
GR
GS
[0.75 0 0 0.75 0 0.5] CT
0.149 GC
2 setlinecap
1 LJ
0.667 LW
N
241.715 178 M
241.715 176.88 L
S
GR
GS
[0.75 0 0 0.75 0 0.5] CT
0.149 GC
2 setlinecap
1 LJ
0.667 LW
N
247.142 178 M
247.142 176.88 L
S
GR
GS
[0.75 0 0 0.75 0 0.5] CT
0.149 GC
2 setlinecap
1 LJ
0.667 LW
N
251.576 178 M
251.576 176.88 L
S
GR
GS
[0.75 0 0 0.75 0 0.5] CT
0.149 GC
2 setlinecap
1 LJ
0.667 LW
N
255.325 178 M
255.325 176.88 L
S
GR
GS
[0.75 0 0 0.75 0 0.5] CT
0.149 GC
2 setlinecap
1 LJ
0.667 LW
N
258.573 178 M
258.573 176.88 L
S
GR
GS
[0.75 0 0 0.75 0 0.5] CT
0.149 GC
2 setlinecap
1 LJ
0.667 LW
N
261.438 178 M
261.438 176.88 L
S
GR
GS
[0.75 0 0 0.75 0 0.5] CT
0.149 GC
2 setlinecap
1 LJ
0.667 LW
N
264 178 M
264 176.88 L
S
GR
GS
[0.75 0 0 0.75 0 0.5] CT
0.149 GC
2 setlinecap
1 LJ
0.667 LW
N
40 16 M
40 17.12 L
S
GR
GS
[0.75 0 0 0.75 0 0.5] CT
0.149 GC
2 setlinecap
1 LJ
0.667 LW
N
56.858 16 M
56.858 17.12 L
S
GR
GS
[0.75 0 0 0.75 0 0.5] CT
0.149 GC
2 setlinecap
1 LJ
0.667 LW
N
66.719 16 M
66.719 17.12 L
S
GR
GS
[0.75 0 0 0.75 0 0.5] CT
0.149 GC
2 setlinecap
1 LJ
0.667 LW
N
73.715 16 M
73.715 17.12 L
S
GR
GS
[0.75 0 0 0.75 0 0.5] CT
0.149 GC
2 setlinecap
1 LJ
0.667 LW
N
79.142 16 M
79.142 17.12 L
S
GR
GS
[0.75 0 0 0.75 0 0.5] CT
0.149 GC
2 setlinecap
1 LJ
0.667 LW
N
83.576 16 M
83.576 17.12 L
S
GR
GS
[0.75 0 0 0.75 0 0.5] CT
0.149 GC
2 setlinecap
1 LJ
0.667 LW
N
87.325 16 M
87.325 17.12 L
S
GR
GS
[0.75 0 0 0.75 0 0.5] CT
0.149 GC
2 setlinecap
1 LJ
0.667 LW
N
90.573 16 M
90.573 17.12 L
S
GR
GS
[0.75 0 0 0.75 0 0.5] CT
0.149 GC
2 setlinecap
1 LJ
0.667 LW
N
93.438 16 M
93.438 17.12 L
S
GR
GS
[0.75 0 0 0.75 0 0.5] CT
0.149 GC
2 setlinecap
1 LJ
0.667 LW
N
96 16 M
96 17.12 L
S
GR
GS
[0.75 0 0 0.75 0 0.5] CT
0.149 GC
2 setlinecap
1 LJ
0.667 LW
N
112.858 16 M
112.858 17.12 L
S
GR
GS
[0.75 0 0 0.75 0 0.5] CT
0.149 GC
2 setlinecap
1 LJ
0.667 LW
N
122.719 16 M
122.719 17.12 L
S
GR
GS
[0.75 0 0 0.75 0 0.5] CT
0.149 GC
2 setlinecap
1 LJ
0.667 LW
N
129.715 16 M
129.715 17.12 L
S
GR
GS
[0.75 0 0 0.75 0 0.5] CT
0.149 GC
2 setlinecap
1 LJ
0.667 LW
N
135.142 16 M
135.142 17.12 L
S
GR
GS
[0.75 0 0 0.75 0 0.5] CT
0.149 GC
2 setlinecap
1 LJ
0.667 LW
N
139.576 16 M
139.576 17.12 L
S
GR
GS
[0.75 0 0 0.75 0 0.5] CT
0.149 GC
2 setlinecap
1 LJ
0.667 LW
N
143.325 16 M
143.325 17.12 L
S
GR
GS
[0.75 0 0 0.75 0 0.5] CT
0.149 GC
2 setlinecap
1 LJ
0.667 LW
N
146.573 16 M
146.573 17.12 L
S
GR
GS
[0.75 0 0 0.75 0 0.5] CT
0.149 GC
2 setlinecap
1 LJ
0.667 LW
N
149.438 16 M
149.438 17.12 L
S
GR
GS
[0.75 0 0 0.75 0 0.5] CT
0.149 GC
2 setlinecap
1 LJ
0.667 LW
N
152 16 M
152 17.12 L
S
GR
GS
[0.75 0 0 0.75 0 0.5] CT
0.149 GC
2 setlinecap
1 LJ
0.667 LW
N
168.858 16 M
168.858 17.12 L
S
GR
GS
[0.75 0 0 0.75 0 0.5] CT
0.149 GC
2 setlinecap
1 LJ
0.667 LW
N
178.719 16 M
178.719 17.12 L
S
GR
GS
[0.75 0 0 0.75 0 0.5] CT
0.149 GC
2 setlinecap
1 LJ
0.667 LW
N
185.715 16 M
185.715 17.12 L
S
GR
GS
[0.75 0 0 0.75 0 0.5] CT
0.149 GC
2 setlinecap
1 LJ
0.667 LW
N
191.142 16 M
191.142 17.12 L
S
GR
GS
[0.75 0 0 0.75 0 0.5] CT
0.149 GC
2 setlinecap
1 LJ
0.667 LW
N
195.576 16 M
195.576 17.12 L
S
GR
GS
[0.75 0 0 0.75 0 0.5] CT
0.149 GC
2 setlinecap
1 LJ
0.667 LW
N
199.325 16 M
199.325 17.12 L
S
GR
GS
[0.75 0 0 0.75 0 0.5] CT
0.149 GC
2 setlinecap
1 LJ
0.667 LW
N
202.573 16 M
202.573 17.12 L
S
GR
GS
[0.75 0 0 0.75 0 0.5] CT
0.149 GC
2 setlinecap
1 LJ
0.667 LW
N
205.438 16 M
205.438 17.12 L
S
GR
GS
[0.75 0 0 0.75 0 0.5] CT
0.149 GC
2 setlinecap
1 LJ
0.667 LW
N
208 16 M
208 17.12 L
S
GR
GS
[0.75 0 0 0.75 0 0.5] CT
0.149 GC
2 setlinecap
1 LJ
0.667 LW
N
224.858 16 M
224.858 17.12 L
S
GR
GS
[0.75 0 0 0.75 0 0.5] CT
0.149 GC
2 setlinecap
1 LJ
0.667 LW
N
234.719 16 M
234.719 17.12 L
S
GR
GS
[0.75 0 0 0.75 0 0.5] CT
0.149 GC
2 setlinecap
1 LJ
0.667 LW
N
241.715 16 M
241.715 17.12 L
S
GR
GS
[0.75 0 0 0.75 0 0.5] CT
0.149 GC
2 setlinecap
1 LJ
0.667 LW
N
247.142 16 M
247.142 17.12 L
S
GR
GS
[0.75 0 0 0.75 0 0.5] CT
0.149 GC
2 setlinecap
1 LJ
0.667 LW
N
251.576 16 M
251.576 17.12 L
S
GR
GS
[0.75 0 0 0.75 0 0.5] CT
0.149 GC
2 setlinecap
1 LJ
0.667 LW
N
255.325 16 M
255.325 17.12 L
S
GR
GS
[0.75 0 0 0.75 0 0.5] CT
0.149 GC
2 setlinecap
1 LJ
0.667 LW
N
258.573 16 M
258.573 17.12 L
S
GR
GS
[0.75 0 0 0.75 0 0.5] CT
0.149 GC
2 setlinecap
1 LJ
0.667 LW
N
261.438 16 M
261.438 17.12 L
S
GR
GS
[0.75 0 0 0.75 0 0.5] CT
0.149 GC
2 setlinecap
1 LJ
0.667 LW
N
264 16 M
264 17.12 L
S
GR
GS
[0.75 0 0 0.75 30 138] CT
0.149 GC
N
-8.13 11.2 M
-8.13 10.747 L
-6.505 10.747 -6.505 10.325 QT
-6.505 3.512 L
-7.177 3.825 -8.208 3.825 QT
-8.208 3.372 L
-6.615 3.372 -5.802 2.544 QT
-5.615 2.544 L
-5.568 2.544 -5.529 2.575 QT
-5.49 2.606 -5.49 2.653 QT
-5.49 10.325 L
-5.49 10.747 -3.865 10.747 QT
-3.865 11.2 L
-8.13 11.2 L
cp
f
GR
GS
[0.75 0 0 0.75 30 138] CT
0.149 GC
N
0.583 11.481 M
-1.01 11.481 -1.581 10.169 QT
-2.151 8.856 -2.151 7.059 QT
-2.151 5.919 -1.948 4.927 QT
-1.745 3.934 -1.135 3.239 QT
-0.526 2.544 0.583 2.544 QT
1.443 2.544 1.99 2.958 QT
2.536 3.372 2.818 4.036 QT
3.099 4.7 3.208 5.458 QT
3.318 6.216 3.318 7.059 QT
3.318 8.169 3.107 9.145 QT
2.896 10.122 2.294 10.802 QT
1.693 11.481 0.583 11.481 QT
cp
0.583 11.153 M
1.302 11.153 1.661 10.411 QT
2.021 9.669 2.099 8.762 QT
2.177 7.856 2.177 6.841 QT
2.177 5.872 2.099 5.044 QT
2.021 4.216 1.669 3.544 QT
1.318 2.872 0.583 2.872 QT
-0.151 2.872 -0.51 3.552 QT
-0.87 4.231 -0.948 5.052 QT
-1.026 5.872 -1.026 6.841 QT
-1.026 7.575 -0.995 8.216 QT
-0.964 8.856 -0.807 9.536 QT
-0.651 10.216 -0.315 10.684 QT
0.021 11.153 0.583 11.153 QT
cp
f
GR
GS
[0.75 0 0 0.75 30 138] CT
0.149 GC
N
4.453 6.361 M
4.453 6.127 L
4.453 6.096 4.469 6.065 QT
5.859 4.518 L
6.188 4.174 6.383 3.947 QT
6.578 3.721 6.773 3.416 QT
6.969 3.111 7.078 2.799 QT
7.188 2.486 7.188 2.127 QT
7.188 1.768 7.047 1.424 QT
6.906 1.08 6.641 0.885 QT
6.375 0.69 5.984 0.69 QT
5.594 0.69 5.281 0.924 QT
4.969 1.158 4.844 1.533 QT
4.891 1.518 4.938 1.518 QT
5.141 1.518 5.289 1.65 QT
5.438 1.783 5.438 2.002 QT
5.438 2.205 5.289 2.354 QT
5.141 2.502 4.938 2.502 QT
4.734 2.502 4.594 2.354 QT
4.453 2.205 4.453 2.002 QT
4.453 1.674 4.578 1.377 QT
4.703 1.08 4.945 0.846 QT
5.188 0.611 5.484 0.486 QT
5.781 0.361 6.125 0.361 QT
6.641 0.361 7.086 0.58 QT
7.531 0.799 7.789 1.197 QT
8.047 1.596 8.047 2.127 QT
8.047 2.518 7.875 2.869 QT
7.703 3.221 7.438 3.51 QT
7.172 3.799 6.75 4.166 QT
6.328 4.533 6.203 4.658 QT
5.172 5.627 L
6.047 5.627 L
6.688 5.627 7.109 5.619 QT
7.531 5.611 7.563 5.58 QT
7.672 5.471 7.781 4.752 QT
8.047 4.752 L
7.781 6.361 L
4.453 6.361 L
cp
f
GR
GS
[0.75 0 0 0.75 114 138] CT
0.149 GC
N
/f117695946{-8.13 11.2 M
-8.13 10.747 L
-6.505 10.747 -6.505 10.325 QT
-6.505 3.512 L
-7.177 3.825 -8.208 3.825 QT
-8.208 3.372 L
-6.615 3.372 -5.802 2.544 QT
-5.615 2.544 L
-5.568 2.544 -5.529 2.575 QT
-5.49 2.606 -5.49 2.653 QT
-5.49 10.325 L
-5.49 10.747 -3.865 10.747 QT
-3.865 11.2 L
-8.13 11.2 L
cp}def
f117695946
f
GR
GS
[0.75 0 0 0.75 114 138] CT
0.149 GC
N
/f2138031099{0.583 11.481 M
-1.01 11.481 -1.581 10.169 QT
-2.151 8.856 -2.151 7.059 QT
-2.151 5.919 -1.948 4.927 QT
-1.745 3.934 -1.135 3.239 QT
-0.526 2.544 0.583 2.544 QT
1.443 2.544 1.99 2.958 QT
2.536 3.372 2.818 4.036 QT
3.099 4.7 3.208 5.458 QT
3.318 6.216 3.318 7.059 QT
3.318 8.169 3.107 9.145 QT
2.896 10.122 2.294 10.802 QT
1.693 11.481 0.583 11.481 QT
cp
0.583 11.153 M
1.302 11.153 1.661 10.411 QT
2.021 9.669 2.099 8.762 QT
2.177 7.856 2.177 6.841 QT
2.177 5.872 2.099 5.044 QT
2.021 4.216 1.669 3.544 QT
1.318 2.872 0.583 2.872 QT
-0.151 2.872 -0.51 3.552 QT
-0.87 4.231 -0.948 5.052 QT
-1.026 5.872 -1.026 6.841 QT
-1.026 7.575 -0.995 8.216 QT
-0.964 8.856 -0.807 9.536 QT
-0.651 10.216 -0.315 10.684 QT
0.021 11.153 0.583 11.153 QT
cp}def
f2138031099
f
GR
GS
[0.75 0 0 0.75 114 138] CT
0.149 GC
N
/f968019605{4.25 4.877 M
4.25 4.565 L
7.031 0.408 L
7.063 0.361 7.125 0.361 QT
7.25 0.361 L
7.359 0.361 7.359 0.471 QT
7.359 4.565 L
8.234 4.565 L
8.234 4.877 L
7.359 4.877 L
7.359 5.752 L
7.359 5.94 7.625 5.994 QT
7.891 6.049 8.234 6.049 QT
8.234 6.361 L
5.75 6.361 L
5.75 6.049 L
6.094 6.049 6.359 5.994 QT
6.625 5.94 6.625 5.752 QT
6.625 4.877 L
4.25 4.877 L
cp
4.547 4.565 M
6.688 4.565 L
6.688 1.377 L
4.547 4.565 L
cp}def
f968019605
f
GR
GS
[0.75 0 0 0.75 198 138] CT
0.149 GC
N
f117695946
f
GR
GS
[0.75 0 0 0.75 198 138] CT
0.149 GC
N
f2138031099
f
GR
GS
[0.75 0 0 0.75 198 138] CT
0.149 GC
N
/f-1214363871{6.25 6.565 M
5.688 6.565 5.313 6.268 QT
4.938 5.971 4.734 5.494 QT
4.531 5.018 4.453 4.502 QT
4.375 3.986 4.375 3.455 QT
4.375 2.736 4.656 2.025 QT
4.938 1.315 5.477 0.838 QT
6.016 0.361 6.75 0.361 QT
7.047 0.361 7.32 0.479 QT
7.594 0.596 7.742 0.822 QT
7.891 1.049 7.891 1.377 QT
7.891 1.565 7.766 1.69 QT
7.641 1.815 7.453 1.815 QT
7.281 1.815 7.156 1.682 QT
7.031 1.549 7.031 1.377 QT
7.031 1.205 7.156 1.072 QT
7.281 0.94 7.453 0.94 QT
7.5 0.94 L
7.391 0.783 7.18 0.705 QT
6.969 0.627 6.75 0.627 QT
6.469 0.627 6.242 0.744 QT
6.016 0.861 5.828 1.065 QT
5.641 1.268 5.516 1.51 QT
5.391 1.752 5.328 2.065 QT
5.266 2.377 5.242 2.65 QT
5.219 2.924 5.219 3.33 QT
5.391 2.971 5.68 2.736 QT
5.969 2.502 6.328 2.502 QT
6.734 2.502 7.063 2.666 QT
7.391 2.83 7.625 3.111 QT
7.859 3.393 7.984 3.768 QT
8.109 4.143 8.109 4.518 QT
8.109 5.049 7.875 5.525 QT
7.641 6.002 7.219 6.283 QT
6.797 6.565 6.25 6.565 QT
cp
6.25 6.268 M
6.594 6.268 6.805 6.111 QT
7.016 5.955 7.117 5.697 QT
7.219 5.44 7.242 5.174 QT
7.266 4.908 7.266 4.518 QT
7.266 4.002 7.219 3.643 QT
7.172 3.283 6.953 3.01 QT
6.734 2.736 6.297 2.736 QT
5.922 2.736 5.688 2.979 QT
5.453 3.221 5.352 3.604 QT
5.25 3.986 5.25 4.33 QT
5.25 4.44 5.25 4.502 QT
5.25 4.518 5.25 4.525 QT
5.25 4.533 5.25 4.549 QT
5.25 4.94 5.328 5.33 QT
5.406 5.721 5.625 5.994 QT
5.844 6.268 6.25 6.268 QT
cp}def
f-1214363871
f
GR
GS
[0.75 0 0 0.75 114.00008 151] CT
0.149 GC
N
/f-2035873689{-17.034 12.32 M
-17.034 11.789 L
-16.534 11.789 -16.206 11.711 QT
-15.878 11.632 -15.878 11.32 QT
-15.878 6.382 L
-17.019 6.382 L
-17.019 5.851 L
-15.878 5.851 L
-15.878 4.054 L
-15.878 3.57 -15.675 3.148 QT
-15.472 2.726 -15.128 2.414 QT
-14.784 2.101 -14.339 1.922 QT
-13.894 1.742 -13.425 1.742 QT
-12.925 1.742 -12.519 2.047 QT
-12.112 2.351 -12.112 2.836 QT
-12.112 3.132 -12.3 3.328 QT
-12.487 3.523 -12.784 3.523 QT
-13.065 3.523 -13.269 3.328 QT
-13.472 3.132 -13.472 2.836 QT
-13.472 2.367 -13.065 2.211 QT
-13.3 2.132 -13.503 2.132 QT
-13.94 2.132 -14.253 2.445 QT
-14.565 2.757 -14.714 3.203 QT
-14.862 3.648 -14.862 4.086 QT
-14.862 5.851 L
-13.144 5.851 L
-13.144 6.382 L
-14.815 6.382 L
-14.815 11.32 L
-14.815 11.617 -14.378 11.703 QT
-13.94 11.789 -13.362 11.789 QT
-13.362 12.32 L
-17.034 12.32 L
cp}def
f-2035873689
f
GR
GS
[0.75 0 0 0.75 114.00008 151] CT
0.149 GC
N
/f2028202385{-6.383 16.07 M
-6.383 1.07 L
-4.32 1.07 L
-4.32 1.664 L
-5.773 1.664 L
-5.773 15.476 L
-4.32 15.476 L
-4.32 16.07 L
-6.383 16.07 L
cp}def
f2028202385
f
GR
GS
[0.75 0 0 0.75 114.00008 151] CT
0.149 GC
N
/f-374141431{-3.605 12.32 M
-3.605 11.789 L
-2.074 11.789 -2.074 11.32 QT
-2.074 3.07 L
-2.074 2.601 -3.605 2.601 QT
-3.605 2.07 L
0.879 2.07 L
0.879 2.601 L
-0.668 2.601 -0.668 3.07 QT
-0.668 6.726 L
3.754 6.726 L
3.754 3.07 L
3.754 2.601 2.207 2.601 QT
2.207 2.07 L
6.692 2.07 L
6.692 2.601 L
5.16 2.601 5.16 3.07 QT
5.16 11.32 L
5.16 11.789 6.692 11.789 QT
6.692 12.32 L
2.207 12.32 L
2.207 11.789 L
3.754 11.789 3.754 11.32 QT
3.754 7.257 L
-0.668 7.257 L
-0.668 11.32 L
-0.668 11.789 0.879 11.789 QT
0.879 12.32 L
-3.605 12.32 L
cp}def
f-374141431
f
GR
GS
[0.75 0 0 0.75 114.00008 151] CT
0.149 GC
N
/f-353581992{7.52 12.32 M
7.348 12.32 7.348 12.148 QT
7.348 12.039 L
7.348 11.976 7.395 11.929 QT
11.582 6.242 L
10.223 6.242 L
9.598 6.242 9.184 6.328 QT
8.77 6.414 8.496 6.632 QT
8.223 6.851 8.106 7.242 QT
7.988 7.632 7.988 8.336 QT
7.551 8.336 L
7.723 5.851 L
12.754 5.851 L
12.817 5.851 12.863 5.898 QT
12.91 5.945 12.91 6.023 QT
12.91 6.101 L
12.91 6.148 12.879 6.211 QT
8.692 11.882 L
10.113 11.882 L
10.77 11.882 11.207 11.804 QT
11.645 11.726 11.957 11.414 QT
12.238 11.132 12.34 10.648 QT
12.442 10.164 12.504 9.461 QT
12.942 9.461 L
12.676 12.32 L
7.52 12.32 L
cp}def
f-353581992
f
GR
GS
[0.75 0 0 0.75 114.00008 151] CT
0.149 GC
N
/f-1726549143{13.773 16.07 M
13.773 15.476 L
15.226 15.476 L
15.226 1.664 L
13.773 1.664 L
13.773 1.07 L
15.835 1.07 L
15.835 16.07 L
13.773 16.07 L
cp}def
f-1726549143
f
GR
GS
[0.75 0 0 0.75 0 0.5] CT
0.149 GC
2 setlinecap
1 LJ
0.667 LW
N
40 178 M
40 16 L
S
GR
GS
[0.75 0 0 0.75 0 0.5] CT
0.149 GC
2 setlinecap
1 LJ
0.667 LW
N
264 178 M
264 16 L
S
GR
GS
[0.75 0 0 0.75 0 0.5] CT
0.149 GC
2 setlinecap
1 LJ
0.667 LW
N
40 178 M
42.24 178 L
S
GR
GS
[0.75 0 0 0.75 0 0.5] CT
0.149 GC
2 setlinecap
1 LJ
0.667 LW
N
40 137.5 M
42.24 137.5 L
S
GR
GS
[0.75 0 0 0.75 0 0.5] CT
0.149 GC
2 setlinecap
1 LJ
0.667 LW
N
40 97 M
42.24 97 L
S
GR
GS
[0.75 0 0 0.75 0 0.5] CT
0.149 GC
2 setlinecap
1 LJ
0.667 LW
N
40 56.5 M
42.24 56.5 L
S
GR
GS
[0.75 0 0 0.75 0 0.5] CT
0.149 GC
2 setlinecap
1 LJ
0.667 LW
N
40 16 M
42.24 16 L
S
GR
GS
[0.75 0 0 0.75 0 0.5] CT
0.149 GC
2 setlinecap
1 LJ
0.667 LW
N
264 178 M
261.76 178 L
S
GR
GS
[0.75 0 0 0.75 0 0.5] CT
0.149 GC
2 setlinecap
1 LJ
0.667 LW
N
264 137.5 M
261.76 137.5 L
S
GR
GS
[0.75 0 0 0.75 0 0.5] CT
0.149 GC
2 setlinecap
1 LJ
0.667 LW
N
264 97 M
261.76 97 L
S
GR
GS
[0.75 0 0 0.75 0 0.5] CT
0.149 GC
2 setlinecap
1 LJ
0.667 LW
N
264 56.5 M
261.76 56.5 L
S
GR
GS
[0.75 0 0 0.75 0 0.5] CT
0.149 GC
2 setlinecap
1 LJ
0.667 LW
N
264 16 M
261.76 16 L
S
GR
GS
[0.75 0 0 0.75 26 134] CT
0.149 GC
N
/f-2026418800{-3.417 3.481 M
-5.01 3.481 -5.581 2.169 QT
-6.151 0.856 -6.151 -0.941 QT
-6.151 -2.081 -5.948 -3.073 QT
-5.745 -4.066 -5.135 -4.761 QT
-4.526 -5.456 -3.417 -5.456 QT
-2.557 -5.456 -2.01 -5.042 QT
-1.464 -4.628 -1.182 -3.964 QT
-0.901 -3.3 -0.792 -2.542 QT
-0.682 -1.784 -0.682 -0.941 QT
-0.682 0.169 -0.893 1.145 QT
-1.104 2.122 -1.706 2.802 QT
-2.307 3.481 -3.417 3.481 QT
cp
-3.417 3.153 M
-2.698 3.153 -2.339 2.411 QT
-1.979 1.669 -1.901 0.762 QT
-1.823 -0.144 -1.823 -1.159 QT
-1.823 -2.128 -1.901 -2.956 QT
-1.979 -3.784 -2.331 -4.456 QT
-2.682 -5.128 -3.417 -5.128 QT
-4.151 -5.128 -4.51 -4.448 QT
-4.87 -3.769 -4.948 -2.948 QT
-5.026 -2.128 -5.026 -1.159 QT
-5.026 -0.425 -4.995 0.216 QT
-4.964 0.856 -4.807 1.536 QT
-4.651 2.216 -4.315 2.684 QT
-3.979 3.153 -3.417 3.153 QT
cp}def
f-2026418800
f
GR
GS
[0.75 0 0 0.75 26 103.625] CT
0.149 GC
N
/f1525863041{-12.13 3.2 M
-12.13 2.747 L
-10.505 2.747 -10.505 2.325 QT
-10.505 -4.488 L
-11.177 -4.175 -12.208 -4.175 QT
-12.208 -4.628 L
-10.615 -4.628 -9.802 -5.456 QT
-9.615 -5.456 L
-9.568 -5.456 -9.529 -5.425 QT
-9.49 -5.394 -9.49 -5.347 QT
-9.49 2.325 L
-9.49 2.747 -7.865 2.747 QT
-7.865 3.2 L
-12.13 3.2 L
cp}def
f1525863041
f
GR
GS
[0.75 0 0 0.75 26 103.625] CT
0.149 GC
N
f-2026418800
f
GR
GS
[0.75 0 0 0.75 26 73.25] CT
0.149 GC
N
/f1626408430{-12.693 3.2 M
-12.693 2.856 L
-12.693 2.825 -12.661 2.778 QT
-10.646 0.544 L
-10.177 0.044 -9.896 -0.292 QT
-9.615 -0.628 -9.333 -1.066 QT
-9.052 -1.503 -8.888 -1.956 QT
-8.724 -2.409 -8.724 -2.909 QT
-8.724 -3.441 -8.927 -3.933 QT
-9.13 -4.425 -9.521 -4.714 QT
-9.911 -5.003 -10.458 -5.003 QT
-11.021 -5.003 -11.474 -4.659 QT
-11.927 -4.316 -12.115 -3.784 QT
-12.052 -3.8 -11.974 -3.8 QT
-11.677 -3.8 -11.474 -3.605 QT
-11.271 -3.409 -11.271 -3.097 QT
-11.271 -2.8 -11.474 -2.589 QT
-11.677 -2.378 -11.974 -2.378 QT
-12.271 -2.378 -12.482 -2.589 QT
-12.693 -2.8 -12.693 -3.097 QT
-12.693 -3.581 -12.505 -4.011 QT
-12.318 -4.441 -11.974 -4.769 QT
-11.63 -5.097 -11.193 -5.277 QT
-10.755 -5.456 -10.271 -5.456 QT
-9.521 -5.456 -8.88 -5.144 QT
-8.24 -4.831 -7.865 -4.253 QT
-7.49 -3.675 -7.49 -2.909 QT
-7.49 -2.347 -7.74 -1.839 QT
-7.99 -1.331 -8.372 -0.917 QT
-8.755 -0.503 -9.365 0.028 QT
-9.974 0.559 -10.161 0.731 QT
-11.63 2.153 L
-10.38 2.153 L
-9.458 2.153 -8.841 2.137 QT
-8.224 2.122 -8.193 2.075 QT
-8.036 1.919 -7.88 0.887 QT
-7.49 0.887 L
-7.865 3.2 L
-12.693 3.2 L
cp}def
f1626408430
f
GR
GS
[0.75 0 0 0.75 26 73.25] CT
0.149 GC
N
f-2026418800
f
GR
GS
[0.75 0 0 0.75 26 42.875] CT
0.149 GC
N
/f1940848200{-12.099 2.2 M
-11.786 2.637 -11.271 2.856 QT
-10.755 3.075 -10.177 3.075 QT
-9.411 3.075 -9.099 2.427 QT
-8.786 1.778 -8.786 0.966 QT
-8.786 0.591 -8.849 0.223 QT
-8.911 -0.144 -9.076 -0.456 QT
-9.24 -0.769 -9.513 -0.964 QT
-9.786 -1.159 -10.177 -1.159 QT
-11.052 -1.159 L
-11.161 -1.159 -11.161 -1.269 QT
-11.161 -1.394 L
-11.161 -1.488 -11.052 -1.488 QT
-10.333 -1.55 L
-9.88 -1.55 -9.576 -1.894 QT
-9.271 -2.238 -9.13 -2.73 QT
-8.99 -3.222 -8.99 -3.659 QT
-8.99 -4.284 -9.279 -4.683 QT
-9.568 -5.081 -10.177 -5.081 QT
-10.661 -5.081 -11.115 -4.894 QT
-11.568 -4.706 -11.833 -4.331 QT
-11.802 -4.331 -11.786 -4.339 QT
-11.771 -4.347 -11.74 -4.347 QT
-11.458 -4.347 -11.263 -4.144 QT
-11.068 -3.941 -11.068 -3.644 QT
-11.068 -3.363 -11.263 -3.159 QT
-11.458 -2.956 -11.74 -2.956 QT
-12.036 -2.956 -12.24 -3.159 QT
-12.443 -3.363 -12.443 -3.644 QT
-12.443 -4.206 -12.107 -4.62 QT
-11.771 -5.034 -11.24 -5.245 QT
-10.708 -5.456 -10.177 -5.456 QT
-9.771 -5.456 -9.333 -5.339 QT
-8.896 -5.222 -8.544 -5.003 QT
-8.193 -4.784 -7.966 -4.441 QT
-7.74 -4.097 -7.74 -3.659 QT
-7.74 -3.113 -7.982 -2.652 QT
-8.224 -2.191 -8.654 -1.855 QT
-9.083 -1.519 -9.583 -1.347 QT
-9.021 -1.238 -8.513 -0.925 QT
-8.005 -0.613 -7.701 -0.113 QT
-7.396 0.387 -7.396 0.95 QT
-7.396 1.669 -7.786 2.247 QT
-8.177 2.825 -8.818 3.153 QT
-9.458 3.481 -10.177 3.481 QT
-10.786 3.481 -11.396 3.255 QT
-12.005 3.028 -12.396 2.559 QT
-12.786 2.091 -12.786 1.45 QT
-12.786 1.122 -12.568 0.911 QT
-12.349 0.7 -12.036 0.7 QT
-11.818 0.7 -11.646 0.794 QT
-11.474 0.887 -11.372 1.067 QT
-11.271 1.247 -11.271 1.45 QT
-11.271 1.762 -11.497 1.981 QT
-11.724 2.2 -12.036 2.2 QT
-12.099 2.2 L
cp}def
f1940848200
f
GR
GS
[0.75 0 0 0.75 26 42.875] CT
0.149 GC
N
f-2026418800
f
GR
GS
[0.75 0 0 0.75 26 12.5] CT
0.149 GC
N
/f-1847366670{-12.974 1.059 M
-12.974 0.591 L
-8.958 -5.394 L
-8.911 -5.456 -8.818 -5.456 QT
-8.63 -5.456 L
-8.49 -5.456 -8.49 -5.316 QT
-8.49 0.591 L
-7.208 0.591 L
-7.208 1.059 L
-8.49 1.059 L
-8.49 2.325 L
-8.49 2.591 -8.107 2.669 QT
-7.724 2.747 -7.224 2.747 QT
-7.224 3.2 L
-10.802 3.2 L
-10.802 2.747 L
-10.302 2.747 -9.919 2.669 QT
-9.536 2.591 -9.536 2.325 QT
-9.536 1.059 L
-12.974 1.059 L
cp
-12.536 0.591 M
-9.458 0.591 L
-9.458 -4.003 L
-12.536 0.591 L
cp}def
f-1847366670
f
GR
GS
[0.75 0 0 0.75 26 12.5] CT
0.149 GC
N
f-2026418800
f
GR
GS
[0 -0.75 0.75 0 12.99997 73.24994] CT
0.149 GC
N
/f-1315454607{-23.313 -5.28 M
-23.454 -5.28 -23.454 -5.483 QT
-23.454 -5.514 -23.43 -5.608 QT
-23.407 -5.702 -23.368 -5.757 QT
-23.329 -5.811 -23.266 -5.811 QT
-22.36 -5.811 -21.985 -5.905 QT
-21.798 -5.983 -21.704 -6.311 QT
-19.657 -14.546 L
-19.626 -14.702 -19.626 -14.764 QT
-19.626 -14.921 -19.798 -14.936 QT
-20.079 -14.999 -20.876 -14.999 QT
-21.032 -14.999 -21.032 -15.202 QT
-21.016 -15.233 -21.001 -15.327 QT
-20.985 -15.421 -20.938 -15.475 QT
-20.891 -15.53 -20.844 -15.53 QT
-16.298 -15.53 L
-15.751 -15.53 -15.165 -15.405 QT
-14.579 -15.28 -14.087 -15.014 QT
-13.594 -14.749 -13.282 -14.303 QT
-12.969 -13.858 -12.969 -13.264 QT
-12.969 -12.514 -13.469 -11.921 QT
-13.969 -11.327 -14.727 -10.928 QT
-15.485 -10.53 -16.204 -10.358 QT
-15.61 -10.155 -15.243 -9.686 QT
-14.876 -9.218 -14.876 -8.608 QT
-14.876 -8.53 -14.876 -8.491 QT
-14.876 -8.452 -14.891 -8.405 QT
-15.001 -7.061 L
-15.016 -6.78 -15.032 -6.569 QT
-15.048 -6.358 -15.048 -6.233 QT
-15.048 -5.827 -14.923 -5.585 QT
-14.798 -5.343 -14.438 -5.343 QT
-13.969 -5.343 -13.618 -5.78 QT
-13.266 -6.218 -13.157 -6.718 QT
-13.094 -6.858 -13.016 -6.858 QT
-12.876 -6.858 L
-12.719 -6.858 -12.719 -6.655 QT
-12.829 -6.218 -13.071 -5.835 QT
-13.313 -5.452 -13.673 -5.202 QT
-14.032 -4.952 -14.454 -4.952 QT
-15.344 -4.952 -15.962 -5.343 QT
-16.579 -5.733 -16.579 -6.577 QT
-16.579 -6.889 -16.516 -7.124 QT
-16.188 -8.452 L
-16.126 -8.639 -16.126 -8.889 QT
-16.126 -9.499 -16.548 -9.858 QT
-16.969 -10.218 -17.61 -10.218 QT
-19.454 -10.218 L
-20.438 -6.249 L
-20.485 -6.124 -20.485 -6.046 QT
-20.485 -5.889 -20.298 -5.874 QT
-20.016 -5.811 -19.219 -5.811 QT
-19.063 -5.811 -19.063 -5.608 QT
-19.126 -5.405 -19.149 -5.343 QT
-19.173 -5.28 -19.329 -5.28 QT
-23.313 -5.28 L
cp
-19.36 -10.608 M
-17.704 -10.608 L
-16.079 -10.608 -15.251 -11.436 QT
-14.86 -11.811 -14.641 -12.405 QT
-14.423 -12.999 -14.423 -13.577 QT
-14.423 -14.139 -14.743 -14.452 QT
-15.063 -14.764 -15.548 -14.882 QT
-16.032 -14.999 -16.61 -14.999 QT
-17.61 -14.999 L
-18.016 -14.999 -18.149 -14.928 QT
-18.282 -14.858 -18.391 -14.483 QT
-19.36 -10.608 L
cp}def
f-1315454607
f
GR
GS
[0 -0.75 0.75 0 12.99997 73.24994] CT
0.149 GC
N
/f1925244508{-9.864 -2.861 M
-10.614 -2.861 -11.2 -3.205 QT
-11.786 -3.549 -12.099 -4.158 QT
-12.411 -4.768 -12.411 -5.518 QT
-12.411 -6.611 -11.794 -7.689 QT
-11.177 -8.768 -10.169 -9.447 QT
-9.161 -10.127 -8.052 -10.127 QT
-7.474 -10.127 -7.005 -9.924 QT
-6.536 -9.721 -6.208 -9.354 QT
-5.88 -8.986 -5.7 -8.502 QT
-5.521 -8.018 -5.521 -7.439 QT
-5.521 -6.611 -5.872 -5.799 QT
-6.224 -4.986 -6.849 -4.314 QT
-7.474 -3.643 -8.247 -3.252 QT
-9.021 -2.861 -9.864 -2.861 QT
cp
-9.786 -3.158 M
-9.068 -3.158 -8.435 -3.619 QT
-7.802 -4.08 -7.357 -4.814 QT
-6.911 -5.549 -6.677 -6.346 QT
-6.443 -7.143 -6.443 -7.846 QT
-6.443 -8.377 -6.63 -8.83 QT
-6.818 -9.283 -7.2 -9.564 QT
-7.583 -9.846 -8.114 -9.846 QT
-8.646 -9.846 -9.146 -9.588 QT
-9.646 -9.33 -10.052 -8.908 QT
-10.458 -8.486 -10.786 -7.861 QT
-11.114 -7.236 -11.278 -6.541 QT
-11.443 -5.846 -11.443 -5.236 QT
-11.443 -4.393 -11.021 -3.775 QT
-10.599 -3.158 -9.786 -3.158 QT
cp}def
f1925244508
f
GR
GS
[0 -0.75 0.75 0 12.99997 73.24994] CT
0.149 GC
N
/f-1281679433{-4.326 -3.08 M
-4.42 -3.08 -4.42 -3.205 QT
-4.42 -3.236 -4.404 -3.299 QT
-4.389 -3.361 -4.365 -3.4 QT
-4.342 -3.439 -4.295 -3.439 QT
-3.342 -3.439 -3.186 -4.049 QT
-1.826 -9.518 L
-2.107 -9.564 -2.701 -9.564 QT
-2.795 -9.564 -2.795 -9.689 QT
-2.795 -9.721 -2.779 -9.783 QT
-2.764 -9.846 -2.74 -9.877 QT
-2.717 -9.908 -2.67 -9.908 QT
-0.951 -9.908 L
-0.873 -9.908 -0.857 -9.846 QT
1.361 -4.564 L
2.471 -8.986 L
2.502 -9.096 2.502 -9.143 QT
2.502 -9.564 1.721 -9.564 QT
1.627 -9.564 1.627 -9.689 QT
1.658 -9.814 1.682 -9.861 QT
1.705 -9.908 1.799 -9.908 QT
3.939 -9.908 L
4.033 -9.908 4.033 -9.783 QT
4.033 -9.752 4.018 -9.689 QT
4.002 -9.627 3.971 -9.596 QT
3.939 -9.564 3.908 -9.564 QT
2.955 -9.564 2.799 -8.955 QT
1.361 -3.174 L
1.33 -3.08 1.252 -3.08 QT
1.127 -3.08 L
1.064 -3.08 1.049 -3.143 QT
-1.498 -9.205 L
-1.529 -9.268 L
-1.545 -9.283 -1.545 -9.299 QT
-2.873 -4.002 L
-2.873 -3.971 -2.881 -3.939 QT
-2.889 -3.908 -2.889 -3.846 QT
-2.889 -3.596 -2.67 -3.518 QT
-2.451 -3.439 -2.107 -3.439 QT
-2.014 -3.439 -2.014 -3.299 QT
-2.045 -3.158 -2.068 -3.119 QT
-2.092 -3.08 -2.186 -3.08 QT
-4.326 -3.08 L
cp}def
f-1281679433
f
GR
GS
[0 -0.75 0.75 0 12.99997 73.24994] CT
0.149 GC
N
/f-1943583138{7.072 -1.53 M
7.072 -16.53 L
9.135 -16.53 L
9.135 -15.936 L
7.682 -15.936 L
7.682 -2.124 L
9.135 -2.124 L
9.135 -1.53 L
7.072 -1.53 L
cp}def
f-1943583138
f
GR
GS
[0 -0.75 0.75 0 12.99997 73.24994] CT
0.149 GC
N
/f-968774421{10.537 -5.28 M
10.037 -7.764 L
10.475 -7.764 L
10.553 -7.343 10.623 -7.007 QT
10.693 -6.671 10.803 -6.538 QT
10.912 -6.405 11.146 -6.358 QT
11.381 -6.311 11.912 -6.311 QT
12.834 -6.311 L
12.615 -7.155 11.74 -8.522 QT
10.865 -9.889 10.545 -10.514 QT
10.225 -11.139 10.225 -12.108 QT
10.225 -13.249 10.896 -14.1 QT
11.568 -14.952 12.639 -15.405 QT
13.709 -15.858 14.787 -15.858 QT
15.881 -15.858 16.943 -15.405 QT
18.006 -14.952 18.678 -14.093 QT
19.35 -13.233 19.35 -12.108 QT
19.35 -11.343 19.076 -10.671 QT
18.803 -9.999 18.373 -9.327 QT
17.943 -8.655 17.436 -7.827 QT
16.928 -6.999 16.756 -6.311 QT
17.662 -6.311 L
18.209 -6.311 18.451 -6.358 QT
18.693 -6.405 18.795 -6.538 QT
18.896 -6.671 18.959 -7.007 QT
19.021 -7.343 19.1 -7.764 QT
19.537 -7.764 L
19.037 -5.28 L
16.381 -5.28 L
16.24 -5.28 16.24 -5.483 QT
16.24 -6.233 16.428 -6.968 QT
16.615 -7.702 16.982 -8.741 QT
17.35 -9.78 17.553 -10.577 QT
17.756 -11.374 17.756 -12.108 QT
17.756 -13.014 17.404 -13.78 QT
17.053 -14.546 16.381 -15.007 QT
15.709 -15.468 14.787 -15.468 QT
13.428 -15.468 12.631 -14.491 QT
11.834 -13.514 11.834 -12.108 QT
11.834 -11.343 12.014 -10.655 QT
12.193 -9.968 12.584 -8.835 QT
12.975 -7.702 13.162 -6.968 QT
13.35 -6.233 13.35 -5.483 QT
13.35 -5.28 13.193 -5.28 QT
10.537 -5.28 L
cp}def
f-968774421
f
GR
GS
[0 -0.75 0.75 0 12.99997 73.24994] CT
0.149 GC
N
/f424968035{20.302 -1.53 M
20.302 -2.124 L
21.755 -2.124 L
21.755 -15.936 L
20.302 -15.936 L
20.302 -16.53 L
22.364 -16.53 L
22.364 -1.53 L
20.302 -1.53 L
cp}def
f424968035
f
GR
GS
[0.75 0 0 0.75 30 122.63375] CT
0 0.447 0.741 RC
10.0 ML
0.667 LW
N
0 -4 M
0 4 L
-4 0 M
4 0 L
-2.828 -2.828 M
2.828 2.828 L
-2.828 2.828 M
2.828 -2.828 L
S
GR
GS
[0.75 0 0 0.75 38.4 122.64284] CT
0 0.447 0.741 RC
10.0 ML
0.667 LW
N
0 -4 M
0 4 L
-4 0 M
4 0 L
-2.828 -2.828 M
2.828 2.828 L
-2.828 2.828 M
2.828 -2.828 L
S
GR
GS
[0.75 0 0 0.75 46.8 122.60916] CT
0 0.447 0.741 RC
10.0 ML
0.667 LW
N
0 -4 M
0 4 L
-4 0 M
4 0 L
-2.828 -2.828 M
2.828 2.828 L
-2.828 2.828 M
2.828 -2.828 L
S
GR
GS
[0.75 0 0 0.75 55.2 122.47969] CT
0 0.447 0.741 RC
10.0 ML
0.667 LW
N
0 -4 M
0 4 L
-4 0 M
4 0 L
-2.828 -2.828 M
2.828 2.828 L
-2.828 2.828 M
2.828 -2.828 L
S
GR
GS
[0.75 0 0 0.75 63.6 122.28377] CT
0 0.447 0.741 RC
10.0 ML
0.667 LW
N
0 -4 M
0 4 L
-4 0 M
4 0 L
-2.828 -2.828 M
2.828 2.828 L
-2.828 2.828 M
2.828 -2.828 L
S
GR
GS
[0.75 0 0 0.75 72 122.08703] CT
0 0.447 0.741 RC
10.0 ML
0.667 LW
N
0 -4 M
0 4 L
-4 0 M
4 0 L
-2.828 -2.828 M
2.828 2.828 L
-2.828 2.828 M
2.828 -2.828 L
S
GR
GS
[0.75 0 0 0.75 80.4 121.9789] CT
0 0.447 0.741 RC
10.0 ML
0.667 LW
N
0 -4 M
0 4 L
-4 0 M
4 0 L
-2.828 -2.828 M
2.828 2.828 L
-2.828 2.828 M
2.828 -2.828 L
S
GR
GS
[0.75 0 0 0.75 88.8 121.96505] CT
0 0.447 0.741 RC
10.0 ML
0.667 LW
N
0 -4 M
0 4 L
-4 0 M
4 0 L
-2.828 -2.828 M
2.828 2.828 L
-2.828 2.828 M
2.828 -2.828 L
S
GR
GS
[0.75 0 0 0.75 97.2 122.23822] CT
0 0.447 0.741 RC
10.0 ML
0.667 LW
N
0 -4 M
0 4 L
-4 0 M
4 0 L
-2.828 -2.828 M
2.828 2.828 L
-2.828 2.828 M
2.828 -2.828 L
S
GR
GS
[0.75 0 0 0.75 105.6 123.23065] CT
0 0.447 0.741 RC
10.0 ML
0.667 LW
N
0 -4 M
0 4 L
-4 0 M
4 0 L
-2.828 -2.828 M
2.828 2.828 L
-2.828 2.828 M
2.828 -2.828 L
S
GR
GS
[0.75 0 0 0.75 114 123.51009] CT
0 0.447 0.741 RC
10.0 ML
0.667 LW
N
0 -4 M
0 4 L
-4 0 M
4 0 L
-2.828 -2.828 M
2.828 2.828 L
-2.828 2.828 M
2.828 -2.828 L
S
GR
GS
[0.75 0 0 0.75 122.4 123.74681] CT
0 0.447 0.741 RC
10.0 ML
0.667 LW
N
0 -4 M
0 4 L
-4 0 M
4 0 L
-2.828 -2.828 M
2.828 2.828 L
-2.828 2.828 M
2.828 -2.828 L
S
GR
GS
[0.75 0 0 0.75 130.80001 123.91575] CT
0 0.447 0.741 RC
10.0 ML
0.667 LW
N
0 -4 M
0 4 L
-4 0 M
4 0 L
-2.828 -2.828 M
2.828 2.828 L
-2.828 2.828 M
2.828 -2.828 L
S
GR
GS
[0.75 0 0 0.75 139.19999 123.80367] CT
0 0.447 0.741 RC
10.0 ML
0.667 LW
N
0 -4 M
0 4 L
-4 0 M
4 0 L
-2.828 -2.828 M
2.828 2.828 L
-2.828 2.828 M
2.828 -2.828 L
S
GR
GS
[0.75 0 0 0.75 147.6 122.67356] CT
0 0.447 0.741 RC
10.0 ML
0.667 LW
N
0 -4 M
0 4 L
-4 0 M
4 0 L
-2.828 -2.828 M
2.828 2.828 L
-2.828 2.828 M
2.828 -2.828 L
S
GR
GS
[0.75 0 0 0.75 156 119.99438] CT
0 0.447 0.741 RC
10.0 ML
0.667 LW
N
0 -4 M
0 4 L
-4 0 M
4 0 L
-2.828 -2.828 M
2.828 2.828 L
-2.828 2.828 M
2.828 -2.828 L
S
GR
GS
[0.75 0 0 0.75 164.4 114.54356] CT
0 0.447 0.741 RC
10.0 ML
0.667 LW
N
0 -4 M
0 4 L
-4 0 M
4 0 L
-2.828 -2.828 M
2.828 2.828 L
-2.828 2.828 M
2.828 -2.828 L
S
GR
GS
[0.75 0 0 0.75 172.80001 104.84943] CT
0 0.447 0.741 RC
10.0 ML
0.667 LW
N
0 -4 M
0 4 L
-4 0 M
4 0 L
-2.828 -2.828 M
2.828 2.828 L
-2.828 2.828 M
2.828 -2.828 L
S
GR
GS
[0.75 0 0 0.75 181.19999 90.49666] CT
0 0.447 0.741 RC
10.0 ML
0.667 LW
N
0 -4 M
0 4 L
-4 0 M
4 0 L
-2.828 -2.828 M
2.828 2.828 L
-2.828 2.828 M
2.828 -2.828 L
S
GR
GS
[0.75 0 0 0.75 189.6 63.05112] CT
0 0.447 0.741 RC
10.0 ML
0.667 LW
N
0 -4 M
0 4 L
-4 0 M
4 0 L
-2.828 -2.828 M
2.828 2.828 L
-2.828 2.828 M
2.828 -2.828 L
S
GR
GS
[0.75 0 0 0.75 198 22.92474] CT
0 0.447 0.741 RC
10.0 ML
0.667 LW
N
0 -4 M
0 4 L
-4 0 M
4 0 L
-2.828 -2.828 M
2.828 2.828 L
-2.828 2.828 M
2.828 -2.828 L
S
GR
%%Trailer
%%Pages: 1
%%EOF
