%!PS-Adobe-3.0 EPSF-3.0
%%Creator: (MATLAB, The Mathworks, Inc. Version 9.1.0.441655 \(R2016b\). Operating System: Windows 7)
%%Title: ../Dokument/Abbildungen/fenster_vergleich.eps
%%CreationDate: 2017-08-17T18:04:00
%%Pages: (atend)
%%BoundingBox:    18     3   399   155
%%LanguageLevel: 3
%%EndComments
%%BeginProlog
%%BeginResource: procset (Apache XML Graphics Std ProcSet) 1.2 0
%%Version: 1.2 0
%%Copyright: (Copyright 2001-2003,2010 The Apache Software Foundation. License terms: http://www.apache.org/licenses/LICENSE-2.0)
/bd{bind def}bind def
/ld{load def}bd
/GR/grestore ld
/M/moveto ld
/LJ/setlinejoin ld
/C/curveto ld
/f/fill ld
/LW/setlinewidth ld
/GC/setgray ld
/t/show ld
/N/newpath ld
/CT/concat ld
/cp/closepath ld
/S/stroke ld
/L/lineto ld
/CC/setcmykcolor ld
/A/ashow ld
/GS/gsave ld
/RC/setrgbcolor ld
/RM/rmoveto ld
/ML/setmiterlimit ld
/re {4 2 roll M
1 index 0 rlineto
0 exch rlineto
neg 0 rlineto
cp } bd
/_ctm matrix def
/_tm matrix def
/BT { _ctm currentmatrix pop matrix _tm copy pop 0 0 moveto } bd
/ET { _ctm setmatrix } bd
/iTm { _ctm setmatrix _tm concat } bd
/Tm { _tm astore pop iTm 0 0 moveto } bd
/ux 0.0 def
/uy 0.0 def
/F {
  /Tp exch def
  /Tf exch def
  Tf findfont Tp scalefont setfont
  /cf Tf def  /cs Tp def
} bd
/ULS {currentpoint /uy exch def /ux exch def} bd
/ULE {
  /Tcx currentpoint pop def
  gsave
  newpath
  cf findfont cs scalefont dup
  /FontMatrix get 0 get /Ts exch def /FontInfo get dup
  /UnderlinePosition get Ts mul /To exch def
  /UnderlineThickness get Ts mul /Tt exch def
  ux uy To add moveto  Tcx uy To add lineto
  Tt setlinewidth stroke
  grestore
} bd
/OLE {
  /Tcx currentpoint pop def
  gsave
  newpath
  cf findfont cs scalefont dup
  /FontMatrix get 0 get /Ts exch def /FontInfo get dup
  /UnderlinePosition get Ts mul /To exch def
  /UnderlineThickness get Ts mul /Tt exch def
  ux uy To add cs add moveto Tcx uy To add cs add lineto
  Tt setlinewidth stroke
  grestore
} bd
/SOE {
  /Tcx currentpoint pop def
  gsave
  newpath
  cf findfont cs scalefont dup
  /FontMatrix get 0 get /Ts exch def /FontInfo get dup
  /UnderlinePosition get Ts mul /To exch def
  /UnderlineThickness get Ts mul /Tt exch def
  ux uy To add cs 10 mul 26 idiv add moveto Tcx uy To add cs 10 mul 26 idiv add lineto
  Tt setlinewidth stroke
  grestore
} bd
/QT {
/Y22 exch store
/X22 exch store
/Y21 exch store
/X21 exch store
currentpoint
/Y21 load 2 mul add 3 div exch
/X21 load 2 mul add 3 div exch
/X21 load 2 mul /X22 load add 3 div
/Y21 load 2 mul /Y22 load add 3 div
/X22 load /Y22 load curveto
} bd
/SSPD {
dup length /d exch dict def
{
/v exch def
/k exch def
currentpagedevice k known {
/cpdv currentpagedevice k get def
v cpdv ne {
/upd false def
/nullv v type /nulltype eq def
/nullcpdv cpdv type /nulltype eq def
nullv nullcpdv or
{
/upd true def
} {
/sametype v type cpdv type eq def
sametype {
v type /arraytype eq {
/vlen v length def
/cpdvlen cpdv length def
vlen cpdvlen eq {
0 1 vlen 1 sub {
/i exch def
/obj v i get def
/cpdobj cpdv i get def
obj cpdobj ne {
/upd true def
exit
} if
} for
} {
/upd true def
} ifelse
} {
v type /dicttype eq {
v {
/dv exch def
/dk exch def
/cpddv cpdv dk get def
dv cpddv ne {
/upd true def
exit
} if
} forall
} {
/upd true def
} ifelse
} ifelse
} if
} ifelse
upd true eq {
d k v put
} if
} if
} if
} forall
d length 0 gt {
d setpagedevice
} if
} bd
/RE { % /NewFontName [NewEncodingArray] /FontName RE -
  findfont dup length dict begin
  {
    1 index /FID ne
    {def} {pop pop} ifelse
  } forall
  /Encoding exch def
  /FontName 1 index def
  currentdict definefont pop
  end
} bind def
%%EndResource
%%BeginResource: procset (Apache XML Graphics EPS ProcSet) 1.0 0
%%Version: 1.0 0
%%Copyright: (Copyright 2002-2003 The Apache Software Foundation. License terms: http://www.apache.org/licenses/LICENSE-2.0)
/BeginEPSF { %def
/b4_Inc_state save def         % Save state for cleanup
/dict_count countdictstack def % Count objects on dict stack
/op_count count 1 sub def      % Count objects on operand stack
userdict begin                 % Push userdict on dict stack
/showpage { } def              % Redefine showpage, { } = null proc
0 setgray 0 setlinecap         % Prepare graphics state
1 setlinewidth 0 setlinejoin
10 setmiterlimit [ ] 0 setdash newpath
/languagelevel where           % If level not equal to 1 then
{pop languagelevel             % set strokeadjust and
1 ne                           % overprint to their defaults.
{false setstrokeadjust false setoverprint
} if
} if
} bd
/EndEPSF { %def
count op_count sub {pop} repeat            % Clean up stacks
countdictstack dict_count sub {end} repeat
b4_Inc_state restore
} bd
%%EndResource
%FOPBeginFontDict
%%IncludeResource: font Courier-Bold
%%IncludeResource: font Helvetica
%%IncludeResource: font Courier-BoldOblique
%%IncludeResource: font Courier-Oblique
%%IncludeResource: font Times-Roman
%%IncludeResource: font Helvetica-BoldOblique
%%IncludeResource: font Helvetica-Bold
%%IncludeResource: font Helvetica-Oblique
%%IncludeResource: font Times-BoldItalic
%%IncludeResource: font Courier
%%IncludeResource: font Times-Italic
%%IncludeResource: font Times-Bold
%%IncludeResource: font Symbol
%%IncludeResource: font ZapfDingbats
%FOPEndFontDict
%%BeginResource: encoding WinAnsiEncoding
/WinAnsiEncoding [
/.notdef /.notdef /.notdef /.notdef /.notdef
/.notdef /.notdef /.notdef /.notdef /.notdef
/.notdef /.notdef /.notdef /.notdef /.notdef
/.notdef /.notdef /.notdef /.notdef /.notdef
/.notdef /.notdef /.notdef /.notdef /.notdef
/.notdef /.notdef /.notdef /.notdef /.notdef
/.notdef /.notdef /space /exclam /quotedbl
/numbersign /dollar /percent /ampersand /quotesingle
/parenleft /parenright /asterisk /plus /comma
/hyphen /period /slash /zero /one
/two /three /four /five /six
/seven /eight /nine /colon /semicolon
/less /equal /greater /question /at
/A /B /C /D /E
/F /G /H /I /J
/K /L /M /N /O
/P /Q /R /S /T
/U /V /W /X /Y
/Z /bracketleft /backslash /bracketright /asciicircum
/underscore /quoteleft /a /b /c
/d /e /f /g /h
/i /j /k /l /m
/n /o /p /q /r
/s /t /u /v /w
/x /y /z /braceleft /bar
/braceright /asciitilde /bullet /Euro /bullet
/quotesinglbase /florin /quotedblbase /ellipsis /dagger
/daggerdbl /circumflex /perthousand /Scaron /guilsinglleft
/OE /bullet /Zcaron /bullet /bullet
/quoteleft /quoteright /quotedblleft /quotedblright /bullet
/endash /emdash /asciitilde /trademark /scaron
/guilsinglright /oe /bullet /zcaron /Ydieresis
/space /exclamdown /cent /sterling /currency
/yen /brokenbar /section /dieresis /copyright
/ordfeminine /guillemotleft /logicalnot /sfthyphen /registered
/macron /degree /plusminus /twosuperior /threesuperior
/acute /mu /paragraph /middot /cedilla
/onesuperior /ordmasculine /guillemotright /onequarter /onehalf
/threequarters /questiondown /Agrave /Aacute /Acircumflex
/Atilde /Adieresis /Aring /AE /Ccedilla
/Egrave /Eacute /Ecircumflex /Edieresis /Igrave
/Iacute /Icircumflex /Idieresis /Eth /Ntilde
/Ograve /Oacute /Ocircumflex /Otilde /Odieresis
/multiply /Oslash /Ugrave /Uacute /Ucircumflex
/Udieresis /Yacute /Thorn /germandbls /agrave
/aacute /acircumflex /atilde /adieresis /aring
/ae /ccedilla /egrave /eacute /ecircumflex
/edieresis /igrave /iacute /icircumflex /idieresis
/eth /ntilde /ograve /oacute /ocircumflex
/otilde /odieresis /divide /oslash /ugrave
/uacute /ucircumflex /udieresis /yacute /thorn
/ydieresis
] def
%%EndResource
%FOPBeginFontReencode
/Courier-Bold findfont
dup length dict begin
  {1 index /FID ne {def} {pop pop} ifelse} forall
  /Encoding WinAnsiEncoding def
  currentdict
end
/Courier-Bold exch definefont pop
/Helvetica findfont
dup length dict begin
  {1 index /FID ne {def} {pop pop} ifelse} forall
  /Encoding WinAnsiEncoding def
  currentdict
end
/Helvetica exch definefont pop
/Courier-BoldOblique findfont
dup length dict begin
  {1 index /FID ne {def} {pop pop} ifelse} forall
  /Encoding WinAnsiEncoding def
  currentdict
end
/Courier-BoldOblique exch definefont pop
/Courier-Oblique findfont
dup length dict begin
  {1 index /FID ne {def} {pop pop} ifelse} forall
  /Encoding WinAnsiEncoding def
  currentdict
end
/Courier-Oblique exch definefont pop
/Times-Roman findfont
dup length dict begin
  {1 index /FID ne {def} {pop pop} ifelse} forall
  /Encoding WinAnsiEncoding def
  currentdict
end
/Times-Roman exch definefont pop
/Helvetica-BoldOblique findfont
dup length dict begin
  {1 index /FID ne {def} {pop pop} ifelse} forall
  /Encoding WinAnsiEncoding def
  currentdict
end
/Helvetica-BoldOblique exch definefont pop
/Helvetica-Bold findfont
dup length dict begin
  {1 index /FID ne {def} {pop pop} ifelse} forall
  /Encoding WinAnsiEncoding def
  currentdict
end
/Helvetica-Bold exch definefont pop
/Helvetica-Oblique findfont
dup length dict begin
  {1 index /FID ne {def} {pop pop} ifelse} forall
  /Encoding WinAnsiEncoding def
  currentdict
end
/Helvetica-Oblique exch definefont pop
/Times-BoldItalic findfont
dup length dict begin
  {1 index /FID ne {def} {pop pop} ifelse} forall
  /Encoding WinAnsiEncoding def
  currentdict
end
/Times-BoldItalic exch definefont pop
/Courier findfont
dup length dict begin
  {1 index /FID ne {def} {pop pop} ifelse} forall
  /Encoding WinAnsiEncoding def
  currentdict
end
/Courier exch definefont pop
/Times-Italic findfont
dup length dict begin
  {1 index /FID ne {def} {pop pop} ifelse} forall
  /Encoding WinAnsiEncoding def
  currentdict
end
/Times-Italic exch definefont pop
/Times-Bold findfont
dup length dict begin
  {1 index /FID ne {def} {pop pop} ifelse} forall
  /Encoding WinAnsiEncoding def
  currentdict
end
/Times-Bold exch definefont pop
%FOPEndFontReencode
%%EndProlog
%%Page: 1 1
%%PageBoundingBox: 0 0 438 161
%%BeginPageSetup
[1 0 0 -1 0 161] CT
%%EndPageSetup
GS
[0.75 0 0 0.75 0 0.5] CT
1 GC
N
0 0 584 214 re
f
GR
GS
[0.75 0 0 0.75 0 0.5] CT
1 GC
N
0 0 584 214 re
f
GR
GS
[0.75 0 0 0.75 0 0.5] CT
1 GC
N
76 174 M
529 174 L
529 16 L
76 16 L
cp
f
GR
GS
[0.75 0 0 0.75 0 0.5] CT
0.873 GC
1 LJ
0.667 LW
N
76 174 M
76 16 L
S
GR
GS
[0.75 0 0 0.75 0 0.5] CT
0.873 GC
1 LJ
0.667 LW
N
189.25 174 M
189.25 16 L
S
GR
GS
[0.75 0 0 0.75 0 0.5] CT
0.873 GC
1 LJ
0.667 LW
N
302.5 174 M
302.5 16 L
S
GR
GS
[0.75 0 0 0.75 0 0.5] CT
0.873 GC
1 LJ
0.667 LW
N
415.75 174 M
415.75 16 L
S
GR
GS
[0.75 0 0 0.75 0 0.5] CT
0.873 GC
1 LJ
0.667 LW
N
529 174 M
529 16 L
S
GR
GS
[0.75 0 0 0.75 0 0.5] CT
0.775 GC
[1 3] 0 setdash
2 LJ
0.667 LW
N
529 164.487 M
76 164.487 L
S
GR
GS
[0.75 0 0 0.75 0 0.5] CT
0.775 GC
[1 3] 0 setdash
2 LJ
0.667 LW
N
529 158.923 M
76 158.923 L
S
GR
GS
[0.75 0 0 0.75 0 0.5] CT
0.775 GC
[1 3] 0 setdash
2 LJ
0.667 LW
N
529 154.975 M
76 154.975 L
S
GR
GS
[0.75 0 0 0.75 0 0.5] CT
0.775 GC
[1 3] 0 setdash
2 LJ
0.667 LW
N
529 151.913 M
76 151.913 L
S
GR
GS
[0.75 0 0 0.75 0 0.5] CT
0.775 GC
[1 3] 0 setdash
2 LJ
0.667 LW
N
529 149.41 M
76 149.41 L
S
GR
GS
[0.75 0 0 0.75 0 0.5] CT
0.775 GC
[1 3] 0 setdash
2 LJ
0.667 LW
N
529 147.295 M
76 147.295 L
S
GR
GS
[0.75 0 0 0.75 0 0.5] CT
0.775 GC
[1 3] 0 setdash
2 LJ
0.667 LW
N
529 145.462 M
76 145.462 L
S
GR
GS
[0.75 0 0 0.75 0 0.5] CT
0.775 GC
[1 3] 0 setdash
2 LJ
0.667 LW
N
529 143.846 M
76 143.846 L
S
GR
GS
[0.75 0 0 0.75 0 0.5] CT
0.775 GC
[1 3] 0 setdash
2 LJ
0.667 LW
N
529 142.4 M
76 142.4 L
S
GR
GS
[0.75 0 0 0.75 0 0.5] CT
0.775 GC
[1 3] 0 setdash
2 LJ
0.667 LW
N
529 132.887 M
76 132.887 L
S
GR
GS
[0.75 0 0 0.75 0 0.5] CT
0.775 GC
[1 3] 0 setdash
2 LJ
0.667 LW
N
529 127.323 M
76 127.323 L
S
GR
GS
[0.75 0 0 0.75 0 0.5] CT
0.775 GC
[1 3] 0 setdash
2 LJ
0.667 LW
N
529 123.375 M
76 123.375 L
S
GR
GS
[0.75 0 0 0.75 0 0.5] CT
0.775 GC
[1 3] 0 setdash
2 LJ
0.667 LW
N
529 120.313 M
76 120.313 L
S
GR
GS
[0.75 0 0 0.75 0 0.5] CT
0.775 GC
[1 3] 0 setdash
2 LJ
0.667 LW
N
529 117.81 M
76 117.81 L
S
GR
GS
[0.75 0 0 0.75 0 0.5] CT
0.775 GC
[1 3] 0 setdash
2 LJ
0.667 LW
N
529 115.695 M
76 115.695 L
S
GR
GS
[0.75 0 0 0.75 0 0.5] CT
0.775 GC
[1 3] 0 setdash
2 LJ
0.667 LW
N
529 113.862 M
76 113.862 L
S
GR
GS
[0.75 0 0 0.75 0 0.5] CT
0.775 GC
[1 3] 0 setdash
2 LJ
0.667 LW
N
529 112.246 M
76 112.246 L
S
GR
GS
[0.75 0 0 0.75 0 0.5] CT
0.775 GC
[1 3] 0 setdash
2 LJ
0.667 LW
N
529 101.287 M
76 101.287 L
S
GR
GS
[0.75 0 0 0.75 0 0.5] CT
0.775 GC
[1 3] 0 setdash
2 LJ
0.667 LW
N
529 95.723 M
76 95.723 L
S
GR
GS
[0.75 0 0 0.75 0 0.5] CT
0.775 GC
[1 3] 0 setdash
2 LJ
0.667 LW
N
529 91.775 M
76 91.775 L
S
GR
GS
[0.75 0 0 0.75 0 0.5] CT
0.775 GC
[1 3] 0 setdash
2 LJ
0.667 LW
N
529 88.713 M
76 88.713 L
S
GR
GS
[0.75 0 0 0.75 0 0.5] CT
0.775 GC
[1 3] 0 setdash
2 LJ
0.667 LW
N
529 86.21 M
76 86.21 L
S
GR
GS
[0.75 0 0 0.75 0 0.5] CT
0.775 GC
[1 3] 0 setdash
2 LJ
0.667 LW
N
529 84.095 M
76 84.095 L
S
GR
GS
[0.75 0 0 0.75 0 0.5] CT
0.775 GC
[1 3] 0 setdash
2 LJ
0.667 LW
N
529 82.262 M
76 82.262 L
S
GR
GS
[0.75 0 0 0.75 0 0.5] CT
0.775 GC
[1 3] 0 setdash
2 LJ
0.667 LW
N
529 80.646 M
76 80.646 L
S
GR
GS
[0.75 0 0 0.75 0 0.5] CT
0.775 GC
[1 3] 0 setdash
2 LJ
0.667 LW
N
529 69.687 M
76 69.687 L
S
GR
GS
[0.75 0 0 0.75 0 0.5] CT
0.775 GC
[1 3] 0 setdash
2 LJ
0.667 LW
N
529 64.123 M
76 64.123 L
S
GR
GS
[0.75 0 0 0.75 0 0.5] CT
0.775 GC
[1 3] 0 setdash
2 LJ
0.667 LW
N
529 60.175 M
76 60.175 L
S
GR
GS
[0.75 0 0 0.75 0 0.5] CT
0.775 GC
[1 3] 0 setdash
2 LJ
0.667 LW
N
529 57.113 M
76 57.113 L
S
GR
GS
[0.75 0 0 0.75 0 0.5] CT
0.775 GC
[1 3] 0 setdash
2 LJ
0.667 LW
N
529 54.61 M
76 54.61 L
S
GR
GS
[0.75 0 0 0.75 0 0.5] CT
0.775 GC
[1 3] 0 setdash
2 LJ
0.667 LW
N
529 52.495 M
76 52.495 L
S
GR
GS
[0.75 0 0 0.75 0 0.5] CT
0.775 GC
[1 3] 0 setdash
2 LJ
0.667 LW
N
529 50.662 M
76 50.662 L
S
GR
GS
[0.75 0 0 0.75 0 0.5] CT
0.775 GC
[1 3] 0 setdash
2 LJ
0.667 LW
N
529 49.046 M
76 49.046 L
S
GR
GS
[0.75 0 0 0.75 0 0.5] CT
0.775 GC
[1 3] 0 setdash
2 LJ
0.667 LW
N
529 38.087 M
76 38.087 L
S
GR
GS
[0.75 0 0 0.75 0 0.5] CT
0.775 GC
[1 3] 0 setdash
2 LJ
0.667 LW
N
529 32.523 M
76 32.523 L
S
GR
GS
[0.75 0 0 0.75 0 0.5] CT
0.775 GC
[1 3] 0 setdash
2 LJ
0.667 LW
N
529 28.575 M
76 28.575 L
S
GR
GS
[0.75 0 0 0.75 0 0.5] CT
0.775 GC
[1 3] 0 setdash
2 LJ
0.667 LW
N
529 25.513 M
76 25.513 L
S
GR
GS
[0.75 0 0 0.75 0 0.5] CT
0.775 GC
[1 3] 0 setdash
2 LJ
0.667 LW
N
529 23.01 M
76 23.01 L
S
GR
GS
[0.75 0 0 0.75 0 0.5] CT
0.775 GC
[1 3] 0 setdash
2 LJ
0.667 LW
N
529 20.895 M
76 20.895 L
S
GR
GS
[0.75 0 0 0.75 0 0.5] CT
0.775 GC
[1 3] 0 setdash
2 LJ
0.667 LW
N
529 19.062 M
76 19.062 L
S
GR
GS
[0.75 0 0 0.75 0 0.5] CT
0.775 GC
[1 3] 0 setdash
2 LJ
0.667 LW
N
529 17.446 M
76 17.446 L
S
GR
GS
[0.75 0 0 0.75 0 0.5] CT
0.873 GC
1 LJ
0.667 LW
N
529 174 M
76 174 L
S
GR
GS
[0.75 0 0 0.75 0 0.5] CT
0.873 GC
1 LJ
0.667 LW
N
529 142.4 M
76 142.4 L
S
GR
GS
[0.75 0 0 0.75 0 0.5] CT
0.873 GC
1 LJ
0.667 LW
N
529 110.8 M
76 110.8 L
S
GR
GS
[0.75 0 0 0.75 0 0.5] CT
0.873 GC
1 LJ
0.667 LW
N
529 79.2 M
76 79.2 L
S
GR
GS
[0.75 0 0 0.75 0 0.5] CT
0.873 GC
1 LJ
0.667 LW
N
529 47.6 M
76 47.6 L
S
GR
GS
[0.75 0 0 0.75 0 0.5] CT
0.873 GC
1 LJ
0.667 LW
N
529 16 M
76 16 L
S
GR
GS
[0.75 0 0 0.75 0 0.5] CT
0.149 GC
2 setlinecap
1 LJ
0.667 LW
N
76 174 M
529 174 L
S
GR
GS
[0.75 0 0 0.75 0 0.5] CT
0.149 GC
2 setlinecap
1 LJ
0.667 LW
N
76 16 M
529 16 L
S
GR
GS
[0.75 0 0 0.75 0 0.5] CT
0.149 GC
2 setlinecap
1 LJ
0.667 LW
N
76 174 M
76 169.47 L
S
GR
GS
[0.75 0 0 0.75 0 0.5] CT
0.149 GC
2 setlinecap
1 LJ
0.667 LW
N
189.25 174 M
189.25 169.47 L
S
GR
GS
[0.75 0 0 0.75 0 0.5] CT
0.149 GC
2 setlinecap
1 LJ
0.667 LW
N
302.5 174 M
302.5 169.47 L
S
GR
GS
[0.75 0 0 0.75 0 0.5] CT
0.149 GC
2 setlinecap
1 LJ
0.667 LW
N
415.75 174 M
415.75 169.47 L
S
GR
GS
[0.75 0 0 0.75 0 0.5] CT
0.149 GC
2 setlinecap
1 LJ
0.667 LW
N
529 174 M
529 169.47 L
S
GR
GS
[0.75 0 0 0.75 0 0.5] CT
0.149 GC
2 setlinecap
1 LJ
0.667 LW
N
76 16 M
76 20.53 L
S
GR
GS
[0.75 0 0 0.75 0 0.5] CT
0.149 GC
2 setlinecap
1 LJ
0.667 LW
N
189.25 16 M
189.25 20.53 L
S
GR
GS
[0.75 0 0 0.75 0 0.5] CT
0.149 GC
2 setlinecap
1 LJ
0.667 LW
N
302.5 16 M
302.5 20.53 L
S
GR
GS
[0.75 0 0 0.75 0 0.5] CT
0.149 GC
2 setlinecap
1 LJ
0.667 LW
N
415.75 16 M
415.75 20.53 L
S
GR
GS
[0.75 0 0 0.75 0 0.5] CT
0.149 GC
2 setlinecap
1 LJ
0.667 LW
N
529 16 M
529 20.53 L
S
GR
GS
[0.75 0 0 0.75 57 135] CT
0.149 GC
N
-2.974 9.059 M
-2.974 8.591 L
1.042 2.606 L
1.089 2.544 1.182 2.544 QT
1.37 2.544 L
1.51 2.544 1.51 2.684 QT
1.51 8.591 L
2.792 8.591 L
2.792 9.059 L
1.51 9.059 L
1.51 10.325 L
1.51 10.591 1.893 10.669 QT
2.276 10.747 2.776 10.747 QT
2.776 11.2 L
-0.802 11.2 L
-0.802 10.747 L
-0.302 10.747 0.081 10.669 QT
0.464 10.591 0.464 10.325 QT
0.464 9.059 L
-2.974 9.059 L
cp
-2.536 8.591 M
0.542 8.591 L
0.542 3.997 L
-2.536 8.591 L
cp
f
GR
GS
[0.75 0 0 0.75 141.9375 135] CT
0.149 GC
N
-8.159 9.059 M
-8.159 8.591 L
-4.144 2.606 L
-4.097 2.544 -4.003 2.544 QT
-3.815 2.544 L
-3.675 2.544 -3.675 2.684 QT
-3.675 8.591 L
-2.394 8.591 L
-2.394 9.059 L
-3.675 9.059 L
-3.675 10.325 L
-3.675 10.591 -3.292 10.669 QT
-2.909 10.747 -2.409 10.747 QT
-2.409 11.2 L
-5.987 11.2 L
-5.987 10.747 L
-5.487 10.747 -5.104 10.669 QT
-4.722 10.591 -4.722 10.325 QT
-4.722 9.059 L
-8.159 9.059 L
cp
-7.722 8.591 M
-4.644 8.591 L
-4.644 3.997 L
-7.722 8.591 L
cp
f
GR
GS
[0.75 0 0 0.75 141.9375 135] CT
0.149 GC
N
-0.758 10.481 M
-0.758 10.184 -0.539 9.981 QT
-0.321 9.778 -0.039 9.778 QT
0.133 9.778 0.304 9.872 QT
0.476 9.966 0.57 10.137 QT
0.664 10.309 0.664 10.481 QT
0.664 10.762 0.453 10.981 QT
0.242 11.2 -0.039 11.2 QT
-0.321 11.2 -0.539 10.981 QT
-0.758 10.762 -0.758 10.481 QT
cp
f
GR
GS
[0.75 0 0 0.75 141.9375 135] CT
0.149 GC
N
2.977 9.716 M
3.117 10.106 3.391 10.419 QT
3.664 10.731 4.047 10.903 QT
4.43 11.075 4.836 11.075 QT
5.774 11.075 6.125 10.341 QT
6.477 9.606 6.477 8.575 QT
6.477 8.122 6.461 7.817 QT
6.446 7.512 6.383 7.216 QT
6.258 6.762 5.953 6.419 QT
5.649 6.075 5.211 6.075 QT
4.774 6.075 4.461 6.208 QT
4.149 6.341 3.953 6.52 QT
3.758 6.7 3.602 6.895 QT
3.446 7.091 3.414 7.106 QT
3.274 7.106 L
3.242 7.106 3.188 7.067 QT
3.133 7.028 3.133 6.981 QT
3.133 2.637 L
3.133 2.606 3.18 2.575 QT
3.227 2.544 3.274 2.544 QT
3.305 2.544 L
4.18 2.966 5.164 2.966 QT
6.133 2.966 7.024 2.544 QT
7.071 2.544 L
7.102 2.544 7.141 2.575 QT
7.18 2.606 7.18 2.637 QT
7.18 2.762 L
7.18 2.825 7.164 2.825 QT
6.711 3.419 6.039 3.747 QT
5.367 4.075 4.664 4.075 QT
4.133 4.075 3.586 3.934 QT
3.586 6.387 L
4.024 6.044 4.36 5.895 QT
4.696 5.747 5.227 5.747 QT
5.946 5.747 6.516 6.153 QT
7.086 6.559 7.391 7.223 QT
7.696 7.887 7.696 8.591 QT
7.696 9.372 7.313 10.036 QT
6.93 10.7 6.266 11.091 QT
5.602 11.481 4.836 11.481 QT
4.196 11.481 3.657 11.153 QT
3.117 10.825 2.805 10.27 QT
2.492 9.716 2.492 9.075 QT
2.492 8.794 2.688 8.606 QT
2.883 8.419 3.164 8.419 QT
3.446 8.419 3.641 8.606 QT
3.836 8.794 3.836 9.075 QT
3.836 9.356 3.641 9.552 QT
3.446 9.747 3.164 9.747 QT
3.117 9.747 3.063 9.739 QT
3.008 9.731 2.977 9.716 QT
cp
f
GR
GS
[0.75 0 0 0.75 226.875 135] CT
0.149 GC
N
-2.208 9.716 M
-2.068 10.106 -1.794 10.419 QT
-1.521 10.731 -1.138 10.903 QT
-0.755 11.075 -0.349 11.075 QT
0.589 11.075 0.94 10.341 QT
1.292 9.606 1.292 8.575 QT
1.292 8.122 1.276 7.817 QT
1.26 7.512 1.198 7.216 QT
1.073 6.762 0.768 6.419 QT
0.464 6.075 0.026 6.075 QT
-0.411 6.075 -0.724 6.208 QT
-1.036 6.341 -1.232 6.52 QT
-1.427 6.7 -1.583 6.895 QT
-1.74 7.091 -1.771 7.106 QT
-1.911 7.106 L
-1.943 7.106 -1.997 7.067 QT
-2.052 7.028 -2.052 6.981 QT
-2.052 2.637 L
-2.052 2.606 -2.005 2.575 QT
-1.958 2.544 -1.911 2.544 QT
-1.88 2.544 L
-1.005 2.966 -0.021 2.966 QT
0.948 2.966 1.839 2.544 QT
1.885 2.544 L
1.917 2.544 1.956 2.575 QT
1.995 2.606 1.995 2.637 QT
1.995 2.762 L
1.995 2.825 1.979 2.825 QT
1.526 3.419 0.854 3.747 QT
0.182 4.075 -0.521 4.075 QT
-1.052 4.075 -1.599 3.934 QT
-1.599 6.387 L
-1.161 6.044 -0.826 5.895 QT
-0.49 5.747 0.042 5.747 QT
0.76 5.747 1.331 6.153 QT
1.901 6.559 2.206 7.223 QT
2.51 7.887 2.51 8.591 QT
2.51 9.372 2.128 10.036 QT
1.745 10.7 1.081 11.091 QT
0.417 11.481 -0.349 11.481 QT
-0.99 11.481 -1.529 11.153 QT
-2.068 10.825 -2.38 10.27 QT
-2.693 9.716 -2.693 9.075 QT
-2.693 8.794 -2.497 8.606 QT
-2.302 8.419 -2.021 8.419 QT
-1.74 8.419 -1.544 8.606 QT
-1.349 8.794 -1.349 9.075 QT
-1.349 9.356 -1.544 9.552 QT
-1.74 9.747 -2.021 9.747 QT
-2.068 9.747 -2.122 9.739 QT
-2.177 9.731 -2.208 9.716 QT
cp
f
GR
GS
[0.75 0 0 0.75 311.8125 135] CT
0.149 GC
N
-7.394 9.716 M
-7.253 10.106 -6.979 10.419 QT
-6.706 10.731 -6.323 10.903 QT
-5.94 11.075 -5.534 11.075 QT
-4.597 11.075 -4.245 10.341 QT
-3.894 9.606 -3.894 8.575 QT
-3.894 8.122 -3.909 7.817 QT
-3.925 7.512 -3.987 7.216 QT
-4.112 6.762 -4.417 6.419 QT
-4.722 6.075 -5.159 6.075 QT
-5.597 6.075 -5.909 6.208 QT
-6.222 6.341 -6.417 6.52 QT
-6.612 6.7 -6.769 6.895 QT
-6.925 7.091 -6.956 7.106 QT
-7.097 7.106 L
-7.128 7.106 -7.183 7.067 QT
-7.237 7.028 -7.237 6.981 QT
-7.237 2.637 L
-7.237 2.606 -7.19 2.575 QT
-7.144 2.544 -7.097 2.544 QT
-7.065 2.544 L
-6.19 2.966 -5.206 2.966 QT
-4.237 2.966 -3.347 2.544 QT
-3.3 2.544 L
-3.269 2.544 -3.229 2.575 QT
-3.19 2.606 -3.19 2.637 QT
-3.19 2.762 L
-3.19 2.825 -3.206 2.825 QT
-3.659 3.419 -4.331 3.747 QT
-5.003 4.075 -5.706 4.075 QT
-6.237 4.075 -6.784 3.934 QT
-6.784 6.387 L
-6.347 6.044 -6.011 5.895 QT
-5.675 5.747 -5.144 5.747 QT
-4.425 5.747 -3.854 6.153 QT
-3.284 6.559 -2.979 7.223 QT
-2.675 7.887 -2.675 8.591 QT
-2.675 9.372 -3.058 10.036 QT
-3.44 10.7 -4.104 11.091 QT
-4.769 11.481 -5.534 11.481 QT
-6.175 11.481 -6.714 11.153 QT
-7.253 10.825 -7.565 10.27 QT
-7.878 9.716 -7.878 9.075 QT
-7.878 8.794 -7.683 8.606 QT
-7.487 8.419 -7.206 8.419 QT
-6.925 8.419 -6.729 8.606 QT
-6.534 8.794 -6.534 9.075 QT
-6.534 9.356 -6.729 9.552 QT
-6.925 9.747 -7.206 9.747 QT
-7.253 9.747 -7.308 9.739 QT
-7.362 9.731 -7.394 9.716 QT
cp
f
GR
GS
[0.75 0 0 0.75 311.8125 135] CT
0.149 GC
N
/f-1562952851{-0.758 10.481 M
-0.758 10.184 -0.539 9.981 QT
-0.321 9.778 -0.039 9.778 QT
0.133 9.778 0.304 9.872 QT
0.476 9.966 0.57 10.137 QT
0.664 10.309 0.664 10.481 QT
0.664 10.762 0.453 10.981 QT
0.242 11.2 -0.039 11.2 QT
-0.321 11.2 -0.539 10.981 QT
-0.758 10.762 -0.758 10.481 QT
cp}def
f-1562952851
f
GR
GS
[0.75 0 0 0.75 311.8125 135] CT
0.149 GC
N
/f-266042818{2.977 9.716 M
3.117 10.106 3.391 10.419 QT
3.664 10.731 4.047 10.903 QT
4.43 11.075 4.836 11.075 QT
5.774 11.075 6.125 10.341 QT
6.477 9.606 6.477 8.575 QT
6.477 8.122 6.461 7.817 QT
6.446 7.512 6.383 7.216 QT
6.258 6.762 5.953 6.419 QT
5.649 6.075 5.211 6.075 QT
4.774 6.075 4.461 6.208 QT
4.149 6.341 3.953 6.52 QT
3.758 6.7 3.602 6.895 QT
3.446 7.091 3.414 7.106 QT
3.274 7.106 L
3.242 7.106 3.188 7.067 QT
3.133 7.028 3.133 6.981 QT
3.133 2.637 L
3.133 2.606 3.18 2.575 QT
3.227 2.544 3.274 2.544 QT
3.305 2.544 L
4.18 2.966 5.164 2.966 QT
6.133 2.966 7.024 2.544 QT
7.071 2.544 L
7.102 2.544 7.141 2.575 QT
7.18 2.606 7.18 2.637 QT
7.18 2.762 L
7.18 2.825 7.164 2.825 QT
6.711 3.419 6.039 3.747 QT
5.367 4.075 4.664 4.075 QT
4.133 4.075 3.586 3.934 QT
3.586 6.387 L
4.024 6.044 4.36 5.895 QT
4.696 5.747 5.227 5.747 QT
5.946 5.747 6.516 6.153 QT
7.086 6.559 7.391 7.223 QT
7.696 7.887 7.696 8.591 QT
7.696 9.372 7.313 10.036 QT
6.93 10.7 6.266 11.091 QT
5.602 11.481 4.836 11.481 QT
4.196 11.481 3.657 11.153 QT
3.117 10.825 2.805 10.27 QT
2.492 9.716 2.492 9.075 QT
2.492 8.794 2.688 8.606 QT
2.883 8.419 3.164 8.419 QT
3.446 8.419 3.641 8.606 QT
3.836 8.794 3.836 9.075 QT
3.836 9.356 3.641 9.552 QT
3.446 9.747 3.164 9.747 QT
3.117 9.747 3.063 9.739 QT
3.008 9.731 2.977 9.716 QT
cp}def
f-266042818
f
GR
GS
[0.75 0 0 0.75 396.75 135] CT
0.149 GC
N
/f208943160{-0.083 11.481 M
-0.896 11.481 -1.435 11.052 QT
-1.974 10.622 -2.263 9.942 QT
-2.552 9.262 -2.669 8.512 QT
-2.786 7.762 -2.786 6.997 QT
-2.786 5.966 -2.388 4.934 QT
-1.99 3.903 -1.208 3.223 QT
-0.427 2.544 0.635 2.544 QT
1.073 2.544 1.464 2.708 QT
1.854 2.872 2.073 3.2 QT
2.292 3.528 2.292 3.997 QT
2.292 4.262 2.104 4.442 QT
1.917 4.622 1.651 4.622 QT
1.401 4.622 1.221 4.442 QT
1.042 4.262 1.042 3.997 QT
1.042 3.747 1.221 3.559 QT
1.401 3.372 1.651 3.372 QT
1.729 3.372 L
1.557 3.137 1.26 3.028 QT
0.964 2.919 0.635 2.919 QT
0.245 2.919 -0.091 3.091 QT
-0.427 3.262 -0.693 3.552 QT
-0.958 3.841 -1.138 4.192 QT
-1.318 4.544 -1.411 4.997 QT
-1.505 5.45 -1.536 5.841 QT
-1.568 6.231 -1.568 6.825 QT
-1.333 6.294 -0.911 5.958 QT
-0.49 5.622 0.026 5.622 QT
0.604 5.622 1.081 5.856 QT
1.557 6.091 1.901 6.505 QT
2.245 6.919 2.424 7.45 QT
2.604 7.981 2.604 8.528 QT
2.604 9.294 2.268 9.981 QT
1.932 10.669 1.315 11.075 QT
0.698 11.481 -0.083 11.481 QT
cp
-0.083 11.075 M
0.417 11.075 0.721 10.848 QT
1.026 10.622 1.167 10.239 QT
1.307 9.856 1.346 9.473 QT
1.385 9.091 1.385 8.528 QT
1.385 7.794 1.315 7.278 QT
1.245 6.762 0.932 6.364 QT
0.62 5.966 -0.021 5.966 QT
-0.552 5.966 -0.888 6.317 QT
-1.224 6.669 -1.38 7.216 QT
-1.536 7.762 -1.536 8.262 QT
-1.536 8.434 -1.521 8.528 QT
-1.521 8.544 -1.529 8.552 QT
-1.536 8.559 -1.536 8.591 QT
-1.536 9.137 -1.419 9.708 QT
-1.302 10.278 -0.982 10.677 QT
-0.661 11.075 -0.083 11.075 QT
cp}def
f208943160
f
GR
GS
[0.75 0 0 0.75 226.87516 148] CT
0.149 GC
N
/f2019004455{-27.733 12.32 M
-27.733 11.789 L
-26.187 11.789 -26.187 11.32 QT
-26.187 3.07 L
-26.187 2.601 -27.733 2.601 QT
-27.733 2.07 L
-22.39 2.07 L
-21.577 2.07 -20.757 2.406 QT
-19.937 2.742 -19.405 3.39 QT
-18.874 4.039 -18.874 4.898 QT
-18.874 5.726 -19.405 6.359 QT
-19.937 6.992 -20.749 7.312 QT
-21.562 7.632 -22.39 7.632 QT
-24.796 7.632 L
-24.796 11.32 L
-24.796 11.789 -23.249 11.789 QT
-23.249 12.32 L
-27.733 12.32 L
cp
-24.843 7.195 M
-22.812 7.195 L
-21.983 7.195 -21.468 6.953 QT
-20.952 6.711 -20.718 6.211 QT
-20.483 5.711 -20.483 4.898 QT
-20.483 3.664 -21.015 3.132 QT
-21.546 2.601 -22.812 2.601 QT
-24.077 2.601 L
-24.358 2.601 -24.507 2.625 QT
-24.655 2.648 -24.749 2.75 QT
-24.843 2.851 -24.843 3.07 QT
-24.843 7.195 L
cp}def
f2019004455
f
GR
GS
[0.75 0 0 0.75 226.87516 148] CT
0.149 GC
N
/f-944243182{-14.925 12.492 M
-15.847 12.492 -16.605 12.007 QT
-17.362 11.523 -17.8 10.726 QT
-18.237 9.929 -18.237 9.039 QT
-18.237 8.148 -17.839 7.359 QT
-17.441 6.57 -16.73 6.086 QT
-16.019 5.601 -15.144 5.601 QT
-14.441 5.601 -13.933 5.828 QT
-13.425 6.054 -13.097 6.468 QT
-12.769 6.882 -12.605 7.437 QT
-12.441 7.992 -12.441 8.664 QT
-12.441 8.851 -12.581 8.851 QT
-16.925 8.851 L
-16.925 9.023 L
-16.925 10.257 -16.425 11.156 QT
-15.925 12.054 -14.784 12.054 QT
-14.331 12.054 -13.941 11.843 QT
-13.55 11.632 -13.261 11.273 QT
-12.972 10.914 -12.862 10.492 QT
-12.847 10.445 -12.808 10.398 QT
-12.769 10.351 -12.722 10.351 QT
-12.581 10.351 L
-12.441 10.351 -12.441 10.554 QT
-12.644 11.398 -13.347 11.945 QT
-14.05 12.492 -14.925 12.492 QT
cp
-16.909 8.476 M
-13.503 8.476 L
-13.503 7.914 -13.659 7.336 QT
-13.816 6.757 -14.183 6.375 QT
-14.55 5.992 -15.144 5.992 QT
-15.987 5.992 -16.448 6.789 QT
-16.909 7.586 -16.909 8.476 QT
cp}def
f-944243182
f
GR
GS
[0.75 0 0 0.75 226.87516 148] CT
0.149 GC
N
/f901661675{-11.75 12.32 M
-11.75 11.789 L
-11.235 11.789 -10.906 11.711 QT
-10.578 11.632 -10.578 11.32 QT
-10.578 7.226 L
-10.578 6.82 -10.703 6.64 QT
-10.828 6.461 -11.055 6.422 QT
-11.281 6.382 -11.75 6.382 QT
-11.75 5.851 L
-9.61 5.695 L
-9.61 7.164 L
-9.36 6.507 -8.914 6.101 QT
-8.469 5.695 -7.828 5.695 QT
-7.391 5.695 -7.039 5.961 QT
-6.688 6.226 -6.688 6.648 QT
-6.688 6.929 -6.883 7.125 QT
-7.078 7.32 -7.36 7.32 QT
-7.641 7.32 -7.836 7.125 QT
-8.031 6.929 -8.031 6.648 QT
-8.031 6.242 -7.75 6.086 QT
-7.828 6.086 L
-8.438 6.086 -8.82 6.523 QT
-9.203 6.961 -9.367 7.609 QT
-9.531 8.257 -9.531 8.851 QT
-9.531 11.32 L
-9.531 11.789 -8.078 11.789 QT
-8.078 12.32 L
-11.75 12.32 L
cp}def
f901661675
f
GR
GS
[0.75 0 0 0.75 226.87516 148] CT
0.149 GC
N
/f-417096421{-5.928 12.32 M
-5.928 11.789 L
-5.428 11.789 -5.092 11.711 QT
-4.756 11.632 -4.756 11.32 QT
-4.756 7.226 L
-4.756 6.648 -4.982 6.515 QT
-5.209 6.382 -5.865 6.382 QT
-5.865 5.851 L
-3.709 5.695 L
-3.709 11.32 L
-3.709 11.632 -3.42 11.711 QT
-3.131 11.789 -2.662 11.789 QT
-2.662 12.32 L
-5.928 12.32 L
cp
-5.303 3.117 M
-5.303 2.789 -5.053 2.539 QT
-4.803 2.289 -4.474 2.289 QT
-4.271 2.289 -4.068 2.398 QT
-3.865 2.507 -3.756 2.703 QT
-3.646 2.898 -3.646 3.117 QT
-3.646 3.429 -3.896 3.679 QT
-4.146 3.929 -4.474 3.929 QT
-4.803 3.929 -5.053 3.679 QT
-5.303 3.429 -5.303 3.117 QT
cp}def
f-417096421
f
GR
GS
[0.75 0 0 0.75 226.87516 148] CT
0.149 GC
N
/f1291911438{1.428 12.492 M
0.522 12.492 -0.244 12.031 QT
-1.01 11.57 -1.455 10.804 QT
-1.9 10.039 -1.9 9.132 QT
-1.9 8.445 -1.658 7.804 QT
-1.416 7.164 -0.955 6.664 QT
-0.494 6.164 0.115 5.882 QT
0.725 5.601 1.428 5.601 QT
2.35 5.601 3.107 6.086 QT
3.865 6.57 4.303 7.39 QT
4.74 8.211 4.74 9.132 QT
4.74 10.023 4.295 10.797 QT
3.85 11.57 3.084 12.031 QT
2.318 12.492 1.428 12.492 QT
cp
1.428 12.054 M
2.631 12.054 3.029 11.179 QT
3.428 10.304 3.428 8.961 QT
3.428 8.211 3.35 7.711 QT
3.272 7.211 3.006 6.804 QT
2.834 6.57 2.576 6.382 QT
2.318 6.195 2.029 6.093 QT
1.74 5.992 1.428 5.992 QT
0.959 5.992 0.537 6.203 QT
0.115 6.414 -0.166 6.804 QT
-0.447 7.242 -0.518 7.75 QT
-0.588 8.257 -0.588 8.961 QT
-0.588 9.804 -0.447 10.476 QT
-0.307 11.148 0.139 11.601 QT
0.584 12.054 1.428 12.054 QT
cp}def
f1291911438
f
GR
GS
[0.75 0 0 0.75 226.87516 148] CT
0.149 GC
N
/f954124157{9.075 12.492 M
8.2 12.492 7.465 12.007 QT
6.731 11.523 6.325 10.742 QT
5.919 9.961 5.919 9.086 QT
5.919 8.179 6.364 7.398 QT
6.809 6.617 7.567 6.156 QT
8.325 5.695 9.247 5.695 QT
9.794 5.695 10.286 5.922 QT
10.778 6.148 11.137 6.57 QT
11.137 3.445 L
11.137 3.039 11.012 2.859 QT
10.887 2.679 10.669 2.64 QT
10.45 2.601 9.965 2.601 QT
9.965 2.07 L
12.184 1.914 L
12.184 10.961 L
12.184 11.351 12.309 11.531 QT
12.434 11.711 12.653 11.75 QT
12.872 11.789 13.356 11.789 QT
13.356 12.32 L
11.09 12.492 L
11.09 11.539 L
10.7 11.992 10.169 12.242 QT
9.637 12.492 9.075 12.492 QT
cp
7.544 11.023 M
7.809 11.507 8.239 11.797 QT
8.669 12.086 9.169 12.086 QT
9.794 12.086 10.309 11.734 QT
10.825 11.382 11.09 10.804 QT
11.09 7.211 L
10.919 6.882 10.645 6.617 QT
10.372 6.351 10.044 6.218 QT
9.715 6.086 9.34 6.086 QT
8.559 6.086 8.083 6.523 QT
7.606 6.961 7.411 7.648 QT
7.215 8.336 7.215 9.101 QT
7.215 9.695 7.278 10.14 QT
7.34 10.586 7.544 11.023 QT
cp}def
f954124157
f
GR
GS
[0.75 0 0 0.75 226.87516 148] CT
0.149 GC
N
/f2097681874{17.301 12.492 M
16.379 12.492 15.621 12.007 QT
14.864 11.523 14.426 10.726 QT
13.989 9.929 13.989 9.039 QT
13.989 8.148 14.387 7.359 QT
14.785 6.57 15.496 6.086 QT
16.207 5.601 17.082 5.601 QT
17.785 5.601 18.293 5.828 QT
18.801 6.054 19.129 6.468 QT
19.457 6.882 19.621 7.437 QT
19.785 7.992 19.785 8.664 QT
19.785 8.851 19.645 8.851 QT
15.301 8.851 L
15.301 9.023 L
15.301 10.257 15.801 11.156 QT
16.301 12.054 17.442 12.054 QT
17.895 12.054 18.285 11.843 QT
18.676 11.632 18.965 11.273 QT
19.254 10.914 19.364 10.492 QT
19.379 10.445 19.418 10.398 QT
19.457 10.351 19.504 10.351 QT
19.645 10.351 L
19.785 10.351 19.785 10.554 QT
19.582 11.398 18.879 11.945 QT
18.176 12.492 17.301 12.492 QT
cp
15.317 8.476 M
18.723 8.476 L
18.723 7.914 18.567 7.336 QT
18.41 6.757 18.043 6.375 QT
17.676 5.992 17.082 5.992 QT
16.239 5.992 15.778 6.789 QT
15.317 7.586 15.317 8.476 QT
cp}def
f2097681874
f
GR
GS
[0.75 0 0 0.75 226.87516 148] CT
0.149 GC
N
/f1760030148{20.538 12.32 M
20.538 11.789 L
21.038 11.789 21.374 11.711 QT
21.71 11.632 21.71 11.32 QT
21.71 7.226 L
21.71 6.82 21.585 6.64 QT
21.46 6.461 21.234 6.422 QT
21.007 6.382 20.538 6.382 QT
20.538 5.851 L
22.71 5.695 L
22.71 7.164 L
23.007 6.507 23.601 6.101 QT
24.195 5.695 24.882 5.695 QT
25.929 5.695 26.452 6.195 QT
26.976 6.695 26.976 7.711 QT
26.976 11.32 L
26.976 11.632 27.304 11.711 QT
27.632 11.789 28.148 11.789 QT
28.148 12.32 L
24.71 12.32 L
24.71 11.789 L
25.226 11.789 25.554 11.711 QT
25.882 11.632 25.882 11.32 QT
25.882 7.757 L
25.882 7.023 25.671 6.554 QT
25.46 6.086 24.788 6.086 QT
23.929 6.086 23.366 6.781 QT
22.804 7.476 22.804 8.351 QT
22.804 11.32 L
22.804 11.632 23.132 11.711 QT
23.46 11.789 23.96 11.789 QT
23.96 12.32 L
20.538 12.32 L
cp}def
f1760030148
f
GR
GS
[0.75 0 0 0.75 0 0.5] CT
0.149 GC
2 setlinecap
1 LJ
0.667 LW
N
76 174 M
76 16 L
S
GR
GS
[0.75 0 0 0.75 0 0.5] CT
0.149 GC
2 setlinecap
1 LJ
0.667 LW
N
529 174 M
529 16 L
S
GR
GS
[0.75 0 0 0.75 0 0.5] CT
0.149 GC
2 setlinecap
1 LJ
0.667 LW
N
76 174 M
80.53 174 L
S
GR
GS
[0.75 0 0 0.75 0 0.5] CT
0.149 GC
2 setlinecap
1 LJ
0.667 LW
N
76 142.4 M
80.53 142.4 L
S
GR
GS
[0.75 0 0 0.75 0 0.5] CT
0.149 GC
2 setlinecap
1 LJ
0.667 LW
N
76 110.8 M
80.53 110.8 L
S
GR
GS
[0.75 0 0 0.75 0 0.5] CT
0.149 GC
2 setlinecap
1 LJ
0.667 LW
N
76 79.2 M
80.53 79.2 L
S
GR
GS
[0.75 0 0 0.75 0 0.5] CT
0.149 GC
2 setlinecap
1 LJ
0.667 LW
N
76 47.6 M
80.53 47.6 L
S
GR
GS
[0.75 0 0 0.75 0 0.5] CT
0.149 GC
2 setlinecap
1 LJ
0.667 LW
N
76 16 M
80.53 16 L
S
GR
GS
[0.75 0 0 0.75 0 0.5] CT
0.149 GC
2 setlinecap
1 LJ
0.667 LW
N
529 174 M
524.47 174 L
S
GR
GS
[0.75 0 0 0.75 0 0.5] CT
0.149 GC
2 setlinecap
1 LJ
0.667 LW
N
529 142.4 M
524.47 142.4 L
S
GR
GS
[0.75 0 0 0.75 0 0.5] CT
0.149 GC
2 setlinecap
1 LJ
0.667 LW
N
529 110.8 M
524.47 110.8 L
S
GR
GS
[0.75 0 0 0.75 0 0.5] CT
0.149 GC
2 setlinecap
1 LJ
0.667 LW
N
529 79.2 M
524.47 79.2 L
S
GR
GS
[0.75 0 0 0.75 0 0.5] CT
0.149 GC
2 setlinecap
1 LJ
0.667 LW
N
529 47.6 M
524.47 47.6 L
S
GR
GS
[0.75 0 0 0.75 0 0.5] CT
0.149 GC
2 setlinecap
1 LJ
0.667 LW
N
529 16 M
524.47 16 L
S
GR
GS
[0.75 0 0 0.75 0 0.5] CT
0.149 GC
2 setlinecap
1 LJ
0.667 LW
N
76 174 M
78.265 174 L
S
GR
GS
[0.75 0 0 0.75 0 0.5] CT
0.149 GC
2 setlinecap
1 LJ
0.667 LW
N
76 164.487 M
78.265 164.487 L
S
GR
GS
[0.75 0 0 0.75 0 0.5] CT
0.149 GC
2 setlinecap
1 LJ
0.667 LW
N
76 158.923 M
78.265 158.923 L
S
GR
GS
[0.75 0 0 0.75 0 0.5] CT
0.149 GC
2 setlinecap
1 LJ
0.667 LW
N
76 154.975 M
78.265 154.975 L
S
GR
GS
[0.75 0 0 0.75 0 0.5] CT
0.149 GC
2 setlinecap
1 LJ
0.667 LW
N
76 151.913 M
78.265 151.913 L
S
GR
GS
[0.75 0 0 0.75 0 0.5] CT
0.149 GC
2 setlinecap
1 LJ
0.667 LW
N
76 149.41 M
78.265 149.41 L
S
GR
GS
[0.75 0 0 0.75 0 0.5] CT
0.149 GC
2 setlinecap
1 LJ
0.667 LW
N
76 147.295 M
78.265 147.295 L
S
GR
GS
[0.75 0 0 0.75 0 0.5] CT
0.149 GC
2 setlinecap
1 LJ
0.667 LW
N
76 145.462 M
78.265 145.462 L
S
GR
GS
[0.75 0 0 0.75 0 0.5] CT
0.149 GC
2 setlinecap
1 LJ
0.667 LW
N
76 143.846 M
78.265 143.846 L
S
GR
GS
[0.75 0 0 0.75 0 0.5] CT
0.149 GC
2 setlinecap
1 LJ
0.667 LW
N
76 142.4 M
78.265 142.4 L
S
GR
GS
[0.75 0 0 0.75 0 0.5] CT
0.149 GC
2 setlinecap
1 LJ
0.667 LW
N
76 142.4 M
78.265 142.4 L
S
GR
GS
[0.75 0 0 0.75 0 0.5] CT
0.149 GC
2 setlinecap
1 LJ
0.667 LW
N
76 132.887 M
78.265 132.887 L
S
GR
GS
[0.75 0 0 0.75 0 0.5] CT
0.149 GC
2 setlinecap
1 LJ
0.667 LW
N
76 127.323 M
78.265 127.323 L
S
GR
GS
[0.75 0 0 0.75 0 0.5] CT
0.149 GC
2 setlinecap
1 LJ
0.667 LW
N
76 123.375 M
78.265 123.375 L
S
GR
GS
[0.75 0 0 0.75 0 0.5] CT
0.149 GC
2 setlinecap
1 LJ
0.667 LW
N
76 120.313 M
78.265 120.313 L
S
GR
GS
[0.75 0 0 0.75 0 0.5] CT
0.149 GC
2 setlinecap
1 LJ
0.667 LW
N
76 117.81 M
78.265 117.81 L
S
GR
GS
[0.75 0 0 0.75 0 0.5] CT
0.149 GC
2 setlinecap
1 LJ
0.667 LW
N
76 115.695 M
78.265 115.695 L
S
GR
GS
[0.75 0 0 0.75 0 0.5] CT
0.149 GC
2 setlinecap
1 LJ
0.667 LW
N
76 113.862 M
78.265 113.862 L
S
GR
GS
[0.75 0 0 0.75 0 0.5] CT
0.149 GC
2 setlinecap
1 LJ
0.667 LW
N
76 112.246 M
78.265 112.246 L
S
GR
GS
[0.75 0 0 0.75 0 0.5] CT
0.149 GC
2 setlinecap
1 LJ
0.667 LW
N
76 110.8 M
78.265 110.8 L
S
GR
GS
[0.75 0 0 0.75 0 0.5] CT
0.149 GC
2 setlinecap
1 LJ
0.667 LW
N
76 101.287 M
78.265 101.287 L
S
GR
GS
[0.75 0 0 0.75 0 0.5] CT
0.149 GC
2 setlinecap
1 LJ
0.667 LW
N
76 95.723 M
78.265 95.723 L
S
GR
GS
[0.75 0 0 0.75 0 0.5] CT
0.149 GC
2 setlinecap
1 LJ
0.667 LW
N
76 91.775 M
78.265 91.775 L
S
GR
GS
[0.75 0 0 0.75 0 0.5] CT
0.149 GC
2 setlinecap
1 LJ
0.667 LW
N
76 88.713 M
78.265 88.713 L
S
GR
GS
[0.75 0 0 0.75 0 0.5] CT
0.149 GC
2 setlinecap
1 LJ
0.667 LW
N
76 86.21 M
78.265 86.21 L
S
GR
GS
[0.75 0 0 0.75 0 0.5] CT
0.149 GC
2 setlinecap
1 LJ
0.667 LW
N
76 84.095 M
78.265 84.095 L
S
GR
GS
[0.75 0 0 0.75 0 0.5] CT
0.149 GC
2 setlinecap
1 LJ
0.667 LW
N
76 82.262 M
78.265 82.262 L
S
GR
GS
[0.75 0 0 0.75 0 0.5] CT
0.149 GC
2 setlinecap
1 LJ
0.667 LW
N
76 80.646 M
78.265 80.646 L
S
GR
GS
[0.75 0 0 0.75 0 0.5] CT
0.149 GC
2 setlinecap
1 LJ
0.667 LW
N
76 79.2 M
78.265 79.2 L
S
GR
GS
[0.75 0 0 0.75 0 0.5] CT
0.149 GC
2 setlinecap
1 LJ
0.667 LW
N
76 69.687 M
78.265 69.687 L
S
GR
GS
[0.75 0 0 0.75 0 0.5] CT
0.149 GC
2 setlinecap
1 LJ
0.667 LW
N
76 64.123 M
78.265 64.123 L
S
GR
GS
[0.75 0 0 0.75 0 0.5] CT
0.149 GC
2 setlinecap
1 LJ
0.667 LW
N
76 60.175 M
78.265 60.175 L
S
GR
GS
[0.75 0 0 0.75 0 0.5] CT
0.149 GC
2 setlinecap
1 LJ
0.667 LW
N
76 57.113 M
78.265 57.113 L
S
GR
GS
[0.75 0 0 0.75 0 0.5] CT
0.149 GC
2 setlinecap
1 LJ
0.667 LW
N
76 54.61 M
78.265 54.61 L
S
GR
GS
[0.75 0 0 0.75 0 0.5] CT
0.149 GC
2 setlinecap
1 LJ
0.667 LW
N
76 52.495 M
78.265 52.495 L
S
GR
GS
[0.75 0 0 0.75 0 0.5] CT
0.149 GC
2 setlinecap
1 LJ
0.667 LW
N
76 50.662 M
78.265 50.662 L
S
GR
GS
[0.75 0 0 0.75 0 0.5] CT
0.149 GC
2 setlinecap
1 LJ
0.667 LW
N
76 49.046 M
78.265 49.046 L
S
GR
GS
[0.75 0 0 0.75 0 0.5] CT
0.149 GC
2 setlinecap
1 LJ
0.667 LW
N
76 47.6 M
78.265 47.6 L
S
GR
GS
[0.75 0 0 0.75 0 0.5] CT
0.149 GC
2 setlinecap
1 LJ
0.667 LW
N
76 38.087 M
78.265 38.087 L
S
GR
GS
[0.75 0 0 0.75 0 0.5] CT
0.149 GC
2 setlinecap
1 LJ
0.667 LW
N
76 32.523 M
78.265 32.523 L
S
GR
GS
[0.75 0 0 0.75 0 0.5] CT
0.149 GC
2 setlinecap
1 LJ
0.667 LW
N
76 28.575 M
78.265 28.575 L
S
GR
GS
[0.75 0 0 0.75 0 0.5] CT
0.149 GC
2 setlinecap
1 LJ
0.667 LW
N
76 25.513 M
78.265 25.513 L
S
GR
GS
[0.75 0 0 0.75 0 0.5] CT
0.149 GC
2 setlinecap
1 LJ
0.667 LW
N
76 23.01 M
78.265 23.01 L
S
GR
GS
[0.75 0 0 0.75 0 0.5] CT
0.149 GC
2 setlinecap
1 LJ
0.667 LW
N
76 20.895 M
78.265 20.895 L
S
GR
GS
[0.75 0 0 0.75 0 0.5] CT
0.149 GC
2 setlinecap
1 LJ
0.667 LW
N
76 19.062 M
78.265 19.062 L
S
GR
GS
[0.75 0 0 0.75 0 0.5] CT
0.149 GC
2 setlinecap
1 LJ
0.667 LW
N
76 17.446 M
78.265 17.446 L
S
GR
GS
[0.75 0 0 0.75 0 0.5] CT
0.149 GC
2 setlinecap
1 LJ
0.667 LW
N
76 16 M
78.265 16 L
S
GR
GS
[0.75 0 0 0.75 0 0.5] CT
0.149 GC
2 setlinecap
1 LJ
0.667 LW
N
529 174 M
526.735 174 L
S
GR
GS
[0.75 0 0 0.75 0 0.5] CT
0.149 GC
2 setlinecap
1 LJ
0.667 LW
N
529 164.487 M
526.735 164.487 L
S
GR
GS
[0.75 0 0 0.75 0 0.5] CT
0.149 GC
2 setlinecap
1 LJ
0.667 LW
N
529 158.923 M
526.735 158.923 L
S
GR
GS
[0.75 0 0 0.75 0 0.5] CT
0.149 GC
2 setlinecap
1 LJ
0.667 LW
N
529 154.975 M
526.735 154.975 L
S
GR
GS
[0.75 0 0 0.75 0 0.5] CT
0.149 GC
2 setlinecap
1 LJ
0.667 LW
N
529 151.913 M
526.735 151.913 L
S
GR
GS
[0.75 0 0 0.75 0 0.5] CT
0.149 GC
2 setlinecap
1 LJ
0.667 LW
N
529 149.41 M
526.735 149.41 L
S
GR
GS
[0.75 0 0 0.75 0 0.5] CT
0.149 GC
2 setlinecap
1 LJ
0.667 LW
N
529 147.295 M
526.735 147.295 L
S
GR
GS
[0.75 0 0 0.75 0 0.5] CT
0.149 GC
2 setlinecap
1 LJ
0.667 LW
N
529 145.462 M
526.735 145.462 L
S
GR
GS
[0.75 0 0 0.75 0 0.5] CT
0.149 GC
2 setlinecap
1 LJ
0.667 LW
N
529 143.846 M
526.735 143.846 L
S
GR
GS
[0.75 0 0 0.75 0 0.5] CT
0.149 GC
2 setlinecap
1 LJ
0.667 LW
N
529 142.4 M
526.735 142.4 L
S
GR
GS
[0.75 0 0 0.75 0 0.5] CT
0.149 GC
2 setlinecap
1 LJ
0.667 LW
N
529 142.4 M
526.735 142.4 L
S
GR
GS
[0.75 0 0 0.75 0 0.5] CT
0.149 GC
2 setlinecap
1 LJ
0.667 LW
N
529 132.887 M
526.735 132.887 L
S
GR
GS
[0.75 0 0 0.75 0 0.5] CT
0.149 GC
2 setlinecap
1 LJ
0.667 LW
N
529 127.323 M
526.735 127.323 L
S
GR
GS
[0.75 0 0 0.75 0 0.5] CT
0.149 GC
2 setlinecap
1 LJ
0.667 LW
N
529 123.375 M
526.735 123.375 L
S
GR
GS
[0.75 0 0 0.75 0 0.5] CT
0.149 GC
2 setlinecap
1 LJ
0.667 LW
N
529 120.313 M
526.735 120.313 L
S
GR
GS
[0.75 0 0 0.75 0 0.5] CT
0.149 GC
2 setlinecap
1 LJ
0.667 LW
N
529 117.81 M
526.735 117.81 L
S
GR
GS
[0.75 0 0 0.75 0 0.5] CT
0.149 GC
2 setlinecap
1 LJ
0.667 LW
N
529 115.695 M
526.735 115.695 L
S
GR
GS
[0.75 0 0 0.75 0 0.5] CT
0.149 GC
2 setlinecap
1 LJ
0.667 LW
N
529 113.862 M
526.735 113.862 L
S
GR
GS
[0.75 0 0 0.75 0 0.5] CT
0.149 GC
2 setlinecap
1 LJ
0.667 LW
N
529 112.246 M
526.735 112.246 L
S
GR
GS
[0.75 0 0 0.75 0 0.5] CT
0.149 GC
2 setlinecap
1 LJ
0.667 LW
N
529 110.8 M
526.735 110.8 L
S
GR
GS
[0.75 0 0 0.75 0 0.5] CT
0.149 GC
2 setlinecap
1 LJ
0.667 LW
N
529 101.287 M
526.735 101.287 L
S
GR
GS
[0.75 0 0 0.75 0 0.5] CT
0.149 GC
2 setlinecap
1 LJ
0.667 LW
N
529 95.723 M
526.735 95.723 L
S
GR
GS
[0.75 0 0 0.75 0 0.5] CT
0.149 GC
2 setlinecap
1 LJ
0.667 LW
N
529 91.775 M
526.735 91.775 L
S
GR
GS
[0.75 0 0 0.75 0 0.5] CT
0.149 GC
2 setlinecap
1 LJ
0.667 LW
N
529 88.713 M
526.735 88.713 L
S
GR
GS
[0.75 0 0 0.75 0 0.5] CT
0.149 GC
2 setlinecap
1 LJ
0.667 LW
N
529 86.21 M
526.735 86.21 L
S
GR
GS
[0.75 0 0 0.75 0 0.5] CT
0.149 GC
2 setlinecap
1 LJ
0.667 LW
N
529 84.095 M
526.735 84.095 L
S
GR
GS
[0.75 0 0 0.75 0 0.5] CT
0.149 GC
2 setlinecap
1 LJ
0.667 LW
N
529 82.262 M
526.735 82.262 L
S
GR
GS
[0.75 0 0 0.75 0 0.5] CT
0.149 GC
2 setlinecap
1 LJ
0.667 LW
N
529 80.646 M
526.735 80.646 L
S
GR
GS
[0.75 0 0 0.75 0 0.5] CT
0.149 GC
2 setlinecap
1 LJ
0.667 LW
N
529 79.2 M
526.735 79.2 L
S
GR
GS
[0.75 0 0 0.75 0 0.5] CT
0.149 GC
2 setlinecap
1 LJ
0.667 LW
N
529 69.687 M
526.735 69.687 L
S
GR
GS
[0.75 0 0 0.75 0 0.5] CT
0.149 GC
2 setlinecap
1 LJ
0.667 LW
N
529 64.123 M
526.735 64.123 L
S
GR
GS
[0.75 0 0 0.75 0 0.5] CT
0.149 GC
2 setlinecap
1 LJ
0.667 LW
N
529 60.175 M
526.735 60.175 L
S
GR
GS
[0.75 0 0 0.75 0 0.5] CT
0.149 GC
2 setlinecap
1 LJ
0.667 LW
N
529 57.113 M
526.735 57.113 L
S
GR
GS
[0.75 0 0 0.75 0 0.5] CT
0.149 GC
2 setlinecap
1 LJ
0.667 LW
N
529 54.61 M
526.735 54.61 L
S
GR
GS
[0.75 0 0 0.75 0 0.5] CT
0.149 GC
2 setlinecap
1 LJ
0.667 LW
N
529 52.495 M
526.735 52.495 L
S
GR
GS
[0.75 0 0 0.75 0 0.5] CT
0.149 GC
2 setlinecap
1 LJ
0.667 LW
N
529 50.662 M
526.735 50.662 L
S
GR
GS
[0.75 0 0 0.75 0 0.5] CT
0.149 GC
2 setlinecap
1 LJ
0.667 LW
N
529 49.046 M
526.735 49.046 L
S
GR
GS
[0.75 0 0 0.75 0 0.5] CT
0.149 GC
2 setlinecap
1 LJ
0.667 LW
N
529 47.6 M
526.735 47.6 L
S
GR
GS
[0.75 0 0 0.75 0 0.5] CT
0.149 GC
2 setlinecap
1 LJ
0.667 LW
N
529 38.087 M
526.735 38.087 L
S
GR
GS
[0.75 0 0 0.75 0 0.5] CT
0.149 GC
2 setlinecap
1 LJ
0.667 LW
N
529 32.523 M
526.735 32.523 L
S
GR
GS
[0.75 0 0 0.75 0 0.5] CT
0.149 GC
2 setlinecap
1 LJ
0.667 LW
N
529 28.575 M
526.735 28.575 L
S
GR
GS
[0.75 0 0 0.75 0 0.5] CT
0.149 GC
2 setlinecap
1 LJ
0.667 LW
N
529 25.513 M
526.735 25.513 L
S
GR
GS
[0.75 0 0 0.75 0 0.5] CT
0.149 GC
2 setlinecap
1 LJ
0.667 LW
N
529 23.01 M
526.735 23.01 L
S
GR
GS
[0.75 0 0 0.75 0 0.5] CT
0.149 GC
2 setlinecap
1 LJ
0.667 LW
N
529 20.895 M
526.735 20.895 L
S
GR
GS
[0.75 0 0 0.75 0 0.5] CT
0.149 GC
2 setlinecap
1 LJ
0.667 LW
N
529 19.062 M
526.735 19.062 L
S
GR
GS
[0.75 0 0 0.75 0 0.5] CT
0.149 GC
2 setlinecap
1 LJ
0.667 LW
N
529 17.446 M
526.735 17.446 L
S
GR
GS
[0.75 0 0 0.75 0 0.5] CT
0.149 GC
2 setlinecap
1 LJ
0.667 LW
N
529 16 M
526.735 16 L
S
GR
GS
[0.75 0 0 0.75 53 131] CT
0.149 GC
N
/f1826006750{-24.723 3.2 M
-24.723 2.747 L
-23.098 2.747 -23.098 2.325 QT
-23.098 -4.488 L
-23.77 -4.175 -24.801 -4.175 QT
-24.801 -4.628 L
-23.207 -4.628 -22.395 -5.456 QT
-22.207 -5.456 L
-22.16 -5.456 -22.121 -5.425 QT
-22.082 -5.394 -22.082 -5.347 QT
-22.082 2.325 L
-22.082 2.747 -20.457 2.747 QT
-20.457 3.2 L
-24.723 3.2 L
cp}def
f1826006750
f
GR
GS
[0.75 0 0 0.75 53 131] CT
0.149 GC
N
/f-1047289805{-16.009 3.481 M
-17.603 3.481 -18.173 2.169 QT
-18.744 0.856 -18.744 -0.941 QT
-18.744 -2.081 -18.541 -3.073 QT
-18.337 -4.066 -17.728 -4.761 QT
-17.119 -5.456 -16.009 -5.456 QT
-15.15 -5.456 -14.603 -5.042 QT
-14.056 -4.628 -13.775 -3.964 QT
-13.494 -3.3 -13.384 -2.542 QT
-13.275 -1.784 -13.275 -0.941 QT
-13.275 0.169 -13.486 1.145 QT
-13.697 2.122 -14.298 2.802 QT
-14.9 3.481 -16.009 3.481 QT
cp
-16.009 3.153 M
-15.291 3.153 -14.931 2.411 QT
-14.572 1.669 -14.494 0.762 QT
-14.416 -0.144 -14.416 -1.159 QT
-14.416 -2.128 -14.494 -2.956 QT
-14.572 -3.784 -14.923 -4.456 QT
-15.275 -5.128 -16.009 -5.128 QT
-16.744 -5.128 -17.103 -4.448 QT
-17.462 -3.769 -17.541 -2.948 QT
-17.619 -2.128 -17.619 -1.159 QT
-17.619 -0.425 -17.587 0.216 QT
-17.556 0.856 -17.4 1.536 QT
-17.244 2.216 -16.908 2.684 QT
-16.572 3.153 -16.009 3.153 QT
cp}def
f-1047289805
f
GR
GS
[0.75 0 0 0.75 53 131] CT
0.149 GC
N
/f1686719548{-11.671 -3.701 M
-11.749 -3.701 -11.796 -3.764 QT
-11.843 -3.826 -11.843 -3.889 QT
-11.843 -3.951 -11.796 -4.014 QT
-11.749 -4.076 -11.671 -4.076 QT
-6.514 -4.076 L
-6.436 -4.076 -6.389 -4.014 QT
-6.343 -3.951 -6.343 -3.889 QT
-6.343 -3.826 -6.389 -3.764 QT
-6.436 -3.701 -6.514 -3.701 QT
-11.671 -3.701 L
cp}def
f1686719548
f
GR
GS
[0.75 0 0 0.75 53 131] CT
0.149 GC
N
/f-1276821804{-4.552 -2.67 M
-4.458 -2.404 -4.271 -2.185 QT
-4.083 -1.967 -3.818 -1.85 QT
-3.552 -1.732 -3.271 -1.732 QT
-2.615 -1.732 -2.372 -2.232 QT
-2.13 -2.732 -2.13 -3.451 QT
-2.13 -3.764 -2.138 -3.982 QT
-2.146 -4.201 -2.193 -4.389 QT
-2.286 -4.717 -2.497 -4.951 QT
-2.708 -5.185 -3.005 -5.185 QT
-3.302 -5.185 -3.521 -5.092 QT
-3.74 -4.998 -3.88 -4.873 QT
-4.021 -4.748 -4.122 -4.615 QT
-4.224 -4.482 -4.255 -4.467 QT
-4.349 -4.467 L
-4.38 -4.467 -4.411 -4.498 QT
-4.443 -4.529 -4.443 -4.56 QT
-4.443 -7.56 L
-4.443 -7.592 -4.411 -7.615 QT
-4.38 -7.639 -4.349 -7.639 QT
-4.333 -7.639 L
-3.724 -7.342 -3.036 -7.342 QT
-2.365 -7.342 -1.755 -7.639 QT
-1.724 -7.639 L
-1.693 -7.639 -1.669 -7.615 QT
-1.646 -7.592 -1.646 -7.56 QT
-1.646 -7.482 L
-1.646 -7.435 -1.661 -7.435 QT
-1.974 -7.029 -2.435 -6.803 QT
-2.896 -6.576 -3.396 -6.576 QT
-3.755 -6.576 -4.13 -6.67 QT
-4.13 -4.967 L
-3.833 -5.217 -3.599 -5.318 QT
-3.365 -5.42 -2.99 -5.42 QT
-2.505 -5.42 -2.107 -5.131 QT
-1.708 -4.842 -1.497 -4.389 QT
-1.286 -3.935 -1.286 -3.451 QT
-1.286 -2.904 -1.552 -2.443 QT
-1.818 -1.982 -2.279 -1.709 QT
-2.74 -1.435 -3.271 -1.435 QT
-3.708 -1.435 -4.083 -1.67 QT
-4.458 -1.904 -4.669 -2.287 QT
-4.88 -2.67 -4.88 -3.107 QT
-4.88 -3.31 -4.747 -3.435 QT
-4.615 -3.56 -4.427 -3.56 QT
-4.224 -3.56 -4.091 -3.435 QT
-3.958 -3.31 -3.958 -3.107 QT
-3.958 -2.92 -4.091 -2.779 QT
-4.224 -2.639 -4.427 -2.639 QT
-4.458 -2.639 -4.497 -2.646 QT
-4.536 -2.654 -4.552 -2.67 QT
cp}def
f-1276821804
f
GR
GS
[0.75 0 0 0.75 53 107.3] CT
0.149 GC
N
f1826006750
f
GR
GS
[0.75 0 0 0.75 53 107.3] CT
0.149 GC
N
f-1047289805
f
GR
GS
[0.75 0 0 0.75 53 107.3] CT
0.149 GC
N
f1686719548
f
GR
GS
[0.75 0 0 0.75 53 107.3] CT
0.149 GC
N
/f1610787686{-5.083 -3.123 M
-5.083 -3.435 L
-2.302 -7.592 L
-2.271 -7.639 -2.208 -7.639 QT
-2.083 -7.639 L
-1.974 -7.639 -1.974 -7.529 QT
-1.974 -3.435 L
-1.099 -3.435 L
-1.099 -3.123 L
-1.974 -3.123 L
-1.974 -2.248 L
-1.974 -2.06 -1.708 -2.006 QT
-1.443 -1.951 -1.099 -1.951 QT
-1.099 -1.639 L
-3.583 -1.639 L
-3.583 -1.951 L
-3.24 -1.951 -2.974 -2.006 QT
-2.708 -2.06 -2.708 -2.248 QT
-2.708 -3.123 L
-5.083 -3.123 L
cp
-4.786 -3.435 M
-2.646 -3.435 L
-2.646 -6.623 L
-4.786 -3.435 L
cp}def
f1610787686
f
GR
GS
[0.75 0 0 0.75 53 83.6] CT
0.149 GC
N
f1826006750
f
GR
GS
[0.75 0 0 0.75 53 83.6] CT
0.149 GC
N
f-1047289805
f
GR
GS
[0.75 0 0 0.75 53 83.6] CT
0.149 GC
N
f1686719548
f
GR
GS
[0.75 0 0 0.75 53 83.6] CT
0.149 GC
N
/f-418928570{-4.474 -2.326 M
-4.271 -2.029 -3.911 -1.881 QT
-3.552 -1.732 -3.146 -1.732 QT
-2.615 -1.732 -2.396 -2.178 QT
-2.177 -2.623 -2.177 -3.185 QT
-2.177 -3.435 -2.224 -3.693 QT
-2.271 -3.951 -2.38 -4.17 QT
-2.49 -4.389 -2.685 -4.521 QT
-2.88 -4.654 -3.146 -4.654 QT
-3.755 -4.654 L
-3.833 -4.654 -3.833 -4.732 QT
-3.833 -4.81 L
-3.833 -4.889 -3.755 -4.889 QT
-3.255 -4.92 L
-2.943 -4.92 -2.732 -5.162 QT
-2.521 -5.404 -2.427 -5.74 QT
-2.333 -6.076 -2.333 -6.389 QT
-2.333 -6.826 -2.529 -7.1 QT
-2.724 -7.373 -3.146 -7.373 QT
-3.49 -7.373 -3.802 -7.24 QT
-4.115 -7.107 -4.302 -6.857 QT
-4.271 -6.857 -4.263 -6.857 QT
-4.255 -6.857 -4.24 -6.857 QT
-4.036 -6.857 -3.896 -6.717 QT
-3.755 -6.576 -3.755 -6.373 QT
-3.755 -6.185 -3.896 -6.045 QT
-4.036 -5.904 -4.24 -5.904 QT
-4.427 -5.904 -4.568 -6.045 QT
-4.708 -6.185 -4.708 -6.373 QT
-4.708 -6.764 -4.482 -7.053 QT
-4.255 -7.342 -3.888 -7.49 QT
-3.521 -7.639 -3.146 -7.639 QT
-2.865 -7.639 -2.568 -7.553 QT
-2.271 -7.467 -2.021 -7.318 QT
-1.771 -7.17 -1.615 -6.928 QT
-1.458 -6.685 -1.458 -6.389 QT
-1.458 -6.014 -1.63 -5.693 QT
-1.802 -5.373 -2.099 -5.139 QT
-2.396 -4.904 -2.74 -4.795 QT
-2.349 -4.717 -1.997 -4.498 QT
-1.646 -4.279 -1.435 -3.935 QT
-1.224 -3.592 -1.224 -3.201 QT
-1.224 -2.701 -1.497 -2.295 QT
-1.771 -1.889 -2.208 -1.662 QT
-2.646 -1.435 -3.146 -1.435 QT
-3.568 -1.435 -3.99 -1.6 QT
-4.411 -1.764 -4.685 -2.084 QT
-4.958 -2.404 -4.958 -2.857 QT
-4.958 -3.076 -4.81 -3.225 QT
-4.661 -3.373 -4.427 -3.373 QT
-4.286 -3.373 -4.169 -3.303 QT
-4.052 -3.232 -3.982 -3.115 QT
-3.911 -2.998 -3.911 -2.857 QT
-3.911 -2.639 -4.068 -2.482 QT
-4.224 -2.326 -4.427 -2.326 QT
-4.474 -2.326 L
cp}def
f-418928570
f
GR
GS
[0.75 0 0 0.75 53 59.9] CT
0.149 GC
N
f1826006750
f
GR
GS
[0.75 0 0 0.75 53 59.9] CT
0.149 GC
N
f-1047289805
f
GR
GS
[0.75 0 0 0.75 53 59.9] CT
0.149 GC
N
f1686719548
f
GR
GS
[0.75 0 0 0.75 53 59.9] CT
0.149 GC
N
/f1096009165{-4.88 -1.639 M
-4.88 -1.873 L
-4.88 -1.904 -4.865 -1.935 QT
-3.474 -3.482 L
-3.146 -3.826 -2.951 -4.053 QT
-2.755 -4.279 -2.56 -4.584 QT
-2.365 -4.889 -2.255 -5.201 QT
-2.146 -5.514 -2.146 -5.873 QT
-2.146 -6.232 -2.286 -6.576 QT
-2.427 -6.92 -2.693 -7.115 QT
-2.958 -7.31 -3.349 -7.31 QT
-3.74 -7.31 -4.052 -7.076 QT
-4.365 -6.842 -4.49 -6.467 QT
-4.443 -6.482 -4.396 -6.482 QT
-4.193 -6.482 -4.044 -6.35 QT
-3.896 -6.217 -3.896 -5.998 QT
-3.896 -5.795 -4.044 -5.646 QT
-4.193 -5.498 -4.396 -5.498 QT
-4.599 -5.498 -4.74 -5.646 QT
-4.88 -5.795 -4.88 -5.998 QT
-4.88 -6.326 -4.755 -6.623 QT
-4.63 -6.92 -4.388 -7.154 QT
-4.146 -7.389 -3.849 -7.514 QT
-3.552 -7.639 -3.208 -7.639 QT
-2.693 -7.639 -2.247 -7.42 QT
-1.802 -7.201 -1.544 -6.803 QT
-1.286 -6.404 -1.286 -5.873 QT
-1.286 -5.482 -1.458 -5.131 QT
-1.63 -4.779 -1.896 -4.49 QT
-2.161 -4.201 -2.583 -3.834 QT
-3.005 -3.467 -3.13 -3.342 QT
-4.161 -2.373 L
-3.286 -2.373 L
-2.646 -2.373 -2.224 -2.381 QT
-1.802 -2.389 -1.771 -2.42 QT
-1.661 -2.529 -1.552 -3.248 QT
-1.286 -3.248 L
-1.552 -1.639 L
-4.88 -1.639 L
cp}def
f1096009165
f
GR
GS
[0.75 0 0 0.75 53 36.2] CT
0.149 GC
N
f1826006750
f
GR
GS
[0.75 0 0 0.75 53 36.2] CT
0.149 GC
N
f-1047289805
f
GR
GS
[0.75 0 0 0.75 53 36.2] CT
0.149 GC
N
f1686719548
f
GR
GS
[0.75 0 0 0.75 53 36.2] CT
0.149 GC
N
/f203571659{-4.505 -1.639 M
-4.505 -1.951 L
-3.38 -1.951 -3.38 -2.248 QT
-3.38 -6.967 L
-3.833 -6.748 -4.552 -6.748 QT
-4.552 -7.06 L
-3.443 -7.06 -2.88 -7.639 QT
-2.755 -7.639 L
-2.724 -7.639 -2.701 -7.615 QT
-2.677 -7.592 -2.677 -7.56 QT
-2.677 -2.248 L
-2.677 -1.951 -1.552 -1.951 QT
-1.552 -1.639 L
-4.505 -1.639 L
cp}def
f203571659
f
GR
GS
[0.75 0 0 0.75 53 12.5] CT
0.149 GC
N
/f221049253{-17.464 3.2 M
-17.464 2.747 L
-15.839 2.747 -15.839 2.325 QT
-15.839 -4.488 L
-16.51 -4.175 -17.542 -4.175 QT
-17.542 -4.628 L
-15.948 -4.628 -15.135 -5.456 QT
-14.948 -5.456 L
-14.901 -5.456 -14.862 -5.425 QT
-14.823 -5.394 -14.823 -5.347 QT
-14.823 2.325 L
-14.823 2.747 -13.198 2.747 QT
-13.198 3.2 L
-17.464 3.2 L
cp}def
f221049253
f
GR
GS
[0.75 0 0 0.75 53 12.5] CT
0.149 GC
N
/f-1964057359{-8.75 3.481 M
-10.344 3.481 -10.914 2.169 QT
-11.484 0.856 -11.484 -0.941 QT
-11.484 -2.081 -11.281 -3.073 QT
-11.078 -4.066 -10.469 -4.761 QT
-9.859 -5.456 -8.75 -5.456 QT
-7.891 -5.456 -7.344 -5.042 QT
-6.797 -4.628 -6.516 -3.964 QT
-6.234 -3.3 -6.125 -2.542 QT
-6.016 -1.784 -6.016 -0.941 QT
-6.016 0.169 -6.227 1.145 QT
-6.438 2.122 -7.039 2.802 QT
-7.641 3.481 -8.75 3.481 QT
cp
-8.75 3.153 M
-8.031 3.153 -7.672 2.411 QT
-7.313 1.669 -7.234 0.762 QT
-7.156 -0.144 -7.156 -1.159 QT
-7.156 -2.128 -7.234 -2.956 QT
-7.313 -3.784 -7.664 -4.456 QT
-8.016 -5.128 -8.75 -5.128 QT
-9.484 -5.128 -9.844 -4.448 QT
-10.203 -3.769 -10.281 -2.948 QT
-10.359 -2.128 -10.359 -1.159 QT
-10.359 -0.425 -10.328 0.216 QT
-10.297 0.856 -10.141 1.536 QT
-9.984 2.216 -9.648 2.684 QT
-9.313 3.153 -8.75 3.153 QT
cp}def
f-1964057359
f
GR
GS
[0.75 0 0 0.75 53 12.5] CT
0.149 GC
N
/f-1748042050{-3.083 -1.435 M
-4.193 -1.435 -4.583 -2.35 QT
-4.974 -3.264 -4.974 -4.514 QT
-4.974 -5.295 -4.833 -5.982 QT
-4.693 -6.67 -4.271 -7.154 QT
-3.849 -7.639 -3.083 -7.639 QT
-2.49 -7.639 -2.115 -7.35 QT
-1.74 -7.06 -1.536 -6.6 QT
-1.333 -6.139 -1.263 -5.615 QT
-1.193 -5.092 -1.193 -4.514 QT
-1.193 -3.732 -1.333 -3.06 QT
-1.474 -2.389 -1.896 -1.912 QT
-2.318 -1.435 -3.083 -1.435 QT
cp
-3.083 -1.67 M
-2.583 -1.67 -2.333 -2.185 QT
-2.083 -2.701 -2.029 -3.326 QT
-1.974 -3.951 -1.974 -4.654 QT
-1.974 -5.326 -2.029 -5.896 QT
-2.083 -6.467 -2.333 -6.935 QT
-2.583 -7.404 -3.083 -7.404 QT
-3.599 -7.404 -3.841 -6.935 QT
-4.083 -6.467 -4.138 -5.896 QT
-4.193 -5.326 -4.193 -4.654 QT
-4.193 -4.154 -4.169 -3.709 QT
-4.146 -3.264 -4.044 -2.795 QT
-3.943 -2.326 -3.708 -1.998 QT
-3.474 -1.67 -3.083 -1.67 QT
cp}def
f-1748042050
f
GR
GS
[0 -0.75 0.75 0 30.55551 71.74994] CT
0.149 GC
N
/f-724243643{-35.435 -1.796 M
-35.435 -16.264 L
-35.435 -16.374 -35.342 -16.452 QT
-35.248 -16.53 -35.123 -16.53 QT
-35.014 -16.53 -34.92 -16.452 QT
-34.826 -16.374 -34.826 -16.264 QT
-34.826 -1.796 L
-34.826 -1.686 -34.92 -1.608 QT
-35.014 -1.53 -35.123 -1.53 QT
-35.248 -1.53 -35.342 -1.608 QT
-35.435 -1.686 -35.435 -1.796 QT
cp}def
f-724243643
f
GR
GS
[0 -0.75 0.75 0 30.55551 71.74994] CT
0.149 GC
N
/f987887661{-32.752 -5.28 M
-32.752 -5.811 L
-32.236 -5.811 -31.908 -5.889 QT
-31.58 -5.968 -31.58 -6.28 QT
-31.58 -10.374 L
-31.58 -10.78 -31.705 -10.96 QT
-31.83 -11.139 -32.057 -11.178 QT
-32.283 -11.218 -32.752 -11.218 QT
-32.752 -11.749 L
-30.611 -11.905 L
-30.611 -10.436 L
-30.361 -11.093 -29.916 -11.499 QT
-29.471 -11.905 -28.83 -11.905 QT
-28.393 -11.905 -28.041 -11.639 QT
-27.689 -11.374 -27.689 -10.952 QT
-27.689 -10.671 -27.885 -10.475 QT
-28.08 -10.28 -28.361 -10.28 QT
-28.643 -10.28 -28.838 -10.475 QT
-29.033 -10.671 -29.033 -10.952 QT
-29.033 -11.358 -28.752 -11.514 QT
-28.83 -11.514 L
-29.439 -11.514 -29.822 -11.077 QT
-30.205 -10.639 -30.369 -9.991 QT
-30.533 -9.343 -30.533 -8.749 QT
-30.533 -6.28 L
-30.533 -5.811 -29.08 -5.811 QT
-29.08 -5.28 L
-32.752 -5.28 L
cp}def
f987887661
f
GR
GS
[0 -0.75 0.75 0 30.55551 71.74994] CT
0.149 GC
N
/f-803605762{-23.664 -5.108 M
-24.586 -5.108 -25.343 -5.593 QT
-26.101 -6.077 -26.539 -6.874 QT
-26.976 -7.671 -26.976 -8.561 QT
-26.976 -9.452 -26.578 -10.241 QT
-26.179 -11.03 -25.468 -11.514 QT
-24.758 -11.999 -23.883 -11.999 QT
-23.179 -11.999 -22.672 -11.772 QT
-22.164 -11.546 -21.836 -11.132 QT
-21.508 -10.718 -21.343 -10.163 QT
-21.179 -9.608 -21.179 -8.936 QT
-21.179 -8.749 -21.32 -8.749 QT
-25.664 -8.749 L
-25.664 -8.577 L
-25.664 -7.343 -25.164 -6.444 QT
-24.664 -5.546 -23.523 -5.546 QT
-23.07 -5.546 -22.679 -5.757 QT
-22.289 -5.968 -22 -6.327 QT
-21.711 -6.686 -21.601 -7.108 QT
-21.586 -7.155 -21.547 -7.202 QT
-21.508 -7.249 -21.461 -7.249 QT
-21.32 -7.249 L
-21.179 -7.249 -21.179 -7.046 QT
-21.383 -6.202 -22.086 -5.655 QT
-22.789 -5.108 -23.664 -5.108 QT
cp
-25.648 -9.124 M
-22.242 -9.124 L
-22.242 -9.686 -22.398 -10.264 QT
-22.554 -10.843 -22.922 -11.225 QT
-23.289 -11.608 -23.883 -11.608 QT
-24.726 -11.608 -25.187 -10.811 QT
-25.648 -10.014 -25.648 -9.124 QT
cp}def
f-803605762
f
GR
GS
[0 -0.75 0.75 0 30.55551 71.74994] CT
0.149 GC
N
/f-699620603{-20.411 -5.28 M
-20.411 -5.811 L
-19.911 -5.811 -19.575 -5.889 QT
-19.239 -5.968 -19.239 -6.28 QT
-19.239 -14.155 L
-19.239 -14.561 -19.364 -14.741 QT
-19.489 -14.921 -19.716 -14.96 QT
-19.942 -14.999 -20.411 -14.999 QT
-20.411 -15.53 L
-18.192 -15.686 L
-18.192 -6.28 L
-18.192 -5.968 -17.864 -5.889 QT
-17.536 -5.811 -17.02 -5.811 QT
-17.02 -5.28 L
-20.411 -5.28 L
cp}def
f-699620603
f
GR
GS
[0 -0.75 0.75 0 30.55551 71.74994] CT
0.149 GC
N
/f2025304570{-15.54 -6.108 M
-15.54 -6.452 -15.29 -6.686 QT
-15.04 -6.921 -14.712 -6.921 QT
-14.509 -6.921 -14.313 -6.811 QT
-14.118 -6.702 -14.009 -6.507 QT
-13.899 -6.311 -13.899 -6.108 QT
-13.899 -5.78 -14.142 -5.53 QT
-14.384 -5.28 -14.712 -5.28 QT
-15.04 -5.28 -15.29 -5.53 QT
-15.54 -5.78 -15.54 -6.108 QT
cp}def
f2025304570
f
GR
GS
[0 -0.75 0.75 0 30.55551 71.74994] CT
0.149 GC
N
/f-2143609113{-5.744 -5.28 M
-5.744 -5.811 L
-4.213 -5.811 -4.213 -6.28 QT
-4.213 -14.53 L
-4.213 -14.999 -5.744 -14.999 QT
-5.744 -15.53 L
2.521 -15.53 L
2.928 -12.093 L
2.506 -12.093 L
2.396 -13.03 2.225 -13.577 QT
2.053 -14.124 1.725 -14.436 QT
1.396 -14.749 0.842 -14.874 QT
0.287 -14.999 -0.682 -14.999 QT
-2.041 -14.999 L
-2.322 -14.999 -2.471 -14.975 QT
-2.619 -14.952 -2.713 -14.85 QT
-2.807 -14.749 -2.807 -14.53 QT
-2.807 -10.671 L
-1.744 -10.671 L
-0.979 -10.671 -0.619 -10.803 QT
-0.26 -10.936 -0.127 -11.296 QT
0.006 -11.655 0.006 -12.421 QT
0.443 -12.421 L
0.443 -8.389 L
0.006 -8.389 L
0.006 -9.155 -0.127 -9.514 QT
-0.26 -9.874 -0.619 -10.007 QT
-0.979 -10.139 -1.744 -10.139 QT
-2.807 -10.139 L
-2.807 -6.28 L
-2.807 -5.811 -0.885 -5.811 QT
-0.885 -5.28 L
-5.744 -5.28 L
cp}def
f-2143609113
f
GR
GS
[0 -0.75 0.75 0 30.55551 71.74994] CT
0.149 GC
N
/f1447152289{5.873 -5.108 M
4.951 -5.108 4.194 -5.593 QT
3.436 -6.077 2.998 -6.874 QT
2.561 -7.671 2.561 -8.561 QT
2.561 -9.452 2.959 -10.241 QT
3.358 -11.03 4.069 -11.514 QT
4.78 -11.999 5.655 -11.999 QT
6.358 -11.999 6.865 -11.772 QT
7.373 -11.546 7.701 -11.132 QT
8.03 -10.718 8.194 -10.163 QT
8.358 -9.608 8.358 -8.936 QT
8.358 -8.749 8.217 -8.749 QT
3.873 -8.749 L
3.873 -8.577 L
3.873 -7.343 4.373 -6.444 QT
4.873 -5.546 6.014 -5.546 QT
6.467 -5.546 6.858 -5.757 QT
7.248 -5.968 7.537 -6.327 QT
7.826 -6.686 7.936 -7.108 QT
7.951 -7.155 7.99 -7.202 QT
8.03 -7.249 8.076 -7.249 QT
8.217 -7.249 L
8.358 -7.249 8.358 -7.046 QT
8.155 -6.202 7.451 -5.655 QT
6.748 -5.108 5.873 -5.108 QT
cp
3.889 -9.124 M
7.295 -9.124 L
7.295 -9.686 7.139 -10.264 QT
6.983 -10.843 6.615 -11.225 QT
6.248 -11.608 5.655 -11.608 QT
4.811 -11.608 4.35 -10.811 QT
3.889 -10.014 3.889 -9.124 QT
cp}def
f1447152289
f
GR
GS
[0 -0.75 0.75 0 30.55551 71.74994] CT
0.149 GC
N
/f208855904{9.111 -5.28 M
9.111 -5.811 L
9.611 -5.811 9.946 -5.889 QT
10.282 -5.968 10.282 -6.28 QT
10.282 -14.155 L
10.282 -14.561 10.157 -14.741 QT
10.032 -14.921 9.806 -14.96 QT
9.579 -14.999 9.111 -14.999 QT
9.111 -15.53 L
11.329 -15.686 L
11.329 -10.53 L
11.642 -11.155 12.204 -11.53 QT
12.767 -11.905 13.454 -11.905 QT
14.501 -11.905 15.025 -11.405 QT
15.548 -10.905 15.548 -9.889 QT
15.548 -6.28 L
15.548 -5.968 15.876 -5.889 QT
16.204 -5.811 16.72 -5.811 QT
16.72 -5.28 L
13.282 -5.28 L
13.282 -5.811 L
13.798 -5.811 14.126 -5.889 QT
14.454 -5.968 14.454 -6.28 QT
14.454 -9.843 L
14.454 -10.577 14.243 -11.046 QT
14.032 -11.514 13.361 -11.514 QT
12.501 -11.514 11.939 -10.819 QT
11.376 -10.124 11.376 -9.249 QT
11.376 -6.28 L
11.376 -5.968 11.704 -5.889 QT
12.032 -5.811 12.532 -5.811 QT
12.532 -5.28 L
9.111 -5.28 L
cp}def
f208855904
f
GR
GS
[0 -0.75 0.75 0 30.55551 71.74994] CT
0.149 GC
N
/f2009801600{17.274 -5.28 M
17.274 -5.811 L
17.774 -5.811 18.11 -5.889 QT
18.446 -5.968 18.446 -6.28 QT
18.446 -14.155 L
18.446 -14.561 18.321 -14.741 QT
18.196 -14.921 17.97 -14.96 QT
17.743 -14.999 17.274 -14.999 QT
17.274 -15.53 L
19.493 -15.686 L
19.493 -6.28 L
19.493 -5.968 19.821 -5.889 QT
20.149 -5.811 20.665 -5.811 QT
20.665 -5.28 L
17.274 -5.28 L
cp}def
f2009801600
f
GR
GS
[0 -0.75 0.75 0 30.55551 71.74994] CT
0.149 GC
N
/f461723710{24.614 -5.108 M
23.692 -5.108 22.934 -5.593 QT
22.177 -6.077 21.739 -6.874 QT
21.302 -7.671 21.302 -8.561 QT
21.302 -9.452 21.7 -10.241 QT
22.098 -11.03 22.809 -11.514 QT
23.52 -11.999 24.395 -11.999 QT
25.098 -11.999 25.606 -11.772 QT
26.114 -11.546 26.442 -11.132 QT
26.77 -10.718 26.934 -10.163 QT
27.098 -9.608 27.098 -8.936 QT
27.098 -8.749 26.958 -8.749 QT
22.614 -8.749 L
22.614 -8.577 L
22.614 -7.343 23.114 -6.444 QT
23.614 -5.546 24.755 -5.546 QT
25.208 -5.546 25.598 -5.757 QT
25.989 -5.968 26.278 -6.327 QT
26.567 -6.686 26.677 -7.108 QT
26.692 -7.155 26.731 -7.202 QT
26.77 -7.249 26.817 -7.249 QT
26.958 -7.249 L
27.098 -7.249 27.098 -7.046 QT
26.895 -6.202 26.192 -5.655 QT
25.489 -5.108 24.614 -5.108 QT
cp
22.63 -9.124 M
26.036 -9.124 L
26.036 -9.686 25.88 -10.264 QT
25.723 -10.843 25.356 -11.225 QT
24.989 -11.608 24.395 -11.608 QT
23.552 -11.608 23.091 -10.811 QT
22.63 -10.014 22.63 -9.124 QT
cp}def
f461723710
f
GR
GS
[0 -0.75 0.75 0 30.55551 71.74994] CT
0.149 GC
N
/f-1465422943{27.789 -5.28 M
27.789 -5.811 L
28.304 -5.811 28.633 -5.889 QT
28.961 -5.968 28.961 -6.28 QT
28.961 -10.374 L
28.961 -10.78 28.836 -10.96 QT
28.711 -11.139 28.484 -11.178 QT
28.258 -11.218 27.789 -11.218 QT
27.789 -11.749 L
29.929 -11.905 L
29.929 -10.436 L
30.179 -11.093 30.625 -11.499 QT
31.07 -11.905 31.711 -11.905 QT
32.148 -11.905 32.5 -11.639 QT
32.851 -11.374 32.851 -10.952 QT
32.851 -10.671 32.656 -10.475 QT
32.461 -10.28 32.179 -10.28 QT
31.898 -10.28 31.703 -10.475 QT
31.508 -10.671 31.508 -10.952 QT
31.508 -11.358 31.789 -11.514 QT
31.711 -11.514 L
31.101 -11.514 30.719 -11.077 QT
30.336 -10.639 30.172 -9.991 QT
30.008 -9.343 30.008 -8.749 QT
30.008 -6.28 L
30.008 -5.811 31.461 -5.811 QT
31.461 -5.28 L
27.789 -5.28 L
cp}def
f-1465422943
f
GR
GS
[0 -0.75 0.75 0 30.55551 71.74994] CT
0.149 GC
N
/f-2042723644{34.924 -1.796 M
34.924 -16.264 L
34.924 -16.374 35.018 -16.452 QT
35.111 -16.53 35.236 -16.53 QT
35.346 -16.53 35.44 -16.452 QT
35.533 -16.374 35.533 -16.264 QT
35.533 -1.796 L
35.533 -1.686 35.44 -1.608 QT
35.346 -1.53 35.236 -1.53 QT
35.111 -1.53 35.018 -1.608 QT
34.924 -1.686 34.924 -1.796 QT
cp}def
f-2042723644
f
GR
GS
[0.75 0 0 0.75 0 0.5] CT
0 0.447 0.741 RC
1 LJ
0.667 LW
N
77.203 174.019 M
78.265 155.959 L
79.397 144.752 L
80.53 136.817 L
81.662 130.669 L
82.795 125.65 L
83.927 121.408 L
85.06 117.736 L
86.192 114.497 L
87.325 111.601 L
88.457 108.982 L
89.59 106.591 L
90.722 104.392 L
91.855 102.357 L
92.988 100.463 L
94.12 98.691 L
95.253 97.027 L
96.385 95.459 L
97.518 93.975 L
98.65 92.568 L
99.783 91.23 L
100.915 89.955 L
102.048 88.736 L
103.18 87.57 L
104.313 86.451 L
105.445 85.377 L
106.577 84.343 L
107.71 83.348 L
108.842 82.387 L
109.975 81.46 L
111.107 80.563 L
112.24 79.694 L
113.373 78.853 L
114.505 78.037 L
115.637 77.245 L
116.77 76.475 L
117.903 75.727 L
119.035 74.999 L
120.167 74.29 L
121.3 73.6 L
122.433 72.926 L
123.565 72.27 L
124.698 71.628 L
125.83 71.002 L
126.963 70.39 L
128.095 69.792 L
129.227 69.207 L
130.36 68.635 L
131.493 68.074 L
132.625 67.525 L
133.757 66.988 L
134.89 66.46 L
136.022 65.944 L
137.155 65.437 L
138.288 64.939 L
139.42 64.451 L
140.553 63.972 L
141.685 63.501 L
142.817 63.039 L
143.95 62.584 L
145.083 62.138 L
146.215 61.699 L
147.348 61.267 L
148.48 60.842 L
149.613 60.424 L
150.745 60.013 L
151.878 59.608 L
153.01 59.209 L
154.143 58.816 L
155.275 58.429 L
156.408 58.048 L
157.54 57.673 L
158.673 57.303 L
159.805 56.938 L
160.938 56.578 L
162.07 56.224 L
163.202 55.874 L
164.335 55.529 L
165.467 55.189 L
166.6 54.853 L
167.732 54.521 L
168.865 54.194 L
169.997 53.871 L
171.13 53.552 L
172.262 53.238 L
173.395 52.927 L
174.527 52.62 L
175.66 52.316 L
176.792 52.017 L
177.925 51.721 L
179.058 51.428 L
180.19 51.139 L
181.322 50.853 L
182.455 50.571 L
183.587 50.291 L
184.72 50.015 L
185.853 49.742 L
186.985 49.472 L
188.118 49.205 L
189.25 48.946 L
190.382 49.21 L
191.515 49.477 L
192.647 49.748 L
193.78 50.021 L
194.912 50.297 L
196.045 50.576 L
197.178 50.859 L
198.31 51.144 L
199.443 51.434 L
200.575 51.726 L
201.708 52.022 L
202.84 52.322 L
203.973 52.625 L
205.105 52.933 L
206.238 53.244 L
207.37 53.558 L
208.503 53.877 L
209.635 54.2 L
210.768 54.527 L
211.9 54.859 L
213.033 55.195 L
214.165 55.535 L
215.298 55.88 L
216.43 56.23 L
217.563 56.584 L
218.695 56.944 L
219.827 57.308 L
220.96 57.678 L
222.092 58.054 L
223.225 58.435 L
224.357 58.821 L
225.49 59.214 L
226.622 59.612 L
227.755 60.017 L
228.887 60.428 L
230.02 60.846 L
231.152 61.271 L
232.285 61.702 L
233.417 62.141 L
234.55 62.588 L
235.682 63.042 L
236.815 63.504 L
237.947 63.974 L
239.08 64.453 L
240.213 64.941 L
241.345 65.438 L
242.478 65.945 L
243.61 66.461 L
244.743 66.988 L
245.875 67.525 L
247.007 68.074 L
248.14 68.634 L
249.272 69.206 L
250.405 69.79 L
251.537 70.388 L
252.67 70.999 L
253.803 71.625 L
254.935 72.265 L
256.068 72.922 L
257.2 73.594 L
258.332 74.284 L
259.465 74.992 L
260.598 75.72 L
261.73 76.467 L
262.862 77.236 L
263.995 78.027 L
265.128 78.842 L
266.26 79.682 L
267.393 80.549 L
268.525 81.445 L
269.658 82.372 L
270.79 83.331 L
271.923 84.326 L
273.055 85.358 L
274.188 86.431 L
275.32 87.548 L
276.452 88.712 L
277.585 89.929 L
278.717 91.203 L
279.85 92.539 L
280.982 93.943 L
282.115 95.424 L
283.247 96.99 L
284.38 98.651 L
285.513 100.419 L
286.645 102.309 L
287.777 104.34 L
288.91 106.534 L
290.043 108.918 L
291.175 111.53 L
292.307 114.418 L
293.44 117.645 L
294.572 121.304 L
295.705 125.528 L
296.837 130.522 L
297.97 136.632 L
299.103 144.504 L
300.235 155.585 L
301.34 174.019 L
S
GR
GS
[0.75 0 0 0.75 0 0.5] CT
0 0.447 0.741 RC
1 LJ
0.667 LW
N
303.693 174.019 M
304.765 155.869 L
305.897 144.692 L
307.03 136.773 L
308.163 130.634 L
309.295 125.621 L
310.427 121.384 L
311.56 117.714 L
312.693 114.478 L
313.825 111.584 L
314.957 108.967 L
316.09 106.577 L
317.223 104.38 L
318.355 102.346 L
319.488 100.452 L
320.62 98.682 L
321.753 97.018 L
322.885 95.45 L
324.018 93.968 L
325.15 92.561 L
326.283 91.224 L
327.415 89.949 L
328.548 88.731 L
329.68 87.565 L
330.813 86.447 L
331.945 85.373 L
333.077 84.339 L
334.21 83.344 L
335.342 82.384 L
336.475 81.456 L
337.607 80.559 L
338.74 79.691 L
339.872 78.85 L
341.005 78.035 L
342.137 77.243 L
343.27 76.473 L
344.402 75.725 L
345.535 74.998 L
346.668 74.289 L
347.8 73.599 L
348.932 72.925 L
350.065 72.269 L
351.198 71.628 L
352.33 71.002 L
353.462 70.39 L
354.595 69.792 L
355.728 69.207 L
356.86 68.634 L
357.992 68.074 L
359.125 67.525 L
360.258 66.988 L
361.39 66.461 L
362.522 65.944 L
363.655 65.437 L
364.788 64.94 L
365.92 64.452 L
367.052 63.973 L
368.185 63.502 L
369.318 63.04 L
370.45 62.585 L
371.582 62.139 L
372.715 61.7 L
373.848 61.268 L
374.98 60.843 L
376.113 60.425 L
377.245 60.014 L
378.378 59.609 L
379.51 59.21 L
380.643 58.817 L
381.775 58.431 L
382.908 58.05 L
384.04 57.674 L
385.173 57.304 L
386.305 56.939 L
387.438 56.58 L
388.57 56.225 L
389.702 55.875 L
390.835 55.53 L
391.967 55.19 L
393.1 54.854 L
394.232 54.523 L
395.365 54.196 L
396.497 53.873 L
397.63 53.554 L
398.762 53.239 L
399.895 52.928 L
401.027 52.621 L
402.16 52.318 L
403.293 52.018 L
404.425 51.722 L
405.557 51.429 L
406.69 51.14 L
407.823 50.854 L
408.955 50.572 L
410.087 50.293 L
411.22 50.017 L
412.353 49.744 L
413.485 49.474 L
414.617 49.207 L
415.75 48.945 L
416.883 49.21 L
418.015 49.477 L
419.147 49.747 L
420.28 50.02 L
421.413 50.296 L
422.545 50.575 L
423.677 50.858 L
424.81 51.143 L
425.943 51.433 L
427.075 51.725 L
428.207 52.021 L
429.34 52.321 L
430.473 52.624 L
431.605 52.932 L
432.738 53.242 L
433.87 53.557 L
435.003 53.876 L
436.135 54.199 L
437.268 54.526 L
438.4 54.858 L
439.533 55.193 L
440.665 55.534 L
441.798 55.879 L
442.93 56.229 L
444.063 56.583 L
445.195 56.943 L
446.327 57.307 L
447.46 57.677 L
448.592 58.053 L
449.725 58.434 L
450.857 58.82 L
451.99 59.213 L
453.122 59.611 L
454.255 60.016 L
455.387 60.428 L
456.52 60.845 L
457.652 61.27 L
458.785 61.702 L
459.918 62.141 L
461.05 62.587 L
462.182 63.041 L
463.315 63.504 L
464.448 63.974 L
465.58 64.453 L
466.712 64.941 L
467.845 65.438 L
468.978 65.945 L
470.11 66.461 L
471.242 66.988 L
472.375 67.525 L
473.508 68.074 L
474.64 68.634 L
475.772 69.206 L
476.905 69.791 L
478.038 70.388 L
479.17 71 L
480.302 71.626 L
481.435 72.266 L
482.568 72.923 L
483.7 73.595 L
484.832 74.285 L
485.965 74.994 L
487.098 75.721 L
488.23 76.468 L
489.363 77.237 L
490.495 78.029 L
491.628 78.844 L
492.76 79.684 L
493.893 80.552 L
495.025 81.448 L
496.158 82.375 L
497.29 83.334 L
498.423 84.329 L
499.555 85.361 L
500.688 86.434 L
501.82 87.551 L
502.952 88.716 L
504.085 89.933 L
505.217 91.207 L
506.35 92.544 L
507.482 93.949 L
508.615 95.43 L
509.747 96.996 L
510.88 98.657 L
512.013 100.426 L
513.145 102.317 L
514.277 104.349 L
515.41 106.543 L
516.543 108.929 L
517.675 111.542 L
518.807 114.431 L
519.94 117.66 L
521.073 121.321 L
522.205 125.548 L
523.338 130.546 L
524.47 136.662 L
525.602 144.544 L
526.735 155.645 L
527.833 174.019 L
S
GR
GS
[0.75 0 0 0.75 0 0.5] CT
0.851 0.325 0.098 RC
1 LJ
0.667 LW
N
85.282 174.019 M
86.192 171.186 L
87.325 168.077 L
88.457 165.299 L
89.59 162.79 L
90.722 160.505 L
91.855 158.409 L
92.988 156.476 L
94.12 154.683 L
95.253 153.015 L
96.385 151.456 L
97.518 149.995 L
98.65 148.623 L
99.783 147.33 L
100.915 146.11 L
102.048 144.957 L
103.18 143.865 L
104.313 142.831 L
105.445 141.849 L
106.577 140.917 L
107.71 140.032 L
108.842 139.19 L
109.975 138.39 L
111.107 137.63 L
112.24 136.907 L
113.373 136.22 L
114.505 135.567 L
115.637 134.947 L
116.77 134.36 L
117.903 133.804 L
119.035 133.277 L
120.167 132.781 L
121.3 132.313 L
122.433 131.874 L
123.565 131.463 L
124.698 131.08 L
125.83 130.724 L
126.963 130.396 L
128.095 130.096 L
129.227 129.823 L
130.36 129.579 L
131.493 129.363 L
132.625 129.176 L
133.757 129.019 L
134.89 128.892 L
136.022 128.797 L
137.155 128.735 L
138.288 128.707 L
139.42 128.715 L
140.553 128.762 L
141.685 128.848 L
142.817 128.978 L
143.95 129.155 L
145.083 129.382 L
146.215 129.664 L
147.348 130.008 L
148.48 130.42 L
149.613 130.908 L
150.745 131.484 L
151.878 132.162 L
153.01 132.957 L
154.143 133.895 L
155.275 135.005 L
156.408 136.331 L
157.54 137.938 L
158.673 139.922 L
159.805 142.446 L
160.938 145.81 L
162.07 150.669 L
163.202 158.994 L
163.763 174.019 L
S
GR
GS
[0.75 0 0 0.75 0 0.5] CT
0.851 0.325 0.098 RC
1 LJ
0.667 LW
N
164.956 174.019 M
165.467 161.394 L
166.6 150.563 L
167.732 144.294 L
168.865 139.79 L
169.997 136.233 L
171.13 133.27 L
172.262 130.714 L
173.395 128.455 L
174.527 126.424 L
175.66 124.572 L
176.792 122.866 L
177.925 121.28 L
179.058 119.796 L
180.19 118.399 L
181.322 117.077 L
182.455 115.821 L
183.587 114.624 L
184.72 113.478 L
185.853 112.379 L
186.985 111.322 L
188.118 110.304 L
189.25 109.32 L
190.382 110.138 L
191.515 111.144 L
192.647 112.187 L
193.78 113.271 L
194.912 114.4 L
196.045 115.579 L
197.178 116.814 L
198.31 118.111 L
199.443 119.481 L
200.575 120.934 L
201.708 122.483 L
202.84 124.145 L
203.973 125.944 L
205.105 127.909 L
206.238 130.084 L
207.37 132.529 L
208.503 135.338 L
209.635 138.665 L
210.768 142.791 L
211.9 148.316 L
213.033 156.965 L
213.836 174.019 L
S
GR
GS
[0.75 0 0 0.75 0 0.5] CT
0.851 0.325 0.098 RC
1 LJ
0.667 LW
N
214.628 174.019 M
215.298 163.9 L
216.43 153.036 L
217.563 147.367 L
218.695 143.602 L
219.827 140.837 L
220.96 138.692 L
222.092 136.969 L
223.225 135.555 L
224.357 134.375 L
225.49 133.381 L
226.622 132.537 L
227.755 131.82 L
228.887 131.208 L
230.02 130.688 L
231.152 130.249 L
232.285 129.88 L
233.417 129.574 L
234.55 129.325 L
235.682 129.128 L
236.815 128.979 L
237.947 128.874 L
239.08 128.811 L
240.213 128.786 L
241.345 128.797 L
242.478 128.843 L
243.61 128.923 L
244.743 129.034 L
245.875 129.176 L
247.007 129.348 L
248.14 129.549 L
249.272 129.778 L
250.405 130.035 L
251.537 130.32 L
252.67 130.633 L
253.803 130.973 L
254.935 131.34 L
256.068 131.734 L
257.2 132.157 L
258.332 132.607 L
259.465 133.086 L
260.598 133.594 L
261.73 134.132 L
262.862 134.7 L
263.995 135.299 L
265.128 135.931 L
266.26 136.596 L
267.393 137.296 L
268.525 138.033 L
269.658 138.807 L
270.79 139.622 L
271.923 140.479 L
273.055 141.38 L
274.188 142.33 L
275.32 143.33 L
276.452 144.384 L
277.585 145.497 L
278.717 146.674 L
279.85 147.919 L
280.982 149.24 L
282.115 150.643 L
283.247 152.138 L
284.38 153.735 L
285.513 155.447 L
286.645 157.288 L
287.777 159.277 L
288.91 161.437 L
290.043 163.798 L
291.175 166.397 L
292.307 169.284 L
293.44 172.527 L
293.897 174.019 L
S
GR
GS
[0.75 0 0 0.75 0 0.5] CT
0.851 0.325 0.098 RC
1 LJ
0.667 LW
N
310.821 174.019 M
311.56 171.69 L
312.693 168.545 L
313.825 165.737 L
314.957 163.203 L
316.09 160.897 L
317.223 158.783 L
318.355 156.834 L
319.488 155.028 L
320.62 153.348 L
321.753 151.779 L
322.885 150.309 L
324.018 148.928 L
325.15 147.628 L
326.283 146.401 L
327.415 145.242 L
328.548 144.145 L
329.68 143.106 L
330.813 142.12 L
331.945 141.184 L
333.077 140.294 L
334.21 139.449 L
335.342 138.645 L
336.475 137.881 L
337.607 137.155 L
338.74 136.464 L
339.872 135.808 L
341.005 135.185 L
342.137 134.594 L
343.27 134.035 L
344.402 133.505 L
345.535 133.005 L
346.668 132.533 L
347.8 132.09 L
348.932 131.675 L
350.065 131.287 L
351.198 130.927 L
352.33 130.593 L
353.462 130.288 L
354.595 130.009 L
355.728 129.758 L
356.86 129.536 L
357.992 129.341 L
359.125 129.176 L
360.258 129.041 L
361.39 128.936 L
362.522 128.863 L
363.655 128.824 L
364.788 128.82 L
365.92 128.852 L
367.052 128.923 L
368.185 129.036 L
369.318 129.193 L
370.45 129.399 L
371.582 129.657 L
372.715 129.973 L
373.848 130.353 L
374.98 130.805 L
376.113 131.339 L
377.245 131.965 L
378.378 132.701 L
379.51 133.565 L
380.643 134.585 L
381.775 135.796 L
382.908 137.25 L
384.04 139.026 L
385.173 141.246 L
386.305 144.124 L
387.438 148.086 L
388.57 154.179 L
389.702 166.66 L
390.821 174.019 L
S
GR
GS
[0.75 0 0 0.75 0 0.5] CT
0.851 0.325 0.098 RC
1 LJ
0.667 LW
N
390.84 174.019 M
391.967 155.45 L
393.1 147.466 L
394.232 142.203 L
395.365 138.217 L
396.497 134.977 L
397.63 132.228 L
398.762 129.827 L
399.895 127.686 L
401.027 125.747 L
402.16 123.97 L
403.293 122.325 L
404.425 120.792 L
405.557 119.352 L
406.69 117.994 L
407.823 116.705 L
408.955 115.479 L
410.087 114.308 L
411.22 113.186 L
412.353 112.109 L
413.485 111.071 L
414.617 110.071 L
415.75 109.331 L
416.883 110.315 L
418.015 111.334 L
419.147 112.392 L
420.28 113.491 L
421.413 114.637 L
422.545 115.835 L
423.677 117.091 L
424.81 118.414 L
425.943 119.812 L
427.075 121.297 L
428.207 122.883 L
429.34 124.59 L
430.473 126.444 L
431.605 128.476 L
432.738 130.737 L
433.87 133.295 L
435.003 136.261 L
436.135 139.823 L
437.268 144.334 L
438.4 150.62 L
439.533 161.504 L
440.054 174.019 L
S
GR
GS
[0.75 0 0 0.75 0 0.5] CT
0.851 0.325 0.098 RC
1 LJ
0.667 LW
N
441.223 174.019 M
441.798 158.927 L
442.93 150.64 L
444.063 145.794 L
445.195 142.436 L
446.327 139.916 L
447.46 137.935 L
448.592 136.33 L
449.725 135.005 L
450.857 133.896 L
451.99 132.96 L
453.122 132.164 L
454.255 131.488 L
455.387 130.912 L
456.52 130.424 L
457.652 130.012 L
458.785 129.668 L
459.918 129.386 L
461.05 129.159 L
462.182 128.982 L
463.315 128.852 L
464.448 128.765 L
465.58 128.719 L
466.712 128.71 L
467.845 128.737 L
468.978 128.799 L
470.11 128.894 L
471.242 129.019 L
472.375 129.176 L
473.508 129.362 L
474.64 129.577 L
475.772 129.821 L
476.905 130.092 L
478.038 130.392 L
479.17 130.718 L
480.302 131.073 L
481.435 131.455 L
482.568 131.864 L
483.7 132.302 L
484.832 132.768 L
485.965 133.263 L
487.098 133.787 L
488.23 134.342 L
489.363 134.927 L
490.495 135.544 L
491.628 136.194 L
492.76 136.879 L
493.893 137.599 L
495.025 138.356 L
496.158 139.153 L
497.29 139.991 L
498.423 140.873 L
499.555 141.8 L
500.688 142.777 L
501.82 143.807 L
502.952 144.893 L
504.085 146.04 L
505.217 147.254 L
506.35 148.539 L
507.482 149.904 L
508.615 151.356 L
509.747 152.904 L
510.88 154.561 L
512.013 156.34 L
513.145 158.259 L
514.277 160.337 L
515.41 162.601 L
516.543 165.085 L
517.675 167.832 L
518.807 170.903 L
519.823 174.019 L
S
GR
GS
[0.75 0 0 0.75 0 0.5] CT
0.929 0.694 0.125 RC
1 LJ
0.667 LW
N
77.028 174.019 M
77.132 141.873 L
78.265 129.98 L
79.397 122.396 L
80.53 116.696 L
81.662 112.087 L
82.795 108.201 L
83.927 104.834 L
85.06 101.861 L
86.192 99.196 L
87.325 96.781 L
88.457 94.571 L
89.59 92.536 L
90.722 90.648 L
91.855 88.888 L
92.988 87.24 L
94.12 85.691 L
95.253 84.229 L
96.385 82.844 L
97.518 81.53 L
98.65 80.28 L
99.783 79.087 L
100.915 77.947 L
102.048 76.855 L
103.18 75.808 L
104.313 74.802 L
105.445 73.833 L
106.577 72.9 L
107.71 71.999 L
108.842 71.129 L
109.975 70.287 L
111.107 69.472 L
112.24 68.682 L
113.373 67.916 L
114.505 67.172 L
115.637 66.449 L
116.77 65.746 L
117.903 65.061 L
119.035 64.394 L
120.167 63.745 L
121.3 63.111 L
122.433 62.492 L
123.565 61.888 L
124.698 61.297 L
125.83 60.72 L
126.963 60.156 L
128.095 59.603 L
129.227 59.062 L
130.36 58.532 L
131.493 58.012 L
132.625 57.503 L
133.757 57.003 L
134.89 56.513 L
136.022 56.031 L
137.155 55.558 L
138.288 55.094 L
139.42 54.637 L
140.553 54.188 L
141.685 53.747 L
142.817 53.313 L
143.95 52.886 L
145.083 52.465 L
146.215 52.051 L
147.348 51.643 L
148.48 51.242 L
149.613 50.846 L
150.745 50.456 L
151.878 50.071 L
153.01 49.692 L
154.143 49.318 L
155.275 48.949 L
156.408 48.585 L
157.54 48.226 L
158.673 47.871 L
159.805 47.521 L
160.938 47.176 L
162.07 46.834 L
163.202 46.497 L
164.335 46.164 L
165.467 45.835 L
166.6 45.51 L
167.732 45.189 L
168.865 44.872 L
169.997 44.558 L
171.13 44.248 L
172.262 43.941 L
173.395 43.638 L
174.527 43.339 L
175.66 43.042 L
176.792 42.749 L
177.925 42.459 L
179.058 42.172 L
180.19 41.888 L
181.322 41.608 L
182.455 41.33 L
183.587 41.055 L
184.72 40.784 L
185.853 40.515 L
186.985 40.248 L
188.118 39.985 L
189.25 39.724 L
190.382 39.466 L
191.515 39.489 L
192.647 39.743 L
193.78 40 L
194.912 40.261 L
196.045 40.526 L
197.178 40.794 L
198.31 41.066 L
199.443 41.341 L
200.575 41.621 L
201.708 41.905 L
202.84 42.192 L
203.973 42.484 L
205.105 42.78 L
206.238 43.081 L
207.37 43.386 L
208.503 43.696 L
209.635 44.01 L
210.768 44.329 L
211.9 44.653 L
213.033 44.983 L
214.165 45.317 L
215.298 45.657 L
216.43 46.002 L
217.563 46.353 L
218.695 46.709 L
219.827 47.072 L
220.96 47.44 L
222.092 47.815 L
223.225 48.196 L
224.357 48.584 L
225.49 48.978 L
226.622 49.38 L
227.755 49.788 L
228.887 50.204 L
230.02 50.628 L
231.152 51.059 L
232.285 51.498 L
233.417 51.946 L
234.55 52.402 L
235.682 52.867 L
236.815 53.341 L
237.947 53.824 L
239.08 54.318 L
240.213 54.821 L
241.345 55.335 L
242.478 55.859 L
243.61 56.395 L
244.743 56.943 L
245.875 57.502 L
247.007 58.074 L
248.14 58.66 L
249.272 59.258 L
250.405 59.872 L
251.537 60.499 L
252.67 61.143 L
253.803 61.802 L
254.935 62.479 L
256.068 63.173 L
257.2 63.886 L
258.332 64.618 L
259.465 65.372 L
260.598 66.147 L
261.73 66.944 L
262.862 67.766 L
263.995 68.614 L
265.128 69.49 L
266.26 70.394 L
267.393 71.329 L
268.525 72.297 L
269.658 73.301 L
270.79 74.343 L
271.923 75.426 L
273.055 76.553 L
274.188 77.729 L
275.32 78.956 L
276.452 80.241 L
277.585 81.589 L
278.717 83.005 L
279.85 84.498 L
280.982 86.077 L
282.115 87.751 L
283.247 89.534 L
284.38 91.44 L
285.513 93.489 L
286.645 95.703 L
287.777 98.113 L
288.91 100.757 L
290.043 103.689 L
291.175 106.981 L
292.307 110.74 L
293.44 115.13 L
294.572 120.43 L
295.705 127.178 L
296.837 136.697 L
297.97 154.773 L
299.103 159.008 L
300.235 149.432 L
301.367 151.941 L
301.441 174.019 L
S
GR
GS
[0.75 0 0 0.75 0 0.5] CT
0.929 0.694 0.125 RC
1 LJ
0.667 LW
N
303.534 174.019 M
303.633 143.913 L
304.765 131.67 L
305.897 123.837 L
307.03 117.949 L
308.163 113.195 L
309.295 109.192 L
310.427 105.729 L
311.56 102.674 L
312.693 99.94 L
313.825 97.465 L
314.957 95.203 L
316.09 93.121 L
317.223 91.191 L
318.355 89.394 L
319.488 87.712 L
320.62 86.131 L
321.753 84.64 L
322.885 83.23 L
324.018 81.891 L
325.15 80.618 L
326.283 79.404 L
327.415 78.244 L
328.548 77.134 L
329.68 76.068 L
330.813 75.045 L
331.945 74.061 L
333.077 73.112 L
334.21 72.197 L
335.342 71.313 L
336.475 70.459 L
337.607 69.631 L
338.74 68.829 L
339.872 68.052 L
341.005 67.297 L
342.137 66.563 L
343.27 65.85 L
344.402 65.156 L
345.535 64.48 L
346.668 63.821 L
347.8 63.179 L
348.932 62.552 L
350.065 61.94 L
351.198 61.342 L
352.33 60.757 L
353.462 60.186 L
354.595 59.626 L
355.728 59.079 L
356.86 58.543 L
357.992 58.017 L
359.125 57.502 L
360.258 56.997 L
361.39 56.501 L
362.522 56.015 L
363.655 55.537 L
364.788 55.069 L
365.92 54.608 L
367.052 54.155 L
368.185 53.71 L
369.318 53.272 L
370.45 52.841 L
371.582 52.417 L
372.715 52 L
373.848 51.59 L
374.98 51.185 L
376.113 50.787 L
377.245 50.395 L
378.378 50.008 L
379.51 49.627 L
380.643 49.251 L
381.775 48.88 L
382.908 48.515 L
384.04 48.154 L
385.173 47.798 L
386.305 47.447 L
387.438 47.101 L
388.57 46.759 L
389.702 46.421 L
390.835 46.087 L
391.967 45.758 L
393.1 45.433 L
394.232 45.111 L
395.365 44.794 L
396.497 44.48 L
397.63 44.17 L
398.762 43.864 L
399.895 43.561 L
401.027 43.261 L
402.16 42.966 L
403.293 42.673 L
404.425 42.384 L
405.557 42.098 L
406.69 41.815 L
407.823 41.535 L
408.955 41.258 L
410.087 40.984 L
411.22 40.714 L
412.353 40.446 L
413.485 40.181 L
414.617 39.919 L
415.75 39.659 L
416.883 39.403 L
418.015 39.544 L
419.147 39.799 L
420.28 40.057 L
421.413 40.318 L
422.545 40.584 L
423.677 40.852 L
424.81 41.125 L
425.943 41.401 L
427.075 41.681 L
428.207 41.965 L
429.34 42.253 L
430.473 42.545 L
431.605 42.842 L
432.738 43.142 L
433.87 43.447 L
435.003 43.757 L
436.135 44.071 L
437.268 44.39 L
438.4 44.714 L
439.533 45.043 L
440.665 45.377 L
441.798 45.716 L
442.93 46.061 L
444.063 46.411 L
445.195 46.767 L
446.327 47.128 L
447.46 47.496 L
448.592 47.869 L
449.725 48.249 L
450.857 48.635 L
451.99 49.028 L
453.122 49.428 L
454.255 49.835 L
455.387 50.249 L
456.52 50.671 L
457.652 51.1 L
458.785 51.537 L
459.918 51.982 L
461.05 52.436 L
462.182 52.898 L
463.315 53.369 L
464.448 53.85 L
465.58 54.34 L
466.712 54.84 L
467.845 55.35 L
468.978 55.871 L
470.11 56.403 L
471.242 56.946 L
472.375 57.502 L
473.508 58.069 L
474.64 58.65 L
475.772 59.244 L
476.905 59.852 L
478.038 60.474 L
479.17 61.112 L
480.302 61.765 L
481.435 62.436 L
482.568 63.123 L
483.7 63.829 L
484.832 64.554 L
485.965 65.3 L
487.098 66.067 L
488.23 66.856 L
489.363 67.669 L
490.495 68.507 L
491.628 69.372 L
492.76 70.266 L
493.893 71.19 L
495.025 72.146 L
496.158 73.137 L
497.29 74.165 L
498.423 75.233 L
499.555 76.344 L
500.688 77.502 L
501.82 78.711 L
502.952 79.976 L
504.085 81.301 L
505.217 82.693 L
506.35 84.159 L
507.482 85.707 L
508.615 87.348 L
509.747 89.092 L
510.88 90.954 L
512.013 92.951 L
513.145 95.105 L
514.277 97.444 L
515.41 100.001 L
516.543 102.823 L
517.675 105.975 L
518.807 109.546 L
519.94 113.67 L
521.073 118.565 L
522.205 124.616 L
523.338 132.639 L
524.47 145.046 L
525.084 174.019 L
S
GR
GS
[0.75 0 0 0.75 0 0.5] CT
0.929 0.694 0.125 RC
1 LJ
0.667 LW
N
526.245 174.019 M
526.735 155.369 L
527.867 155.194 L
527.931 174.019 L
S
GR
GS
[0.75 0 0 0.75 0 0.5] CT
0.494 0.184 0.557 RC
1 LJ
0.667 LW
N
77.404 174.019 M
78.265 153.43 L
79.397 140.405 L
80.53 131.648 L
81.662 125.031 L
82.795 119.706 L
83.927 115.25 L
85.06 111.418 L
86.192 108.056 L
87.325 105.062 L
88.457 102.362 L
89.59 99.905 L
90.722 97.649 L
91.855 95.565 L
92.988 93.628 L
94.12 91.819 L
95.253 90.122 L
96.385 88.524 L
97.518 87.014 L
98.65 85.583 L
99.783 84.223 L
100.915 82.928 L
102.048 81.692 L
103.18 80.509 L
104.313 79.375 L
105.445 78.286 L
106.577 77.24 L
107.71 76.232 L
108.842 75.261 L
109.975 74.323 L
111.107 73.416 L
112.24 72.539 L
113.373 71.689 L
114.505 70.866 L
115.637 70.067 L
116.77 69.291 L
117.903 68.536 L
119.035 67.803 L
120.167 67.089 L
121.3 66.393 L
122.433 65.716 L
123.565 65.055 L
124.698 64.41 L
125.83 63.781 L
126.963 63.166 L
128.095 62.565 L
129.227 61.978 L
130.36 61.404 L
131.493 60.841 L
132.625 60.291 L
133.757 59.752 L
134.89 59.224 L
136.022 58.707 L
137.155 58.2 L
138.288 57.702 L
139.42 57.214 L
140.553 56.735 L
141.685 56.265 L
142.817 55.804 L
143.95 55.35 L
145.083 54.905 L
146.215 54.467 L
147.348 54.037 L
148.48 53.614 L
149.613 53.198 L
150.745 52.789 L
151.878 52.386 L
153.01 51.99 L
154.143 51.6 L
155.275 51.216 L
156.408 50.838 L
157.54 50.466 L
158.673 50.1 L
159.805 49.738 L
160.938 49.382 L
162.07 49.032 L
163.202 48.686 L
164.335 48.345 L
165.467 48.009 L
166.6 47.678 L
167.732 47.351 L
168.865 47.029 L
169.997 46.71 L
171.13 46.397 L
172.262 46.087 L
173.395 45.781 L
174.527 45.48 L
175.66 45.182 L
176.792 44.888 L
177.925 44.597 L
179.058 44.311 L
180.19 44.027 L
181.322 43.748 L
182.455 43.471 L
183.587 43.198 L
184.72 42.929 L
185.853 42.662 L
186.985 42.399 L
188.118 42.138 L
189.25 41.963 L
190.382 42.222 L
191.515 42.483 L
192.647 42.748 L
193.78 43.016 L
194.912 43.287 L
196.045 43.561 L
197.178 43.839 L
198.31 44.12 L
199.443 44.404 L
200.575 44.691 L
201.708 44.983 L
202.84 45.277 L
203.973 45.576 L
205.105 45.878 L
206.238 46.184 L
207.37 46.494 L
208.503 46.808 L
209.635 47.126 L
210.768 47.448 L
211.9 47.775 L
213.033 48.106 L
214.165 48.441 L
215.298 48.781 L
216.43 49.126 L
217.563 49.476 L
218.695 49.83 L
219.827 50.19 L
220.96 50.555 L
222.092 50.926 L
223.225 51.302 L
224.357 51.684 L
225.49 52.071 L
226.622 52.465 L
227.755 52.865 L
228.887 53.271 L
230.02 53.684 L
231.152 54.104 L
232.285 54.53 L
233.417 54.964 L
234.55 55.406 L
235.682 55.855 L
236.815 56.312 L
237.947 56.777 L
239.08 57.251 L
240.213 57.734 L
241.345 58.225 L
242.478 58.727 L
243.61 59.238 L
244.743 59.759 L
245.875 60.291 L
247.007 60.834 L
248.14 61.389 L
249.272 61.955 L
250.405 62.534 L
251.537 63.126 L
252.67 63.732 L
253.803 64.351 L
254.935 64.986 L
256.068 65.636 L
257.2 66.303 L
258.332 66.987 L
259.465 67.688 L
260.598 68.409 L
261.73 69.15 L
262.862 69.912 L
263.995 70.696 L
265.128 71.504 L
266.26 72.337 L
267.393 73.197 L
268.525 74.085 L
269.658 75.004 L
270.79 75.955 L
271.923 76.94 L
273.055 77.964 L
274.188 79.027 L
275.32 80.134 L
276.452 81.288 L
277.585 82.494 L
278.717 83.756 L
279.85 85.079 L
280.982 86.47 L
282.115 87.937 L
283.247 89.486 L
284.38 91.13 L
285.513 92.879 L
286.645 94.747 L
287.777 96.754 L
288.91 98.92 L
290.043 101.272 L
291.175 103.846 L
292.307 106.687 L
293.44 109.859 L
294.572 113.447 L
295.705 117.577 L
296.837 122.442 L
297.97 128.363 L
299.103 135.928 L
300.235 146.421 L
301.367 163.702 L
301.402 174.019 L
S
GR
GS
[0.75 0 0 0.75 0 0.5] CT
0.494 0.184 0.557 RC
1 LJ
0.667 LW
N
303.628 174.019 M
303.633 172.589 L
304.765 150.744 L
305.897 138.79 L
307.03 130.498 L
308.163 124.141 L
309.295 118.983 L
310.427 114.644 L
311.56 110.898 L
312.693 107.602 L
313.825 104.661 L
314.957 102.004 L
316.09 99.582 L
317.223 97.357 L
318.355 95.299 L
319.488 93.385 L
320.62 91.596 L
321.753 89.917 L
322.885 88.335 L
324.018 86.84 L
325.15 85.422 L
326.283 84.075 L
327.415 82.79 L
328.548 81.564 L
329.68 80.39 L
330.813 79.265 L
331.945 78.185 L
333.077 77.146 L
334.21 76.145 L
335.342 75.18 L
336.475 74.248 L
337.607 73.348 L
338.74 72.476 L
339.872 71.632 L
341.005 70.813 L
342.137 70.019 L
343.27 69.247 L
344.402 68.497 L
345.535 67.768 L
346.668 67.057 L
347.8 66.366 L
348.932 65.692 L
350.065 65.034 L
351.198 64.392 L
352.33 63.766 L
353.462 63.154 L
354.595 62.556 L
355.728 61.971 L
356.86 61.399 L
357.992 60.839 L
359.125 60.291 L
360.258 59.754 L
361.39 59.228 L
362.522 58.713 L
363.655 58.207 L
364.788 57.712 L
365.92 57.225 L
367.052 56.748 L
368.185 56.279 L
369.318 55.819 L
370.45 55.367 L
371.582 54.922 L
372.715 54.486 L
373.848 54.056 L
374.98 53.634 L
376.113 53.219 L
377.245 52.811 L
378.378 52.409 L
379.51 52.014 L
380.643 51.624 L
381.775 51.241 L
382.908 50.864 L
384.04 50.492 L
385.173 50.126 L
386.305 49.765 L
387.438 49.409 L
388.57 49.059 L
389.702 48.713 L
390.835 48.373 L
391.967 48.037 L
393.1 47.705 L
394.232 47.379 L
395.365 47.056 L
396.497 46.738 L
397.63 46.424 L
398.762 46.114 L
399.895 45.809 L
401.027 45.507 L
402.16 45.209 L
403.293 44.914 L
404.425 44.624 L
405.557 44.337 L
406.69 44.053 L
407.823 43.773 L
408.955 43.496 L
410.087 43.223 L
411.22 42.953 L
412.353 42.686 L
413.485 42.422 L
414.617 42.161 L
415.75 41.948 L
416.883 42.206 L
418.015 42.468 L
419.147 42.733 L
420.28 43 L
421.413 43.271 L
422.545 43.545 L
423.677 43.822 L
424.81 44.103 L
425.943 44.387 L
427.075 44.675 L
428.207 44.966 L
429.34 45.26 L
430.473 45.559 L
431.605 45.861 L
432.738 46.167 L
433.87 46.477 L
435.003 46.791 L
436.135 47.109 L
437.268 47.431 L
438.4 47.758 L
439.533 48.089 L
440.665 48.424 L
441.798 48.765 L
442.93 49.11 L
444.063 49.46 L
445.195 49.815 L
446.327 50.175 L
447.46 50.54 L
448.592 50.911 L
449.725 51.287 L
450.857 51.669 L
451.99 52.058 L
453.122 52.452 L
454.255 52.852 L
455.387 53.259 L
456.52 53.672 L
457.652 54.092 L
458.785 54.52 L
459.918 54.954 L
461.05 55.396 L
462.182 55.846 L
463.315 56.304 L
464.448 56.77 L
465.58 57.245 L
466.712 57.728 L
467.845 58.221 L
468.978 58.723 L
470.11 59.236 L
471.242 59.758 L
472.375 60.291 L
473.508 60.835 L
474.64 61.391 L
475.772 61.959 L
476.905 62.539 L
478.038 63.132 L
479.17 63.739 L
480.302 64.361 L
481.435 64.997 L
482.568 65.649 L
483.7 66.317 L
484.832 67.003 L
485.965 67.706 L
487.098 68.429 L
488.23 69.172 L
489.363 69.936 L
490.495 70.722 L
491.628 71.533 L
492.76 72.368 L
493.893 73.23 L
495.025 74.121 L
496.158 75.043 L
497.29 75.997 L
498.423 76.986 L
499.555 78.012 L
500.688 79.079 L
501.82 80.19 L
502.952 81.349 L
504.085 82.559 L
505.217 83.825 L
506.35 85.154 L
507.482 86.55 L
508.615 88.023 L
509.747 89.579 L
510.88 91.23 L
512.013 92.987 L
513.145 94.865 L
514.277 96.882 L
515.41 99.06 L
516.543 101.427 L
517.675 104.017 L
518.807 106.879 L
519.94 110.075 L
521.073 113.695 L
522.205 117.866 L
523.338 122.788 L
524.47 128.791 L
525.602 136.489 L
526.735 147.232 L
527.867 165.163 L
527.897 174.019 L
S
GR
GS
[0.75 0 0 0.75 0 0.5] CT
0.467 0.675 0.188 RC
1 LJ
0.667 LW
N
77.132 116.386 M
78.265 106.073 L
79.397 99.765 L
80.53 95.123 L
81.662 91.412 L
82.795 88.3 L
83.927 85.612 L
85.06 83.239 L
86.192 81.113 L
87.325 79.184 L
88.457 77.418 L
89.59 75.789 L
90.722 74.277 L
91.855 72.866 L
92.988 71.544 L
94.12 70.3 L
95.253 69.125 L
96.385 68.013 L
97.518 66.957 L
98.65 65.952 L
99.783 64.993 L
100.915 64.077 L
102.048 63.2 L
103.18 62.359 L
104.313 61.551 L
105.445 60.774 L
106.577 60.026 L
107.71 59.304 L
108.842 58.606 L
109.975 57.932 L
111.107 57.28 L
112.24 56.648 L
113.373 56.035 L
114.505 55.439 L
115.637 54.861 L
116.77 54.298 L
117.903 53.75 L
119.035 53.216 L
120.167 52.695 L
121.3 52.187 L
122.433 51.69 L
123.565 51.205 L
124.698 50.729 L
125.83 50.264 L
126.963 49.808 L
128.095 49.361 L
129.227 48.922 L
130.36 48.491 L
131.493 48.068 L
132.625 47.651 L
133.757 47.242 L
134.89 46.838 L
136.022 46.441 L
137.155 46.049 L
138.288 45.662 L
139.42 45.281 L
140.553 44.904 L
141.685 44.532 L
142.817 44.164 L
143.95 43.8 L
145.083 43.44 L
146.215 43.084 L
147.348 42.731 L
148.48 42.382 L
149.613 42.036 L
150.745 41.693 L
151.878 41.353 L
153.01 41.016 L
154.143 40.681 L
155.275 40.35 L
156.408 40.02 L
157.54 39.693 L
158.673 39.369 L
159.805 39.046 L
160.938 38.726 L
162.07 38.409 L
163.202 38.093 L
164.335 37.779 L
165.467 37.468 L
166.6 37.158 L
167.732 36.851 L
168.865 36.545 L
169.997 36.242 L
171.13 35.94 L
172.262 35.641 L
173.395 35.343 L
174.527 35.047 L
175.66 34.754 L
176.792 34.462 L
177.925 34.172 L
179.058 33.884 L
180.19 33.599 L
181.322 33.315 L
182.455 33.033 L
183.587 32.753 L
184.72 32.475 L
185.853 32.2 L
186.985 31.926 L
188.118 31.654 L
189.25 31.385 L
190.382 31.118 L
191.515 30.853 L
192.647 30.59 L
193.78 30.329 L
194.912 30.071 L
196.045 30.079 L
197.178 30.328 L
198.31 30.581 L
199.443 30.839 L
200.575 31.102 L
201.708 31.37 L
202.84 31.643 L
203.973 31.922 L
205.105 32.206 L
206.238 32.496 L
207.37 32.792 L
208.503 33.093 L
209.635 33.4 L
210.768 33.714 L
211.9 34.034 L
213.033 34.361 L
214.165 34.694 L
215.298 35.034 L
216.43 35.381 L
217.563 35.735 L
218.695 36.096 L
219.827 36.465 L
220.96 36.842 L
222.092 37.227 L
223.225 37.62 L
224.357 38.021 L
225.49 38.431 L
226.622 38.85 L
227.755 39.278 L
228.887 39.715 L
230.02 40.162 L
231.152 40.619 L
232.285 41.087 L
233.417 41.565 L
234.55 42.054 L
235.682 42.554 L
236.815 43.066 L
237.947 43.59 L
239.08 44.127 L
240.213 44.676 L
241.345 45.239 L
242.478 45.817 L
243.61 46.408 L
244.743 47.015 L
245.875 47.638 L
247.007 48.277 L
248.14 48.933 L
249.272 49.608 L
250.405 50.301 L
251.537 51.013 L
252.67 51.747 L
253.803 52.502 L
254.935 53.28 L
256.068 54.083 L
257.2 54.911 L
258.332 55.766 L
259.465 56.649 L
260.598 57.564 L
261.73 58.511 L
262.862 59.493 L
263.995 60.512 L
265.128 61.572 L
266.26 62.676 L
267.393 63.827 L
268.525 65.03 L
269.658 66.289 L
270.79 67.61 L
271.923 69 L
273.055 70.467 L
274.188 72.02 L
275.32 73.671 L
276.452 75.433 L
277.585 77.325 L
278.717 79.368 L
279.85 81.592 L
280.982 84.037 L
282.115 86.758 L
283.247 89.838 L
284.38 93.404 L
285.513 97.677 L
286.645 103.086 L
287.777 110.683 L
288.91 124.693 L
290.043 134.158 L
291.175 117.146 L
292.307 111.075 L
293.44 107.904 L
294.572 106.228 L
295.705 105.579 L
296.837 105.805 L
297.97 106.937 L
299.103 109.212 L
300.235 113.302 L
301.367 121.499 L
S
GR
GS
[0.75 0 0 0.75 0 0.5] CT
0.467 0.675 0.188 RC
1 LJ
0.667 LW
N
303.633 119.236 M
304.765 108.737 L
305.897 102.264 L
307.03 97.475 L
308.163 93.631 L
309.295 90.399 L
310.427 87.601 L
311.56 85.127 L
312.693 82.906 L
313.825 80.889 L
314.957 79.042 L
316.09 77.336 L
317.223 75.751 L
318.355 74.271 L
319.488 72.883 L
320.62 71.577 L
321.753 70.342 L
322.885 69.173 L
324.018 68.062 L
325.15 67.003 L
326.283 65.994 L
327.415 65.028 L
328.548 64.103 L
329.68 63.215 L
330.813 62.362 L
331.945 61.54 L
333.077 60.749 L
334.21 59.985 L
335.342 59.247 L
336.475 58.533 L
337.607 57.842 L
338.74 57.171 L
339.872 56.521 L
341.005 55.89 L
342.137 55.276 L
343.27 54.678 L
344.402 54.097 L
345.535 53.53 L
346.668 52.977 L
347.8 52.437 L
348.932 51.91 L
350.065 51.395 L
351.198 50.891 L
352.33 50.397 L
353.462 49.914 L
354.595 49.44 L
355.728 48.975 L
356.86 48.519 L
357.992 48.072 L
359.125 47.632 L
360.258 47.199 L
361.39 46.774 L
362.522 46.355 L
363.655 45.943 L
364.788 45.537 L
365.92 45.137 L
367.052 44.742 L
368.185 44.353 L
369.318 43.969 L
370.45 43.59 L
371.582 43.215 L
372.715 42.845 L
373.848 42.48 L
374.98 42.118 L
376.113 41.761 L
377.245 41.407 L
378.378 41.057 L
379.51 40.711 L
380.643 40.368 L
381.775 40.028 L
382.908 39.692 L
384.04 39.359 L
385.173 39.029 L
386.305 38.702 L
387.438 38.377 L
388.57 38.056 L
389.702 37.737 L
390.835 37.421 L
391.967 37.108 L
393.1 36.797 L
394.232 36.489 L
395.365 36.184 L
396.497 35.88 L
397.63 35.58 L
398.762 35.281 L
399.895 34.986 L
401.027 34.692 L
402.16 34.401 L
403.293 34.112 L
404.425 33.826 L
405.557 33.542 L
406.69 33.26 L
407.823 32.98 L
408.955 32.703 L
410.087 32.428 L
411.22 32.155 L
412.353 31.885 L
413.485 31.617 L
414.617 31.351 L
415.75 31.088 L
416.883 30.827 L
418.015 30.568 L
419.147 30.312 L
420.28 30.057 L
421.413 30.052 L
422.545 30.297 L
423.677 30.548 L
424.81 30.803 L
425.943 31.062 L
427.075 31.326 L
428.207 31.595 L
429.34 31.869 L
430.473 32.149 L
431.605 32.433 L
432.738 32.723 L
433.87 33.018 L
435.003 33.319 L
436.135 33.626 L
437.268 33.938 L
438.4 34.257 L
439.533 34.582 L
440.665 34.913 L
441.798 35.25 L
442.93 35.595 L
444.063 35.946 L
445.195 36.304 L
446.327 36.669 L
447.46 37.042 L
448.592 37.422 L
449.725 37.81 L
450.857 38.206 L
451.99 38.611 L
453.122 39.024 L
454.255 39.445 L
455.387 39.875 L
456.52 40.315 L
457.652 40.764 L
458.785 41.223 L
459.918 41.692 L
461.05 42.172 L
462.182 42.662 L
463.315 43.163 L
464.448 43.676 L
465.58 44.201 L
466.712 44.738 L
467.845 45.288 L
468.978 45.851 L
470.11 46.428 L
471.242 47.019 L
472.375 47.625 L
473.508 48.247 L
474.64 48.884 L
475.772 49.539 L
476.905 50.211 L
478.038 50.902 L
479.17 51.612 L
480.302 52.342 L
481.435 53.094 L
482.568 53.868 L
483.7 54.666 L
484.832 55.489 L
485.965 56.338 L
487.098 57.216 L
488.23 58.123 L
489.363 59.063 L
490.495 60.036 L
491.628 61.047 L
492.76 62.096 L
493.893 63.188 L
495.025 64.325 L
496.158 65.513 L
497.29 66.755 L
498.423 68.057 L
499.555 69.425 L
500.688 70.865 L
501.82 72.388 L
502.952 74.002 L
504.085 75.721 L
505.217 77.559 L
506.35 79.537 L
507.482 81.679 L
508.615 84.017 L
509.747 86.597 L
510.88 89.48 L
512.013 92.761 L
513.145 96.589 L
514.277 101.226 L
515.41 107.212 L
516.543 115.987 L
517.675 135.337 L
518.807 129.496 L
519.94 118.136 L
521.073 113.466 L
522.205 111.222 L
523.338 110.448 L
524.47 110.891 L
525.602 112.661 L
526.735 116.364 L
527.867 124.253 L
S
GR
%%Trailer
%%Pages: 1
%%EOF
