%!PS-Adobe-3.0 EPSF-3.0
%%Creator: (MATLAB, The Mathworks, Inc. Version 9.1.0.441655 \(R2016b\). Operating System: Windows 8)
%%Title: ../Dokument/Abbildungen/fenster_rechteck_problem.eps
%%CreationDate: 2017-09-02T23:53:49
%%Pages: (atend)
%%BoundingBox:    24     0   404   149
%%LanguageLevel: 3
%%EndComments
%%BeginProlog
%%BeginResource: procset (Apache XML Graphics Std ProcSet) 1.2 0
%%Version: 1.2 0
%%Copyright: (Copyright 2001-2003,2010 The Apache Software Foundation. License terms: http://www.apache.org/licenses/LICENSE-2.0)
/bd{bind def}bind def
/ld{load def}bd
/GR/grestore ld
/M/moveto ld
/LJ/setlinejoin ld
/C/curveto ld
/f/fill ld
/LW/setlinewidth ld
/GC/setgray ld
/t/show ld
/N/newpath ld
/CT/concat ld
/cp/closepath ld
/S/stroke ld
/L/lineto ld
/CC/setcmykcolor ld
/A/ashow ld
/GS/gsave ld
/RC/setrgbcolor ld
/RM/rmoveto ld
/ML/setmiterlimit ld
/re {4 2 roll M
1 index 0 rlineto
0 exch rlineto
neg 0 rlineto
cp } bd
/_ctm matrix def
/_tm matrix def
/BT { _ctm currentmatrix pop matrix _tm copy pop 0 0 moveto } bd
/ET { _ctm setmatrix } bd
/iTm { _ctm setmatrix _tm concat } bd
/Tm { _tm astore pop iTm 0 0 moveto } bd
/ux 0.0 def
/uy 0.0 def
/F {
  /Tp exch def
  /Tf exch def
  Tf findfont Tp scalefont setfont
  /cf Tf def  /cs Tp def
} bd
/ULS {currentpoint /uy exch def /ux exch def} bd
/ULE {
  /Tcx currentpoint pop def
  gsave
  newpath
  cf findfont cs scalefont dup
  /FontMatrix get 0 get /Ts exch def /FontInfo get dup
  /UnderlinePosition get Ts mul /To exch def
  /UnderlineThickness get Ts mul /Tt exch def
  ux uy To add moveto  Tcx uy To add lineto
  Tt setlinewidth stroke
  grestore
} bd
/OLE {
  /Tcx currentpoint pop def
  gsave
  newpath
  cf findfont cs scalefont dup
  /FontMatrix get 0 get /Ts exch def /FontInfo get dup
  /UnderlinePosition get Ts mul /To exch def
  /UnderlineThickness get Ts mul /Tt exch def
  ux uy To add cs add moveto Tcx uy To add cs add lineto
  Tt setlinewidth stroke
  grestore
} bd
/SOE {
  /Tcx currentpoint pop def
  gsave
  newpath
  cf findfont cs scalefont dup
  /FontMatrix get 0 get /Ts exch def /FontInfo get dup
  /UnderlinePosition get Ts mul /To exch def
  /UnderlineThickness get Ts mul /Tt exch def
  ux uy To add cs 10 mul 26 idiv add moveto Tcx uy To add cs 10 mul 26 idiv add lineto
  Tt setlinewidth stroke
  grestore
} bd
/QT {
/Y22 exch store
/X22 exch store
/Y21 exch store
/X21 exch store
currentpoint
/Y21 load 2 mul add 3 div exch
/X21 load 2 mul add 3 div exch
/X21 load 2 mul /X22 load add 3 div
/Y21 load 2 mul /Y22 load add 3 div
/X22 load /Y22 load curveto
} bd
/SSPD {
dup length /d exch dict def
{
/v exch def
/k exch def
currentpagedevice k known {
/cpdv currentpagedevice k get def
v cpdv ne {
/upd false def
/nullv v type /nulltype eq def
/nullcpdv cpdv type /nulltype eq def
nullv nullcpdv or
{
/upd true def
} {
/sametype v type cpdv type eq def
sametype {
v type /arraytype eq {
/vlen v length def
/cpdvlen cpdv length def
vlen cpdvlen eq {
0 1 vlen 1 sub {
/i exch def
/obj v i get def
/cpdobj cpdv i get def
obj cpdobj ne {
/upd true def
exit
} if
} for
} {
/upd true def
} ifelse
} {
v type /dicttype eq {
v {
/dv exch def
/dk exch def
/cpddv cpdv dk get def
dv cpddv ne {
/upd true def
exit
} if
} forall
} {
/upd true def
} ifelse
} ifelse
} if
} ifelse
upd true eq {
d k v put
} if
} if
} if
} forall
d length 0 gt {
d setpagedevice
} if
} bd
/RE { % /NewFontName [NewEncodingArray] /FontName RE -
  findfont dup length dict begin
  {
    1 index /FID ne
    {def} {pop pop} ifelse
  } forall
  /Encoding exch def
  /FontName 1 index def
  currentdict definefont pop
  end
} bind def
%%EndResource
%%BeginResource: procset (Apache XML Graphics EPS ProcSet) 1.0 0
%%Version: 1.0 0
%%Copyright: (Copyright 2002-2003 The Apache Software Foundation. License terms: http://www.apache.org/licenses/LICENSE-2.0)
/BeginEPSF { %def
/b4_Inc_state save def         % Save state for cleanup
/dict_count countdictstack def % Count objects on dict stack
/op_count count 1 sub def      % Count objects on operand stack
userdict begin                 % Push userdict on dict stack
/showpage { } def              % Redefine showpage, { } = null proc
0 setgray 0 setlinecap         % Prepare graphics state
1 setlinewidth 0 setlinejoin
10 setmiterlimit [ ] 0 setdash newpath
/languagelevel where           % If level not equal to 1 then
{pop languagelevel             % set strokeadjust and
1 ne                           % overprint to their defaults.
{false setstrokeadjust false setoverprint
} if
} if
} bd
/EndEPSF { %def
count op_count sub {pop} repeat            % Clean up stacks
countdictstack dict_count sub {end} repeat
b4_Inc_state restore
} bd
%%EndResource
%FOPBeginFontDict
%%IncludeResource: font Courier-Bold
%%IncludeResource: font Helvetica
%%IncludeResource: font Courier-BoldOblique
%%IncludeResource: font Courier-Oblique
%%IncludeResource: font Times-Roman
%%IncludeResource: font Helvetica-BoldOblique
%%IncludeResource: font Helvetica-Bold
%%IncludeResource: font Helvetica-Oblique
%%IncludeResource: font Times-BoldItalic
%%IncludeResource: font Courier
%%IncludeResource: font Times-Italic
%%IncludeResource: font Times-Bold
%%IncludeResource: font Symbol
%%IncludeResource: font ZapfDingbats
%FOPEndFontDict
%%BeginResource: encoding WinAnsiEncoding
/WinAnsiEncoding [
/.notdef /.notdef /.notdef /.notdef /.notdef
/.notdef /.notdef /.notdef /.notdef /.notdef
/.notdef /.notdef /.notdef /.notdef /.notdef
/.notdef /.notdef /.notdef /.notdef /.notdef
/.notdef /.notdef /.notdef /.notdef /.notdef
/.notdef /.notdef /.notdef /.notdef /.notdef
/.notdef /.notdef /space /exclam /quotedbl
/numbersign /dollar /percent /ampersand /quotesingle
/parenleft /parenright /asterisk /plus /comma
/hyphen /period /slash /zero /one
/two /three /four /five /six
/seven /eight /nine /colon /semicolon
/less /equal /greater /question /at
/A /B /C /D /E
/F /G /H /I /J
/K /L /M /N /O
/P /Q /R /S /T
/U /V /W /X /Y
/Z /bracketleft /backslash /bracketright /asciicircum
/underscore /quoteleft /a /b /c
/d /e /f /g /h
/i /j /k /l /m
/n /o /p /q /r
/s /t /u /v /w
/x /y /z /braceleft /bar
/braceright /asciitilde /bullet /Euro /bullet
/quotesinglbase /florin /quotedblbase /ellipsis /dagger
/daggerdbl /circumflex /perthousand /Scaron /guilsinglleft
/OE /bullet /Zcaron /bullet /bullet
/quoteleft /quoteright /quotedblleft /quotedblright /bullet
/endash /emdash /asciitilde /trademark /scaron
/guilsinglright /oe /bullet /zcaron /Ydieresis
/space /exclamdown /cent /sterling /currency
/yen /brokenbar /section /dieresis /copyright
/ordfeminine /guillemotleft /logicalnot /sfthyphen /registered
/macron /degree /plusminus /twosuperior /threesuperior
/acute /mu /paragraph /middot /cedilla
/onesuperior /ordmasculine /guillemotright /onequarter /onehalf
/threequarters /questiondown /Agrave /Aacute /Acircumflex
/Atilde /Adieresis /Aring /AE /Ccedilla
/Egrave /Eacute /Ecircumflex /Edieresis /Igrave
/Iacute /Icircumflex /Idieresis /Eth /Ntilde
/Ograve /Oacute /Ocircumflex /Otilde /Odieresis
/multiply /Oslash /Ugrave /Uacute /Ucircumflex
/Udieresis /Yacute /Thorn /germandbls /agrave
/aacute /acircumflex /atilde /adieresis /aring
/ae /ccedilla /egrave /eacute /ecircumflex
/edieresis /igrave /iacute /icircumflex /idieresis
/eth /ntilde /ograve /oacute /ocircumflex
/otilde /odieresis /divide /oslash /ugrave
/uacute /ucircumflex /udieresis /yacute /thorn
/ydieresis
] def
%%EndResource
%FOPBeginFontReencode
/Courier-Bold findfont
dup length dict begin
  {1 index /FID ne {def} {pop pop} ifelse} forall
  /Encoding WinAnsiEncoding def
  currentdict
end
/Courier-Bold exch definefont pop
/Helvetica findfont
dup length dict begin
  {1 index /FID ne {def} {pop pop} ifelse} forall
  /Encoding WinAnsiEncoding def
  currentdict
end
/Helvetica exch definefont pop
/Courier-BoldOblique findfont
dup length dict begin
  {1 index /FID ne {def} {pop pop} ifelse} forall
  /Encoding WinAnsiEncoding def
  currentdict
end
/Courier-BoldOblique exch definefont pop
/Courier-Oblique findfont
dup length dict begin
  {1 index /FID ne {def} {pop pop} ifelse} forall
  /Encoding WinAnsiEncoding def
  currentdict
end
/Courier-Oblique exch definefont pop
/Times-Roman findfont
dup length dict begin
  {1 index /FID ne {def} {pop pop} ifelse} forall
  /Encoding WinAnsiEncoding def
  currentdict
end
/Times-Roman exch definefont pop
/Helvetica-BoldOblique findfont
dup length dict begin
  {1 index /FID ne {def} {pop pop} ifelse} forall
  /Encoding WinAnsiEncoding def
  currentdict
end
/Helvetica-BoldOblique exch definefont pop
/Helvetica-Bold findfont
dup length dict begin
  {1 index /FID ne {def} {pop pop} ifelse} forall
  /Encoding WinAnsiEncoding def
  currentdict
end
/Helvetica-Bold exch definefont pop
/Helvetica-Oblique findfont
dup length dict begin
  {1 index /FID ne {def} {pop pop} ifelse} forall
  /Encoding WinAnsiEncoding def
  currentdict
end
/Helvetica-Oblique exch definefont pop
/Times-BoldItalic findfont
dup length dict begin
  {1 index /FID ne {def} {pop pop} ifelse} forall
  /Encoding WinAnsiEncoding def
  currentdict
end
/Times-BoldItalic exch definefont pop
/Courier findfont
dup length dict begin
  {1 index /FID ne {def} {pop pop} ifelse} forall
  /Encoding WinAnsiEncoding def
  currentdict
end
/Courier exch definefont pop
/Times-Italic findfont
dup length dict begin
  {1 index /FID ne {def} {pop pop} ifelse} forall
  /Encoding WinAnsiEncoding def
  currentdict
end
/Times-Italic exch definefont pop
/Times-Bold findfont
dup length dict begin
  {1 index /FID ne {def} {pop pop} ifelse} forall
  /Encoding WinAnsiEncoding def
  currentdict
end
/Times-Bold exch definefont pop
%FOPEndFontReencode
%%EndProlog
%%Page: 1 1
%%PageBoundingBox: 0 0 438 160
%%BeginPageSetup
[1 0 0 -1 0 160] CT
%%EndPageSetup
GS
[0.75 0 0 0.75 0 0.25] CT
N
0 0 M
584 0 L
584 213 L
0 213 L
0 0 L
cp
clip
1 GC
N
0 0 584 213 re
f
GR
GS
[0.75 0 0 0.75 0 0.25] CT
1 GC
N
0 0 584 213 re
f
GR
GS
[0.75 0 0 0.75 0 0.25] CT
1 GC
N
76 172 M
529 172 L
529 16 L
76 16 L
cp
f
GR
GS
[0.75 0 0 0.75 0 0.25] CT
0.873 GC
1 LJ
0.667 LW
N
76 172 M
76 16 L
S
GR
GS
[0.75 0 0 0.75 0 0.25] CT
0.873 GC
1 LJ
0.667 LW
N
121.3 172 M
121.3 16 L
S
GR
GS
[0.75 0 0 0.75 0 0.25] CT
0.873 GC
1 LJ
0.667 LW
N
166.6 172 M
166.6 16 L
S
GR
GS
[0.75 0 0 0.75 0 0.25] CT
0.873 GC
1 LJ
0.667 LW
N
211.9 172 M
211.9 16 L
S
GR
GS
[0.75 0 0 0.75 0 0.25] CT
0.873 GC
1 LJ
0.667 LW
N
257.2 172 M
257.2 16 L
S
GR
GS
[0.75 0 0 0.75 0 0.25] CT
0.873 GC
1 LJ
0.667 LW
N
302.5 172 M
302.5 16 L
S
GR
GS
[0.75 0 0 0.75 0 0.25] CT
0.873 GC
1 LJ
0.667 LW
N
347.8 172 M
347.8 16 L
S
GR
GS
[0.75 0 0 0.75 0 0.25] CT
0.873 GC
1 LJ
0.667 LW
N
393.1 172 M
393.1 16 L
S
GR
GS
[0.75 0 0 0.75 0 0.25] CT
0.873 GC
1 LJ
0.667 LW
N
438.4 172 M
438.4 16 L
S
GR
GS
[0.75 0 0 0.75 0 0.25] CT
0.873 GC
1 LJ
0.667 LW
N
483.7 172 M
483.7 16 L
S
GR
GS
[0.75 0 0 0.75 0 0.25] CT
0.873 GC
1 LJ
0.667 LW
N
529 172 M
529 16 L
S
GR
GS
[0.75 0 0 0.75 0 0.25] CT
0.873 GC
1 LJ
0.667 LW
N
529 172 M
76 172 L
S
GR
GS
[0.75 0 0 0.75 0 0.25] CT
0.873 GC
1 LJ
0.667 LW
N
529 143.636 M
76 143.636 L
S
GR
GS
[0.75 0 0 0.75 0 0.25] CT
0.873 GC
1 LJ
0.667 LW
N
529 115.273 M
76 115.273 L
S
GR
GS
[0.75 0 0 0.75 0 0.25] CT
0.873 GC
1 LJ
0.667 LW
N
529 86.909 M
76 86.909 L
S
GR
GS
[0.75 0 0 0.75 0 0.25] CT
0.873 GC
1 LJ
0.667 LW
N
529 58.545 M
76 58.545 L
S
GR
GS
[0.75 0 0 0.75 0 0.25] CT
0.873 GC
1 LJ
0.667 LW
N
529 30.182 M
76 30.182 L
S
GR
GS
[0.75 0 0 0.75 0 0.25] CT
0.149 GC
2 setlinecap
1 LJ
0.667 LW
N
76 172 M
529 172 L
S
GR
GS
[0.75 0 0 0.75 0 0.25] CT
0.149 GC
2 setlinecap
1 LJ
0.667 LW
N
76 16 M
529 16 L
S
GR
GS
[0.75 0 0 0.75 0 0.25] CT
0.149 GC
2 setlinecap
1 LJ
0.667 LW
N
76 172 M
76 167.47 L
S
GR
GS
[0.75 0 0 0.75 0 0.25] CT
0.149 GC
2 setlinecap
1 LJ
0.667 LW
N
121.3 172 M
121.3 167.47 L
S
GR
GS
[0.75 0 0 0.75 0 0.25] CT
0.149 GC
2 setlinecap
1 LJ
0.667 LW
N
166.6 172 M
166.6 167.47 L
S
GR
GS
[0.75 0 0 0.75 0 0.25] CT
0.149 GC
2 setlinecap
1 LJ
0.667 LW
N
211.9 172 M
211.9 167.47 L
S
GR
GS
[0.75 0 0 0.75 0 0.25] CT
0.149 GC
2 setlinecap
1 LJ
0.667 LW
N
257.2 172 M
257.2 167.47 L
S
GR
GS
[0.75 0 0 0.75 0 0.25] CT
0.149 GC
2 setlinecap
1 LJ
0.667 LW
N
302.5 172 M
302.5 167.47 L
S
GR
GS
[0.75 0 0 0.75 0 0.25] CT
0.149 GC
2 setlinecap
1 LJ
0.667 LW
N
347.8 172 M
347.8 167.47 L
S
GR
GS
[0.75 0 0 0.75 0 0.25] CT
0.149 GC
2 setlinecap
1 LJ
0.667 LW
N
393.1 172 M
393.1 167.47 L
S
GR
GS
[0.75 0 0 0.75 0 0.25] CT
0.149 GC
2 setlinecap
1 LJ
0.667 LW
N
438.4 172 M
438.4 167.47 L
S
GR
GS
[0.75 0 0 0.75 0 0.25] CT
0.149 GC
2 setlinecap
1 LJ
0.667 LW
N
483.7 172 M
483.7 167.47 L
S
GR
GS
[0.75 0 0 0.75 0 0.25] CT
0.149 GC
2 setlinecap
1 LJ
0.667 LW
N
529 172 M
529 167.47 L
S
GR
GS
[0.75 0 0 0.75 0 0.25] CT
0.149 GC
2 setlinecap
1 LJ
0.667 LW
N
76 16 M
76 20.53 L
S
GR
GS
[0.75 0 0 0.75 0 0.25] CT
0.149 GC
2 setlinecap
1 LJ
0.667 LW
N
121.3 16 M
121.3 20.53 L
S
GR
GS
[0.75 0 0 0.75 0 0.25] CT
0.149 GC
2 setlinecap
1 LJ
0.667 LW
N
166.6 16 M
166.6 20.53 L
S
GR
GS
[0.75 0 0 0.75 0 0.25] CT
0.149 GC
2 setlinecap
1 LJ
0.667 LW
N
211.9 16 M
211.9 20.53 L
S
GR
GS
[0.75 0 0 0.75 0 0.25] CT
0.149 GC
2 setlinecap
1 LJ
0.667 LW
N
257.2 16 M
257.2 20.53 L
S
GR
GS
[0.75 0 0 0.75 0 0.25] CT
0.149 GC
2 setlinecap
1 LJ
0.667 LW
N
302.5 16 M
302.5 20.53 L
S
GR
GS
[0.75 0 0 0.75 0 0.25] CT
0.149 GC
2 setlinecap
1 LJ
0.667 LW
N
347.8 16 M
347.8 20.53 L
S
GR
GS
[0.75 0 0 0.75 0 0.25] CT
0.149 GC
2 setlinecap
1 LJ
0.667 LW
N
393.1 16 M
393.1 20.53 L
S
GR
GS
[0.75 0 0 0.75 0 0.25] CT
0.149 GC
2 setlinecap
1 LJ
0.667 LW
N
438.4 16 M
438.4 20.53 L
S
GR
GS
[0.75 0 0 0.75 0 0.25] CT
0.149 GC
2 setlinecap
1 LJ
0.667 LW
N
483.7 16 M
483.7 20.53 L
S
GR
GS
[0.75 0 0 0.75 0 0.25] CT
0.149 GC
2 setlinecap
1 LJ
0.667 LW
N
529 16 M
529 20.53 L
S
GR
GS
[0.75 0 0 0.75 57 133.25] CT
0.149 GC
N
-5.542 9.716 M
-5.401 10.106 -5.128 10.419 QT
-4.854 10.731 -4.471 10.903 QT
-4.089 11.075 -3.682 11.075 QT
-2.745 11.075 -2.393 10.341 QT
-2.042 9.606 -2.042 8.575 QT
-2.042 8.122 -2.057 7.817 QT
-2.073 7.512 -2.135 7.216 QT
-2.26 6.762 -2.565 6.419 QT
-2.87 6.075 -3.307 6.075 QT
-3.745 6.075 -4.057 6.208 QT
-4.37 6.341 -4.565 6.52 QT
-4.76 6.7 -4.917 6.895 QT
-5.073 7.091 -5.104 7.106 QT
-5.245 7.106 L
-5.276 7.106 -5.331 7.067 QT
-5.385 7.028 -5.385 6.981 QT
-5.385 2.637 L
-5.385 2.606 -5.339 2.575 QT
-5.292 2.544 -5.245 2.544 QT
-5.214 2.544 L
-4.339 2.966 -3.354 2.966 QT
-2.385 2.966 -1.495 2.544 QT
-1.448 2.544 L
-1.417 2.544 -1.378 2.575 QT
-1.339 2.606 -1.339 2.637 QT
-1.339 2.762 L
-1.339 2.825 -1.354 2.825 QT
-1.807 3.419 -2.479 3.747 QT
-3.151 4.075 -3.854 4.075 QT
-4.385 4.075 -4.932 3.934 QT
-4.932 6.387 L
-4.495 6.044 -4.159 5.895 QT
-3.823 5.747 -3.292 5.747 QT
-2.573 5.747 -2.003 6.153 QT
-1.432 6.559 -1.128 7.223 QT
-0.823 7.887 -0.823 8.591 QT
-0.823 9.372 -1.206 10.036 QT
-1.589 10.7 -2.253 11.091 QT
-2.917 11.481 -3.682 11.481 QT
-4.323 11.481 -4.862 11.153 QT
-5.401 10.825 -5.714 10.27 QT
-6.026 9.716 -6.026 9.075 QT
-6.026 8.794 -5.831 8.606 QT
-5.635 8.419 -5.354 8.419 QT
-5.073 8.419 -4.878 8.606 QT
-4.682 8.794 -4.682 9.075 QT
-4.682 9.356 -4.878 9.552 QT
-5.073 9.747 -5.354 9.747 QT
-5.401 9.747 -5.456 9.739 QT
-5.51 9.731 -5.542 9.716 QT
cp
f
GR
GS
[0.75 0 0 0.75 57 133.25] CT
0.149 GC
N
3.25 11.481 M
1.656 11.481 1.086 10.169 QT
0.516 8.856 0.516 7.059 QT
0.516 5.919 0.719 4.927 QT
0.922 3.934 1.531 3.239 QT
2.141 2.544 3.25 2.544 QT
4.109 2.544 4.656 2.958 QT
5.203 3.372 5.484 4.036 QT
5.766 4.7 5.875 5.458 QT
5.984 6.216 5.984 7.059 QT
5.984 8.169 5.773 9.145 QT
5.563 10.122 4.961 10.802 QT
4.359 11.481 3.25 11.481 QT
cp
3.25 11.153 M
3.969 11.153 4.328 10.411 QT
4.688 9.669 4.766 8.762 QT
4.844 7.856 4.844 6.841 QT
4.844 5.872 4.766 5.044 QT
4.688 4.216 4.336 3.544 QT
3.984 2.872 3.25 2.872 QT
2.516 2.872 2.156 3.552 QT
1.797 4.231 1.719 5.052 QT
1.641 5.872 1.641 6.841 QT
1.641 7.575 1.672 8.216 QT
1.703 8.856 1.859 9.536 QT
2.016 10.216 2.352 10.684 QT
2.688 11.153 3.25 11.153 QT
cp
f
GR
GS
[0.75 0 0 0.75 90.975 133.25] CT
0.149 GC
N
-3.417 11.481 M
-4.229 11.481 -4.768 11.052 QT
-5.307 10.622 -5.596 9.942 QT
-5.885 9.262 -6.003 8.512 QT
-6.12 7.762 -6.12 6.997 QT
-6.12 5.966 -5.721 4.934 QT
-5.323 3.903 -4.542 3.223 QT
-3.76 2.544 -2.698 2.544 QT
-2.26 2.544 -1.87 2.708 QT
-1.479 2.872 -1.26 3.2 QT
-1.042 3.528 -1.042 3.997 QT
-1.042 4.262 -1.229 4.442 QT
-1.417 4.622 -1.682 4.622 QT
-1.932 4.622 -2.112 4.442 QT
-2.292 4.262 -2.292 3.997 QT
-2.292 3.747 -2.112 3.559 QT
-1.932 3.372 -1.682 3.372 QT
-1.604 3.372 L
-1.776 3.137 -2.073 3.028 QT
-2.37 2.919 -2.698 2.919 QT
-3.089 2.919 -3.424 3.091 QT
-3.76 3.262 -4.026 3.552 QT
-4.292 3.841 -4.471 4.192 QT
-4.651 4.544 -4.745 4.997 QT
-4.839 5.45 -4.87 5.841 QT
-4.901 6.231 -4.901 6.825 QT
-4.667 6.294 -4.245 5.958 QT
-3.823 5.622 -3.307 5.622 QT
-2.729 5.622 -2.253 5.856 QT
-1.776 6.091 -1.432 6.505 QT
-1.089 6.919 -0.909 7.45 QT
-0.729 7.981 -0.729 8.528 QT
-0.729 9.294 -1.065 9.981 QT
-1.401 10.669 -2.018 11.075 QT
-2.635 11.481 -3.417 11.481 QT
cp
-3.417 11.075 M
-2.917 11.075 -2.612 10.848 QT
-2.307 10.622 -2.167 10.239 QT
-2.026 9.856 -1.987 9.473 QT
-1.948 9.091 -1.948 8.528 QT
-1.948 7.794 -2.018 7.278 QT
-2.089 6.762 -2.401 6.364 QT
-2.714 5.966 -3.354 5.966 QT
-3.885 5.966 -4.221 6.317 QT
-4.557 6.669 -4.714 7.216 QT
-4.87 7.762 -4.87 8.262 QT
-4.87 8.434 -4.854 8.528 QT
-4.854 8.544 -4.862 8.552 QT
-4.87 8.559 -4.87 8.591 QT
-4.87 9.137 -4.753 9.708 QT
-4.635 10.278 -4.315 10.677 QT
-3.995 11.075 -3.417 11.075 QT
cp
f
GR
GS
[0.75 0 0 0.75 90.975 133.25] CT
0.149 GC
N
/f-1609592757{3.25 11.481 M
1.656 11.481 1.086 10.169 QT
0.516 8.856 0.516 7.059 QT
0.516 5.919 0.719 4.927 QT
0.922 3.934 1.531 3.239 QT
2.141 2.544 3.25 2.544 QT
4.109 2.544 4.656 2.958 QT
5.203 3.372 5.484 4.036 QT
5.766 4.7 5.875 5.458 QT
5.984 6.216 5.984 7.059 QT
5.984 8.169 5.773 9.145 QT
5.563 10.122 4.961 10.802 QT
4.359 11.481 3.25 11.481 QT
cp
3.25 11.153 M
3.969 11.153 4.328 10.411 QT
4.688 9.669 4.766 8.762 QT
4.844 7.856 4.844 6.841 QT
4.844 5.872 4.766 5.044 QT
4.688 4.216 4.336 3.544 QT
3.984 2.872 3.25 2.872 QT
2.516 2.872 2.156 3.552 QT
1.797 4.231 1.719 5.052 QT
1.641 5.872 1.641 6.841 QT
1.641 7.575 1.672 8.216 QT
1.703 8.856 1.859 9.536 QT
2.016 10.216 2.352 10.684 QT
2.688 11.153 3.25 11.153 QT
cp}def
f-1609592757
f
GR
GS
[0.75 0 0 0.75 124.95 133.25] CT
0.149 GC
N
/f-216652004{-4.401 10.856 M
-4.401 10.137 -4.276 9.45 QT
-4.151 8.762 -3.909 8.083 QT
-3.667 7.403 -3.323 6.755 QT
-2.979 6.106 -2.557 5.528 QT
-1.37 3.887 L
-2.854 3.887 L
-5.167 3.887 -5.245 3.95 QT
-5.417 4.153 -5.557 5.137 QT
-5.932 5.137 L
-5.51 2.419 L
-5.135 2.419 L
-5.135 2.45 L
-5.135 2.684 -4.339 2.755 QT
-3.542 2.825 -2.776 2.825 QT
-0.37 2.825 L
-0.37 3.169 L
-0.37 3.169 -0.37 3.177 QT
-0.37 3.184 -0.37 3.2 QT
-2.167 5.716 L
-2.823 6.7 -2.987 7.887 QT
-3.151 9.075 -3.151 10.856 QT
-3.151 11.122 -3.339 11.302 QT
-3.526 11.481 -3.776 11.481 QT
-4.042 11.481 -4.221 11.302 QT
-4.401 11.122 -4.401 10.856 QT
cp}def
f-216652004
f
GR
GS
[0.75 0 0 0.75 124.95 133.25] CT
0.149 GC
N
f-1609592757
f
GR
GS
[0.75 0 0 0.75 158.925 133.25] CT
0.149 GC
N
/f941231055{-6.12 9.231 M
-6.12 8.45 -5.604 7.848 QT
-5.089 7.247 -4.292 6.841 QT
-4.776 6.528 L
-5.214 6.247 -5.495 5.762 QT
-5.776 5.278 -5.776 4.731 QT
-5.776 4.122 -5.448 3.614 QT
-5.12 3.106 -4.573 2.825 QT
-4.026 2.544 -3.417 2.544 QT
-2.839 2.544 -2.299 2.778 QT
-1.76 3.012 -1.417 3.45 QT
-1.073 3.887 -1.073 4.497 QT
-1.073 4.934 -1.276 5.309 QT
-1.479 5.684 -1.839 5.981 QT
-2.198 6.278 -2.604 6.481 QT
-1.87 6.966 L
-1.354 7.294 -1.042 7.841 QT
-0.729 8.387 -0.729 8.997 QT
-0.729 9.7 -1.104 10.278 QT
-1.479 10.856 -2.104 11.169 QT
-2.729 11.481 -3.417 11.481 QT
-4.089 11.481 -4.714 11.208 QT
-5.339 10.934 -5.729 10.419 QT
-6.12 9.903 -6.12 9.231 QT
cp
-5.417 9.231 M
-5.417 9.747 -5.135 10.169 QT
-4.854 10.591 -4.385 10.833 QT
-3.917 11.075 -3.417 11.075 QT
-2.667 11.075 -2.049 10.63 QT
-1.432 10.184 -1.432 9.466 QT
-1.432 9.216 -1.526 8.973 QT
-1.62 8.731 -1.799 8.528 QT
-1.979 8.325 -2.198 8.2 QT
-3.932 7.075 L
-4.339 7.278 -4.682 7.614 QT
-5.026 7.95 -5.221 8.356 QT
-5.417 8.762 -5.417 9.231 QT
cp
-4.526 5.262 M
-2.948 6.278 L
-2.401 5.95 -2.049 5.505 QT
-1.698 5.059 -1.698 4.497 QT
-1.698 4.059 -1.948 3.692 QT
-2.198 3.325 -2.589 3.122 QT
-2.979 2.919 -3.432 2.919 QT
-3.823 2.919 -4.221 3.067 QT
-4.62 3.216 -4.878 3.52 QT
-5.135 3.825 -5.135 4.231 QT
-5.135 4.841 -4.526 5.262 QT
cp}def
f941231055
f
GR
GS
[0.75 0 0 0.75 158.925 133.25] CT
0.149 GC
N
f-1609592757
f
GR
GS
[0.75 0 0 0.75 192.90001 133.25] CT
0.149 GC
N
/f-2056518270{-5.198 10.653 M
-4.839 11.075 -3.964 11.075 QT
-3.464 11.075 -3.034 10.739 QT
-2.604 10.403 -2.37 9.919 QT
-2.104 9.356 -2.026 8.731 QT
-1.948 8.106 -1.948 7.184 QT
-2.167 7.716 -2.589 8.052 QT
-3.01 8.387 -3.542 8.387 QT
-4.292 8.387 -4.885 7.973 QT
-5.479 7.559 -5.799 6.887 QT
-6.12 6.216 -6.12 5.466 QT
-6.12 4.684 -5.768 4.012 QT
-5.417 3.341 -4.784 2.942 QT
-4.151 2.544 -3.354 2.544 QT
-2.573 2.544 -2.042 2.973 QT
-1.51 3.403 -1.229 4.075 QT
-0.948 4.747 -0.839 5.505 QT
-0.729 6.262 -0.729 6.997 QT
-0.729 7.997 -1.096 9.044 QT
-1.464 10.091 -2.198 10.786 QT
-2.932 11.481 -3.964 11.481 QT
-4.729 11.481 -5.26 11.122 QT
-5.792 10.762 -5.792 10.028 QT
-5.792 9.762 -5.612 9.583 QT
-5.432 9.403 -5.167 9.403 QT
-4.901 9.403 -4.721 9.583 QT
-4.542 9.762 -4.542 10.028 QT
-4.542 10.278 -4.729 10.466 QT
-4.917 10.653 -5.167 10.653 QT
-5.198 10.653 L
cp
-3.495 8.044 M
-2.964 8.044 -2.62 7.684 QT
-2.276 7.325 -2.128 6.794 QT
-1.979 6.262 -1.979 5.731 QT
-1.979 5.481 L
-1.979 5.434 L
-1.979 4.45 -2.26 3.684 QT
-2.542 2.919 -3.354 2.919 QT
-3.87 2.919 -4.19 3.145 QT
-4.51 3.372 -4.659 3.747 QT
-4.807 4.122 -4.854 4.544 QT
-4.901 4.966 -4.901 5.466 QT
-4.901 6.2 -4.831 6.723 QT
-4.76 7.247 -4.448 7.645 QT
-4.135 8.044 -3.495 8.044 QT
cp}def
f-2056518270
f
GR
GS
[0.75 0 0 0.75 192.90001 133.25] CT
0.149 GC
N
f-1609592757
f
GR
GS
[0.75 0 0 0.75 226.875 133.25] CT
0.149 GC
N
/f64805956{-8.797 11.2 M
-8.797 10.747 L
-7.172 10.747 -7.172 10.325 QT
-7.172 3.512 L
-7.844 3.825 -8.875 3.825 QT
-8.875 3.372 L
-7.281 3.372 -6.469 2.544 QT
-6.281 2.544 L
-6.234 2.544 -6.195 2.575 QT
-6.156 2.606 -6.156 2.653 QT
-6.156 10.325 L
-6.156 10.747 -4.531 10.747 QT
-4.531 11.2 L
-8.797 11.2 L
cp}def
f64805956
f
GR
GS
[0.75 0 0 0.75 226.875 133.25] CT
0.149 GC
N
/f1061832871{-0.083 11.481 M
-1.677 11.481 -2.247 10.169 QT
-2.818 8.856 -2.818 7.059 QT
-2.818 5.919 -2.615 4.927 QT
-2.411 3.934 -1.802 3.239 QT
-1.193 2.544 -0.083 2.544 QT
0.776 2.544 1.323 2.958 QT
1.87 3.372 2.151 4.036 QT
2.432 4.7 2.542 5.458 QT
2.651 6.216 2.651 7.059 QT
2.651 8.169 2.44 9.145 QT
2.229 10.122 1.628 10.802 QT
1.026 11.481 -0.083 11.481 QT
cp
-0.083 11.153 M
0.635 11.153 0.995 10.411 QT
1.354 9.669 1.432 8.762 QT
1.51 7.856 1.51 6.841 QT
1.51 5.872 1.432 5.044 QT
1.354 4.216 1.003 3.544 QT
0.651 2.872 -0.083 2.872 QT
-0.818 2.872 -1.177 3.552 QT
-1.536 4.231 -1.615 5.052 QT
-1.693 5.872 -1.693 6.841 QT
-1.693 7.575 -1.661 8.216 QT
-1.63 8.856 -1.474 9.536 QT
-1.318 10.216 -0.982 10.684 QT
-0.646 11.153 -0.083 11.153 QT
cp}def
f1061832871
f
GR
GS
[0.75 0 0 0.75 226.875 133.25] CT
0.149 GC
N
/f-1844528368{6.583 11.481 M
4.99 11.481 4.419 10.169 QT
3.849 8.856 3.849 7.059 QT
3.849 5.919 4.052 4.927 QT
4.255 3.934 4.865 3.239 QT
5.474 2.544 6.583 2.544 QT
7.443 2.544 7.99 2.958 QT
8.536 3.372 8.818 4.036 QT
9.099 4.7 9.208 5.458 QT
9.318 6.216 9.318 7.059 QT
9.318 8.169 9.107 9.145 QT
8.896 10.122 8.294 10.802 QT
7.693 11.481 6.583 11.481 QT
cp
6.583 11.153 M
7.302 11.153 7.661 10.411 QT
8.021 9.669 8.099 8.762 QT
8.177 7.856 8.177 6.841 QT
8.177 5.872 8.099 5.044 QT
8.021 4.216 7.669 3.544 QT
7.318 2.872 6.583 2.872 QT
5.849 2.872 5.49 3.552 QT
5.13 4.231 5.052 5.052 QT
4.974 5.872 4.974 6.841 QT
4.974 7.575 5.005 8.216 QT
5.036 8.856 5.193 9.536 QT
5.349 10.216 5.685 10.684 QT
6.021 11.153 6.583 11.153 QT
cp}def
f-1844528368
f
GR
GS
[0.75 0 0 0.75 260.84999 133.25] CT
0.149 GC
N
f64805956
f
GR
GS
[0.75 0 0 0.75 260.84999 133.25] CT
0.149 GC
N
/f-1136517822{-2.13 11.2 M
-2.13 10.747 L
-0.505 10.747 -0.505 10.325 QT
-0.505 3.512 L
-1.177 3.825 -2.208 3.825 QT
-2.208 3.372 L
-0.615 3.372 0.198 2.544 QT
0.385 2.544 L
0.432 2.544 0.471 2.575 QT
0.51 2.606 0.51 2.653 QT
0.51 10.325 L
0.51 10.747 2.135 10.747 QT
2.135 11.2 L
-2.13 11.2 L
cp}def
f-1136517822
f
GR
GS
[0.75 0 0 0.75 260.84999 133.25] CT
0.149 GC
N
f-1844528368
f
GR
GS
[0.75 0 0 0.75 294.825 133.25] CT
0.149 GC
N
f64805956
f
GR
GS
[0.75 0 0 0.75 294.825 133.25] CT
0.149 GC
N
/f2112990141{-2.693 11.2 M
-2.693 10.856 L
-2.693 10.825 -2.661 10.778 QT
-0.646 8.544 L
-0.177 8.044 0.104 7.708 QT
0.385 7.372 0.667 6.934 QT
0.948 6.497 1.112 6.044 QT
1.276 5.591 1.276 5.091 QT
1.276 4.559 1.073 4.067 QT
0.87 3.575 0.479 3.286 QT
0.089 2.997 -0.458 2.997 QT
-1.021 2.997 -1.474 3.341 QT
-1.927 3.684 -2.115 4.216 QT
-2.052 4.2 -1.974 4.2 QT
-1.677 4.2 -1.474 4.395 QT
-1.271 4.591 -1.271 4.903 QT
-1.271 5.2 -1.474 5.411 QT
-1.677 5.622 -1.974 5.622 QT
-2.271 5.622 -2.482 5.411 QT
-2.693 5.2 -2.693 4.903 QT
-2.693 4.419 -2.505 3.989 QT
-2.318 3.559 -1.974 3.231 QT
-1.63 2.903 -1.193 2.723 QT
-0.755 2.544 -0.271 2.544 QT
0.479 2.544 1.12 2.856 QT
1.76 3.169 2.135 3.747 QT
2.51 4.325 2.51 5.091 QT
2.51 5.653 2.26 6.161 QT
2.01 6.669 1.628 7.083 QT
1.245 7.497 0.635 8.028 QT
0.026 8.559 -0.161 8.731 QT
-1.63 10.153 L
-0.38 10.153 L
0.542 10.153 1.159 10.137 QT
1.776 10.122 1.807 10.075 QT
1.964 9.919 2.12 8.887 QT
2.51 8.887 L
2.135 11.2 L
-2.693 11.2 L
cp}def
f2112990141
f
GR
GS
[0.75 0 0 0.75 294.825 133.25] CT
0.149 GC
N
f-1844528368
f
GR
GS
[0.75 0 0 0.75 328.8 133.25] CT
0.149 GC
N
f64805956
f
GR
GS
[0.75 0 0 0.75 328.8 133.25] CT
0.149 GC
N
/f1773559075{-2.099 10.2 M
-1.786 10.637 -1.271 10.856 QT
-0.755 11.075 -0.177 11.075 QT
0.589 11.075 0.901 10.427 QT
1.214 9.778 1.214 8.966 QT
1.214 8.591 1.151 8.223 QT
1.089 7.856 0.924 7.544 QT
0.76 7.231 0.487 7.036 QT
0.214 6.841 -0.177 6.841 QT
-1.052 6.841 L
-1.161 6.841 -1.161 6.731 QT
-1.161 6.606 L
-1.161 6.512 -1.052 6.512 QT
-0.333 6.45 L
0.12 6.45 0.424 6.106 QT
0.729 5.762 0.87 5.27 QT
1.01 4.778 1.01 4.341 QT
1.01 3.716 0.721 3.317 QT
0.432 2.919 -0.177 2.919 QT
-0.661 2.919 -1.115 3.106 QT
-1.568 3.294 -1.833 3.669 QT
-1.802 3.669 -1.786 3.661 QT
-1.771 3.653 -1.74 3.653 QT
-1.458 3.653 -1.263 3.856 QT
-1.068 4.059 -1.068 4.356 QT
-1.068 4.637 -1.263 4.841 QT
-1.458 5.044 -1.74 5.044 QT
-2.036 5.044 -2.24 4.841 QT
-2.443 4.637 -2.443 4.356 QT
-2.443 3.794 -2.107 3.38 QT
-1.771 2.966 -1.24 2.755 QT
-0.708 2.544 -0.177 2.544 QT
0.229 2.544 0.667 2.661 QT
1.104 2.778 1.456 2.997 QT
1.807 3.216 2.034 3.559 QT
2.26 3.903 2.26 4.341 QT
2.26 4.887 2.018 5.348 QT
1.776 5.809 1.346 6.145 QT
0.917 6.481 0.417 6.653 QT
0.979 6.762 1.487 7.075 QT
1.995 7.387 2.299 7.887 QT
2.604 8.387 2.604 8.95 QT
2.604 9.669 2.214 10.247 QT
1.823 10.825 1.182 11.153 QT
0.542 11.481 -0.177 11.481 QT
-0.786 11.481 -1.396 11.255 QT
-2.005 11.028 -2.396 10.559 QT
-2.786 10.091 -2.786 9.45 QT
-2.786 9.122 -2.568 8.911 QT
-2.349 8.7 -2.036 8.7 QT
-1.818 8.7 -1.646 8.794 QT
-1.474 8.887 -1.372 9.067 QT
-1.271 9.247 -1.271 9.45 QT
-1.271 9.762 -1.497 9.981 QT
-1.724 10.2 -2.036 10.2 QT
-2.099 10.2 L
cp}def
f1773559075
f
GR
GS
[0.75 0 0 0.75 328.8 133.25] CT
0.149 GC
N
f-1844528368
f
GR
GS
[0.75 0 0 0.75 362.77501 133.25] CT
0.149 GC
N
f64805956
f
GR
GS
[0.75 0 0 0.75 362.77501 133.25] CT
0.149 GC
N
/f700788237{-2.974 9.059 M
-2.974 8.591 L
1.042 2.606 L
1.089 2.544 1.182 2.544 QT
1.37 2.544 L
1.51 2.544 1.51 2.684 QT
1.51 8.591 L
2.792 8.591 L
2.792 9.059 L
1.51 9.059 L
1.51 10.325 L
1.51 10.591 1.893 10.669 QT
2.276 10.747 2.776 10.747 QT
2.776 11.2 L
-0.802 11.2 L
-0.802 10.747 L
-0.302 10.747 0.081 10.669 QT
0.464 10.591 0.464 10.325 QT
0.464 9.059 L
-2.974 9.059 L
cp
-2.536 8.591 M
0.542 8.591 L
0.542 3.997 L
-2.536 8.591 L
cp}def
f700788237
f
GR
GS
[0.75 0 0 0.75 362.77501 133.25] CT
0.149 GC
N
f-1844528368
f
GR
GS
[0.75 0 0 0.75 396.75 133.25] CT
0.149 GC
N
f64805956
f
GR
GS
[0.75 0 0 0.75 396.75 133.25] CT
0.149 GC
N
/f-1256051255{-2.208 9.716 M
-2.068 10.106 -1.794 10.419 QT
-1.521 10.731 -1.138 10.903 QT
-0.755 11.075 -0.349 11.075 QT
0.589 11.075 0.94 10.341 QT
1.292 9.606 1.292 8.575 QT
1.292 8.122 1.276 7.817 QT
1.26 7.512 1.198 7.216 QT
1.073 6.762 0.768 6.419 QT
0.464 6.075 0.026 6.075 QT
-0.411 6.075 -0.724 6.208 QT
-1.036 6.341 -1.232 6.52 QT
-1.427 6.7 -1.583 6.895 QT
-1.74 7.091 -1.771 7.106 QT
-1.911 7.106 L
-1.943 7.106 -1.997 7.067 QT
-2.052 7.028 -2.052 6.981 QT
-2.052 2.637 L
-2.052 2.606 -2.005 2.575 QT
-1.958 2.544 -1.911 2.544 QT
-1.88 2.544 L
-1.005 2.966 -0.021 2.966 QT
0.948 2.966 1.839 2.544 QT
1.885 2.544 L
1.917 2.544 1.956 2.575 QT
1.995 2.606 1.995 2.637 QT
1.995 2.762 L
1.995 2.825 1.979 2.825 QT
1.526 3.419 0.854 3.747 QT
0.182 4.075 -0.521 4.075 QT
-1.052 4.075 -1.599 3.934 QT
-1.599 6.387 L
-1.161 6.044 -0.826 5.895 QT
-0.49 5.747 0.042 5.747 QT
0.76 5.747 1.331 6.153 QT
1.901 6.559 2.206 7.223 QT
2.51 7.887 2.51 8.591 QT
2.51 9.372 2.128 10.036 QT
1.745 10.7 1.081 11.091 QT
0.417 11.481 -0.349 11.481 QT
-0.99 11.481 -1.529 11.153 QT
-2.068 10.825 -2.38 10.27 QT
-2.693 9.716 -2.693 9.075 QT
-2.693 8.794 -2.497 8.606 QT
-2.302 8.419 -2.021 8.419 QT
-1.74 8.419 -1.544 8.606 QT
-1.349 8.794 -1.349 9.075 QT
-1.349 9.356 -1.544 9.552 QT
-1.74 9.747 -2.021 9.747 QT
-2.068 9.747 -2.122 9.739 QT
-2.177 9.731 -2.208 9.716 QT
cp}def
f-1256051255
f
GR
GS
[0.75 0 0 0.75 396.75 133.25] CT
0.149 GC
N
f-1844528368
f
GR
GS
[0.75 0 0 0.75 226.87516 147] CT
0.149 GC
N
/f-2035873689{-17.034 12.32 M
-17.034 11.789 L
-16.534 11.789 -16.206 11.711 QT
-15.878 11.632 -15.878 11.32 QT
-15.878 6.382 L
-17.019 6.382 L
-17.019 5.851 L
-15.878 5.851 L
-15.878 4.054 L
-15.878 3.57 -15.675 3.148 QT
-15.472 2.726 -15.128 2.414 QT
-14.784 2.101 -14.339 1.922 QT
-13.894 1.742 -13.425 1.742 QT
-12.925 1.742 -12.519 2.047 QT
-12.112 2.351 -12.112 2.836 QT
-12.112 3.132 -12.3 3.328 QT
-12.487 3.523 -12.784 3.523 QT
-13.065 3.523 -13.269 3.328 QT
-13.472 3.132 -13.472 2.836 QT
-13.472 2.367 -13.065 2.211 QT
-13.3 2.132 -13.503 2.132 QT
-13.94 2.132 -14.253 2.445 QT
-14.565 2.757 -14.714 3.203 QT
-14.862 3.648 -14.862 4.086 QT
-14.862 5.851 L
-13.144 5.851 L
-13.144 6.382 L
-14.815 6.382 L
-14.815 11.32 L
-14.815 11.617 -14.378 11.703 QT
-13.94 11.789 -13.362 11.789 QT
-13.362 12.32 L
-17.034 12.32 L
cp}def
f-2035873689
f
GR
GS
[0.75 0 0 0.75 226.87516 147] CT
0.149 GC
N
/f2028202385{-6.383 16.07 M
-6.383 1.07 L
-4.32 1.07 L
-4.32 1.664 L
-5.773 1.664 L
-5.773 15.476 L
-4.32 15.476 L
-4.32 16.07 L
-6.383 16.07 L
cp}def
f2028202385
f
GR
GS
[0.75 0 0 0.75 226.87516 147] CT
0.149 GC
N
/f-374141431{-3.605 12.32 M
-3.605 11.789 L
-2.074 11.789 -2.074 11.32 QT
-2.074 3.07 L
-2.074 2.601 -3.605 2.601 QT
-3.605 2.07 L
0.879 2.07 L
0.879 2.601 L
-0.668 2.601 -0.668 3.07 QT
-0.668 6.726 L
3.754 6.726 L
3.754 3.07 L
3.754 2.601 2.207 2.601 QT
2.207 2.07 L
6.692 2.07 L
6.692 2.601 L
5.16 2.601 5.16 3.07 QT
5.16 11.32 L
5.16 11.789 6.692 11.789 QT
6.692 12.32 L
2.207 12.32 L
2.207 11.789 L
3.754 11.789 3.754 11.32 QT
3.754 7.257 L
-0.668 7.257 L
-0.668 11.32 L
-0.668 11.789 0.879 11.789 QT
0.879 12.32 L
-3.605 12.32 L
cp}def
f-374141431
f
GR
GS
[0.75 0 0 0.75 226.87516 147] CT
0.149 GC
N
/f-353581992{7.52 12.32 M
7.348 12.32 7.348 12.148 QT
7.348 12.039 L
7.348 11.976 7.395 11.929 QT
11.582 6.242 L
10.223 6.242 L
9.598 6.242 9.184 6.328 QT
8.77 6.414 8.496 6.632 QT
8.223 6.851 8.106 7.242 QT
7.988 7.632 7.988 8.336 QT
7.551 8.336 L
7.723 5.851 L
12.754 5.851 L
12.817 5.851 12.863 5.898 QT
12.91 5.945 12.91 6.023 QT
12.91 6.101 L
12.91 6.148 12.879 6.211 QT
8.692 11.882 L
10.113 11.882 L
10.77 11.882 11.207 11.804 QT
11.645 11.726 11.957 11.414 QT
12.238 11.132 12.34 10.648 QT
12.442 10.164 12.504 9.461 QT
12.942 9.461 L
12.676 12.32 L
7.52 12.32 L
cp}def
f-353581992
f
GR
GS
[0.75 0 0 0.75 226.87516 147] CT
0.149 GC
N
/f-1726549143{13.773 16.07 M
13.773 15.476 L
15.226 15.476 L
15.226 1.664 L
13.773 1.664 L
13.773 1.07 L
15.835 1.07 L
15.835 16.07 L
13.773 16.07 L
cp}def
f-1726549143
f
GR
GS
[0.75 0 0 0.75 0 0.25] CT
0.149 GC
2 setlinecap
1 LJ
0.667 LW
N
76 172 M
76 16 L
S
GR
GS
[0.75 0 0 0.75 0 0.25] CT
0.149 GC
2 setlinecap
1 LJ
0.667 LW
N
529 172 M
529 16 L
S
GR
GS
[0.75 0 0 0.75 0 0.25] CT
0.149 GC
2 setlinecap
1 LJ
0.667 LW
N
76 172 M
80.53 172 L
S
GR
GS
[0.75 0 0 0.75 0 0.25] CT
0.149 GC
2 setlinecap
1 LJ
0.667 LW
N
76 143.636 M
80.53 143.636 L
S
GR
GS
[0.75 0 0 0.75 0 0.25] CT
0.149 GC
2 setlinecap
1 LJ
0.667 LW
N
76 115.273 M
80.53 115.273 L
S
GR
GS
[0.75 0 0 0.75 0 0.25] CT
0.149 GC
2 setlinecap
1 LJ
0.667 LW
N
76 86.909 M
80.53 86.909 L
S
GR
GS
[0.75 0 0 0.75 0 0.25] CT
0.149 GC
2 setlinecap
1 LJ
0.667 LW
N
76 58.545 M
80.53 58.545 L
S
GR
GS
[0.75 0 0 0.75 0 0.25] CT
0.149 GC
2 setlinecap
1 LJ
0.667 LW
N
76 30.182 M
80.53 30.182 L
S
GR
GS
[0.75 0 0 0.75 0 0.25] CT
0.149 GC
2 setlinecap
1 LJ
0.667 LW
N
529 172 M
524.47 172 L
S
GR
GS
[0.75 0 0 0.75 0 0.25] CT
0.149 GC
2 setlinecap
1 LJ
0.667 LW
N
529 143.636 M
524.47 143.636 L
S
GR
GS
[0.75 0 0 0.75 0 0.25] CT
0.149 GC
2 setlinecap
1 LJ
0.667 LW
N
529 115.273 M
524.47 115.273 L
S
GR
GS
[0.75 0 0 0.75 0 0.25] CT
0.149 GC
2 setlinecap
1 LJ
0.667 LW
N
529 86.909 M
524.47 86.909 L
S
GR
GS
[0.75 0 0 0.75 0 0.25] CT
0.149 GC
2 setlinecap
1 LJ
0.667 LW
N
529 58.545 M
524.47 58.545 L
S
GR
GS
[0.75 0 0 0.75 0 0.25] CT
0.149 GC
2 setlinecap
1 LJ
0.667 LW
N
529 30.182 M
524.47 30.182 L
S
GR
GS
[0.75 0 0 0.75 53 129.25] CT
0.149 GC
N
/f-2026418800{-3.417 3.481 M
-5.01 3.481 -5.581 2.169 QT
-6.151 0.856 -6.151 -0.941 QT
-6.151 -2.081 -5.948 -3.073 QT
-5.745 -4.066 -5.135 -4.761 QT
-4.526 -5.456 -3.417 -5.456 QT
-2.557 -5.456 -2.01 -5.042 QT
-1.464 -4.628 -1.182 -3.964 QT
-0.901 -3.3 -0.792 -2.542 QT
-0.682 -1.784 -0.682 -0.941 QT
-0.682 0.169 -0.893 1.145 QT
-1.104 2.122 -1.706 2.802 QT
-2.307 3.481 -3.417 3.481 QT
cp
-3.417 3.153 M
-2.698 3.153 -2.339 2.411 QT
-1.979 1.669 -1.901 0.762 QT
-1.823 -0.144 -1.823 -1.159 QT
-1.823 -2.128 -1.901 -2.956 QT
-1.979 -3.784 -2.331 -4.456 QT
-2.682 -5.128 -3.417 -5.128 QT
-4.151 -5.128 -4.51 -4.448 QT
-4.87 -3.769 -4.948 -2.948 QT
-5.026 -2.128 -5.026 -1.159 QT
-5.026 -0.425 -4.995 0.216 QT
-4.964 0.856 -4.807 1.536 QT
-4.651 2.216 -4.315 2.684 QT
-3.979 3.153 -3.417 3.153 QT
cp}def
f-2026418800
f
GR
GS
[0.75 0 0 0.75 53 107.97728] CT
0.149 GC
N
/f-1217475840{-13.787 3.481 M
-15.381 3.481 -15.951 2.169 QT
-16.521 0.856 -16.521 -0.941 QT
-16.521 -2.081 -16.318 -3.073 QT
-16.115 -4.066 -15.506 -4.761 QT
-14.896 -5.456 -13.787 -5.456 QT
-12.928 -5.456 -12.381 -5.042 QT
-11.834 -4.628 -11.553 -3.964 QT
-11.271 -3.3 -11.162 -2.542 QT
-11.053 -1.784 -11.053 -0.941 QT
-11.053 0.169 -11.264 1.145 QT
-11.475 2.122 -12.076 2.802 QT
-12.678 3.481 -13.787 3.481 QT
cp
-13.787 3.153 M
-13.068 3.153 -12.709 2.411 QT
-12.35 1.669 -12.271 0.762 QT
-12.193 -0.144 -12.193 -1.159 QT
-12.193 -2.128 -12.271 -2.956 QT
-12.35 -3.784 -12.701 -4.456 QT
-13.053 -5.128 -13.787 -5.128 QT
-14.521 -5.128 -14.881 -4.448 QT
-15.24 -3.769 -15.318 -2.948 QT
-15.396 -2.128 -15.396 -1.159 QT
-15.396 -0.425 -15.365 0.216 QT
-15.334 0.856 -15.178 1.536 QT
-15.021 2.216 -14.686 2.684 QT
-14.35 3.153 -13.787 3.153 QT
cp}def
f-1217475840
f
GR
GS
[0.75 0 0 0.75 53 107.97728] CT
0.149 GC
N
/f-751558118{-9.277 2.481 M
-9.277 2.184 -9.058 1.981 QT
-8.839 1.778 -8.558 1.778 QT
-8.386 1.778 -8.214 1.872 QT
-8.042 1.966 -7.949 2.137 QT
-7.855 2.309 -7.855 2.481 QT
-7.855 2.762 -8.066 2.981 QT
-8.277 3.2 -8.558 3.2 QT
-8.839 3.2 -9.058 2.981 QT
-9.277 2.762 -9.277 2.481 QT
cp}def
f-751558118
f
GR
GS
[0.75 0 0 0.75 53 107.97728] CT
0.149 GC
N
/f-1507413402{-6.026 3.2 M
-6.026 2.856 L
-6.026 2.825 -5.995 2.778 QT
-3.979 0.544 L
-3.51 0.044 -3.229 -0.292 QT
-2.948 -0.628 -2.667 -1.066 QT
-2.385 -1.503 -2.221 -1.956 QT
-2.057 -2.409 -2.057 -2.909 QT
-2.057 -3.441 -2.26 -3.933 QT
-2.464 -4.425 -2.854 -4.714 QT
-3.245 -5.003 -3.792 -5.003 QT
-4.354 -5.003 -4.807 -4.659 QT
-5.26 -4.316 -5.448 -3.784 QT
-5.385 -3.8 -5.307 -3.8 QT
-5.01 -3.8 -4.807 -3.605 QT
-4.604 -3.409 -4.604 -3.097 QT
-4.604 -2.8 -4.807 -2.589 QT
-5.01 -2.378 -5.307 -2.378 QT
-5.604 -2.378 -5.815 -2.589 QT
-6.026 -2.8 -6.026 -3.097 QT
-6.026 -3.581 -5.839 -4.011 QT
-5.651 -4.441 -5.307 -4.769 QT
-4.964 -5.097 -4.526 -5.277 QT
-4.089 -5.456 -3.604 -5.456 QT
-2.854 -5.456 -2.214 -5.144 QT
-1.573 -4.831 -1.198 -4.253 QT
-0.823 -3.675 -0.823 -2.909 QT
-0.823 -2.347 -1.073 -1.839 QT
-1.323 -1.331 -1.706 -0.917 QT
-2.089 -0.503 -2.698 0.028 QT
-3.307 0.559 -3.495 0.731 QT
-4.964 2.153 L
-3.714 2.153 L
-2.792 2.153 -2.174 2.137 QT
-1.557 2.122 -1.526 2.075 QT
-1.37 1.919 -1.214 0.887 QT
-0.823 0.887 L
-1.198 3.2 L
-6.026 3.2 L
cp}def
f-1507413402
f
GR
GS
[0.75 0 0 0.75 53 86.70455] CT
0.149 GC
N
f-1217475840
f
GR
GS
[0.75 0 0 0.75 53 86.70455] CT
0.149 GC
N
f-751558118
f
GR
GS
[0.75 0 0 0.75 53 86.70455] CT
0.149 GC
N
/f-1633144563{-6.307 1.059 M
-6.307 0.591 L
-2.292 -5.394 L
-2.245 -5.456 -2.151 -5.456 QT
-1.964 -5.456 L
-1.823 -5.456 -1.823 -5.316 QT
-1.823 0.591 L
-0.542 0.591 L
-0.542 1.059 L
-1.823 1.059 L
-1.823 2.325 L
-1.823 2.591 -1.44 2.669 QT
-1.057 2.747 -0.557 2.747 QT
-0.557 3.2 L
-4.135 3.2 L
-4.135 2.747 L
-3.635 2.747 -3.253 2.669 QT
-2.87 2.591 -2.87 2.325 QT
-2.87 1.059 L
-6.307 1.059 L
cp
-5.87 0.591 M
-2.792 0.591 L
-2.792 -4.003 L
-5.87 0.591 L
cp}def
f-1633144563
f
GR
GS
[0.75 0 0 0.75 53 65.43182] CT
0.149 GC
N
f-1217475840
f
GR
GS
[0.75 0 0 0.75 53 65.43182] CT
0.149 GC
N
f-751558118
f
GR
GS
[0.75 0 0 0.75 53 65.43182] CT
0.149 GC
N
/f-2003826503{-3.417 3.481 M
-4.229 3.481 -4.768 3.052 QT
-5.307 2.622 -5.596 1.942 QT
-5.885 1.262 -6.003 0.512 QT
-6.12 -0.238 -6.12 -1.003 QT
-6.12 -2.034 -5.721 -3.066 QT
-5.323 -4.097 -4.542 -4.777 QT
-3.76 -5.456 -2.698 -5.456 QT
-2.26 -5.456 -1.87 -5.292 QT
-1.479 -5.128 -1.26 -4.8 QT
-1.042 -4.472 -1.042 -4.003 QT
-1.042 -3.738 -1.229 -3.558 QT
-1.417 -3.378 -1.682 -3.378 QT
-1.932 -3.378 -2.112 -3.558 QT
-2.292 -3.738 -2.292 -4.003 QT
-2.292 -4.253 -2.112 -4.441 QT
-1.932 -4.628 -1.682 -4.628 QT
-1.604 -4.628 L
-1.776 -4.863 -2.073 -4.972 QT
-2.37 -5.081 -2.698 -5.081 QT
-3.089 -5.081 -3.424 -4.909 QT
-3.76 -4.738 -4.026 -4.448 QT
-4.292 -4.159 -4.471 -3.808 QT
-4.651 -3.456 -4.745 -3.003 QT
-4.839 -2.55 -4.87 -2.159 QT
-4.901 -1.769 -4.901 -1.175 QT
-4.667 -1.706 -4.245 -2.042 QT
-3.823 -2.378 -3.307 -2.378 QT
-2.729 -2.378 -2.253 -2.144 QT
-1.776 -1.909 -1.432 -1.495 QT
-1.089 -1.081 -0.909 -0.55 QT
-0.729 -0.019 -0.729 0.528 QT
-0.729 1.294 -1.065 1.981 QT
-1.401 2.669 -2.018 3.075 QT
-2.635 3.481 -3.417 3.481 QT
cp
-3.417 3.075 M
-2.917 3.075 -2.612 2.848 QT
-2.307 2.622 -2.167 2.239 QT
-2.026 1.856 -1.987 1.473 QT
-1.948 1.091 -1.948 0.528 QT
-1.948 -0.206 -2.018 -0.722 QT
-2.089 -1.238 -2.401 -1.636 QT
-2.714 -2.034 -3.354 -2.034 QT
-3.885 -2.034 -4.221 -1.683 QT
-4.557 -1.331 -4.714 -0.784 QT
-4.87 -0.238 -4.87 0.262 QT
-4.87 0.434 -4.854 0.528 QT
-4.854 0.544 -4.862 0.552 QT
-4.87 0.559 -4.87 0.591 QT
-4.87 1.137 -4.753 1.708 QT
-4.635 2.278 -4.315 2.677 QT
-3.995 3.075 -3.417 3.075 QT
cp}def
f-2003826503
f
GR
GS
[0.75 0 0 0.75 53 44.15909] CT
0.149 GC
N
f-1217475840
f
GR
GS
[0.75 0 0 0.75 53 44.15909] CT
0.149 GC
N
f-751558118
f
GR
GS
[0.75 0 0 0.75 53 44.15909] CT
0.149 GC
N
/f-974058328{-6.12 1.231 M
-6.12 0.45 -5.604 -0.152 QT
-5.089 -0.753 -4.292 -1.159 QT
-4.776 -1.472 L
-5.214 -1.753 -5.495 -2.238 QT
-5.776 -2.722 -5.776 -3.269 QT
-5.776 -3.878 -5.448 -4.386 QT
-5.12 -4.894 -4.573 -5.175 QT
-4.026 -5.456 -3.417 -5.456 QT
-2.839 -5.456 -2.299 -5.222 QT
-1.76 -4.988 -1.417 -4.55 QT
-1.073 -4.113 -1.073 -3.503 QT
-1.073 -3.066 -1.276 -2.691 QT
-1.479 -2.316 -1.839 -2.019 QT
-2.198 -1.722 -2.604 -1.519 QT
-1.87 -1.034 L
-1.354 -0.706 -1.042 -0.159 QT
-0.729 0.387 -0.729 0.997 QT
-0.729 1.7 -1.104 2.278 QT
-1.479 2.856 -2.104 3.169 QT
-2.729 3.481 -3.417 3.481 QT
-4.089 3.481 -4.714 3.208 QT
-5.339 2.934 -5.729 2.419 QT
-6.12 1.903 -6.12 1.231 QT
cp
-5.417 1.231 M
-5.417 1.747 -5.135 2.169 QT
-4.854 2.591 -4.385 2.833 QT
-3.917 3.075 -3.417 3.075 QT
-2.667 3.075 -2.049 2.63 QT
-1.432 2.184 -1.432 1.466 QT
-1.432 1.216 -1.526 0.973 QT
-1.62 0.731 -1.799 0.528 QT
-1.979 0.325 -2.198 0.2 QT
-3.932 -0.925 L
-4.339 -0.722 -4.682 -0.386 QT
-5.026 -0.05 -5.221 0.356 QT
-5.417 0.762 -5.417 1.231 QT
cp
-4.526 -2.738 M
-2.948 -1.722 L
-2.401 -2.05 -2.049 -2.495 QT
-1.698 -2.941 -1.698 -3.503 QT
-1.698 -3.941 -1.948 -4.308 QT
-2.198 -4.675 -2.589 -4.878 QT
-2.979 -5.081 -3.432 -5.081 QT
-3.823 -5.081 -4.221 -4.933 QT
-4.62 -4.784 -4.878 -4.48 QT
-5.135 -4.175 -5.135 -3.769 QT
-5.135 -3.159 -4.526 -2.738 QT
cp}def
f-974058328
f
GR
GS
[0.75 0 0 0.75 53 22.88636] CT
0.149 GC
N
/f-1405947355{-5.464 3.2 M
-5.464 2.747 L
-3.839 2.747 -3.839 2.325 QT
-3.839 -4.488 L
-4.51 -4.175 -5.542 -4.175 QT
-5.542 -4.628 L
-3.948 -4.628 -3.135 -5.456 QT
-2.948 -5.456 L
-2.901 -5.456 -2.862 -5.425 QT
-2.823 -5.394 -2.823 -5.347 QT
-2.823 2.325 L
-2.823 2.747 -1.198 2.747 QT
-1.198 3.2 L
-5.464 3.2 L
cp}def
f-1405947355
f
GR
GS
[0 -0.75 0.75 0 37.22218 70.74994] CT
0.149 GC
N
/f-1820171685{-36.858 -1.796 M
-36.858 -16.264 L
-36.858 -16.374 -36.764 -16.452 QT
-36.67 -16.53 -36.545 -16.53 QT
-36.436 -16.53 -36.342 -16.452 QT
-36.248 -16.374 -36.248 -16.264 QT
-36.248 -1.796 L
-36.248 -1.686 -36.342 -1.608 QT
-36.436 -1.53 -36.545 -1.53 QT
-36.67 -1.53 -36.764 -1.608 QT
-36.858 -1.686 -36.858 -1.796 QT
cp}def
f-1820171685
f
GR
GS
[0 -0.75 0.75 0 37.22218 70.74994] CT
0.149 GC
N
/f2043678715{-33.893 -5.28 M
-34.034 -5.28 -34.034 -5.483 QT
-33.971 -5.811 -33.846 -5.811 QT
-33.237 -5.811 -32.791 -6.053 QT
-32.346 -6.296 -32.034 -6.796 QT
-32.002 -6.827 -32.002 -6.827 QT
-26.643 -15.858 L
-26.534 -16.014 -26.362 -16.014 QT
-26.159 -16.014 L
-26.127 -16.014 -26.08 -15.999 QT
-26.034 -15.983 -26.002 -15.944 QT
-25.971 -15.905 -25.971 -15.858 QT
-25.065 -6.171 L
-25.065 -6.108 -24.987 -5.968 QT
-24.846 -5.811 -23.877 -5.811 QT
-23.721 -5.811 -23.721 -5.608 QT
-23.768 -5.405 -23.799 -5.343 QT
-23.83 -5.28 -23.971 -5.28 QT
-27.721 -5.28 L
-27.862 -5.28 -27.862 -5.483 QT
-27.784 -5.811 -27.659 -5.811 QT
-26.471 -5.811 -26.409 -6.218 QT
-26.627 -8.686 L
-30.33 -8.686 L
-31.534 -6.671 L
-31.643 -6.514 -31.643 -6.296 QT
-31.643 -6.03 -31.393 -5.921 QT
-31.143 -5.811 -30.83 -5.811 QT
-30.69 -5.811 -30.69 -5.608 QT
-30.737 -5.405 -30.768 -5.343 QT
-30.799 -5.28 -30.924 -5.28 QT
-33.893 -5.28 L
cp
-30.034 -9.218 M
-26.69 -9.218 L
-27.143 -14.077 L
-30.034 -9.218 L
cp}def
f2043678715
f
GR
GS
[0 -0.75 0.75 0 37.22218 70.74994] CT
0.149 GC
N
/f454938524{-22.409 -5.53 M
-22.409 -5.624 -22.393 -5.671 QT
-21.268 -10.139 L
-21.159 -10.561 -21.159 -10.874 QT
-21.159 -11.514 -21.596 -11.514 QT
-22.065 -11.514 -22.291 -10.96 QT
-22.518 -10.405 -22.737 -9.546 QT
-22.737 -9.499 -22.784 -9.475 QT
-22.83 -9.452 -22.862 -9.452 QT
-23.034 -9.452 L
-23.096 -9.452 -23.127 -9.507 QT
-23.159 -9.561 -23.159 -9.608 QT
-23.002 -10.249 -22.854 -10.702 QT
-22.705 -11.155 -22.385 -11.53 QT
-22.065 -11.905 -21.58 -11.905 QT
-21.018 -11.905 -20.588 -11.553 QT
-20.159 -11.202 -20.159 -10.655 QT
-19.705 -11.233 -19.112 -11.569 QT
-18.518 -11.905 -17.83 -11.905 QT
-17.127 -11.905 -16.612 -11.546 QT
-16.096 -11.186 -16.096 -10.514 QT
-15.627 -11.171 -15.01 -11.538 QT
-14.393 -11.905 -13.659 -11.905 QT
-12.893 -11.905 -12.416 -11.483 QT
-11.94 -11.061 -11.94 -10.296 QT
-11.94 -9.671 -12.213 -8.803 QT
-12.487 -7.936 -12.893 -6.858 QT
-13.112 -6.343 -13.112 -5.952 QT
-13.112 -5.514 -12.768 -5.514 QT
-12.174 -5.514 -11.784 -6.139 QT
-11.393 -6.764 -11.237 -7.483 QT
-11.19 -7.577 -11.112 -7.577 QT
-10.94 -7.577 L
-10.877 -7.577 -10.838 -7.538 QT
-10.799 -7.499 -10.799 -7.436 QT
-10.799 -7.421 -10.815 -7.389 QT
-11.018 -6.546 -11.526 -5.827 QT
-12.034 -5.108 -12.799 -5.108 QT
-13.33 -5.108 -13.698 -5.475 QT
-14.065 -5.843 -14.065 -6.358 QT
-14.065 -6.624 -13.955 -6.936 QT
-13.518 -8.077 -13.237 -8.96 QT
-12.955 -9.843 -12.955 -10.514 QT
-12.955 -10.936 -13.127 -11.225 QT
-13.299 -11.514 -13.69 -11.514 QT
-14.518 -11.514 -15.112 -11.014 QT
-15.705 -10.514 -16.159 -9.686 QT
-16.174 -9.546 -16.19 -9.468 QT
-17.159 -5.608 L
-17.221 -5.405 -17.401 -5.257 QT
-17.58 -5.108 -17.799 -5.108 QT
-17.971 -5.108 -18.104 -5.225 QT
-18.237 -5.343 -18.237 -5.53 QT
-18.237 -5.624 -18.221 -5.671 QT
-17.268 -9.499 L
-17.112 -10.108 -17.112 -10.514 QT
-17.112 -10.936 -17.284 -11.225 QT
-17.455 -11.514 -17.862 -11.514 QT
-18.409 -11.514 -18.877 -11.272 QT
-19.346 -11.03 -19.69 -10.632 QT
-20.034 -10.233 -20.315 -9.686 QT
-21.33 -5.608 L
-21.377 -5.405 -21.557 -5.257 QT
-21.737 -5.108 -21.955 -5.108 QT
-22.143 -5.108 -22.276 -5.225 QT
-22.409 -5.343 -22.409 -5.53 QT
cp}def
f454938524
f
GR
GS
[0 -0.75 0.75 0 37.22218 70.74994] CT
0.149 GC
N
/f534804175{-11.062 -2.374 M
-11.203 -2.374 -11.203 -2.561 QT
-11.156 -2.889 -11 -2.889 QT
-10.531 -2.889 -10.344 -2.975 QT
-10.156 -3.061 -10.062 -3.405 QT
-8.359 -10.155 L
-8.25 -10.436 -8.25 -10.874 QT
-8.25 -11.514 -8.687 -11.514 QT
-9.156 -11.514 -9.39 -10.96 QT
-9.625 -10.405 -9.828 -9.546 QT
-9.828 -9.452 -9.953 -9.452 QT
-10.125 -9.452 L
-10.172 -9.452 -10.211 -9.507 QT
-10.25 -9.561 -10.25 -9.608 QT
-10.094 -10.249 -9.945 -10.702 QT
-9.797 -11.155 -9.476 -11.53 QT
-9.156 -11.905 -8.687 -11.905 QT
-8.172 -11.905 -7.781 -11.616 QT
-7.39 -11.327 -7.281 -10.827 QT
-6.875 -11.311 -6.375 -11.608 QT
-5.875 -11.905 -5.344 -11.905 QT
-4.719 -11.905 -4.25 -11.569 QT
-3.781 -11.233 -3.547 -10.686 QT
-3.312 -10.139 -3.312 -9.514 QT
-3.312 -8.546 -3.812 -7.514 QT
-4.312 -6.483 -5.156 -5.796 QT
-6 -5.108 -6.969 -5.108 QT
-7.406 -5.108 -7.758 -5.358 QT
-8.109 -5.608 -8.312 -6.014 QT
-9 -3.343 L
-9.031 -3.124 -9.047 -3.093 QT
-9.047 -2.889 -8.047 -2.889 QT
-7.89 -2.889 -7.89 -2.702 QT
-7.953 -2.499 -7.984 -2.436 QT
-8.015 -2.374 -8.156 -2.374 QT
-11.062 -2.374 L
cp
-6.953 -5.514 M
-6.437 -5.514 -5.984 -5.936 QT
-5.531 -6.358 -5.265 -6.905 QT
-5.062 -7.296 -4.883 -7.882 QT
-4.703 -8.468 -4.57 -9.124 QT
-4.437 -9.78 -4.437 -10.171 QT
-4.437 -10.514 -4.523 -10.819 QT
-4.609 -11.124 -4.82 -11.319 QT
-5.031 -11.514 -5.375 -11.514 QT
-5.922 -11.514 -6.414 -11.124 QT
-6.906 -10.733 -7.297 -10.155 QT
-7.297 -10.108 L
-8.125 -6.796 L
-8.015 -6.264 -7.726 -5.889 QT
-7.437 -5.514 -6.953 -5.514 QT
cp}def
f534804175
f
GR
GS
[0 -0.75 0.75 0 37.22218 70.74994] CT
0.149 GC
N
/f-1774954356{-2.652 -6.499 M
-2.652 -6.546 -2.636 -6.632 QT
-2.621 -6.718 -2.613 -6.803 QT
-2.605 -6.889 -2.605 -6.921 QT
-0.746 -14.358 L
-0.683 -14.608 -0.668 -14.764 QT
-0.668 -14.999 -1.652 -14.999 QT
-1.793 -14.999 -1.793 -15.202 QT
-1.777 -15.233 -1.753 -15.327 QT
-1.73 -15.421 -1.691 -15.475 QT
-1.652 -15.53 -1.574 -15.53 QT
0.442 -15.686 L
0.629 -15.686 0.629 -15.499 QT
-1.543 -6.874 L
-1.652 -6.624 -1.652 -6.155 QT
-1.652 -5.514 -1.199 -5.514 QT
-0.746 -5.514 -0.511 -6.085 QT
-0.277 -6.655 -0.105 -7.483 QT
-0.074 -7.577 0.02 -7.577 QT
0.207 -7.577 L
0.254 -7.577 0.293 -7.53 QT
0.332 -7.483 0.332 -7.421 QT
0.161 -6.702 0.02 -6.28 QT
-0.121 -5.858 -0.433 -5.483 QT
-0.746 -5.108 -1.23 -5.108 QT
-1.839 -5.108 -2.246 -5.499 QT
-2.652 -5.889 -2.652 -6.499 QT
cp}def
f-1774954356
f
GR
GS
[0 -0.75 0.75 0 37.22218 70.74994] CT
0.149 GC
N
/f2133787575{2.529 -6.358 M
2.529 -6.639 2.654 -6.936 QT
3.857 -10.171 L
4.06 -10.718 4.06 -11.077 QT
4.06 -11.514 3.732 -11.514 QT
3.138 -11.514 2.755 -10.905 QT
2.372 -10.296 2.185 -9.546 QT
2.154 -9.452 2.06 -9.452 QT
1.888 -9.452 L
1.763 -9.452 1.763 -9.593 QT
1.763 -9.624 L
1.997 -10.53 2.497 -11.218 QT
2.997 -11.905 3.763 -11.905 QT
4.294 -11.905 4.661 -11.553 QT
5.029 -11.202 5.029 -10.671 QT
5.029 -10.389 4.904 -10.077 QT
3.7 -6.858 L
3.482 -6.358 3.482 -5.952 QT
3.482 -5.514 3.825 -5.514 QT
4.419 -5.514 4.81 -6.139 QT
5.2 -6.764 5.357 -7.483 QT
5.388 -7.577 5.482 -7.577 QT
5.669 -7.577 L
5.716 -7.577 5.755 -7.538 QT
5.794 -7.499 5.794 -7.436 QT
5.794 -7.421 5.779 -7.389 QT
5.575 -6.546 5.068 -5.827 QT
4.56 -5.108 3.81 -5.108 QT
3.279 -5.108 2.904 -5.475 QT
2.529 -5.843 2.529 -6.358 QT
cp
4.216 -14.374 M
4.216 -14.686 4.482 -14.944 QT
4.747 -15.202 5.06 -15.202 QT
5.325 -15.202 5.49 -15.046 QT
5.654 -14.889 5.654 -14.639 QT
5.654 -14.311 5.38 -14.053 QT
5.107 -13.796 4.794 -13.796 QT
4.544 -13.796 4.38 -13.96 QT
4.216 -14.124 4.216 -14.374 QT
cp}def
f2133787575
f
GR
GS
[0 -0.75 0.75 0 37.22218 70.74994] CT
0.149 GC
N
/f-1116668003{7.347 -6.499 M
7.347 -6.718 7.378 -6.921 QT
8.472 -11.218 L
6.894 -11.218 L
6.738 -11.218 6.738 -11.421 QT
6.8 -11.749 6.941 -11.749 QT
8.597 -11.749 L
9.206 -14.186 L
9.253 -14.389 9.433 -14.53 QT
9.613 -14.671 9.831 -14.671 QT
10.019 -14.671 10.152 -14.553 QT
10.285 -14.436 10.285 -14.249 QT
10.285 -14.202 10.277 -14.178 QT
10.269 -14.155 10.269 -14.124 QT
9.66 -11.749 L
11.206 -11.749 L
11.363 -11.749 11.363 -11.546 QT
11.347 -11.514 11.331 -11.428 QT
11.316 -11.343 11.277 -11.28 QT
11.238 -11.218 11.16 -11.218 QT
9.535 -11.218 L
8.456 -6.889 L
8.347 -6.452 8.347 -6.155 QT
8.347 -5.514 8.785 -5.514 QT
9.441 -5.514 9.949 -6.132 QT
10.456 -6.749 10.738 -7.483 QT
10.785 -7.577 10.847 -7.577 QT
11.035 -7.577 L
11.097 -7.577 11.128 -7.538 QT
11.16 -7.499 11.16 -7.436 QT
11.16 -7.405 11.144 -7.389 QT
10.816 -6.483 10.191 -5.796 QT
9.566 -5.108 8.753 -5.108 QT
8.16 -5.108 7.753 -5.499 QT
7.347 -5.889 7.347 -6.499 QT
cp}def
f-1116668003
f
GR
GS
[0 -0.75 0.75 0 37.22218 70.74994] CT
0.149 GC
N
/f-384074263{13.3 -6.921 M
13.3 -7.405 13.432 -7.921 QT
13.565 -8.436 13.8 -9.069 QT
14.034 -9.702 14.206 -10.171 QT
14.409 -10.718 14.409 -11.077 QT
14.409 -11.514 14.081 -11.514 QT
13.487 -11.514 13.104 -10.905 QT
12.721 -10.296 12.534 -9.546 QT
12.503 -9.452 12.409 -9.452 QT
12.237 -9.452 L
12.112 -9.452 12.112 -9.593 QT
12.112 -9.624 L
12.346 -10.53 12.846 -11.218 QT
13.346 -11.905 14.112 -11.905 QT
14.643 -11.905 15.011 -11.553 QT
15.378 -11.202 15.378 -10.671 QT
15.378 -10.389 15.253 -10.077 QT
15.19 -9.889 14.956 -9.28 QT
14.721 -8.671 14.596 -8.264 QT
14.471 -7.858 14.393 -7.468 QT
14.315 -7.077 14.315 -6.686 QT
14.315 -6.202 14.526 -5.858 QT
14.737 -5.514 15.221 -5.514 QT
16.175 -5.514 16.893 -6.686 QT
16.909 -6.749 16.925 -6.803 QT
16.94 -6.858 16.94 -6.921 QT
18.018 -11.264 L
18.065 -11.468 18.253 -11.608 QT
18.44 -11.749 18.643 -11.749 QT
18.831 -11.749 18.964 -11.632 QT
19.096 -11.514 19.096 -11.327 QT
19.096 -11.233 19.096 -11.202 QT
18.003 -6.889 L
17.909 -6.436 17.909 -6.155 QT
17.909 -5.514 18.331 -5.514 QT
18.815 -5.514 19.057 -6.108 QT
19.3 -6.702 19.456 -7.483 QT
19.487 -7.577 19.581 -7.577 QT
19.768 -7.577 L
19.815 -7.577 19.854 -7.522 QT
19.893 -7.468 19.893 -7.421 QT
19.737 -6.78 19.589 -6.319 QT
19.44 -5.858 19.112 -5.483 QT
18.784 -5.108 18.3 -5.108 QT
17.831 -5.108 17.456 -5.374 QT
17.081 -5.639 16.94 -6.077 QT
16.596 -5.639 16.143 -5.374 QT
15.69 -5.108 15.19 -5.108 QT
14.315 -5.108 13.807 -5.585 QT
13.3 -6.061 13.3 -6.921 QT
cp}def
f-384074263
f
GR
GS
[0 -0.75 0.75 0 37.22218 70.74994] CT
0.149 GC
N
/f1407341490{22.711 -5.108 M
21.758 -5.108 21.219 -5.827 QT
20.68 -6.546 20.68 -7.514 QT
20.68 -8.468 21.172 -9.507 QT
21.664 -10.546 22.516 -11.225 QT
23.368 -11.905 24.336 -11.905 QT
24.774 -11.905 25.133 -11.663 QT
25.493 -11.421 25.68 -11.014 QT
26.524 -14.358 L
26.586 -14.608 26.602 -14.764 QT
26.602 -14.999 25.618 -14.999 QT
25.477 -14.999 25.477 -15.202 QT
25.477 -15.233 25.5 -15.327 QT
25.524 -15.421 25.571 -15.475 QT
25.618 -15.53 25.68 -15.53 QT
27.711 -15.686 L
27.883 -15.686 27.883 -15.499 QT
25.727 -6.874 L
25.618 -6.624 25.618 -6.155 QT
25.618 -5.514 26.055 -5.514 QT
26.524 -5.514 26.774 -6.108 QT
27.024 -6.702 27.18 -7.483 QT
27.211 -7.577 27.305 -7.577 QT
27.493 -7.577 L
27.539 -7.577 27.578 -7.522 QT
27.618 -7.468 27.618 -7.421 QT
27.352 -6.374 27.039 -5.741 QT
26.727 -5.108 26.024 -5.108 QT
25.524 -5.108 25.133 -5.405 QT
24.743 -5.702 24.649 -6.202 QT
23.68 -5.108 22.711 -5.108 QT
cp
22.727 -5.514 M
23.274 -5.514 23.782 -5.921 QT
24.289 -6.327 24.649 -6.874 QT
24.664 -6.889 24.664 -6.921 QT
25.493 -10.233 L
25.399 -10.764 25.094 -11.139 QT
24.789 -11.514 24.305 -11.514 QT
23.789 -11.514 23.352 -11.1 QT
22.914 -10.686 22.618 -10.124 QT
22.336 -9.53 22.063 -8.483 QT
21.789 -7.436 21.789 -6.858 QT
21.789 -6.343 22.016 -5.928 QT
22.243 -5.514 22.727 -5.514 QT
cp}def
f1407341490
f
GR
GS
[0 -0.75 0.75 0 37.22218 70.74994] CT
0.149 GC
N
/f-991625897{30.751 -5.108 M
30.033 -5.108 29.494 -5.483 QT
28.954 -5.858 28.673 -6.491 QT
28.392 -7.124 28.392 -7.827 QT
28.392 -8.905 28.931 -9.843 QT
29.47 -10.78 30.392 -11.343 QT
31.314 -11.905 32.376 -11.905 QT
33.017 -11.905 33.494 -11.577 QT
33.97 -11.249 33.97 -10.624 QT
33.97 -9.749 33.283 -9.335 QT
32.595 -8.921 31.736 -8.819 QT
30.876 -8.718 29.829 -8.718 QT
29.783 -8.718 L
29.533 -7.827 29.533 -7.186 QT
29.533 -6.514 29.845 -6.014 QT
30.158 -5.514 30.783 -5.514 QT
31.673 -5.514 32.501 -5.921 QT
33.329 -6.327 33.845 -7.046 QT
33.892 -7.093 33.954 -7.093 QT
34.033 -7.093 34.111 -7.007 QT
34.189 -6.921 34.189 -6.858 QT
34.189 -6.796 34.158 -6.764 QT
33.611 -5.999 32.681 -5.553 QT
31.751 -5.108 30.751 -5.108 QT
cp
29.861 -9.108 M
30.736 -9.108 31.478 -9.186 QT
32.22 -9.264 32.822 -9.593 QT
33.423 -9.921 33.423 -10.608 QT
33.423 -10.889 33.267 -11.093 QT
33.111 -11.296 32.869 -11.405 QT
32.626 -11.514 32.361 -11.514 QT
31.72 -11.514 31.212 -11.171 QT
30.704 -10.827 30.376 -10.28 QT
30.048 -9.733 29.861 -9.108 QT
cp}def
f-991625897
f
GR
GS
[0 -0.75 0.75 0 37.22218 70.74994] CT
0.149 GC
N
/f1885346154{36.346 -1.796 M
36.346 -16.264 L
36.346 -16.374 36.44 -16.452 QT
36.534 -16.53 36.659 -16.53 QT
36.768 -16.53 36.862 -16.452 QT
36.956 -16.374 36.956 -16.264 QT
36.956 -1.796 L
36.956 -1.686 36.862 -1.608 QT
36.768 -1.53 36.659 -1.53 QT
36.534 -1.53 36.44 -1.608 QT
36.346 -1.686 36.346 -1.796 QT
cp}def
f1885346154
f
GR
GS
[0.75 0 0 0.75 0 0.25] CT
0.149 GC
1 LJ
0.667 LW
N
76 172 M
529 172 L
S
GR
GS
[0.75 0 0 0.75 0 0.25] CT
0 0.447 0.741 RC
1 LJ
0.667 LW
N
75.946 171.956 M
76 172 L
76.453 171.631 L
76.906 171.261 L
77.359 170.891 L
77.812 170.521 L
78.265 170.151 L
78.718 169.782 L
79.171 169.415 L
79.624 169.049 L
80.077 168.684 L
80.53 168.322 L
80.983 167.963 L
81.436 167.606 L
81.889 167.253 L
82.342 166.904 L
82.795 166.558 L
83.248 166.217 L
83.701 165.881 L
84.154 165.549 L
84.607 165.223 L
85.06 164.903 L
85.513 164.589 L
85.966 164.281 L
86.419 163.98 L
86.872 163.686 L
87.325 163.399 L
87.778 163.12 L
88.231 162.849 L
88.684 162.586 L
89.137 162.332 L
89.59 162.086 L
90.043 161.849 L
90.496 161.622 L
90.949 161.404 L
91.402 161.196 L
91.855 160.998 L
92.308 160.81 L
92.761 160.633 L
93.214 160.466 L
93.667 160.31 L
94.12 160.165 L
94.573 160.031 L
95.026 159.909 L
95.479 159.798 L
95.932 159.699 L
96.385 159.612 L
96.838 159.537 L
97.291 159.473 L
97.744 159.422 L
98.197 159.383 L
98.65 159.357 L
99.103 159.343 L
99.556 159.341 L
100.009 159.352 L
100.462 159.375 L
100.915 159.41 L
101.368 159.459 L
101.821 159.519 L
102.274 159.593 L
102.727 159.678 L
103.18 159.777 L
103.633 159.887 L
104.086 160.01 L
104.539 160.145 L
104.992 160.292 L
105.445 160.452 L
105.898 160.623 L
106.351 160.806 L
106.804 161 L
107.257 161.207 L
107.71 161.424 L
108.163 161.653 L
108.616 161.893 L
109.069 162.143 L
109.522 162.404 L
109.975 162.675 L
110.428 162.957 L
110.881 163.249 L
111.334 163.55 L
111.787 163.86 L
112.24 164.18 L
112.693 164.509 L
113.146 164.846 L
113.599 165.191 L
114.052 165.544 L
114.505 165.905 L
114.958 166.274 L
115.411 166.649 L
115.864 167.031 L
116.317 167.419 L
116.77 167.813 L
117.223 168.213 L
117.676 168.618 L
118.129 169.028 L
118.582 169.442 L
119.035 169.861 L
119.488 170.283 L
119.941 170.708 L
120.394 171.136 L
120.847 171.567 L
121.3 172 L
121.753 171.566 L
122.206 171.13 L
122.659 170.693 L
123.112 170.256 L
123.565 169.819 L
124.018 169.383 L
124.471 168.947 L
124.924 168.513 L
125.377 168.08 L
125.83 167.65 L
126.283 167.222 L
126.736 166.797 L
127.189 166.376 L
127.642 165.958 L
128.095 165.545 L
128.548 165.136 L
129.001 164.732 L
129.454 164.334 L
129.907 163.942 L
130.36 163.557 L
130.813 163.178 L
131.266 162.806 L
131.719 162.441 L
132.172 162.085 L
132.625 161.737 L
133.078 161.397 L
133.531 161.067 L
133.984 160.746 L
134.437 160.434 L
134.89 160.133 L
135.343 159.842 L
135.796 159.562 L
136.249 159.293 L
136.702 159.035 L
137.155 158.789 L
137.608 158.555 L
138.061 158.333 L
138.514 158.123 L
138.967 157.927 L
139.42 157.743 L
139.873 157.573 L
140.326 157.416 L
140.779 157.273 L
141.232 157.143 L
141.685 157.028 L
142.138 156.927 L
142.591 156.84 L
143.044 156.768 L
143.497 156.711 L
143.95 156.668 L
144.403 156.64 L
144.856 156.628 L
145.309 156.63 L
145.762 156.647 L
146.215 156.68 L
146.668 156.728 L
147.121 156.792 L
147.574 156.87 L
148.027 156.964 L
148.48 157.073 L
148.933 157.198 L
149.386 157.337 L
149.839 157.492 L
150.292 157.662 L
150.745 157.847 L
151.198 158.046 L
151.651 158.26 L
152.104 158.489 L
152.557 158.733 L
153.01 158.99 L
153.463 159.262 L
153.916 159.548 L
154.369 159.847 L
154.822 160.16 L
155.275 160.486 L
155.728 160.825 L
156.181 161.177 L
156.634 161.541 L
157.087 161.918 L
157.54 162.306 L
157.993 162.706 L
158.446 163.117 L
158.899 163.539 L
159.352 163.972 L
159.805 164.415 L
160.258 164.867 L
160.711 165.329 L
161.164 165.8 L
161.617 166.28 L
162.07 166.768 L
162.523 167.264 L
162.976 167.767 L
163.429 168.277 L
163.882 168.793 L
164.335 169.315 L
164.788 169.843 L
165.241 170.376 L
165.694 170.913 L
166.147 171.455 L
166.6 172 L
167.053 171.452 L
167.506 170.901 L
167.959 170.349 L
168.412 169.794 L
168.865 169.239 L
169.318 168.684 L
169.771 168.128 L
170.224 167.573 L
170.677 167.019 L
171.13 166.467 L
171.583 165.917 L
172.036 165.37 L
172.489 164.827 L
172.942 164.287 L
173.395 163.751 L
173.848 163.221 L
174.301 162.696 L
174.754 162.177 L
175.207 161.664 L
175.66 161.159 L
176.113 160.661 L
176.566 160.171 L
177.019 159.69 L
177.472 159.218 L
177.925 158.756 L
178.378 158.304 L
178.831 157.862 L
179.284 157.432 L
179.737 157.014 L
180.19 156.607 L
180.643 156.213 L
181.096 155.833 L
181.549 155.465 L
182.002 155.112 L
182.455 154.773 L
182.908 154.449 L
183.361 154.14 L
183.814 153.846 L
184.267 153.569 L
184.72 153.308 L
185.173 153.063 L
185.626 152.836 L
186.079 152.626 L
186.532 152.433 L
186.985 152.259 L
187.438 152.103 L
187.891 151.965 L
188.344 151.846 L
188.797 151.746 L
189.25 151.666 L
189.703 151.605 L
190.156 151.564 L
190.609 151.542 L
191.062 151.541 L
191.515 151.56 L
191.968 151.599 L
192.421 151.658 L
192.874 151.738 L
193.327 151.839 L
193.78 151.96 L
194.233 152.101 L
194.686 152.264 L
195.139 152.447 L
195.592 152.651 L
196.045 152.875 L
196.498 153.12 L
196.951 153.385 L
197.404 153.671 L
197.857 153.977 L
198.31 154.303 L
198.763 154.649 L
199.216 155.015 L
199.669 155.4 L
200.122 155.805 L
200.575 156.229 L
201.028 156.672 L
201.481 157.133 L
201.934 157.613 L
202.387 158.111 L
202.84 158.626 L
203.293 159.159 L
203.746 159.709 L
204.199 160.276 L
204.652 160.859 L
205.105 161.457 L
205.558 162.071 L
206.011 162.7 L
206.464 163.343 L
206.917 164.001 L
207.37 164.672 L
207.823 165.355 L
208.276 166.052 L
208.729 166.76 L
209.182 167.479 L
209.635 168.209 L
210.088 168.949 L
210.541 169.699 L
210.994 170.458 L
211.447 171.225 L
211.9 172 L
212.353 171.218 L
212.806 170.43 L
213.259 169.636 L
213.712 168.838 L
214.165 168.035 L
214.618 167.228 L
215.071 166.419 L
215.524 165.607 L
215.977 164.794 L
216.43 163.981 L
216.883 163.168 L
217.336 162.355 L
217.789 161.544 L
218.242 160.736 L
218.695 159.931 L
219.148 159.129 L
219.601 158.333 L
220.054 157.542 L
220.507 156.757 L
220.96 155.979 L
221.413 155.209 L
221.866 154.448 L
222.319 153.697 L
222.772 152.955 L
223.225 152.225 L
223.678 151.507 L
224.131 150.801 L
224.584 150.108 L
225.037 149.43 L
225.49 148.767 L
225.943 148.119 L
226.396 147.488 L
226.849 146.874 L
227.302 146.278 L
227.755 145.701 L
228.208 145.144 L
228.661 144.606 L
229.114 144.09 L
229.567 143.595 L
230.02 143.122 L
230.473 142.673 L
230.926 142.247 L
231.379 141.845 L
231.832 141.469 L
232.285 141.118 L
232.738 140.793 L
233.191 140.495 L
233.644 140.225 L
234.097 139.982 L
234.55 139.769 L
235.003 139.584 L
235.456 139.429 L
235.909 139.304 L
236.362 139.21 L
236.815 139.147 L
237.268 139.116 L
237.721 139.116 L
238.174 139.149 L
238.627 139.215 L
239.08 139.314 L
239.533 139.447 L
239.986 139.614 L
240.439 139.814 L
240.892 140.05 L
241.345 140.32 L
241.798 140.625 L
242.251 140.965 L
242.704 141.341 L
243.157 141.753 L
243.61 142.2 L
244.063 142.683 L
244.516 143.202 L
244.969 143.757 L
245.422 144.349 L
245.875 144.976 L
246.328 145.64 L
246.781 146.34 L
247.234 147.076 L
247.687 147.848 L
248.14 148.656 L
248.593 149.499 L
249.046 150.379 L
249.499 151.294 L
249.952 152.244 L
250.405 153.23 L
250.858 154.25 L
251.311 155.305 L
251.764 156.394 L
252.217 157.517 L
252.67 158.674 L
253.123 159.864 L
253.576 161.087 L
254.029 162.343 L
254.482 163.63 L
254.935 164.949 L
255.388 166.299 L
255.841 167.68 L
256.294 169.091 L
256.747 170.531 L
257.2 172 L
257.653 170.503 L
258.106 168.978 L
258.559 167.426 L
259.012 165.847 L
259.465 164.243 L
259.918 162.614 L
260.371 160.961 L
260.824 159.285 L
261.277 157.585 L
261.73 155.864 L
262.183 154.122 L
262.636 152.359 L
263.089 150.577 L
263.542 148.776 L
263.995 146.957 L
264.448 145.122 L
264.901 143.27 L
265.354 141.404 L
265.807 139.523 L
266.26 137.629 L
266.713 135.723 L
267.166 133.806 L
267.619 131.879 L
268.072 129.942 L
268.525 127.997 L
268.978 126.044 L
269.431 124.085 L
269.884 122.121 L
270.337 120.153 L
270.79 118.181 L
271.243 116.208 L
271.696 114.233 L
272.149 112.258 L
272.602 110.284 L
273.055 108.313 L
273.508 106.344 L
273.961 104.38 L
274.414 102.42 L
274.867 100.467 L
275.32 98.522 L
275.773 96.585 L
276.226 94.657 L
276.679 92.74 L
277.132 90.835 L
277.585 88.942 L
278.038 87.063 L
278.491 85.199 L
278.944 83.351 L
279.397 81.519 L
279.85 79.705 L
280.303 77.91 L
280.756 76.135 L
281.209 74.381 L
281.662 72.649 L
282.115 70.939 L
282.568 69.254 L
283.021 67.593 L
283.474 65.957 L
283.927 64.349 L
284.38 62.768 L
284.833 61.215 L
285.286 59.691 L
285.739 58.198 L
286.192 56.735 L
286.645 55.305 L
287.098 53.907 L
287.551 52.542 L
288.004 51.212 L
288.457 49.917 L
288.91 48.657 L
289.363 47.434 L
289.816 46.247 L
290.269 45.099 L
290.722 43.989 L
291.175 42.918 L
291.628 41.887 L
292.081 40.896 L
292.534 39.946 L
292.987 39.037 L
293.44 38.17 L
293.893 37.345 L
294.346 36.563 L
294.799 35.825 L
295.252 35.13 L
295.705 34.479 L
296.158 33.872 L
296.611 33.31 L
297.064 32.794 L
297.517 32.322 L
297.97 31.896 L
298.423 31.516 L
298.876 31.182 L
299.329 30.895 L
299.782 30.653 L
300.235 30.458 L
300.688 30.31 L
301.141 30.208 L
301.594 30.152 L
302.047 30.144 L
302.5 30.182 L
302.953 30.266 L
303.406 30.398 L
303.859 30.575 L
304.312 30.799 L
304.765 31.069 L
305.218 31.385 L
305.671 31.746 L
306.124 32.153 L
306.577 32.606 L
307.03 33.103 L
307.483 33.645 L
307.936 34.231 L
308.389 34.861 L
308.842 35.534 L
309.295 36.251 L
309.748 37.01 L
310.201 37.812 L
310.654 38.655 L
311.107 39.54 L
311.56 40.465 L
312.013 41.43 L
312.466 42.434 L
312.919 43.478 L
313.372 44.56 L
313.825 45.679 L
314.278 46.835 L
314.731 48.028 L
315.184 49.256 L
315.637 50.519 L
316.09 51.816 L
316.543 53.146 L
316.996 54.509 L
317.449 55.904 L
317.902 57.329 L
318.355 58.784 L
318.808 60.269 L
319.261 61.782 L
319.714 63.322 L
320.167 64.889 L
320.62 66.482 L
321.073 68.099 L
321.526 69.741 L
321.979 71.405 L
322.432 73.091 L
322.885 74.798 L
323.338 76.524 L
323.791 78.27 L
324.244 80.034 L
324.697 81.815 L
325.15 83.612 L
325.603 85.424 L
326.056 87.25 L
326.509 89.089 L
326.962 90.94 L
327.415 92.801 L
327.868 94.673 L
328.321 96.554 L
328.774 98.442 L
329.227 100.338 L
329.68 102.239 L
330.133 104.145 L
330.586 106.054 L
331.039 107.966 L
331.492 109.881 L
331.945 111.795 L
332.398 113.71 L
332.851 115.623 L
333.304 117.534 L
333.757 119.441 L
334.21 121.344 L
334.663 123.242 L
335.116 125.134 L
335.569 127.018 L
336.022 128.894 L
336.475 130.761 L
336.928 132.619 L
337.381 134.465 L
337.834 136.299 L
338.287 138.12 L
338.74 139.928 L
339.193 141.722 L
339.646 143.5 L
340.099 145.261 L
340.552 147.006 L
341.005 148.733 L
341.458 150.441 L
341.911 152.13 L
342.364 153.799 L
342.817 155.447 L
343.27 157.073 L
343.723 158.677 L
344.176 160.258 L
344.629 161.815 L
345.082 163.348 L
345.535 164.856 L
345.988 166.338 L
346.441 167.794 L
346.894 169.224 L
347.347 170.626 L
347.8 172 L
348.253 170.654 L
348.706 169.337 L
349.159 168.049 L
349.612 166.79 L
350.065 165.562 L
350.518 164.364 L
350.971 163.197 L
351.424 162.062 L
351.877 160.957 L
352.33 159.885 L
352.783 158.845 L
353.236 157.837 L
353.689 156.861 L
354.142 155.918 L
354.595 155.009 L
355.048 154.132 L
355.501 153.289 L
355.954 152.479 L
356.407 151.703 L
356.86 150.96 L
357.313 150.25 L
357.766 149.575 L
358.219 148.933 L
358.672 148.324 L
359.125 147.749 L
359.578 147.207 L
360.031 146.699 L
360.484 146.224 L
360.937 145.782 L
361.39 145.373 L
361.843 144.997 L
362.296 144.654 L
362.749 144.343 L
363.202 144.064 L
363.655 143.816 L
364.108 143.601 L
364.561 143.416 L
365.014 143.263 L
365.467 143.14 L
365.92 143.048 L
366.373 142.985 L
366.826 142.952 L
367.279 142.948 L
367.732 142.973 L
368.185 143.026 L
368.638 143.107 L
369.091 143.215 L
369.544 143.35 L
369.997 143.511 L
370.45 143.698 L
370.903 143.91 L
371.356 144.147 L
371.809 144.408 L
372.262 144.692 L
372.715 145 L
373.168 145.33 L
373.621 145.682 L
374.074 146.055 L
374.527 146.449 L
374.98 146.862 L
375.433 147.295 L
375.886 147.747 L
376.339 148.216 L
376.792 148.703 L
377.245 149.207 L
377.698 149.727 L
378.151 150.262 L
378.604 150.811 L
379.057 151.375 L
379.51 151.951 L
379.963 152.541 L
380.416 153.142 L
380.869 153.754 L
381.322 154.377 L
381.775 155.01 L
382.228 155.652 L
382.681 156.302 L
383.134 156.96 L
383.587 157.624 L
384.04 158.295 L
384.493 158.972 L
384.946 159.653 L
385.399 160.339 L
385.852 161.028 L
386.305 161.72 L
386.758 162.415 L
387.211 163.11 L
387.664 163.807 L
388.117 164.504 L
388.57 165.2 L
389.023 165.895 L
389.476 166.589 L
389.929 167.28 L
390.382 167.968 L
390.835 168.652 L
391.288 169.332 L
391.741 170.008 L
392.194 170.678 L
392.647 171.342 L
393.1 172 L
393.553 171.349 L
394.006 170.706 L
394.459 170.071 L
394.912 169.445 L
395.365 168.827 L
395.818 168.22 L
396.271 167.622 L
396.724 167.035 L
397.177 166.458 L
397.63 165.893 L
398.083 165.34 L
398.536 164.799 L
398.989 164.271 L
399.442 163.755 L
399.895 163.253 L
400.348 162.765 L
400.801 162.29 L
401.254 161.83 L
401.707 161.384 L
402.16 160.953 L
402.613 160.537 L
403.066 160.137 L
403.519 159.752 L
403.972 159.383 L
404.425 159.03 L
404.878 158.693 L
405.331 158.372 L
405.784 158.068 L
406.237 157.78 L
406.69 157.51 L
407.143 157.256 L
407.596 157.018 L
408.049 156.798 L
408.502 156.595 L
408.955 156.409 L
409.408 156.24 L
409.861 156.088 L
410.314 155.953 L
410.767 155.835 L
411.22 155.735 L
411.673 155.651 L
412.126 155.584 L
412.579 155.533 L
413.032 155.5 L
413.485 155.483 L
413.938 155.482 L
414.391 155.498 L
414.844 155.53 L
415.297 155.577 L
415.75 155.641 L
416.203 155.72 L
416.656 155.814 L
417.109 155.924 L
417.562 156.048 L
418.015 156.187 L
418.468 156.341 L
418.921 156.509 L
419.374 156.69 L
419.827 156.885 L
420.28 157.093 L
420.733 157.315 L
421.186 157.548 L
421.639 157.795 L
422.092 158.053 L
422.545 158.322 L
422.998 158.603 L
423.451 158.895 L
423.904 159.198 L
424.357 159.51 L
424.81 159.833 L
425.263 160.164 L
425.716 160.505 L
426.169 160.854 L
426.622 161.212 L
427.075 161.577 L
427.528 161.95 L
427.981 162.329 L
428.434 162.715 L
428.887 163.108 L
429.34 163.506 L
429.793 163.909 L
430.246 164.317 L
430.699 164.729 L
431.152 165.146 L
431.605 165.566 L
432.058 165.989 L
432.511 166.414 L
432.964 166.842 L
433.417 167.272 L
433.87 167.703 L
434.323 168.135 L
434.776 168.568 L
435.229 169.001 L
435.682 169.434 L
436.135 169.865 L
436.588 170.296 L
437.041 170.725 L
437.494 171.153 L
437.947 171.578 L
438.4 172 L
438.853 171.581 L
439.306 171.165 L
439.759 170.753 L
440.212 170.346 L
440.665 169.943 L
441.118 169.544 L
441.571 169.152 L
442.024 168.764 L
442.477 168.383 L
442.93 168.008 L
443.383 167.64 L
443.836 167.279 L
444.289 166.924 L
444.742 166.578 L
445.195 166.239 L
445.648 165.908 L
446.101 165.585 L
446.554 165.271 L
447.007 164.966 L
447.46 164.67 L
447.913 164.383 L
448.366 164.105 L
448.819 163.838 L
449.272 163.58 L
449.725 163.332 L
450.178 163.095 L
450.631 162.867 L
451.084 162.651 L
451.537 162.445 L
451.99 162.25 L
452.443 162.065 L
452.896 161.892 L
453.349 161.73 L
453.802 161.579 L
454.255 161.44 L
454.708 161.311 L
455.161 161.195 L
455.614 161.089 L
456.067 160.995 L
456.52 160.912 L
456.973 160.841 L
457.426 160.782 L
457.879 160.734 L
458.332 160.697 L
458.785 160.671 L
459.238 160.657 L
459.691 160.654 L
460.144 160.663 L
460.597 160.682 L
461.05 160.713 L
461.503 160.754 L
461.956 160.807 L
462.409 160.87 L
462.862 160.943 L
463.315 161.027 L
463.768 161.121 L
464.221 161.226 L
464.674 161.34 L
465.127 161.464 L
465.58 161.598 L
466.033 161.741 L
466.486 161.894 L
466.939 162.055 L
467.392 162.225 L
467.845 162.404 L
468.298 162.591 L
468.751 162.787 L
469.204 162.99 L
469.657 163.201 L
470.11 163.419 L
470.563 163.645 L
471.016 163.877 L
471.469 164.116 L
471.922 164.361 L
472.375 164.612 L
472.828 164.869 L
473.281 165.132 L
473.734 165.4 L
474.187 165.672 L
474.64 165.95 L
475.093 166.231 L
475.546 166.517 L
475.999 166.806 L
476.452 167.099 L
476.905 167.395 L
477.358 167.694 L
477.811 167.995 L
478.264 168.298 L
478.717 168.604 L
479.17 168.911 L
479.623 169.219 L
480.076 169.528 L
480.529 169.838 L
480.982 170.148 L
481.435 170.458 L
481.888 170.768 L
482.341 171.078 L
482.794 171.386 L
483.247 171.694 L
483.7 172 L
484.153 171.696 L
484.606 171.393 L
485.059 171.093 L
485.512 170.796 L
485.965 170.501 L
486.418 170.21 L
486.871 169.922 L
487.324 169.637 L
487.777 169.357 L
488.23 169.08 L
488.683 168.808 L
489.136 168.541 L
489.589 168.278 L
490.042 168.021 L
490.495 167.769 L
490.948 167.522 L
491.401 167.282 L
491.854 167.047 L
492.307 166.818 L
492.76 166.596 L
493.213 166.38 L
493.666 166.171 L
494.119 165.969 L
494.572 165.773 L
495.025 165.585 L
495.478 165.405 L
495.931 165.231 L
496.384 165.066 L
496.837 164.908 L
497.29 164.757 L
497.743 164.615 L
498.196 164.481 L
498.649 164.355 L
499.102 164.237 L
499.555 164.128 L
500.008 164.026 L
500.461 163.933 L
500.914 163.849 L
501.367 163.773 L
501.82 163.705 L
502.273 163.646 L
502.726 163.596 L
503.179 163.554 L
503.632 163.521 L
504.085 163.496 L
504.538 163.48 L
504.991 163.472 L
505.444 163.472 L
505.897 163.481 L
506.35 163.499 L
506.803 163.524 L
507.256 163.558 L
507.709 163.6 L
508.162 163.65 L
508.615 163.709 L
509.068 163.774 L
509.521 163.848 L
509.974 163.93 L
510.427 164.019 L
510.88 164.115 L
511.333 164.219 L
511.786 164.329 L
512.239 164.447 L
512.692 164.572 L
513.145 164.703 L
513.598 164.841 L
514.051 164.986 L
514.504 165.136 L
514.957 165.293 L
515.41 165.455 L
515.863 165.623 L
516.316 165.797 L
516.769 165.976 L
517.222 166.16 L
517.675 166.349 L
518.128 166.542 L
518.581 166.74 L
519.034 166.942 L
519.487 167.148 L
519.94 167.358 L
520.393 167.572 L
520.846 167.789 L
521.299 168.009 L
521.752 168.232 L
522.205 168.457 L
522.658 168.685 L
523.111 168.915 L
523.564 169.147 L
524.017 169.381 L
524.47 169.617 L
524.923 169.853 L
525.376 170.091 L
525.829 170.329 L
526.282 170.568 L
526.735 170.807 L
527.188 171.047 L
527.641 171.286 L
528.094 171.525 L
528.547 171.763 L
529 172 L
529.054 171.972 L
S
GR
GS
[0.75 0 0 0.75 57 129.25] CT
0.851 0.325 0.098 RC
10.0 ML
0.667 LW
N
3.5 -0.5 M
3.5 -2.709 1.709 -4.5 -0.5 -4.5 C
-2.709 -4.5 -4.5 -2.709 -4.5 -0.5 C
-4.5 1.709 -2.709 3.5 -0.5 3.5 C
1.709 3.5 3.5 1.709 3.5 -0.5 C
S
GR
GS
[0.75 0 0 0.75 90.975 129.25] CT
0.851 0.325 0.098 RC
10.0 ML
0.667 LW
N
3.5 -0.5 M
3.5 -2.709 1.709 -4.5 -0.5 -4.5 C
-2.709 -4.5 -4.5 -2.709 -4.5 -0.5 C
-4.5 1.709 -2.709 3.5 -0.5 3.5 C
1.709 3.5 3.5 1.709 3.5 -0.5 C
S
GR
GS
[0.75 0 0 0.75 124.95 129.25] CT
0.851 0.325 0.098 RC
10.0 ML
0.667 LW
N
3.5 -0.5 M
3.5 -2.709 1.709 -4.5 -0.5 -4.5 C
-2.709 -4.5 -4.5 -2.709 -4.5 -0.5 C
-4.5 1.709 -2.709 3.5 -0.5 3.5 C
1.709 3.5 3.5 1.709 3.5 -0.5 C
S
GR
GS
[0.75 0 0 0.75 158.925 129.25] CT
0.851 0.325 0.098 RC
10.0 ML
0.667 LW
N
3.5 -0.5 M
3.5 -2.709 1.709 -4.5 -0.5 -4.5 C
-2.709 -4.5 -4.5 -2.709 -4.5 -0.5 C
-4.5 1.709 -2.709 3.5 -0.5 3.5 C
1.709 3.5 3.5 1.709 3.5 -0.5 C
S
GR
GS
[0.75 0 0 0.75 192.90001 129.25] CT
0.851 0.325 0.098 RC
10.0 ML
0.667 LW
N
3.5 -0.5 M
3.5 -2.709 1.709 -4.5 -0.5 -4.5 C
-2.709 -4.5 -4.5 -2.709 -4.5 -0.5 C
-4.5 1.709 -2.709 3.5 -0.5 3.5 C
1.709 3.5 3.5 1.709 3.5 -0.5 C
S
GR
GS
[0.75 0 0 0.75 226.875 22.88636] CT
0.851 0.325 0.098 RC
10.0 ML
0.667 LW
N
3.5 -0.5 M
3.5 -2.709 1.709 -4.5 -0.5 -4.5 C
-2.709 -4.5 -4.5 -2.709 -4.5 -0.5 C
-4.5 1.709 -2.709 3.5 -0.5 3.5 C
1.709 3.5 3.5 1.709 3.5 -0.5 C
S
GR
GS
[0.75 0 0 0.75 260.84999 129.25] CT
0.851 0.325 0.098 RC
10.0 ML
0.667 LW
N
3.5 -0.5 M
3.5 -2.709 1.709 -4.5 -0.5 -4.5 C
-2.709 -4.5 -4.5 -2.709 -4.5 -0.5 C
-4.5 1.709 -2.709 3.5 -0.5 3.5 C
1.709 3.5 3.5 1.709 3.5 -0.5 C
S
GR
GS
[0.75 0 0 0.75 294.825 129.25] CT
0.851 0.325 0.098 RC
10.0 ML
0.667 LW
N
3.5 -0.5 M
3.5 -2.709 1.709 -4.5 -0.5 -4.5 C
-2.709 -4.5 -4.5 -2.709 -4.5 -0.5 C
-4.5 1.709 -2.709 3.5 -0.5 3.5 C
1.709 3.5 3.5 1.709 3.5 -0.5 C
S
GR
GS
[0.75 0 0 0.75 328.8 129.25] CT
0.851 0.325 0.098 RC
10.0 ML
0.667 LW
N
3.5 -0.5 M
3.5 -2.709 1.709 -4.5 -0.5 -4.5 C
-2.709 -4.5 -4.5 -2.709 -4.5 -0.5 C
-4.5 1.709 -2.709 3.5 -0.5 3.5 C
1.709 3.5 3.5 1.709 3.5 -0.5 C
S
GR
GS
[0.75 0 0 0.75 362.77501 129.25] CT
0.851 0.325 0.098 RC
10.0 ML
0.667 LW
N
3.5 -0.5 M
3.5 -2.709 1.709 -4.5 -0.5 -4.5 C
-2.709 -4.5 -4.5 -2.709 -4.5 -0.5 C
-4.5 1.709 -2.709 3.5 -0.5 3.5 C
1.709 3.5 3.5 1.709 3.5 -0.5 C
S
GR
GS
[0.75 0 0 0.75 396.75 129.25] CT
0.851 0.325 0.098 RC
10.0 ML
0.667 LW
N
3.5 -0.5 M
3.5 -2.709 1.709 -4.5 -0.5 -4.5 C
-2.709 -4.5 -4.5 -2.709 -4.5 -0.5 C
-4.5 1.709 -2.709 3.5 -0.5 3.5 C
1.709 3.5 3.5 1.709 3.5 -0.5 C
S
GR
GS
[0.75 0 0 0.75 0 0.25] CT
0.851 0.325 0.098 RC
1 LJ
0.667 LW
N
76 172 M
76 172 L
S
GR
GS
[0.75 0 0 0.75 0 0.25] CT
0.851 0.325 0.098 RC
1 LJ
0.667 LW
N
121.3 172 M
121.3 172 L
S
GR
GS
[0.75 0 0 0.75 0 0.25] CT
0.851 0.325 0.098 RC
1 LJ
0.667 LW
N
166.6 172 M
166.6 172 L
S
GR
GS
[0.75 0 0 0.75 0 0.25] CT
0.851 0.325 0.098 RC
1 LJ
0.667 LW
N
211.9 172 M
211.9 172 L
S
GR
GS
[0.75 0 0 0.75 0 0.25] CT
0.851 0.325 0.098 RC
1 LJ
0.667 LW
N
257.2 172 M
257.2 172 L
S
GR
GS
[0.75 0 0 0.75 0 0.25] CT
0.851 0.325 0.098 RC
1 LJ
0.667 LW
N
302.5 172 M
302.5 30.182 L
S
GR
GS
[0.75 0 0 0.75 0 0.25] CT
0.851 0.325 0.098 RC
1 LJ
0.667 LW
N
347.8 172 M
347.8 172 L
S
GR
GS
[0.75 0 0 0.75 0 0.25] CT
0.851 0.325 0.098 RC
1 LJ
0.667 LW
N
393.1 172 M
393.1 172 L
S
GR
GS
[0.75 0 0 0.75 0 0.25] CT
0.851 0.325 0.098 RC
1 LJ
0.667 LW
N
438.4 172 M
438.4 172 L
S
GR
GS
[0.75 0 0 0.75 0 0.25] CT
0.851 0.325 0.098 RC
1 LJ
0.667 LW
N
483.7 172 M
483.7 172 L
S
GR
GS
[0.75 0 0 0.75 0 0.25] CT
0.851 0.325 0.098 RC
1 LJ
0.667 LW
N
529 172 M
529 172 L
S
GR
GS
[0.75 0 0 0.75 72.92578 119.86053] CT
0.929 0.694 0.125 RC
10.0 ML
0.667 LW
N
3.5 -0.5 M
3.5 -2.709 1.709 -4.5 -0.5 -4.5 C
-2.709 -4.5 -4.5 -2.709 -4.5 -0.5 C
-4.5 1.709 -2.709 3.5 -0.5 3.5 C
1.709 3.5 3.5 1.709 3.5 -0.5 C
S
GR
GS
[0.75 0 0 0.75 99.46875 121.55252] CT
0.929 0.694 0.125 RC
10.0 ML
0.667 LW
N
3.5 -0.5 M
3.5 -2.709 1.709 -4.5 -0.5 -4.5 C
-2.709 -4.5 -4.5 -2.709 -4.5 -0.5 C
-4.5 1.709 -2.709 3.5 -0.5 3.5 C
1.709 3.5 3.5 1.709 3.5 -0.5 C
S
GR
GS
[0.75 0 0 0.75 126.01172 127.95953] CT
0.929 0.694 0.125 RC
10.0 ML
0.667 LW
N
3.5 -0.5 M
3.5 -2.709 1.709 -4.5 -0.5 -4.5 C
-2.709 -4.5 -4.5 -2.709 -4.5 -0.5 C
-4.5 1.709 -2.709 3.5 -0.5 3.5 C
1.709 3.5 3.5 1.709 3.5 -0.5 C
S
GR
GS
[0.75 0 0 0.75 152.55469 119.72143] CT
0.929 0.694 0.125 RC
10.0 ML
0.667 LW
N
3.5 -0.5 M
3.5 -2.709 1.709 -4.5 -0.5 -4.5 C
-2.709 -4.5 -4.5 -2.709 -4.5 -0.5 C
-4.5 1.709 -2.709 3.5 -0.5 3.5 C
1.709 3.5 3.5 1.709 3.5 -0.5 C
S
GR
GS
[0.75 0 0 0.75 179.09766 104.68628] CT
0.929 0.694 0.125 RC
10.0 ML
0.667 LW
N
3.5 -0.5 M
3.5 -2.709 1.709 -4.5 -0.5 -4.5 C
-2.709 -4.5 -4.5 -2.709 -4.5 -0.5 C
-4.5 1.709 -2.709 3.5 -0.5 3.5 C
1.709 3.5 3.5 1.709 3.5 -0.5 C
S
GR
GS
[0.75 0 0 0.75 205.64063 77.79943] CT
0.929 0.694 0.125 RC
10.0 ML
0.667 LW
N
3.5 -0.5 M
3.5 -2.709 1.709 -4.5 -0.5 -4.5 C
-2.709 -4.5 -4.5 -2.709 -4.5 -0.5 C
-4.5 1.709 -2.709 3.5 -0.5 3.5 C
1.709 3.5 3.5 1.709 3.5 -0.5 C
S
GR
GS
[0.75 0 0 0.75 232.18359 27.79057] CT
0.929 0.694 0.125 RC
10.0 ML
0.667 LW
N
3.5 -0.5 M
3.5 -2.709 1.709 -4.5 -0.5 -4.5 C
-2.709 -4.5 -4.5 -2.709 -4.5 -0.5 C
-4.5 1.709 -2.709 3.5 -0.5 3.5 C
1.709 3.5 3.5 1.709 3.5 -0.5 C
S
GR
GS
[0.75 0 0 0.75 258.72656 122.4752] CT
0.929 0.694 0.125 RC
10.0 ML
0.667 LW
N
3.5 -0.5 M
3.5 -2.709 1.709 -4.5 -0.5 -4.5 C
-2.709 -4.5 -4.5 -2.709 -4.5 -0.5 C
-4.5 1.709 -2.709 3.5 -0.5 3.5 C
1.709 3.5 3.5 1.709 3.5 -0.5 C
S
GR
GS
[0.75 0 0 0.75 285.26953 115.04969] CT
0.929 0.694 0.125 RC
10.0 ML
0.667 LW
N
3.5 -0.5 M
3.5 -2.709 1.709 -4.5 -0.5 -4.5 C
-2.709 -4.5 -4.5 -2.709 -4.5 -0.5 C
-4.5 1.709 -2.709 3.5 -0.5 3.5 C
1.709 3.5 3.5 1.709 3.5 -0.5 C
S
GR
GS
[0.75 0 0 0.75 311.8125 116.98057] CT
0.929 0.694 0.125 RC
10.0 ML
0.667 LW
N
3.5 -0.5 M
3.5 -2.709 1.709 -4.5 -0.5 -4.5 C
-2.709 -4.5 -4.5 -2.709 -4.5 -0.5 C
-4.5 1.709 -2.709 3.5 -0.5 3.5 C
1.709 3.5 3.5 1.709 3.5 -0.5 C
S
GR
GS
[0.75 0 0 0.75 338.35547 122.21835] CT
0.929 0.694 0.125 RC
10.0 ML
0.667 LW
N
3.5 -0.5 M
3.5 -2.709 1.709 -4.5 -0.5 -4.5 C
-2.709 -4.5 -4.5 -2.709 -4.5 -0.5 C
-4.5 1.709 -2.709 3.5 -0.5 3.5 C
1.709 3.5 3.5 1.709 3.5 -0.5 C
S
GR
GS
[0.75 0 0 0.75 364.89844 127.85307] CT
0.929 0.694 0.125 RC
10.0 ML
0.667 LW
N
3.5 -0.5 M
3.5 -2.709 1.709 -4.5 -0.5 -4.5 C
-2.709 -4.5 -4.5 -2.709 -4.5 -0.5 C
-4.5 1.709 -2.709 3.5 -0.5 3.5 C
1.709 3.5 3.5 1.709 3.5 -0.5 C
S
GR
GS
[0.75 0 0 0.75 391.44141 126.48687] CT
0.929 0.694 0.125 RC
10.0 ML
0.667 LW
N
3.5 -0.5 M
3.5 -2.709 1.709 -4.5 -0.5 -4.5 C
-2.709 -4.5 -4.5 -2.709 -4.5 -0.5 C
-4.5 1.709 -2.709 3.5 -0.5 3.5 C
1.709 3.5 3.5 1.709 3.5 -0.5 C
S
GR
GS
[0.75 0 0 0.75 0 0.25] CT
0.929 0.694 0.125 RC
1 LJ
0.667 LW
N
97.234 172 M
97.234 159.481 L
S
GR
GS
[0.75 0 0 0.75 0 0.25] CT
0.929 0.694 0.125 RC
1 LJ
0.667 LW
N
132.625 172 M
132.625 161.737 L
S
GR
GS
[0.75 0 0 0.75 0 0.25] CT
0.929 0.694 0.125 RC
1 LJ
0.667 LW
N
168.016 172 M
168.016 170.279 L
S
GR
GS
[0.75 0 0 0.75 0 0.25] CT
0.929 0.694 0.125 RC
1 LJ
0.667 LW
N
203.406 172 M
203.406 159.295 L
S
GR
GS
[0.75 0 0 0.75 0 0.25] CT
0.929 0.694 0.125 RC
1 LJ
0.667 LW
N
238.797 172 M
238.797 139.248 L
S
GR
GS
[0.75 0 0 0.75 0 0.25] CT
0.929 0.694 0.125 RC
1 LJ
0.667 LW
N
274.188 172 M
274.188 103.399 L
S
GR
GS
[0.75 0 0 0.75 0 0.25] CT
0.929 0.694 0.125 RC
1 LJ
0.667 LW
N
309.578 172 M
309.578 36.721 L
S
GR
GS
[0.75 0 0 0.75 0 0.25] CT
0.929 0.694 0.125 RC
1 LJ
0.667 LW
N
344.969 172 M
344.969 162.967 L
S
GR
GS
[0.75 0 0 0.75 0 0.25] CT
0.929 0.694 0.125 RC
1 LJ
0.667 LW
N
380.359 172 M
380.359 153.066 L
S
GR
GS
[0.75 0 0 0.75 0 0.25] CT
0.929 0.694 0.125 RC
1 LJ
0.667 LW
N
415.75 172 M
415.75 155.641 L
S
GR
GS
[0.75 0 0 0.75 0 0.25] CT
0.929 0.694 0.125 RC
1 LJ
0.667 LW
N
451.141 172 M
451.141 162.624 L
S
GR
GS
[0.75 0 0 0.75 0 0.25] CT
0.929 0.694 0.125 RC
1 LJ
0.667 LW
N
486.531 172 M
486.531 170.137 L
S
GR
GS
[0.75 0 0 0.75 0 0.25] CT
0.929 0.694 0.125 RC
1 LJ
0.667 LW
N
521.922 172 M
521.922 168.316 L
S
GR
GS
[0.75 0 0 0.75 0 0.25] CT
1 GC
N
391 78 M
391 29 L
516 29 L
516 78 L
cp
f
GR
GS
[0.75 0 0 0.75 321.01112 29.01452] CT
N
/f1073215010{0.375 2.88 M
0.375 2.458 L
1.609 2.458 1.609 2.083 QT
1.609 -4.511 L
1.609 -4.901 0.375 -4.901 QT
0.375 -5.323 L
6.984 -5.323 L
7.313 -2.573 L
6.969 -2.573 L
6.891 -3.323 6.75 -3.761 QT
6.609 -4.198 6.352 -4.448 QT
6.094 -4.698 5.648 -4.8 QT
5.203 -4.901 4.438 -4.901 QT
3.328 -4.901 L
3.125 -4.901 3 -4.878 QT
2.875 -4.854 2.797 -4.776 QT
2.719 -4.698 2.719 -4.511 QT
2.719 -1.433 L
3.578 -1.433 L
4.188 -1.433 4.477 -1.542 QT
4.766 -1.651 4.875 -1.933 QT
4.984 -2.214 4.984 -2.839 QT
5.328 -2.839 L
5.328 0.396 L
4.984 0.396 L
4.984 -0.214 4.875 -0.503 QT
4.766 -0.792 4.477 -0.901 QT
4.188 -1.011 3.578 -1.011 QT
2.719 -1.011 L
2.719 2.083 L
2.719 2.458 4.266 2.458 QT
4.266 2.88 L
0.375 2.88 L
cp}def
f1073215010
f
GR
GS
[0.75 0 0 0.75 321.01112 29.01452] CT
N
/f1468245274{9.865 2.88 M
9.865 2.458 L
10.458 2.458 11.029 2.388 QT
11.599 2.317 11.599 2.083 QT
11.599 -4.511 L
11.599 -4.776 11.458 -4.839 QT
11.318 -4.901 10.99 -4.901 QT
10.49 -4.901 L
9.505 -4.901 9.083 -4.464 QT
8.865 -4.245 8.771 -3.768 QT
8.677 -3.292 8.615 -2.573 QT
8.271 -2.573 L
8.49 -5.323 L
15.833 -5.323 L
16.052 -2.573 L
15.708 -2.573 L
15.63 -3.339 15.544 -3.792 QT
15.458 -4.245 15.24 -4.464 QT
14.818 -4.901 13.833 -4.901 QT
13.333 -4.901 L
13.115 -4.901 12.997 -4.878 QT
12.88 -4.854 12.802 -4.776 QT
12.724 -4.698 12.724 -4.511 QT
12.724 2.083 L
12.724 2.317 13.294 2.388 QT
13.865 2.458 14.458 2.458 QT
14.458 2.88 L
9.865 2.88 L
cp}def
f1468245274
f
GR
GS
[0.75 0 0 0.75 0 0.25] CT
0 0.447 0.741 RC
1 LJ
0.667 LW
N
395.002 38.353 M
425.014 38.353 L
S
GR
GS
[0.75 0 0 0.75 321.01112 40.375] CT
N
/f-1994808563{0.406 2.88 M
0.406 2.458 L
1.641 2.458 1.641 2.083 QT
1.641 -4.511 L
1.641 -4.901 0.406 -4.901 QT
0.406 -5.323 L
4.828 -5.323 L
5.641 -5.323 6.32 -4.964 QT
7 -4.604 7.484 -4.018 QT
7.969 -3.433 8.227 -2.683 QT
8.484 -1.933 8.484 -1.136 QT
8.484 -0.386 8.219 0.333 QT
7.953 1.052 7.461 1.63 QT
6.969 2.208 6.289 2.544 QT
5.609 2.88 4.828 2.88 QT
0.406 2.88 L
cp
2.719 2.083 M
2.719 2.333 2.859 2.396 QT
3 2.458 3.328 2.458 QT
4.516 2.458 L
5.125 2.458 5.68 2.192 QT
6.234 1.927 6.594 1.442 QT
6.984 0.942 7.109 0.317 QT
7.234 -0.308 7.234 -1.136 QT
7.234 -2.011 7.109 -2.667 QT
6.984 -3.323 6.594 -3.839 QT
6.234 -4.354 5.688 -4.628 QT
5.141 -4.901 4.516 -4.901 QT
3.328 -4.901 L
3.109 -4.901 2.984 -4.878 QT
2.859 -4.854 2.789 -4.776 QT
2.719 -4.698 2.719 -4.511 QT
2.719 2.083 L
cp}def
f-1994808563
f
GR
GS
[0.75 0 0 0.75 321.01112 40.375] CT
N
/f-1978141898{9.542 2.88 M
9.542 2.458 L
10.776 2.458 10.776 2.083 QT
10.776 -4.511 L
10.776 -4.901 9.542 -4.901 QT
9.542 -5.323 L
16.151 -5.323 L
16.479 -2.573 L
16.135 -2.573 L
16.057 -3.323 15.917 -3.761 QT
15.776 -4.198 15.518 -4.448 QT
15.26 -4.698 14.815 -4.8 QT
14.37 -4.901 13.604 -4.901 QT
12.495 -4.901 L
12.292 -4.901 12.167 -4.878 QT
12.042 -4.854 11.964 -4.776 QT
11.885 -4.698 11.885 -4.511 QT
11.885 -1.433 L
12.745 -1.433 L
13.354 -1.433 13.643 -1.542 QT
13.932 -1.651 14.042 -1.933 QT
14.151 -2.214 14.151 -2.839 QT
14.495 -2.839 L
14.495 0.396 L
14.151 0.396 L
14.151 -0.214 14.042 -0.503 QT
13.932 -0.792 13.643 -0.901 QT
13.354 -1.011 12.745 -1.011 QT
11.885 -1.011 L
11.885 2.083 L
11.885 2.458 13.432 2.458 QT
13.432 2.88 L
9.542 2.88 L
cp}def
f-1978141898
f
GR
GS
[0.75 0 0 0.75 321.01112 40.375] CT
N
/f-2002952167{19.031 2.88 M
19.031 2.458 L
19.625 2.458 20.195 2.388 QT
20.766 2.317 20.766 2.083 QT
20.766 -4.511 L
20.766 -4.776 20.625 -4.839 QT
20.484 -4.901 20.156 -4.901 QT
19.656 -4.901 L
18.672 -4.901 18.25 -4.464 QT
18.031 -4.245 17.938 -3.768 QT
17.844 -3.292 17.781 -2.573 QT
17.438 -2.573 L
17.656 -5.323 L
25 -5.323 L
25.219 -2.573 L
24.875 -2.573 L
24.797 -3.339 24.711 -3.792 QT
24.625 -4.245 24.406 -4.464 QT
23.984 -4.901 23 -4.901 QT
22.5 -4.901 L
22.281 -4.901 22.164 -4.878 QT
22.047 -4.854 21.969 -4.776 QT
21.891 -4.698 21.891 -4.511 QT
21.891 2.083 L
21.891 2.317 22.461 2.388 QT
23.031 2.458 23.625 2.458 QT
23.625 2.88 L
19.031 2.88 L
cp}def
f-2002952167
f
GR
GS
[0.75 0 0 0.75 321.01112 40.375] CT
N
/f1324929801{33.385 5.864 M
32.714 5.333 32.237 4.646 QT
31.76 3.958 31.448 3.185 QT
31.135 2.411 30.987 1.567 QT
30.839 0.724 30.839 -0.12 QT
30.839 -0.979 30.987 -1.823 QT
31.135 -2.667 31.448 -3.448 QT
31.76 -4.229 32.253 -4.909 QT
32.745 -5.589 33.385 -6.104 QT
33.385 -6.12 33.448 -6.12 QT
33.557 -6.12 L
33.589 -6.12 33.62 -6.089 QT
33.651 -6.058 33.651 -6.011 QT
33.651 -5.964 33.635 -5.933 QT
33.042 -5.37 32.651 -4.714 QT
32.26 -4.058 32.026 -3.315 QT
31.792 -2.573 31.682 -1.776 QT
31.573 -0.979 31.573 -0.12 QT
31.573 3.692 33.62 5.677 QT
33.651 5.708 33.651 5.771 QT
33.651 5.802 33.62 5.841 QT
33.589 5.88 33.557 5.88 QT
33.448 5.88 L
33.385 5.88 33.385 5.864 QT
cp}def
f1324929801
f
GR
GS
[0.75 0 0 0.75 321.01112 40.375] CT
N
/f-14022258{34.896 2.88 M
34.787 2.88 34.787 2.724 QT
34.787 2.692 34.802 2.622 QT
34.818 2.552 34.849 2.505 QT
34.88 2.458 34.927 2.458 QT
36.083 2.458 36.271 1.724 QT
37.896 -4.839 L
37.568 -4.901 36.849 -4.901 QT
36.724 -4.901 36.724 -5.058 QT
36.724 -5.089 36.747 -5.159 QT
36.771 -5.229 36.802 -5.276 QT
36.833 -5.323 36.88 -5.323 QT
38.958 -5.323 L
39.037 -5.323 39.068 -5.245 QT
41.724 1.099 L
43.052 -4.214 L
43.083 -4.339 43.083 -4.386 QT
43.083 -4.901 42.162 -4.901 QT
42.037 -4.901 42.037 -5.058 QT
42.083 -5.214 42.107 -5.268 QT
42.13 -5.323 42.24 -5.323 QT
44.818 -5.323 L
44.927 -5.323 44.927 -5.167 QT
44.927 -5.136 44.904 -5.058 QT
44.88 -4.979 44.849 -4.94 QT
44.818 -4.901 44.771 -4.901 QT
43.63 -4.901 43.443 -4.167 QT
41.724 2.771 L
41.677 2.88 41.599 2.88 QT
41.443 2.88 L
41.365 2.88 41.349 2.802 QT
38.287 -4.464 L
38.255 -4.542 L
38.24 -4.558 38.24 -4.573 QT
36.646 1.771 L
36.63 1.802 36.63 1.849 QT
36.63 1.896 36.615 1.958 QT
36.615 2.271 36.88 2.364 QT
37.146 2.458 37.552 2.458 QT
37.662 2.458 37.662 2.614 QT
37.63 2.786 37.599 2.833 QT
37.568 2.88 37.474 2.88 QT
34.896 2.88 L
cp}def
f-14022258
f
GR
GS
[0.75 0 0 0.75 321.01112 40.375] CT
N
/f-1149220251{49.523 1.286 M
49.413 1.286 49.351 1.208 QT
49.288 1.13 49.288 1.052 QT
49.288 0.942 49.351 0.872 QT
49.413 0.802 49.523 0.802 QT
57.054 0.802 L
57.148 0.802 57.21 0.872 QT
57.273 0.942 57.273 1.052 QT
57.273 1.13 57.21 1.208 QT
57.148 1.286 57.054 1.286 QT
49.523 1.286 L
cp
49.523 -1.042 M
49.413 -1.042 49.351 -1.112 QT
49.288 -1.183 49.288 -1.292 QT
49.288 -1.37 49.351 -1.448 QT
49.413 -1.526 49.523 -1.526 QT
57.054 -1.526 L
57.148 -1.526 57.21 -1.448 QT
57.273 -1.37 57.273 -1.292 QT
57.273 -1.183 57.21 -1.112 QT
57.148 -1.042 57.054 -1.042 QT
49.523 -1.042 L
cp}def
f-1149220251
f
GR
GS
[0.75 0 0 0.75 321.01112 40.375] CT
N
/f1907004903{62.393 2.88 M
62.393 2.458 L
63.893 2.458 63.893 2.083 QT
63.893 -4.229 L
63.283 -3.917 62.33 -3.917 QT
62.33 -4.339 L
63.799 -4.339 64.549 -5.12 QT
64.721 -5.12 L
64.752 -5.12 64.791 -5.081 QT
64.83 -5.042 64.83 -5.011 QT
64.83 2.083 L
64.83 2.458 66.33 2.458 QT
66.33 2.88 L
62.393 2.88 L
cp}def
f1907004903
f
GR
GS
[0.75 0 0 0.75 321.01112 40.375] CT
N
/f406722773{70.283 3.146 M
68.814 3.146 68.283 1.935 QT
67.752 0.724 67.752 -0.948 QT
67.752 -1.995 67.939 -2.909 QT
68.127 -3.823 68.697 -4.472 QT
69.268 -5.12 70.283 -5.12 QT
71.08 -5.12 71.58 -4.729 QT
72.08 -4.339 72.346 -3.729 QT
72.611 -3.12 72.705 -2.417 QT
72.799 -1.714 72.799 -0.948 QT
72.799 0.083 72.611 0.982 QT
72.424 1.88 71.869 2.513 QT
71.314 3.146 70.283 3.146 QT
cp
70.283 2.833 M
70.955 2.833 71.283 2.146 QT
71.611 1.458 71.689 0.63 QT
71.768 -0.198 71.768 -1.136 QT
71.768 -2.042 71.689 -2.808 QT
71.611 -3.573 71.283 -4.19 QT
70.955 -4.808 70.283 -4.808 QT
69.611 -4.808 69.283 -4.183 QT
68.955 -3.558 68.877 -2.8 QT
68.799 -2.042 68.799 -1.136 QT
68.799 -0.479 68.83 0.114 QT
68.861 0.708 69.002 1.341 QT
69.143 1.974 69.455 2.403 QT
69.768 2.833 70.283 2.833 QT
cp}def
f406722773
f
GR
GS
[0.75 0 0 0.75 321.01112 40.375] CT
N
/f-1851973049{76.283 3.146 M
74.815 3.146 74.283 1.935 QT
73.752 0.724 73.752 -0.948 QT
73.752 -1.995 73.94 -2.909 QT
74.127 -3.823 74.697 -4.472 QT
75.268 -5.12 76.283 -5.12 QT
77.08 -5.12 77.58 -4.729 QT
78.08 -4.339 78.346 -3.729 QT
78.611 -3.12 78.705 -2.417 QT
78.799 -1.714 78.799 -0.948 QT
78.799 0.083 78.611 0.982 QT
78.424 1.88 77.869 2.513 QT
77.315 3.146 76.283 3.146 QT
cp
76.283 2.833 M
76.955 2.833 77.283 2.146 QT
77.611 1.458 77.69 0.63 QT
77.768 -0.198 77.768 -1.136 QT
77.768 -2.042 77.69 -2.808 QT
77.611 -3.573 77.283 -4.19 QT
76.955 -4.808 76.283 -4.808 QT
75.611 -4.808 75.283 -4.183 QT
74.955 -3.558 74.877 -2.8 QT
74.799 -2.042 74.799 -1.136 QT
74.799 -0.479 74.83 0.114 QT
74.861 0.708 75.002 1.341 QT
75.143 1.974 75.455 2.403 QT
75.768 2.833 76.283 2.833 QT
cp}def
f-1851973049
f
GR
GS
[0.75 0 0 0.75 321.01112 40.375] CT
N
/f1820979699{80.065 5.88 M
79.955 5.88 79.955 5.771 QT
79.955 5.724 79.986 5.692 QT
82.033 3.692 82.033 -0.12 QT
82.033 -3.933 80.002 -5.917 QT
79.955 -5.948 79.955 -6.011 QT
79.955 -6.058 79.986 -6.089 QT
80.018 -6.12 80.065 -6.12 QT
80.174 -6.12 L
80.205 -6.12 80.236 -6.104 QT
81.096 -5.417 81.666 -4.448 QT
82.236 -3.479 82.51 -2.378 QT
82.783 -1.276 82.783 -0.12 QT
82.783 0.724 82.635 1.552 QT
82.486 2.38 82.174 3.177 QT
81.861 3.974 81.385 4.653 QT
80.908 5.333 80.236 5.864 QT
80.205 5.88 80.174 5.88 QT
80.065 5.88 L
cp}def
f1820979699
f
GR
GS
[0.75 0 0 0.75 0 0.25] CT
0.851 0.325 0.098 RC
1 LJ
0.667 LW
N
395.002 53.5 M
416.01 53.5 L
S
GR
GS
[0.75 0 0 0.75 312.00751 40.375] CT
0.851 0.325 0.098 RC
10.0 ML
0.667 LW
N
3.5 -0.5 M
3.5 -2.709 1.709 -4.5 -0.5 -4.5 C
-2.709 -4.5 -4.5 -2.709 -4.5 -0.5 C
-4.5 1.709 -2.709 3.5 -0.5 3.5 C
1.709 3.5 3.5 1.709 3.5 -0.5 C
S
GR
GS
[0.75 0 0 0.75 321.01112 51.73548] CT
N
f-1994808563
f
GR
GS
[0.75 0 0 0.75 321.01112 51.73548] CT
N
f-1978141898
f
GR
GS
[0.75 0 0 0.75 321.01112 51.73548] CT
N
f-2002952167
f
GR
GS
[0.75 0 0 0.75 321.01112 51.73548] CT
N
f1324929801
f
GR
GS
[0.75 0 0 0.75 321.01112 51.73548] CT
N
f-14022258
f
GR
GS
[0.75 0 0 0.75 321.01112 51.73548] CT
N
f-1149220251
f
GR
GS
[0.75 0 0 0.75 321.01112 51.73548] CT
N
f1907004903
f
GR
GS
[0.75 0 0 0.75 321.01112 51.73548] CT
N
/f1628339320{67.877 2.88 M
67.877 2.552 L
67.877 2.521 67.908 2.489 QT
69.768 0.427 L
70.189 -0.026 70.455 -0.339 QT
70.721 -0.651 70.979 -1.058 QT
71.236 -1.464 71.385 -1.878 QT
71.533 -2.292 71.533 -2.761 QT
71.533 -3.261 71.354 -3.706 QT
71.174 -4.151 70.814 -4.425 QT
70.455 -4.698 69.939 -4.698 QT
69.424 -4.698 69.002 -4.378 QT
68.58 -4.058 68.408 -3.573 QT
68.455 -3.573 68.549 -3.573 QT
68.814 -3.573 69.002 -3.393 QT
69.189 -3.214 69.189 -2.933 QT
69.189 -2.651 69.002 -2.464 QT
68.814 -2.276 68.549 -2.276 QT
68.268 -2.276 68.072 -2.472 QT
67.877 -2.667 67.877 -2.933 QT
67.877 -3.386 68.049 -3.776 QT
68.221 -4.167 68.541 -4.479 QT
68.861 -4.792 69.26 -4.956 QT
69.658 -5.12 70.111 -5.12 QT
70.799 -5.12 71.393 -4.823 QT
71.986 -4.526 72.33 -4.003 QT
72.674 -3.479 72.674 -2.761 QT
72.674 -2.245 72.447 -1.776 QT
72.221 -1.308 71.861 -0.925 QT
71.502 -0.542 70.947 -0.05 QT
70.393 0.442 70.221 0.599 QT
68.861 1.911 L
70.002 1.911 L
70.861 1.911 71.432 1.896 QT
72.002 1.88 72.033 1.849 QT
72.174 1.692 72.33 0.739 QT
72.674 0.739 L
72.33 2.88 L
67.877 2.88 L
cp}def
f1628339320
f
GR
GS
[0.75 0 0 0.75 321.01112 51.73548] CT
N
/f398916813{73.783 1.052 M
73.783 0.333 74.26 -0.222 QT
74.736 -0.776 75.486 -1.136 QT
75.033 -1.433 L
74.627 -1.698 74.369 -2.143 QT
74.111 -2.589 74.111 -3.089 QT
74.111 -3.667 74.416 -4.128 QT
74.721 -4.589 75.221 -4.854 QT
75.721 -5.12 76.283 -5.12 QT
76.815 -5.12 77.315 -4.901 QT
77.815 -4.683 78.127 -4.276 QT
78.44 -3.87 78.44 -3.308 QT
78.44 -2.917 78.252 -2.565 QT
78.065 -2.214 77.736 -1.94 QT
77.408 -1.667 77.033 -1.479 QT
77.721 -1.042 L
78.19 -0.729 78.479 -0.222 QT
78.768 0.286 78.768 0.833 QT
78.768 1.489 78.416 2.021 QT
78.065 2.552 77.494 2.849 QT
76.924 3.146 76.283 3.146 QT
75.658 3.146 75.08 2.896 QT
74.502 2.646 74.143 2.161 QT
73.783 1.677 73.783 1.052 QT
cp
74.44 1.052 M
74.44 1.536 74.697 1.927 QT
74.955 2.317 75.385 2.536 QT
75.815 2.755 76.283 2.755 QT
76.986 2.755 77.549 2.349 QT
78.111 1.942 78.111 1.271 QT
78.111 1.052 78.025 0.825 QT
77.94 0.599 77.775 0.411 QT
77.611 0.224 77.408 0.114 QT
75.799 -0.933 L
75.424 -0.729 75.111 -0.425 QT
74.799 -0.12 74.619 0.255 QT
74.44 0.63 74.44 1.052 QT
cp
75.268 -2.604 M
76.721 -1.667 L
77.221 -1.964 77.541 -2.378 QT
77.861 -2.792 77.861 -3.308 QT
77.861 -3.714 77.635 -4.05 QT
77.408 -4.386 77.049 -4.573 QT
76.69 -4.761 76.268 -4.761 QT
75.908 -4.761 75.541 -4.62 QT
75.174 -4.479 74.932 -4.206 QT
74.69 -3.933 74.69 -3.558 QT
74.69 -2.995 75.268 -2.604 QT
cp}def
f398916813
f
GR
GS
[0.75 0 0 0.75 321.01112 51.73548] CT
N
f1820979699
f
GR
GS
[0.75 0 0 0.75 0 0.25] CT
0.929 0.694 0.125 RC
1 LJ
0.667 LW
N
395.002 68.647 M
416.01 68.647 L
S
GR
GS
[0.75 0 0 0.75 312.00751 51.73548] CT
0.929 0.694 0.125 RC
10.0 ML
0.667 LW
N
3.5 -0.5 M
3.5 -2.709 1.709 -4.5 -0.5 -4.5 C
-2.709 -4.5 -4.5 -2.709 -4.5 -0.5 C
-4.5 1.709 -2.709 3.5 -0.5 3.5 C
1.709 3.5 3.5 1.709 3.5 -0.5 C
S
GR
GS
[0.75 0 0 0.75 0 0.25] CT
0.149 GC
10.0 ML
0.667 LW
N
391 78 M
391 29 L
516 29 L
516 78 L
cp
S
GR
%%Trailer
%%Pages: 1
%%EOF
