%!PS-Adobe-3.0 EPSF-3.0
%%Creator: (MATLAB, The Mathworks, Inc. Version 9.1.0.441655 \(R2016b\). Operating System: Windows 8)
%%Title: ../Dokument/Abbildungen/fourier_transformation_sinus_rechteck_zeit.eps
%%CreationDate: 2017-09-03T16:46:09
%%Pages: (atend)
%%BoundingBox:     1     1   194   149
%%LanguageLevel: 3
%%EndComments
%%BeginProlog
%%BeginResource: procset (Apache XML Graphics Std ProcSet) 1.2 0
%%Version: 1.2 0
%%Copyright: (Copyright 2001-2003,2010 The Apache Software Foundation. License terms: http://www.apache.org/licenses/LICENSE-2.0)
/bd{bind def}bind def
/ld{load def}bd
/GR/grestore ld
/M/moveto ld
/LJ/setlinejoin ld
/C/curveto ld
/f/fill ld
/LW/setlinewidth ld
/GC/setgray ld
/t/show ld
/N/newpath ld
/CT/concat ld
/cp/closepath ld
/S/stroke ld
/L/lineto ld
/CC/setcmykcolor ld
/A/ashow ld
/GS/gsave ld
/RC/setrgbcolor ld
/RM/rmoveto ld
/ML/setmiterlimit ld
/re {4 2 roll M
1 index 0 rlineto
0 exch rlineto
neg 0 rlineto
cp } bd
/_ctm matrix def
/_tm matrix def
/BT { _ctm currentmatrix pop matrix _tm copy pop 0 0 moveto } bd
/ET { _ctm setmatrix } bd
/iTm { _ctm setmatrix _tm concat } bd
/Tm { _tm astore pop iTm 0 0 moveto } bd
/ux 0.0 def
/uy 0.0 def
/F {
  /Tp exch def
  /Tf exch def
  Tf findfont Tp scalefont setfont
  /cf Tf def  /cs Tp def
} bd
/ULS {currentpoint /uy exch def /ux exch def} bd
/ULE {
  /Tcx currentpoint pop def
  gsave
  newpath
  cf findfont cs scalefont dup
  /FontMatrix get 0 get /Ts exch def /FontInfo get dup
  /UnderlinePosition get Ts mul /To exch def
  /UnderlineThickness get Ts mul /Tt exch def
  ux uy To add moveto  Tcx uy To add lineto
  Tt setlinewidth stroke
  grestore
} bd
/OLE {
  /Tcx currentpoint pop def
  gsave
  newpath
  cf findfont cs scalefont dup
  /FontMatrix get 0 get /Ts exch def /FontInfo get dup
  /UnderlinePosition get Ts mul /To exch def
  /UnderlineThickness get Ts mul /Tt exch def
  ux uy To add cs add moveto Tcx uy To add cs add lineto
  Tt setlinewidth stroke
  grestore
} bd
/SOE {
  /Tcx currentpoint pop def
  gsave
  newpath
  cf findfont cs scalefont dup
  /FontMatrix get 0 get /Ts exch def /FontInfo get dup
  /UnderlinePosition get Ts mul /To exch def
  /UnderlineThickness get Ts mul /Tt exch def
  ux uy To add cs 10 mul 26 idiv add moveto Tcx uy To add cs 10 mul 26 idiv add lineto
  Tt setlinewidth stroke
  grestore
} bd
/QT {
/Y22 exch store
/X22 exch store
/Y21 exch store
/X21 exch store
currentpoint
/Y21 load 2 mul add 3 div exch
/X21 load 2 mul add 3 div exch
/X21 load 2 mul /X22 load add 3 div
/Y21 load 2 mul /Y22 load add 3 div
/X22 load /Y22 load curveto
} bd
/SSPD {
dup length /d exch dict def
{
/v exch def
/k exch def
currentpagedevice k known {
/cpdv currentpagedevice k get def
v cpdv ne {
/upd false def
/nullv v type /nulltype eq def
/nullcpdv cpdv type /nulltype eq def
nullv nullcpdv or
{
/upd true def
} {
/sametype v type cpdv type eq def
sametype {
v type /arraytype eq {
/vlen v length def
/cpdvlen cpdv length def
vlen cpdvlen eq {
0 1 vlen 1 sub {
/i exch def
/obj v i get def
/cpdobj cpdv i get def
obj cpdobj ne {
/upd true def
exit
} if
} for
} {
/upd true def
} ifelse
} {
v type /dicttype eq {
v {
/dv exch def
/dk exch def
/cpddv cpdv dk get def
dv cpddv ne {
/upd true def
exit
} if
} forall
} {
/upd true def
} ifelse
} ifelse
} if
} ifelse
upd true eq {
d k v put
} if
} if
} if
} forall
d length 0 gt {
d setpagedevice
} if
} bd
/RE { % /NewFontName [NewEncodingArray] /FontName RE -
  findfont dup length dict begin
  {
    1 index /FID ne
    {def} {pop pop} ifelse
  } forall
  /Encoding exch def
  /FontName 1 index def
  currentdict definefont pop
  end
} bind def
%%EndResource
%%BeginResource: procset (Apache XML Graphics EPS ProcSet) 1.0 0
%%Version: 1.0 0
%%Copyright: (Copyright 2002-2003 The Apache Software Foundation. License terms: http://www.apache.org/licenses/LICENSE-2.0)
/BeginEPSF { %def
/b4_Inc_state save def         % Save state for cleanup
/dict_count countdictstack def % Count objects on dict stack
/op_count count 1 sub def      % Count objects on operand stack
userdict begin                 % Push userdict on dict stack
/showpage { } def              % Redefine showpage, { } = null proc
0 setgray 0 setlinecap         % Prepare graphics state
1 setlinewidth 0 setlinejoin
10 setmiterlimit [ ] 0 setdash newpath
/languagelevel where           % If level not equal to 1 then
{pop languagelevel             % set strokeadjust and
1 ne                           % overprint to their defaults.
{false setstrokeadjust false setoverprint
} if
} if
} bd
/EndEPSF { %def
count op_count sub {pop} repeat            % Clean up stacks
countdictstack dict_count sub {end} repeat
b4_Inc_state restore
} bd
%%EndResource
%FOPBeginFontDict
%%IncludeResource: font Courier-Bold
%%IncludeResource: font Helvetica
%%IncludeResource: font Courier-BoldOblique
%%IncludeResource: font Courier-Oblique
%%IncludeResource: font Times-Roman
%%IncludeResource: font Helvetica-BoldOblique
%%IncludeResource: font Helvetica-Bold
%%IncludeResource: font Helvetica-Oblique
%%IncludeResource: font Times-BoldItalic
%%IncludeResource: font Courier
%%IncludeResource: font Times-Italic
%%IncludeResource: font Times-Bold
%%IncludeResource: font Symbol
%%IncludeResource: font ZapfDingbats
%FOPEndFontDict
%%BeginResource: encoding WinAnsiEncoding
/WinAnsiEncoding [
/.notdef /.notdef /.notdef /.notdef /.notdef
/.notdef /.notdef /.notdef /.notdef /.notdef
/.notdef /.notdef /.notdef /.notdef /.notdef
/.notdef /.notdef /.notdef /.notdef /.notdef
/.notdef /.notdef /.notdef /.notdef /.notdef
/.notdef /.notdef /.notdef /.notdef /.notdef
/.notdef /.notdef /space /exclam /quotedbl
/numbersign /dollar /percent /ampersand /quotesingle
/parenleft /parenright /asterisk /plus /comma
/hyphen /period /slash /zero /one
/two /three /four /five /six
/seven /eight /nine /colon /semicolon
/less /equal /greater /question /at
/A /B /C /D /E
/F /G /H /I /J
/K /L /M /N /O
/P /Q /R /S /T
/U /V /W /X /Y
/Z /bracketleft /backslash /bracketright /asciicircum
/underscore /quoteleft /a /b /c
/d /e /f /g /h
/i /j /k /l /m
/n /o /p /q /r
/s /t /u /v /w
/x /y /z /braceleft /bar
/braceright /asciitilde /bullet /Euro /bullet
/quotesinglbase /florin /quotedblbase /ellipsis /dagger
/daggerdbl /circumflex /perthousand /Scaron /guilsinglleft
/OE /bullet /Zcaron /bullet /bullet
/quoteleft /quoteright /quotedblleft /quotedblright /bullet
/endash /emdash /asciitilde /trademark /scaron
/guilsinglright /oe /bullet /zcaron /Ydieresis
/space /exclamdown /cent /sterling /currency
/yen /brokenbar /section /dieresis /copyright
/ordfeminine /guillemotleft /logicalnot /sfthyphen /registered
/macron /degree /plusminus /twosuperior /threesuperior
/acute /mu /paragraph /middot /cedilla
/onesuperior /ordmasculine /guillemotright /onequarter /onehalf
/threequarters /questiondown /Agrave /Aacute /Acircumflex
/Atilde /Adieresis /Aring /AE /Ccedilla
/Egrave /Eacute /Ecircumflex /Edieresis /Igrave
/Iacute /Icircumflex /Idieresis /Eth /Ntilde
/Ograve /Oacute /Ocircumflex /Otilde /Odieresis
/multiply /Oslash /Ugrave /Uacute /Ucircumflex
/Udieresis /Yacute /Thorn /germandbls /agrave
/aacute /acircumflex /atilde /adieresis /aring
/ae /ccedilla /egrave /eacute /ecircumflex
/edieresis /igrave /iacute /icircumflex /idieresis
/eth /ntilde /ograve /oacute /ocircumflex
/otilde /odieresis /divide /oslash /ugrave
/uacute /ucircumflex /udieresis /yacute /thorn
/ydieresis
] def
%%EndResource
%FOPBeginFontReencode
/Courier-Bold findfont
dup length dict begin
  {1 index /FID ne {def} {pop pop} ifelse} forall
  /Encoding WinAnsiEncoding def
  currentdict
end
/Courier-Bold exch definefont pop
/Helvetica findfont
dup length dict begin
  {1 index /FID ne {def} {pop pop} ifelse} forall
  /Encoding WinAnsiEncoding def
  currentdict
end
/Helvetica exch definefont pop
/Courier-BoldOblique findfont
dup length dict begin
  {1 index /FID ne {def} {pop pop} ifelse} forall
  /Encoding WinAnsiEncoding def
  currentdict
end
/Courier-BoldOblique exch definefont pop
/Courier-Oblique findfont
dup length dict begin
  {1 index /FID ne {def} {pop pop} ifelse} forall
  /Encoding WinAnsiEncoding def
  currentdict
end
/Courier-Oblique exch definefont pop
/Times-Roman findfont
dup length dict begin
  {1 index /FID ne {def} {pop pop} ifelse} forall
  /Encoding WinAnsiEncoding def
  currentdict
end
/Times-Roman exch definefont pop
/Helvetica-BoldOblique findfont
dup length dict begin
  {1 index /FID ne {def} {pop pop} ifelse} forall
  /Encoding WinAnsiEncoding def
  currentdict
end
/Helvetica-BoldOblique exch definefont pop
/Helvetica-Bold findfont
dup length dict begin
  {1 index /FID ne {def} {pop pop} ifelse} forall
  /Encoding WinAnsiEncoding def
  currentdict
end
/Helvetica-Bold exch definefont pop
/Helvetica-Oblique findfont
dup length dict begin
  {1 index /FID ne {def} {pop pop} ifelse} forall
  /Encoding WinAnsiEncoding def
  currentdict
end
/Helvetica-Oblique exch definefont pop
/Times-BoldItalic findfont
dup length dict begin
  {1 index /FID ne {def} {pop pop} ifelse} forall
  /Encoding WinAnsiEncoding def
  currentdict
end
/Times-BoldItalic exch definefont pop
/Courier findfont
dup length dict begin
  {1 index /FID ne {def} {pop pop} ifelse} forall
  /Encoding WinAnsiEncoding def
  currentdict
end
/Courier exch definefont pop
/Times-Italic findfont
dup length dict begin
  {1 index /FID ne {def} {pop pop} ifelse} forall
  /Encoding WinAnsiEncoding def
  currentdict
end
/Times-Italic exch definefont pop
/Times-Bold findfont
dup length dict begin
  {1 index /FID ne {def} {pop pop} ifelse} forall
  /Encoding WinAnsiEncoding def
  currentdict
end
/Times-Bold exch definefont pop
%FOPEndFontReencode
%%EndProlog
%%Page: 1 1
%%PageBoundingBox: 0 0 213 160
%%BeginPageSetup
[1 0 0 -1 0 160] CT
%%EndPageSetup
GS
[0.75 0 0 0.75 0 0.25] CT
N
0 0 M
284 0 L
284 213 L
0 213 L
0 0 L
cp
clip
1 GC
N
0 0 284 213 re
f
GR
GS
[0.75 0 0 0.75 0 0.25] CT
1 GC
N
0 0 284 213 re
f
GR
GS
[0.75 0 0 0.75 0 0.25] CT
1 GC
N
38 161 M
257 161 L
257 16 L
38 16 L
cp
f
GR
GS
[0.75 0 0 0.75 0 0.25] CT
0.873 GC
1 LJ
0.667 LW
N
92.75 161 M
92.75 16 L
S
GR
GS
[0.75 0 0 0.75 0 0.25] CT
0.873 GC
1 LJ
0.667 LW
N
147.5 161 M
147.5 16 L
S
GR
GS
[0.75 0 0 0.75 0 0.25] CT
0.873 GC
1 LJ
0.667 LW
N
202.25 161 M
202.25 16 L
S
GR
GS
[0.75 0 0 0.75 0 0.25] CT
0.873 GC
1 LJ
0.667 LW
N
257 136.833 M
38 136.833 L
S
GR
GS
[0.75 0 0 0.75 0 0.25] CT
0.873 GC
1 LJ
0.667 LW
N
257 88.5 M
38 88.5 L
S
GR
GS
[0.75 0 0 0.75 0 0.25] CT
0.873 GC
1 LJ
0.667 LW
N
257 40.167 M
38 40.167 L
S
GR
GS
[0.75 0 0 0.75 0 0.25] CT
0.149 GC
2 setlinecap
1 LJ
0.667 LW
N
38 161 M
257 161 L
S
GR
GS
[0.75 0 0 0.75 0 0.25] CT
0.149 GC
2 setlinecap
1 LJ
0.667 LW
N
38 16 M
257 16 L
S
GR
GS
[0.75 0 0 0.75 0 0.25] CT
0.149 GC
2 setlinecap
1 LJ
0.667 LW
N
92.75 161 M
92.75 158.81 L
S
GR
GS
[0.75 0 0 0.75 0 0.25] CT
0.149 GC
2 setlinecap
1 LJ
0.667 LW
N
147.5 161 M
147.5 158.81 L
S
GR
GS
[0.75 0 0 0.75 0 0.25] CT
0.149 GC
2 setlinecap
1 LJ
0.667 LW
N
202.25 161 M
202.25 158.81 L
S
GR
GS
[0.75 0 0 0.75 0 0.25] CT
0.149 GC
2 setlinecap
1 LJ
0.667 LW
N
92.75 16 M
92.75 18.19 L
S
GR
GS
[0.75 0 0 0.75 0 0.25] CT
0.149 GC
2 setlinecap
1 LJ
0.667 LW
N
147.5 16 M
147.5 18.19 L
S
GR
GS
[0.75 0 0 0.75 0 0.25] CT
0.149 GC
2 setlinecap
1 LJ
0.667 LW
N
202.25 16 M
202.25 18.19 L
S
GR
GS
[0.75 0 0 0.75 69.5625 125.00001] CT
0.149 GC
N
-10.279 15.147 M
-10.388 15.147 -10.459 15.061 QT
-10.529 14.975 -10.529 14.881 QT
-10.529 14.787 -10.459 14.701 QT
-10.388 14.616 -10.279 14.616 QT
-2.826 14.616 L
-2.716 14.616 -2.654 14.701 QT
-2.591 14.787 -2.591 14.881 QT
-2.591 14.975 -2.654 15.061 QT
-2.716 15.147 -2.826 15.147 QT
-10.279 15.147 L
cp
f
GR
GS
[0.75 0 0 0.75 69.5625 125.00001] CT
0.149 GC
N
0.957 8.939 M
0.973 8.908 0.988 8.822 QT
1.004 8.736 1.043 8.697 QT
1.082 8.658 1.145 8.658 QT
2.254 8.658 2.629 8.595 QT
2.973 8.502 3.035 8.22 QT
4.817 1.08 L
4.879 0.924 4.879 0.783 QT
4.879 0.689 4.426 0.689 QT
3.66 0.689 L
2.801 0.689 2.324 0.955 QT
1.848 1.22 1.629 1.658 QT
1.41 2.095 1.051 3.095 QT
1.004 3.205 0.926 3.205 QT
0.801 3.205 L
0.676 3.205 0.676 3.049 QT
1.598 0.345 L
1.629 0.236 1.723 0.236 QT
9.41 0.236 L
9.535 0.236 9.535 0.408 QT
9.113 3.095 L
9.113 3.127 9.067 3.166 QT
9.02 3.205 8.988 3.205 QT
8.863 3.205 L
8.738 3.205 8.738 3.049 QT
8.879 2.127 8.879 1.736 QT
8.879 1.283 8.684 1.049 QT
8.488 0.814 8.184 0.752 QT
7.879 0.689 7.395 0.689 QT
6.629 0.689 L
6.285 0.689 6.16 0.752 QT
6.035 0.814 5.957 1.127 QT
4.176 8.267 L
4.16 8.299 4.16 8.322 QT
4.16 8.345 4.145 8.377 QT
4.145 8.549 4.348 8.595 QT
4.676 8.658 5.785 8.658 QT
5.91 8.658 5.91 8.83 QT
5.863 9.002 5.84 9.056 QT
5.817 9.111 5.692 9.111 QT
1.098 9.111 L
0.957 9.111 0.957 8.939 QT
cp
f
GR
GS
[0.75 0 0 0.75 69.5625 125.00001] CT
0.149 GC
N
0.363 14.531 9.644 0.533 re
f
GR
GS
[0.75 0 0 0.75 69.5625 125.00001] CT
0.149 GC
N
2.492 27.277 M
2.492 26.933 L
2.492 26.902 2.524 26.855 QT
4.539 24.621 L
5.008 24.121 5.289 23.785 QT
5.571 23.449 5.852 23.012 QT
6.133 22.574 6.297 22.121 QT
6.461 21.668 6.461 21.168 QT
6.461 20.637 6.258 20.144 QT
6.055 19.652 5.664 19.363 QT
5.274 19.074 4.727 19.074 QT
4.164 19.074 3.711 19.418 QT
3.258 19.762 3.071 20.293 QT
3.133 20.277 3.211 20.277 QT
3.508 20.277 3.711 20.472 QT
3.914 20.668 3.914 20.98 QT
3.914 21.277 3.711 21.488 QT
3.508 21.699 3.211 21.699 QT
2.914 21.699 2.703 21.488 QT
2.492 21.277 2.492 20.98 QT
2.492 20.496 2.68 20.066 QT
2.867 19.637 3.211 19.308 QT
3.555 18.98 3.992 18.801 QT
4.43 18.621 4.914 18.621 QT
5.664 18.621 6.305 18.933 QT
6.946 19.246 7.321 19.824 QT
7.696 20.402 7.696 21.168 QT
7.696 21.73 7.446 22.238 QT
7.196 22.746 6.813 23.16 QT
6.43 23.574 5.821 24.105 QT
5.211 24.637 5.024 24.808 QT
3.555 26.23 L
4.805 26.23 L
5.727 26.23 6.344 26.215 QT
6.961 26.199 6.992 26.152 QT
7.149 25.996 7.305 24.965 QT
7.696 24.965 L
7.321 27.277 L
2.492 27.277 L
cp
f
GR
GS
[0.75 0 0 0.75 110.625 125.00001] CT
0.149 GC
N
-0.083 11.481 M
-1.677 11.481 -2.247 10.169 QT
-2.818 8.856 -2.818 7.059 QT
-2.818 5.919 -2.615 4.927 QT
-2.411 3.934 -1.802 3.239 QT
-1.193 2.544 -0.083 2.544 QT
0.776 2.544 1.323 2.958 QT
1.87 3.372 2.151 4.036 QT
2.432 4.7 2.542 5.458 QT
2.651 6.216 2.651 7.059 QT
2.651 8.169 2.44 9.145 QT
2.229 10.122 1.628 10.802 QT
1.026 11.481 -0.083 11.481 QT
cp
-0.083 11.153 M
0.635 11.153 0.995 10.411 QT
1.354 9.669 1.432 8.762 QT
1.51 7.856 1.51 6.841 QT
1.51 5.872 1.432 5.044 QT
1.354 4.216 1.003 3.544 QT
0.651 2.872 -0.083 2.872 QT
-0.818 2.872 -1.177 3.552 QT
-1.536 4.231 -1.615 5.052 QT
-1.693 5.872 -1.693 6.841 QT
-1.693 7.575 -1.661 8.216 QT
-1.63 8.856 -1.474 9.536 QT
-1.318 10.216 -0.982 10.684 QT
-0.646 11.153 -0.083 11.153 QT
cp
f
GR
GS
[0.75 0 0 0.75 151.6875 125.00001] CT
0.149 GC
N
-4.228 8.939 M
-4.212 8.908 -4.197 8.822 QT
-4.181 8.736 -4.142 8.697 QT
-4.103 8.658 -4.041 8.658 QT
-2.931 8.658 -2.556 8.595 QT
-2.212 8.502 -2.15 8.22 QT
-0.369 1.08 L
-0.306 0.924 -0.306 0.783 QT
-0.306 0.689 -0.759 0.689 QT
-1.525 0.689 L
-2.384 0.689 -2.861 0.955 QT
-3.337 1.22 -3.556 1.658 QT
-3.775 2.095 -4.134 3.095 QT
-4.181 3.205 -4.259 3.205 QT
-4.384 3.205 L
-4.509 3.205 -4.509 3.049 QT
-3.587 0.345 L
-3.556 0.236 -3.462 0.236 QT
4.225 0.236 L
4.35 0.236 4.35 0.408 QT
3.928 3.095 L
3.928 3.127 3.881 3.166 QT
3.834 3.205 3.803 3.205 QT
3.678 3.205 L
3.553 3.205 3.553 3.049 QT
3.694 2.127 3.694 1.736 QT
3.694 1.283 3.499 1.049 QT
3.303 0.814 2.999 0.752 QT
2.694 0.689 2.209 0.689 QT
1.444 0.689 L
1.1 0.689 0.975 0.752 QT
0.85 0.814 0.772 1.127 QT
-1.009 8.267 L
-1.025 8.299 -1.025 8.322 QT
-1.025 8.345 -1.041 8.377 QT
-1.041 8.549 -0.837 8.595 QT
-0.509 8.658 0.6 8.658 QT
0.725 8.658 0.725 8.83 QT
0.678 9.002 0.655 9.056 QT
0.631 9.111 0.506 9.111 QT
-4.087 9.111 L
-4.228 9.111 -4.228 8.939 QT
cp
f
GR
GS
[0.75 0 0 0.75 151.6875 125.00001] CT
0.149 GC
N
-4.822 14.531 9.644 0.533 re
f
GR
GS
[0.75 0 0 0.75 151.6875 125.00001] CT
0.149 GC
N
-2.693 27.277 M
-2.693 26.933 L
-2.693 26.902 -2.661 26.855 QT
-0.646 24.621 L
-0.177 24.121 0.104 23.785 QT
0.385 23.449 0.667 23.012 QT
0.948 22.574 1.112 22.121 QT
1.276 21.668 1.276 21.168 QT
1.276 20.637 1.073 20.144 QT
0.87 19.652 0.479 19.363 QT
0.089 19.074 -0.458 19.074 QT
-1.021 19.074 -1.474 19.418 QT
-1.927 19.762 -2.115 20.293 QT
-2.052 20.277 -1.974 20.277 QT
-1.677 20.277 -1.474 20.472 QT
-1.271 20.668 -1.271 20.98 QT
-1.271 21.277 -1.474 21.488 QT
-1.677 21.699 -1.974 21.699 QT
-2.271 21.699 -2.482 21.488 QT
-2.693 21.277 -2.693 20.98 QT
-2.693 20.496 -2.505 20.066 QT
-2.318 19.637 -1.974 19.308 QT
-1.63 18.98 -1.193 18.801 QT
-0.755 18.621 -0.271 18.621 QT
0.479 18.621 1.12 18.933 QT
1.76 19.246 2.135 19.824 QT
2.51 20.402 2.51 21.168 QT
2.51 21.73 2.26 22.238 QT
2.01 22.746 1.628 23.16 QT
1.245 23.574 0.635 24.105 QT
0.026 24.637 -0.161 24.808 QT
-1.63 26.23 L
-0.38 26.23 L
0.542 26.23 1.159 26.215 QT
1.776 26.199 1.807 26.152 QT
1.964 25.996 2.12 24.965 QT
2.51 24.965 L
2.135 27.277 L
-2.693 27.277 L
cp
f
GR
GS
[0.75 0 0 0.75 110.62508 146.8] CT
0.149 GC
N
-9.222 11.101 M
-9.222 10.882 -9.191 10.679 QT
-8.097 6.382 L
-9.675 6.382 L
-9.832 6.382 -9.832 6.179 QT
-9.769 5.851 -9.628 5.851 QT
-7.972 5.851 L
-7.363 3.414 L
-7.316 3.211 -7.136 3.07 QT
-6.957 2.929 -6.738 2.929 QT
-6.55 2.929 -6.418 3.047 QT
-6.285 3.164 -6.285 3.351 QT
-6.285 3.398 -6.293 3.422 QT
-6.3 3.445 -6.3 3.476 QT
-6.91 5.851 L
-5.363 5.851 L
-5.207 5.851 -5.207 6.054 QT
-5.222 6.086 -5.238 6.172 QT
-5.253 6.257 -5.293 6.32 QT
-5.332 6.382 -5.41 6.382 QT
-7.035 6.382 L
-8.113 10.711 L
-8.222 11.148 -8.222 11.445 QT
-8.222 12.086 -7.785 12.086 QT
-7.128 12.086 -6.621 11.468 QT
-6.113 10.851 -5.832 10.117 QT
-5.785 10.023 -5.722 10.023 QT
-5.535 10.023 L
-5.472 10.023 -5.441 10.062 QT
-5.41 10.101 -5.41 10.164 QT
-5.41 10.195 -5.425 10.211 QT
-5.753 11.117 -6.378 11.804 QT
-7.003 12.492 -7.816 12.492 QT
-8.41 12.492 -8.816 12.101 QT
-9.222 11.711 -9.222 11.101 QT
cp
f
GR
GS
[0.75 0 0 0.75 110.62508 146.8] CT
0.149 GC
N
-3.098 16.07 M
-3.098 1.07 L
-1.035 1.07 L
-1.035 1.664 L
-2.488 1.664 L
-2.488 15.476 L
-1.035 15.476 L
-1.035 16.07 L
-3.098 16.07 L
cp
f
GR
GS
[0.75 0 0 0.75 110.62508 146.8] CT
0.149 GC
N
0.508 11.398 M
0.914 12.086 2.133 12.086 QT
2.664 12.086 3.14 11.906 QT
3.617 11.726 3.929 11.375 QT
4.242 11.023 4.242 10.507 QT
4.242 10.117 3.961 9.867 QT
3.679 9.617 3.273 9.523 QT
2.461 9.367 L
1.914 9.226 1.554 8.843 QT
1.195 8.461 1.195 7.929 QT
1.195 7.257 1.554 6.742 QT
1.914 6.226 2.508 5.961 QT
3.101 5.695 3.742 5.695 QT
4.414 5.695 4.953 6.015 QT
5.492 6.336 5.492 6.976 QT
5.492 7.32 5.297 7.586 QT
5.101 7.851 4.758 7.851 QT
4.57 7.851 4.422 7.726 QT
4.273 7.601 4.273 7.398 QT
4.273 7.226 4.375 7.062 QT
4.476 6.898 4.64 6.797 QT
4.804 6.695 4.976 6.695 QT
4.851 6.367 4.492 6.226 QT
4.133 6.086 3.711 6.086 QT
3.32 6.086 2.945 6.234 QT
2.57 6.382 2.336 6.679 QT
2.101 6.976 2.101 7.382 QT
2.101 7.648 2.297 7.859 QT
2.492 8.07 2.758 8.148 QT
3.633 8.336 L
4.054 8.414 4.398 8.64 QT
4.742 8.867 4.945 9.203 QT
5.148 9.539 5.148 9.976 QT
5.148 10.539 4.836 11.078 QT
4.523 11.617 4.07 11.945 QT
3.273 12.492 2.117 12.492 QT
1.32 12.492 0.656 12.125 QT
-0.008 11.757 -0.008 11.023 QT
-0.008 10.617 0.226 10.312 QT
0.461 10.007 0.867 10.007 QT
1.117 10.007 1.281 10.156 QT
1.445 10.304 1.445 10.554 QT
1.445 10.898 1.187 11.148 QT
0.929 11.398 0.586 11.398 QT
0.508 11.398 L
cp
f
GR
GS
[0.75 0 0 0.75 110.62508 146.8] CT
0.149 GC
N
6.414 16.07 M
6.414 15.476 L
7.867 15.476 L
7.867 1.664 L
6.414 1.664 L
6.414 1.07 L
8.476 1.07 L
8.476 16.07 L
6.414 16.07 L
cp
f
GR
GS
[0.75 0 0 0.75 0 0.25] CT
0.149 GC
2 setlinecap
1 LJ
0.667 LW
N
38 161 M
38 16 L
S
GR
GS
[0.75 0 0 0.75 0 0.25] CT
0.149 GC
2 setlinecap
1 LJ
0.667 LW
N
257 161 M
257 16 L
S
GR
GS
[0.75 0 0 0.75 0 0.25] CT
0.149 GC
2 setlinecap
1 LJ
0.667 LW
N
38 136.833 M
40.19 136.833 L
S
GR
GS
[0.75 0 0 0.75 0 0.25] CT
0.149 GC
2 setlinecap
1 LJ
0.667 LW
N
38 88.5 M
40.19 88.5 L
S
GR
GS
[0.75 0 0 0.75 0 0.25] CT
0.149 GC
2 setlinecap
1 LJ
0.667 LW
N
38 40.167 M
40.19 40.167 L
S
GR
GS
[0.75 0 0 0.75 0 0.25] CT
0.149 GC
2 setlinecap
1 LJ
0.667 LW
N
257 136.833 M
254.81 136.833 L
S
GR
GS
[0.75 0 0 0.75 0 0.25] CT
0.149 GC
2 setlinecap
1 LJ
0.667 LW
N
257 88.5 M
254.81 88.5 L
S
GR
GS
[0.75 0 0 0.75 0 0.25] CT
0.149 GC
2 setlinecap
1 LJ
0.667 LW
N
257 40.167 M
254.81 40.167 L
S
GR
GS
[0.75 0 0 0.75 24.5 102.875] CT
0.149 GC
N
-10.97 0.794 M
-10.97 -0.019 L
-7.517 -0.019 L
-7.517 0.794 L
-10.97 0.794 L
cp
f
GR
GS
[0.75 0 0 0.75 24.5 102.875] CT
0.149 GC
N
-5.464 3.2 M
-5.464 2.747 L
-3.839 2.747 -3.839 2.325 QT
-3.839 -4.488 L
-4.51 -4.175 -5.542 -4.175 QT
-5.542 -4.628 L
-3.948 -4.628 -3.135 -5.456 QT
-2.948 -5.456 L
-2.901 -5.456 -2.862 -5.425 QT
-2.823 -5.394 -2.823 -5.347 QT
-2.823 2.325 L
-2.823 2.747 -1.198 2.747 QT
-1.198 3.2 L
-5.464 3.2 L
cp
f
GR
GS
[0.75 0 0 0.75 24.5 66.625] CT
0.149 GC
N
-3.417 3.481 M
-5.01 3.481 -5.581 2.169 QT
-6.151 0.856 -6.151 -0.941 QT
-6.151 -2.081 -5.948 -3.073 QT
-5.745 -4.066 -5.135 -4.761 QT
-4.526 -5.456 -3.417 -5.456 QT
-2.557 -5.456 -2.01 -5.042 QT
-1.464 -4.628 -1.182 -3.964 QT
-0.901 -3.3 -0.792 -2.542 QT
-0.682 -1.784 -0.682 -0.941 QT
-0.682 0.169 -0.893 1.145 QT
-1.104 2.122 -1.706 2.802 QT
-2.307 3.481 -3.417 3.481 QT
cp
-3.417 3.153 M
-2.698 3.153 -2.339 2.411 QT
-1.979 1.669 -1.901 0.762 QT
-1.823 -0.144 -1.823 -1.159 QT
-1.823 -2.128 -1.901 -2.956 QT
-1.979 -3.784 -2.331 -4.456 QT
-2.682 -5.128 -3.417 -5.128 QT
-4.151 -5.128 -4.51 -4.448 QT
-4.87 -3.769 -4.948 -2.948 QT
-5.026 -2.128 -5.026 -1.159 QT
-5.026 -0.425 -4.995 0.216 QT
-4.964 0.856 -4.807 1.536 QT
-4.651 2.216 -4.315 2.684 QT
-3.979 3.153 -3.417 3.153 QT
cp
f
GR
GS
[0.75 0 0 0.75 24.5 30.375] CT
0.149 GC
N
/f-1405947355{-5.464 3.2 M
-5.464 2.747 L
-3.839 2.747 -3.839 2.325 QT
-3.839 -4.488 L
-4.51 -4.175 -5.542 -4.175 QT
-5.542 -4.628 L
-3.948 -4.628 -3.135 -5.456 QT
-2.948 -5.456 L
-2.901 -5.456 -2.862 -5.425 QT
-2.823 -5.394 -2.823 -5.347 QT
-2.823 2.325 L
-2.823 2.747 -1.198 2.747 QT
-1.198 3.2 L
-5.464 3.2 L
cp}def
f-1405947355
f
GR
GS
[0 -0.75 0.75 0 13.2 66.62495] CT
0.149 GC
N
/f-635182659{-33.534 -5.28 M
-33.534 -5.811 L
-32.19 -5.811 -31.894 -6.686 QT
-28.737 -15.858 L
-28.69 -16.014 -28.503 -16.014 QT
-28.3 -16.014 L
-28.112 -16.014 -28.065 -15.858 QT
-24.769 -6.28 L
-24.644 -5.968 -24.245 -5.889 QT
-23.847 -5.811 -23.269 -5.811 QT
-23.269 -5.28 L
-27.456 -5.28 L
-27.456 -5.811 L
-26.206 -5.811 -26.206 -6.218 QT
-26.206 -6.28 L
-27.019 -8.624 L
-30.659 -8.624 L
-31.331 -6.686 L
-31.347 -6.639 -31.347 -6.546 QT
-31.347 -6.171 -30.987 -5.991 QT
-30.628 -5.811 -30.222 -5.811 QT
-30.222 -5.28 L
-33.534 -5.28 L
cp
-30.487 -9.155 M
-27.19 -9.155 L
-28.847 -13.936 L
-30.487 -9.155 L
cp}def
f-635182659
f
GR
GS
[0 -0.75 0.75 0 13.2 66.62495] CT
0.149 GC
N
/f-1906024864{-22.565 -5.28 M
-22.565 -5.811 L
-22.065 -5.811 -21.73 -5.889 QT
-21.394 -5.968 -21.394 -6.28 QT
-21.394 -10.374 L
-21.394 -10.78 -21.519 -10.96 QT
-21.644 -11.139 -21.87 -11.178 QT
-22.097 -11.218 -22.565 -11.218 QT
-22.565 -11.749 L
-20.394 -11.905 L
-20.394 -10.436 L
-20.097 -11.093 -19.503 -11.499 QT
-18.909 -11.905 -18.222 -11.905 QT
-16.487 -11.905 -16.19 -10.499 QT
-15.894 -11.139 -15.315 -11.522 QT
-14.737 -11.905 -14.05 -11.905 QT
-13.362 -11.905 -12.901 -11.686 QT
-12.44 -11.468 -12.206 -11.014 QT
-11.972 -10.561 -11.972 -9.889 QT
-11.972 -6.28 L
-11.972 -5.968 -11.636 -5.889 QT
-11.3 -5.811 -10.8 -5.811 QT
-10.8 -5.28 L
-14.222 -5.28 L
-14.222 -5.811 L
-13.722 -5.811 -13.386 -5.889 QT
-13.05 -5.968 -13.05 -6.28 QT
-13.05 -9.843 L
-13.05 -10.593 -13.269 -11.053 QT
-13.487 -11.514 -14.144 -11.514 QT
-15.003 -11.514 -15.565 -10.819 QT
-16.128 -10.124 -16.128 -9.249 QT
-16.128 -6.28 L
-16.128 -5.968 -15.8 -5.889 QT
-15.472 -5.811 -14.956 -5.811 QT
-14.956 -5.28 L
-18.394 -5.28 L
-18.394 -5.811 L
-17.878 -5.811 -17.55 -5.889 QT
-17.222 -5.968 -17.222 -6.28 QT
-17.222 -9.843 L
-17.222 -10.577 -17.433 -11.046 QT
-17.644 -11.514 -18.315 -11.514 QT
-19.175 -11.514 -19.737 -10.819 QT
-20.3 -10.124 -20.3 -9.249 QT
-20.3 -6.28 L
-20.3 -5.968 -19.972 -5.889 QT
-19.644 -5.811 -19.144 -5.811 QT
-19.144 -5.28 L
-22.565 -5.28 L
cp}def
f-1906024864
f
GR
GS
[0 -0.75 0.75 0 13.2 66.62495] CT
0.149 GC
N
/f623790312{-10.406 -2.374 M
-10.406 -2.889 L
-9.89 -2.889 -9.562 -2.975 QT
-9.234 -3.061 -9.234 -3.374 QT
-9.234 -10.608 L
-9.234 -11.014 -9.531 -11.116 QT
-9.828 -11.218 -10.406 -11.218 QT
-10.406 -11.749 L
-8.187 -11.905 L
-8.187 -10.983 L
-7.781 -11.436 -7.234 -11.671 QT
-6.687 -11.905 -6.078 -11.905 QT
-5.187 -11.905 -4.476 -11.428 QT
-3.765 -10.952 -3.367 -10.171 QT
-2.968 -9.389 -2.968 -8.514 QT
-2.968 -7.608 -3.414 -6.827 QT
-3.859 -6.046 -4.624 -5.577 QT
-5.39 -5.108 -6.296 -5.108 QT
-7.39 -5.108 -8.14 -5.999 QT
-8.14 -3.374 L
-8.14 -3.061 -7.812 -2.975 QT
-7.484 -2.889 -6.968 -2.889 QT
-6.968 -2.374 L
-10.406 -2.374 L
cp
-8.14 -6.733 M
-7.874 -6.202 -7.406 -5.858 QT
-6.937 -5.514 -6.39 -5.514 QT
-5.874 -5.514 -5.468 -5.788 QT
-5.062 -6.061 -4.796 -6.53 QT
-4.531 -6.999 -4.398 -7.514 QT
-4.265 -8.03 -4.265 -8.514 QT
-4.265 -9.124 -4.484 -9.819 QT
-4.703 -10.514 -5.148 -10.999 QT
-5.593 -11.483 -6.218 -11.483 QT
-6.828 -11.483 -7.335 -11.171 QT
-7.843 -10.858 -8.14 -10.327 QT
-8.14 -6.733 L
cp}def
f623790312
f
GR
GS
[0 -0.75 0.75 0 13.2 66.62495] CT
0.149 GC
N
/f-1130989129{-2.179 -5.28 M
-2.179 -5.811 L
-1.679 -5.811 -1.343 -5.889 QT
-1.008 -5.968 -1.008 -6.28 QT
-1.008 -14.155 L
-1.008 -14.561 -1.133 -14.741 QT
-1.258 -14.921 -1.484 -14.96 QT
-1.711 -14.999 -2.179 -14.999 QT
-2.179 -15.53 L
0.039 -15.686 L
0.039 -6.28 L
0.039 -5.968 0.367 -5.889 QT
0.696 -5.811 1.211 -5.811 QT
1.211 -5.28 L
-2.179 -5.28 L
cp}def
f-1130989129
f
GR
GS
[0 -0.75 0.75 0 13.2 66.62495] CT
0.149 GC
N
/f1778272899{1.895 -5.28 M
1.895 -5.811 L
2.395 -5.811 2.731 -5.889 QT
3.067 -5.968 3.067 -6.28 QT
3.067 -10.374 L
3.067 -10.952 2.84 -11.085 QT
2.613 -11.218 1.957 -11.218 QT
1.957 -11.749 L
4.113 -11.905 L
4.113 -6.28 L
4.113 -5.968 4.402 -5.889 QT
4.692 -5.811 5.16 -5.811 QT
5.16 -5.28 L
1.895 -5.28 L
cp
2.52 -14.483 M
2.52 -14.811 2.77 -15.061 QT
3.02 -15.311 3.348 -15.311 QT
3.551 -15.311 3.754 -15.202 QT
3.957 -15.093 4.067 -14.897 QT
4.176 -14.702 4.176 -14.483 QT
4.176 -14.171 3.926 -13.921 QT
3.676 -13.671 3.348 -13.671 QT
3.02 -13.671 2.77 -13.921 QT
2.52 -14.171 2.52 -14.483 QT
cp}def
f1778272899
f
GR
GS
[0 -0.75 0.75 0 13.2 66.62495] CT
0.149 GC
N
/f-331511160{7.031 -7.077 M
7.031 -11.218 L
5.781 -11.218 L
5.781 -11.608 L
6.766 -11.608 7.227 -12.522 QT
7.688 -13.436 7.688 -14.514 QT
8.125 -14.514 L
8.125 -11.749 L
10.234 -11.749 L
10.234 -11.218 L
8.125 -11.218 L
8.125 -7.108 L
8.125 -6.483 8.336 -6.014 QT
8.547 -5.546 9.078 -5.546 QT
9.594 -5.546 9.82 -6.046 QT
10.047 -6.546 10.047 -7.108 QT
10.047 -7.999 L
10.484 -7.999 L
10.484 -7.077 L
10.484 -6.608 10.313 -6.155 QT
10.141 -5.702 9.805 -5.405 QT
9.469 -5.108 8.984 -5.108 QT
8.078 -5.108 7.555 -5.647 QT
7.031 -6.186 7.031 -7.077 QT
cp}def
f-331511160
f
GR
GS
[0 -0.75 0.75 0 13.2 66.62495] CT
0.149 GC
N
/f-332655191{12.829 -7.061 M
12.829 -10.374 L
12.829 -10.78 12.704 -10.96 QT
12.579 -11.139 12.352 -11.178 QT
12.126 -11.218 11.657 -11.218 QT
11.657 -11.749 L
13.922 -11.905 L
13.922 -7.061 L
13.922 -6.483 14.008 -6.155 QT
14.094 -5.827 14.368 -5.671 QT
14.641 -5.514 15.235 -5.514 QT
16.047 -5.514 16.524 -6.186 QT
17.001 -6.858 17.001 -7.718 QT
17.001 -10.374 L
17.001 -10.78 16.876 -10.96 QT
16.751 -11.139 16.524 -11.178 QT
16.297 -11.218 15.829 -11.218 QT
15.829 -11.749 L
18.094 -11.905 L
18.094 -6.639 L
18.094 -6.249 18.212 -6.069 QT
18.329 -5.889 18.555 -5.85 QT
18.782 -5.811 19.266 -5.811 QT
19.266 -5.28 L
17.047 -5.108 L
17.047 -6.374 L
16.766 -5.811 16.266 -5.46 QT
15.766 -5.108 15.172 -5.108 QT
14.094 -5.108 13.462 -5.569 QT
12.829 -6.03 12.829 -7.061 QT
cp}def
f-332655191
f
GR
GS
[0 -0.75 0.75 0 13.2 66.62495] CT
0.149 GC
N
/f622013074{23.008 -5.108 M
22.133 -5.108 21.399 -5.593 QT
20.664 -6.077 20.258 -6.858 QT
19.852 -7.639 19.852 -8.514 QT
19.852 -9.421 20.297 -10.202 QT
20.743 -10.983 21.5 -11.444 QT
22.258 -11.905 23.18 -11.905 QT
23.727 -11.905 24.219 -11.678 QT
24.711 -11.452 25.071 -11.03 QT
25.071 -14.155 L
25.071 -14.561 24.946 -14.741 QT
24.821 -14.921 24.602 -14.96 QT
24.383 -14.999 23.899 -14.999 QT
23.899 -15.53 L
26.118 -15.686 L
26.118 -6.639 L
26.118 -6.249 26.243 -6.069 QT
26.368 -5.889 26.586 -5.85 QT
26.805 -5.811 27.289 -5.811 QT
27.289 -5.28 L
25.024 -5.108 L
25.024 -6.061 L
24.633 -5.608 24.102 -5.358 QT
23.571 -5.108 23.008 -5.108 QT
cp
21.477 -6.577 M
21.743 -6.093 22.172 -5.803 QT
22.602 -5.514 23.102 -5.514 QT
23.727 -5.514 24.243 -5.866 QT
24.758 -6.218 25.024 -6.796 QT
25.024 -10.389 L
24.852 -10.718 24.578 -10.983 QT
24.305 -11.249 23.977 -11.382 QT
23.649 -11.514 23.274 -11.514 QT
22.493 -11.514 22.016 -11.077 QT
21.539 -10.639 21.344 -9.952 QT
21.149 -9.264 21.149 -8.499 QT
21.149 -7.905 21.211 -7.46 QT
21.274 -7.014 21.477 -6.577 QT
cp}def
f622013074
f
GR
GS
[0 -0.75 0.75 0 13.2 66.62495] CT
0.149 GC
N
/f917036437{31.234 -5.108 M
30.313 -5.108 29.555 -5.593 QT
28.797 -6.077 28.359 -6.874 QT
27.922 -7.671 27.922 -8.561 QT
27.922 -9.452 28.32 -10.241 QT
28.719 -11.03 29.43 -11.514 QT
30.141 -11.999 31.016 -11.999 QT
31.719 -11.999 32.227 -11.772 QT
32.734 -11.546 33.063 -11.132 QT
33.391 -10.718 33.555 -10.163 QT
33.719 -9.608 33.719 -8.936 QT
33.719 -8.749 33.578 -8.749 QT
29.234 -8.749 L
29.234 -8.577 L
29.234 -7.343 29.734 -6.444 QT
30.234 -5.546 31.375 -5.546 QT
31.828 -5.546 32.219 -5.757 QT
32.609 -5.968 32.899 -6.327 QT
33.188 -6.686 33.297 -7.108 QT
33.313 -7.155 33.352 -7.202 QT
33.391 -7.249 33.438 -7.249 QT
33.578 -7.249 L
33.719 -7.249 33.719 -7.046 QT
33.516 -6.202 32.813 -5.655 QT
32.109 -5.108 31.234 -5.108 QT
cp
29.25 -9.124 M
32.656 -9.124 L
32.656 -9.686 32.5 -10.264 QT
32.344 -10.843 31.977 -11.225 QT
31.609 -11.608 31.016 -11.608 QT
30.172 -11.608 29.711 -10.811 QT
29.25 -10.014 29.25 -9.124 QT
cp}def
f917036437
f
GR
GS
[0.75 0 0 0.75 0 0.25] CT
1 LJ
0.667 LW
N
38 88.5 M
39.095 88.5 L
40.19 88.5 L
41.285 88.5 L
42.38 88.5 L
43.475 88.5 L
44.57 88.5 L
45.665 88.5 L
46.76 88.5 L
47.855 88.5 L
48.95 88.5 L
50.045 88.5 L
51.14 88.5 L
52.235 88.5 L
53.33 88.5 L
54.425 88.5 L
55.52 88.5 L
56.615 88.5 L
57.71 88.5 L
58.805 88.5 L
59.9 88.5 L
60.995 88.5 L
62.09 88.5 L
63.185 88.5 L
64.28 88.5 L
65.375 88.5 L
66.47 88.5 L
67.565 88.5 L
68.66 88.5 L
69.755 88.5 L
70.85 88.5 L
71.945 88.5 L
73.04 88.5 L
74.135 88.5 L
75.23 88.5 L
76.325 88.5 L
77.42 88.5 L
78.515 88.5 L
79.61 88.5 L
80.705 88.5 L
81.8 88.5 L
82.895 88.5 L
83.99 88.5 L
85.085 88.5 L
86.18 88.5 L
87.275 88.5 L
88.37 88.5 L
89.465 88.5 L
90.56 88.5 L
91.655 88.5 L
92.75 88.5 L
93.845 91.535 L
94.94 94.558 L
96.035 97.557 L
97.13 100.52 L
98.225 103.436 L
99.32 106.293 L
100.415 109.079 L
101.51 111.785 L
102.605 114.398 L
103.7 116.91 L
104.795 119.309 L
105.89 121.586 L
106.985 123.733 L
108.08 125.741 L
109.175 127.602 L
110.27 129.309 L
111.365 130.855 L
112.46 132.233 L
113.555 133.439 L
114.65 134.468 L
115.745 135.315 L
116.84 135.977 L
117.935 136.452 L
119.03 136.738 L
120.125 136.833 L
121.22 136.738 L
122.315 136.452 L
123.41 135.977 L
124.505 135.315 L
125.6 134.468 L
126.695 133.439 L
127.79 132.233 L
128.885 130.855 L
129.98 129.309 L
131.075 127.602 L
132.17 125.741 L
133.265 123.733 L
134.36 121.586 L
135.455 119.309 L
136.55 116.91 L
137.645 114.398 L
138.74 111.785 L
139.835 109.079 L
140.93 106.293 L
142.025 103.436 L
143.12 100.52 L
144.215 97.557 L
145.31 94.558 L
146.405 91.535 L
147.5 88.5 L
148.595 85.465 L
149.69 82.442 L
150.785 79.443 L
151.88 76.48 L
152.975 73.564 L
154.07 70.707 L
155.165 67.921 L
156.26 65.215 L
157.355 62.602 L
158.45 60.09 L
159.545 57.691 L
160.64 55.414 L
161.735 53.267 L
162.83 51.259 L
163.925 49.398 L
165.02 47.691 L
166.115 46.145 L
167.21 44.767 L
168.305 43.561 L
169.4 42.532 L
170.495 41.685 L
171.59 41.023 L
172.685 40.548 L
173.78 40.262 L
174.875 40.167 L
175.97 40.262 L
177.065 40.548 L
178.16 41.023 L
179.255 41.685 L
180.35 42.532 L
181.445 43.561 L
182.54 44.767 L
183.635 46.145 L
184.73 47.691 L
185.825 49.398 L
186.92 51.259 L
188.015 53.267 L
189.11 55.414 L
190.205 57.691 L
191.3 60.09 L
192.395 62.602 L
193.49 65.215 L
194.585 67.921 L
195.68 70.707 L
196.775 73.564 L
197.87 76.48 L
198.965 79.443 L
200.06 82.442 L
201.155 85.465 L
202.25 88.5 L
203.345 88.5 L
204.44 88.5 L
205.535 88.5 L
206.63 88.5 L
207.725 88.5 L
208.82 88.5 L
209.915 88.5 L
211.01 88.5 L
212.105 88.5 L
213.2 88.5 L
214.295 88.5 L
215.39 88.5 L
216.485 88.5 L
217.58 88.5 L
218.675 88.5 L
219.77 88.5 L
220.865 88.5 L
221.96 88.5 L
223.055 88.5 L
224.15 88.5 L
225.245 88.5 L
226.34 88.5 L
227.435 88.5 L
228.53 88.5 L
229.625 88.5 L
230.72 88.5 L
231.815 88.5 L
232.91 88.5 L
234.005 88.5 L
235.1 88.5 L
236.195 88.5 L
237.29 88.5 L
238.385 88.5 L
239.48 88.5 L
240.575 88.5 L
241.67 88.5 L
242.765 88.5 L
243.86 88.5 L
244.955 88.5 L
246.05 88.5 L
247.145 88.5 L
248.24 88.5 L
249.335 88.5 L
250.43 88.5 L
251.525 88.5 L
252.62 88.5 L
253.715 88.5 L
254.81 88.5 L
255.905 88.5 L
257 88.5 L
S
GR
%%Trailer
%%Pages: 1
%%EOF
