%!PS-Adobe-3.0 EPSF-3.0
%%Creator: (MATLAB, The Mathworks, Inc. Version 9.1.0.441655 \(R2016b\). Operating System: Windows 8)
%%Title: ../Dokument/Abbildungen/fourier_transformation_rechteck_bild.eps
%%CreationDate: 2017-09-03T16:44:25
%%Pages: (atend)
%%BoundingBox:     1     0   194   149
%%LanguageLevel: 3
%%EndComments
%%BeginProlog
%%BeginResource: procset (Apache XML Graphics Std ProcSet) 1.2 0
%%Version: 1.2 0
%%Copyright: (Copyright 2001-2003,2010 The Apache Software Foundation. License terms: http://www.apache.org/licenses/LICENSE-2.0)
/bd{bind def}bind def
/ld{load def}bd
/GR/grestore ld
/M/moveto ld
/LJ/setlinejoin ld
/C/curveto ld
/f/fill ld
/LW/setlinewidth ld
/GC/setgray ld
/t/show ld
/N/newpath ld
/CT/concat ld
/cp/closepath ld
/S/stroke ld
/L/lineto ld
/CC/setcmykcolor ld
/A/ashow ld
/GS/gsave ld
/RC/setrgbcolor ld
/RM/rmoveto ld
/ML/setmiterlimit ld
/re {4 2 roll M
1 index 0 rlineto
0 exch rlineto
neg 0 rlineto
cp } bd
/_ctm matrix def
/_tm matrix def
/BT { _ctm currentmatrix pop matrix _tm copy pop 0 0 moveto } bd
/ET { _ctm setmatrix } bd
/iTm { _ctm setmatrix _tm concat } bd
/Tm { _tm astore pop iTm 0 0 moveto } bd
/ux 0.0 def
/uy 0.0 def
/F {
  /Tp exch def
  /Tf exch def
  Tf findfont Tp scalefont setfont
  /cf Tf def  /cs Tp def
} bd
/ULS {currentpoint /uy exch def /ux exch def} bd
/ULE {
  /Tcx currentpoint pop def
  gsave
  newpath
  cf findfont cs scalefont dup
  /FontMatrix get 0 get /Ts exch def /FontInfo get dup
  /UnderlinePosition get Ts mul /To exch def
  /UnderlineThickness get Ts mul /Tt exch def
  ux uy To add moveto  Tcx uy To add lineto
  Tt setlinewidth stroke
  grestore
} bd
/OLE {
  /Tcx currentpoint pop def
  gsave
  newpath
  cf findfont cs scalefont dup
  /FontMatrix get 0 get /Ts exch def /FontInfo get dup
  /UnderlinePosition get Ts mul /To exch def
  /UnderlineThickness get Ts mul /Tt exch def
  ux uy To add cs add moveto Tcx uy To add cs add lineto
  Tt setlinewidth stroke
  grestore
} bd
/SOE {
  /Tcx currentpoint pop def
  gsave
  newpath
  cf findfont cs scalefont dup
  /FontMatrix get 0 get /Ts exch def /FontInfo get dup
  /UnderlinePosition get Ts mul /To exch def
  /UnderlineThickness get Ts mul /Tt exch def
  ux uy To add cs 10 mul 26 idiv add moveto Tcx uy To add cs 10 mul 26 idiv add lineto
  Tt setlinewidth stroke
  grestore
} bd
/QT {
/Y22 exch store
/X22 exch store
/Y21 exch store
/X21 exch store
currentpoint
/Y21 load 2 mul add 3 div exch
/X21 load 2 mul add 3 div exch
/X21 load 2 mul /X22 load add 3 div
/Y21 load 2 mul /Y22 load add 3 div
/X22 load /Y22 load curveto
} bd
/SSPD {
dup length /d exch dict def
{
/v exch def
/k exch def
currentpagedevice k known {
/cpdv currentpagedevice k get def
v cpdv ne {
/upd false def
/nullv v type /nulltype eq def
/nullcpdv cpdv type /nulltype eq def
nullv nullcpdv or
{
/upd true def
} {
/sametype v type cpdv type eq def
sametype {
v type /arraytype eq {
/vlen v length def
/cpdvlen cpdv length def
vlen cpdvlen eq {
0 1 vlen 1 sub {
/i exch def
/obj v i get def
/cpdobj cpdv i get def
obj cpdobj ne {
/upd true def
exit
} if
} for
} {
/upd true def
} ifelse
} {
v type /dicttype eq {
v {
/dv exch def
/dk exch def
/cpddv cpdv dk get def
dv cpddv ne {
/upd true def
exit
} if
} forall
} {
/upd true def
} ifelse
} ifelse
} if
} ifelse
upd true eq {
d k v put
} if
} if
} if
} forall
d length 0 gt {
d setpagedevice
} if
} bd
/RE { % /NewFontName [NewEncodingArray] /FontName RE -
  findfont dup length dict begin
  {
    1 index /FID ne
    {def} {pop pop} ifelse
  } forall
  /Encoding exch def
  /FontName 1 index def
  currentdict definefont pop
  end
} bind def
%%EndResource
%%BeginResource: procset (Apache XML Graphics EPS ProcSet) 1.0 0
%%Version: 1.0 0
%%Copyright: (Copyright 2002-2003 The Apache Software Foundation. License terms: http://www.apache.org/licenses/LICENSE-2.0)
/BeginEPSF { %def
/b4_Inc_state save def         % Save state for cleanup
/dict_count countdictstack def % Count objects on dict stack
/op_count count 1 sub def      % Count objects on operand stack
userdict begin                 % Push userdict on dict stack
/showpage { } def              % Redefine showpage, { } = null proc
0 setgray 0 setlinecap         % Prepare graphics state
1 setlinewidth 0 setlinejoin
10 setmiterlimit [ ] 0 setdash newpath
/languagelevel where           % If level not equal to 1 then
{pop languagelevel             % set strokeadjust and
1 ne                           % overprint to their defaults.
{false setstrokeadjust false setoverprint
} if
} if
} bd
/EndEPSF { %def
count op_count sub {pop} repeat            % Clean up stacks
countdictstack dict_count sub {end} repeat
b4_Inc_state restore
} bd
%%EndResource
%FOPBeginFontDict
%%IncludeResource: font Courier-Bold
%%IncludeResource: font Helvetica
%%IncludeResource: font Courier-BoldOblique
%%IncludeResource: font Courier-Oblique
%%IncludeResource: font Times-Roman
%%IncludeResource: font Helvetica-BoldOblique
%%IncludeResource: font Helvetica-Bold
%%IncludeResource: font Helvetica-Oblique
%%IncludeResource: font Times-BoldItalic
%%IncludeResource: font Courier
%%IncludeResource: font Times-Italic
%%IncludeResource: font Times-Bold
%%IncludeResource: font Symbol
%%IncludeResource: font ZapfDingbats
%FOPEndFontDict
%%BeginResource: encoding WinAnsiEncoding
/WinAnsiEncoding [
/.notdef /.notdef /.notdef /.notdef /.notdef
/.notdef /.notdef /.notdef /.notdef /.notdef
/.notdef /.notdef /.notdef /.notdef /.notdef
/.notdef /.notdef /.notdef /.notdef /.notdef
/.notdef /.notdef /.notdef /.notdef /.notdef
/.notdef /.notdef /.notdef /.notdef /.notdef
/.notdef /.notdef /space /exclam /quotedbl
/numbersign /dollar /percent /ampersand /quotesingle
/parenleft /parenright /asterisk /plus /comma
/hyphen /period /slash /zero /one
/two /three /four /five /six
/seven /eight /nine /colon /semicolon
/less /equal /greater /question /at
/A /B /C /D /E
/F /G /H /I /J
/K /L /M /N /O
/P /Q /R /S /T
/U /V /W /X /Y
/Z /bracketleft /backslash /bracketright /asciicircum
/underscore /quoteleft /a /b /c
/d /e /f /g /h
/i /j /k /l /m
/n /o /p /q /r
/s /t /u /v /w
/x /y /z /braceleft /bar
/braceright /asciitilde /bullet /Euro /bullet
/quotesinglbase /florin /quotedblbase /ellipsis /dagger
/daggerdbl /circumflex /perthousand /Scaron /guilsinglleft
/OE /bullet /Zcaron /bullet /bullet
/quoteleft /quoteright /quotedblleft /quotedblright /bullet
/endash /emdash /asciitilde /trademark /scaron
/guilsinglright /oe /bullet /zcaron /Ydieresis
/space /exclamdown /cent /sterling /currency
/yen /brokenbar /section /dieresis /copyright
/ordfeminine /guillemotleft /logicalnot /sfthyphen /registered
/macron /degree /plusminus /twosuperior /threesuperior
/acute /mu /paragraph /middot /cedilla
/onesuperior /ordmasculine /guillemotright /onequarter /onehalf
/threequarters /questiondown /Agrave /Aacute /Acircumflex
/Atilde /Adieresis /Aring /AE /Ccedilla
/Egrave /Eacute /Ecircumflex /Edieresis /Igrave
/Iacute /Icircumflex /Idieresis /Eth /Ntilde
/Ograve /Oacute /Ocircumflex /Otilde /Odieresis
/multiply /Oslash /Ugrave /Uacute /Ucircumflex
/Udieresis /Yacute /Thorn /germandbls /agrave
/aacute /acircumflex /atilde /adieresis /aring
/ae /ccedilla /egrave /eacute /ecircumflex
/edieresis /igrave /iacute /icircumflex /idieresis
/eth /ntilde /ograve /oacute /ocircumflex
/otilde /odieresis /divide /oslash /ugrave
/uacute /ucircumflex /udieresis /yacute /thorn
/ydieresis
] def
%%EndResource
%FOPBeginFontReencode
/Courier-Bold findfont
dup length dict begin
  {1 index /FID ne {def} {pop pop} ifelse} forall
  /Encoding WinAnsiEncoding def
  currentdict
end
/Courier-Bold exch definefont pop
/Helvetica findfont
dup length dict begin
  {1 index /FID ne {def} {pop pop} ifelse} forall
  /Encoding WinAnsiEncoding def
  currentdict
end
/Helvetica exch definefont pop
/Courier-BoldOblique findfont
dup length dict begin
  {1 index /FID ne {def} {pop pop} ifelse} forall
  /Encoding WinAnsiEncoding def
  currentdict
end
/Courier-BoldOblique exch definefont pop
/Courier-Oblique findfont
dup length dict begin
  {1 index /FID ne {def} {pop pop} ifelse} forall
  /Encoding WinAnsiEncoding def
  currentdict
end
/Courier-Oblique exch definefont pop
/Times-Roman findfont
dup length dict begin
  {1 index /FID ne {def} {pop pop} ifelse} forall
  /Encoding WinAnsiEncoding def
  currentdict
end
/Times-Roman exch definefont pop
/Helvetica-BoldOblique findfont
dup length dict begin
  {1 index /FID ne {def} {pop pop} ifelse} forall
  /Encoding WinAnsiEncoding def
  currentdict
end
/Helvetica-BoldOblique exch definefont pop
/Helvetica-Bold findfont
dup length dict begin
  {1 index /FID ne {def} {pop pop} ifelse} forall
  /Encoding WinAnsiEncoding def
  currentdict
end
/Helvetica-Bold exch definefont pop
/Helvetica-Oblique findfont
dup length dict begin
  {1 index /FID ne {def} {pop pop} ifelse} forall
  /Encoding WinAnsiEncoding def
  currentdict
end
/Helvetica-Oblique exch definefont pop
/Times-BoldItalic findfont
dup length dict begin
  {1 index /FID ne {def} {pop pop} ifelse} forall
  /Encoding WinAnsiEncoding def
  currentdict
end
/Times-BoldItalic exch definefont pop
/Courier findfont
dup length dict begin
  {1 index /FID ne {def} {pop pop} ifelse} forall
  /Encoding WinAnsiEncoding def
  currentdict
end
/Courier exch definefont pop
/Times-Italic findfont
dup length dict begin
  {1 index /FID ne {def} {pop pop} ifelse} forall
  /Encoding WinAnsiEncoding def
  currentdict
end
/Times-Italic exch definefont pop
/Times-Bold findfont
dup length dict begin
  {1 index /FID ne {def} {pop pop} ifelse} forall
  /Encoding WinAnsiEncoding def
  currentdict
end
/Times-Bold exch definefont pop
%FOPEndFontReencode
%%EndProlog
%%Page: 1 1
%%PageBoundingBox: 0 0 213 160
%%BeginPageSetup
[1 0 0 -1 0 160] CT
%%EndPageSetup
GS
[0.75 0 0 0.75 0 0.25] CT
N
0 0 M
284 0 L
284 213 L
0 213 L
0 0 L
cp
clip
1 GC
N
0 0 284 213 re
f
GR
GS
[0.75 0 0 0.75 0 0.25] CT
1 GC
N
0 0 284 213 re
f
GR
GS
[0.75 0 0 0.75 0 0.25] CT
1 GC
N
37 172 M
257 172 L
257 16 L
37 16 L
cp
f
GR
GS
[0.75 0 0 0.75 0 0.25] CT
0.873 GC
1 LJ
0.667 LW
N
59 172 M
59 16 L
S
GR
GS
[0.75 0 0 0.75 0 0.25] CT
0.873 GC
1 LJ
0.667 LW
N
103 172 M
103 16 L
S
GR
GS
[0.75 0 0 0.75 0 0.25] CT
0.873 GC
1 LJ
0.667 LW
N
147 172 M
147 16 L
S
GR
GS
[0.75 0 0 0.75 0 0.25] CT
0.873 GC
1 LJ
0.667 LW
N
191 172 M
191 16 L
S
GR
GS
[0.75 0 0 0.75 0 0.25] CT
0.873 GC
1 LJ
0.667 LW
N
235 172 M
235 16 L
S
GR
GS
[0.75 0 0 0.75 0 0.25] CT
0.873 GC
1 LJ
0.667 LW
N
257 133 M
37 133 L
S
GR
GS
[0.75 0 0 0.75 0 0.25] CT
0.873 GC
1 LJ
0.667 LW
N
257 55 M
37 55 L
S
GR
GS
[0.75 0 0 0.75 0 0.25] CT
0.149 GC
2 setlinecap
1 LJ
0.667 LW
N
37 172 M
257 172 L
S
GR
GS
[0.75 0 0 0.75 0 0.25] CT
0.149 GC
2 setlinecap
1 LJ
0.667 LW
N
37 16 M
257 16 L
S
GR
GS
[0.75 0 0 0.75 0 0.25] CT
0.149 GC
2 setlinecap
1 LJ
0.667 LW
N
59 172 M
59 169.8 L
S
GR
GS
[0.75 0 0 0.75 0 0.25] CT
0.149 GC
2 setlinecap
1 LJ
0.667 LW
N
103 172 M
103 169.8 L
S
GR
GS
[0.75 0 0 0.75 0 0.25] CT
0.149 GC
2 setlinecap
1 LJ
0.667 LW
N
147 172 M
147 169.8 L
S
GR
GS
[0.75 0 0 0.75 0 0.25] CT
0.149 GC
2 setlinecap
1 LJ
0.667 LW
N
191 172 M
191 169.8 L
S
GR
GS
[0.75 0 0 0.75 0 0.25] CT
0.149 GC
2 setlinecap
1 LJ
0.667 LW
N
235 172 M
235 169.8 L
S
GR
GS
[0.75 0 0 0.75 0 0.25] CT
0.149 GC
2 setlinecap
1 LJ
0.667 LW
N
59 16 M
59 18.2 L
S
GR
GS
[0.75 0 0 0.75 0 0.25] CT
0.149 GC
2 setlinecap
1 LJ
0.667 LW
N
103 16 M
103 18.2 L
S
GR
GS
[0.75 0 0 0.75 0 0.25] CT
0.149 GC
2 setlinecap
1 LJ
0.667 LW
N
147 16 M
147 18.2 L
S
GR
GS
[0.75 0 0 0.75 0 0.25] CT
0.149 GC
2 setlinecap
1 LJ
0.667 LW
N
191 16 M
191 18.2 L
S
GR
GS
[0.75 0 0 0.75 0 0.25] CT
0.149 GC
2 setlinecap
1 LJ
0.667 LW
N
235 16 M
235 18.2 L
S
GR
GS
[0.75 0 0 0.75 44.25 133.25] CT
0.149 GC
N
-11.23 8.216 M
-11.339 8.216 -11.409 8.13 QT
-11.48 8.044 -11.48 7.95 QT
-11.48 7.856 -11.409 7.77 QT
-11.339 7.684 -11.23 7.684 QT
-3.777 7.684 L
-3.667 7.684 -3.605 7.77 QT
-3.542 7.856 -3.542 7.95 QT
-3.542 8.044 -3.605 8.13 QT
-3.667 8.216 -3.777 8.216 QT
-11.23 8.216 L
cp
f
GR
GS
[0.75 0 0 0.75 44.25 133.25] CT
0.149 GC
N
-1.828 9.059 M
-1.828 8.591 L
2.188 2.606 L
2.234 2.544 2.328 2.544 QT
2.516 2.544 L
2.656 2.544 2.656 2.684 QT
2.656 8.591 L
3.938 8.591 L
3.938 9.059 L
2.656 9.059 L
2.656 10.325 L
2.656 10.591 3.039 10.669 QT
3.422 10.747 3.922 10.747 QT
3.922 11.2 L
0.344 11.2 L
0.344 10.747 L
0.844 10.747 1.227 10.669 QT
1.609 10.591 1.609 10.325 QT
1.609 9.059 L
-1.828 9.059 L
cp
-1.391 8.591 M
1.688 8.591 L
1.688 3.997 L
-1.391 8.591 L
cp
f
GR
GS
[0.75 0 0 0.75 44.25 133.25] CT
0.149 GC
N
5.792 10.981 M
5.792 10.903 5.839 10.762 QT
6.214 10.012 6.526 9.286 QT
6.839 8.559 7.089 7.872 QT
7.339 7.184 7.542 6.403 QT
6.714 6.403 L
6.245 6.403 5.831 6.7 QT
5.417 6.997 5.135 7.45 QT
5.12 7.512 5.057 7.512 QT
4.917 7.512 L
4.792 7.512 4.792 7.372 QT
4.792 7.356 4.823 7.309 QT
5.245 6.575 5.729 6.083 QT
6.214 5.591 6.823 5.591 QT
11.542 5.591 L
11.667 5.591 11.76 5.684 QT
11.854 5.778 11.854 5.919 QT
11.854 6.122 11.721 6.262 QT
11.589 6.403 11.401 6.403 QT
9.745 6.403 L
9.526 7.419 9.51 8.387 QT
9.51 9.637 9.948 10.653 QT
9.995 10.731 9.995 10.809 QT
9.995 10.95 9.909 11.075 QT
9.823 11.2 9.69 11.27 QT
9.557 11.341 9.417 11.341 QT
9.073 11.341 8.948 10.786 QT
8.823 10.231 8.823 9.7 QT
8.823 8.966 8.948 8.27 QT
9.073 7.575 9.354 6.403 QT
7.932 6.403 L
6.917 10.559 6.698 10.997 QT
6.51 11.341 6.198 11.341 QT
6.042 11.341 5.917 11.239 QT
5.792 11.137 5.792 10.981 QT
cp
f
GR
GS
[0.75 0 0 0.75 77.25 133.25] CT
0.149 GC
N
/f623989187{-11.23 8.216 M
-11.339 8.216 -11.409 8.13 QT
-11.48 8.044 -11.48 7.95 QT
-11.48 7.856 -11.409 7.77 QT
-11.339 7.684 -11.23 7.684 QT
-3.777 7.684 L
-3.667 7.684 -3.605 7.77 QT
-3.542 7.856 -3.542 7.95 QT
-3.542 8.044 -3.605 8.13 QT
-3.667 8.216 -3.777 8.216 QT
-11.23 8.216 L
cp}def
f623989187
f
GR
GS
[0.75 0 0 0.75 77.25 133.25] CT
0.149 GC
N
/f412135865{-1.547 11.2 M
-1.547 10.856 L
-1.547 10.825 -1.516 10.778 QT
0.5 8.544 L
0.969 8.044 1.25 7.708 QT
1.531 7.372 1.813 6.934 QT
2.094 6.497 2.258 6.044 QT
2.422 5.591 2.422 5.091 QT
2.422 4.559 2.219 4.067 QT
2.016 3.575 1.625 3.286 QT
1.234 2.997 0.688 2.997 QT
0.125 2.997 -0.328 3.341 QT
-0.781 3.684 -0.969 4.216 QT
-0.906 4.2 -0.828 4.2 QT
-0.531 4.2 -0.328 4.395 QT
-0.125 4.591 -0.125 4.903 QT
-0.125 5.2 -0.328 5.411 QT
-0.531 5.622 -0.828 5.622 QT
-1.125 5.622 -1.336 5.411 QT
-1.547 5.2 -1.547 4.903 QT
-1.547 4.419 -1.359 3.989 QT
-1.172 3.559 -0.828 3.231 QT
-0.484 2.903 -0.047 2.723 QT
0.391 2.544 0.875 2.544 QT
1.625 2.544 2.266 2.856 QT
2.906 3.169 3.281 3.747 QT
3.656 4.325 3.656 5.091 QT
3.656 5.653 3.406 6.161 QT
3.156 6.669 2.773 7.083 QT
2.391 7.497 1.781 8.028 QT
1.172 8.559 0.984 8.731 QT
-0.484 10.153 L
0.766 10.153 L
1.688 10.153 2.305 10.137 QT
2.922 10.122 2.953 10.075 QT
3.109 9.919 3.266 8.887 QT
3.656 8.887 L
3.281 11.2 L
-1.547 11.2 L
cp}def
f412135865
f
GR
GS
[0.75 0 0 0.75 77.25 133.25] CT
0.149 GC
N
/f-453932370{5.792 10.981 M
5.792 10.903 5.839 10.762 QT
6.214 10.012 6.526 9.286 QT
6.839 8.559 7.089 7.872 QT
7.339 7.184 7.542 6.403 QT
6.714 6.403 L
6.245 6.403 5.831 6.7 QT
5.417 6.997 5.135 7.45 QT
5.12 7.512 5.057 7.512 QT
4.917 7.512 L
4.792 7.512 4.792 7.372 QT
4.792 7.356 4.823 7.309 QT
5.245 6.575 5.729 6.083 QT
6.214 5.591 6.823 5.591 QT
11.542 5.591 L
11.667 5.591 11.76 5.684 QT
11.854 5.778 11.854 5.919 QT
11.854 6.122 11.721 6.262 QT
11.589 6.403 11.401 6.403 QT
9.745 6.403 L
9.526 7.419 9.51 8.387 QT
9.51 9.637 9.948 10.653 QT
9.995 10.731 9.995 10.809 QT
9.995 10.95 9.909 11.075 QT
9.823 11.2 9.69 11.27 QT
9.557 11.341 9.417 11.341 QT
9.073 11.341 8.948 10.786 QT
8.823 10.231 8.823 9.7 QT
8.823 8.966 8.948 8.27 QT
9.073 7.575 9.354 6.403 QT
7.932 6.403 L
6.917 10.559 6.698 10.997 QT
6.51 11.341 6.198 11.341 QT
6.042 11.341 5.917 11.239 QT
5.792 11.137 5.792 10.981 QT
cp}def
f-453932370
f
GR
GS
[0.75 0 0 0.75 110.25 133.25] CT
0.149 GC
N
/f1061832871{-0.083 11.481 M
-1.677 11.481 -2.247 10.169 QT
-2.818 8.856 -2.818 7.059 QT
-2.818 5.919 -2.615 4.927 QT
-2.411 3.934 -1.802 3.239 QT
-1.193 2.544 -0.083 2.544 QT
0.776 2.544 1.323 2.958 QT
1.87 3.372 2.151 4.036 QT
2.432 4.7 2.542 5.458 QT
2.651 6.216 2.651 7.059 QT
2.651 8.169 2.44 9.145 QT
2.229 10.122 1.628 10.802 QT
1.026 11.481 -0.083 11.481 QT
cp
-0.083 11.153 M
0.635 11.153 0.995 10.411 QT
1.354 9.669 1.432 8.762 QT
1.51 7.856 1.51 6.841 QT
1.51 5.872 1.432 5.044 QT
1.354 4.216 1.003 3.544 QT
0.651 2.872 -0.083 2.872 QT
-0.818 2.872 -1.177 3.552 QT
-1.536 4.231 -1.615 5.052 QT
-1.693 5.872 -1.693 6.841 QT
-1.693 7.575 -1.661 8.216 QT
-1.63 8.856 -1.474 9.536 QT
-1.318 10.216 -0.982 10.684 QT
-0.646 11.153 -0.083 11.153 QT
cp}def
f1061832871
f
GR
GS
[0.75 0 0 0.75 143.25 133.25] CT
0.149 GC
N
/f-1981330070{-6.732 11.2 M
-6.732 10.856 L
-6.732 10.825 -6.701 10.778 QT
-4.685 8.544 L
-4.216 8.044 -3.935 7.708 QT
-3.654 7.372 -3.373 6.934 QT
-3.091 6.497 -2.927 6.044 QT
-2.763 5.591 -2.763 5.091 QT
-2.763 4.559 -2.966 4.067 QT
-3.17 3.575 -3.56 3.286 QT
-3.951 2.997 -4.498 2.997 QT
-5.06 2.997 -5.513 3.341 QT
-5.966 3.684 -6.154 4.216 QT
-6.091 4.2 -6.013 4.2 QT
-5.716 4.2 -5.513 4.395 QT
-5.31 4.591 -5.31 4.903 QT
-5.31 5.2 -5.513 5.411 QT
-5.716 5.622 -6.013 5.622 QT
-6.31 5.622 -6.521 5.411 QT
-6.732 5.2 -6.732 4.903 QT
-6.732 4.419 -6.545 3.989 QT
-6.357 3.559 -6.013 3.231 QT
-5.67 2.903 -5.232 2.723 QT
-4.795 2.544 -4.31 2.544 QT
-3.56 2.544 -2.92 2.856 QT
-2.279 3.169 -1.904 3.747 QT
-1.529 4.325 -1.529 5.091 QT
-1.529 5.653 -1.779 6.161 QT
-2.029 6.669 -2.412 7.083 QT
-2.795 7.497 -3.404 8.028 QT
-4.013 8.559 -4.201 8.731 QT
-5.67 10.153 L
-4.42 10.153 L
-3.498 10.153 -2.881 10.137 QT
-2.263 10.122 -2.232 10.075 QT
-2.076 9.919 -1.92 8.887 QT
-1.529 8.887 L
-1.904 11.2 L
-6.732 11.2 L
cp}def
f-1981330070
f
GR
GS
[0.75 0 0 0.75 143.25 133.25] CT
0.149 GC
N
/f-1714522461{0.606 10.981 M
0.606 10.903 0.653 10.762 QT
1.028 10.012 1.341 9.286 QT
1.653 8.559 1.903 7.872 QT
2.153 7.184 2.356 6.403 QT
1.528 6.403 L
1.06 6.403 0.646 6.7 QT
0.231 6.997 -0.05 7.45 QT
-0.065 7.512 -0.128 7.512 QT
-0.269 7.512 L
-0.394 7.512 -0.394 7.372 QT
-0.394 7.356 -0.362 7.309 QT
0.06 6.575 0.544 6.083 QT
1.028 5.591 1.638 5.591 QT
6.356 5.591 L
6.481 5.591 6.575 5.684 QT
6.669 5.778 6.669 5.919 QT
6.669 6.122 6.536 6.262 QT
6.403 6.403 6.216 6.403 QT
4.56 6.403 L
4.341 7.419 4.325 8.387 QT
4.325 9.637 4.763 10.653 QT
4.81 10.731 4.81 10.809 QT
4.81 10.95 4.724 11.075 QT
4.638 11.2 4.505 11.27 QT
4.372 11.341 4.231 11.341 QT
3.888 11.341 3.763 10.786 QT
3.638 10.231 3.638 9.7 QT
3.638 8.966 3.763 8.27 QT
3.888 7.575 4.169 6.403 QT
2.747 6.403 L
1.731 10.559 1.513 10.997 QT
1.325 11.341 1.013 11.341 QT
0.856 11.341 0.731 11.239 QT
0.606 11.137 0.606 10.981 QT
cp}def
f-1714522461
f
GR
GS
[0.75 0 0 0.75 176.25 133.25] CT
0.149 GC
N
/f1974032907{-7.013 9.059 M
-7.013 8.591 L
-2.998 2.606 L
-2.951 2.544 -2.857 2.544 QT
-2.67 2.544 L
-2.529 2.544 -2.529 2.684 QT
-2.529 8.591 L
-1.248 8.591 L
-1.248 9.059 L
-2.529 9.059 L
-2.529 10.325 L
-2.529 10.591 -2.146 10.669 QT
-1.763 10.747 -1.263 10.747 QT
-1.263 11.2 L
-4.841 11.2 L
-4.841 10.747 L
-4.341 10.747 -3.959 10.669 QT
-3.576 10.591 -3.576 10.325 QT
-3.576 9.059 L
-7.013 9.059 L
cp
-6.576 8.591 M
-3.498 8.591 L
-3.498 3.997 L
-6.576 8.591 L
cp}def
f1974032907
f
GR
GS
[0.75 0 0 0.75 176.25 133.25] CT
0.149 GC
N
f-1714522461
f
GR
GS
[0.75 0 0 0.75 110.25008 146.53592] CT
0.149 GC
N
/f-697042487{-20.712 12.844 M
-21.556 12.844 -21.931 12.219 QT
-22.306 11.594 -22.306 10.688 QT
-22.306 10.094 -22.204 9.531 QT
-22.103 8.969 -21.884 8.383 QT
-21.665 7.797 -21.392 7.289 QT
-21.118 6.781 -20.759 6.297 QT
-20.696 6.203 -20.587 6.203 QT
-20.493 6.203 -20.439 6.266 QT
-20.384 6.328 -20.384 6.406 QT
-20.384 6.485 -20.415 6.547 QT
-21.79 8.438 -21.79 10.016 QT
-21.79 10.703 -21.47 11.203 QT
-21.15 11.703 -20.509 11.703 QT
-19.946 11.703 -19.462 11.367 QT
-18.978 11.031 -18.634 10.531 QT
-18.634 10.266 -18.54 9.711 QT
-18.446 9.156 -18.251 8.719 QT
-18.056 8.281 -17.79 8.281 QT
-17.446 8.281 -17.446 8.688 QT
-17.446 8.922 -17.54 9.274 QT
-17.634 9.625 -17.759 9.93 QT
-17.884 10.235 -18.056 10.625 QT
-17.884 11.703 -16.993 11.703 QT
-16.462 11.703 -15.939 11.399 QT
-15.415 11.094 -15.017 10.61 QT
-14.618 10.125 -14.384 9.563 QT
-14.15 9 -14.15 8.485 QT
-14.15 8.031 -14.29 7.781 QT
-14.431 7.531 -14.665 7.25 QT
-14.9 6.969 -14.9 6.813 QT
-14.9 6.516 -14.657 6.274 QT
-14.415 6.031 -14.118 6.031 QT
-13.759 6.031 -13.603 6.36 QT
-13.446 6.688 -13.446 7.125 QT
-13.446 7.813 -13.72 8.86 QT
-13.993 9.906 -14.353 10.594 QT
-14.837 11.547 -15.564 12.195 QT
-16.29 12.844 -17.196 12.844 QT
-17.775 12.844 -18.134 12.492 QT
-18.493 12.141 -18.587 11.547 QT
-19.009 12.141 -19.54 12.492 QT
-20.071 12.844 -20.712 12.844 QT
cp}def
f-697042487
f
GR
GS
[0.75 0 0 0.75 110.25008 146.53592] CT
0.149 GC
N
/f269758406{-7.393 18.183 M
-7.393 0.198 L
-4.518 0.198 L
-4.518 0.792 L
-6.784 0.792 L
-6.784 17.573 L
-4.518 17.573 L
-4.518 18.183 L
-7.393 18.183 L
cp}def
f269758406
f
GR
GS
[0.75 0 0 0.75 110.25008 146.53592] CT
0.149 GC
N
/f-120966960{-3.017 11.75 M
-2.61 12.438 -1.392 12.438 QT
-0.86 12.438 -0.384 12.258 QT
0.093 12.078 0.405 11.727 QT
0.718 11.375 0.718 10.86 QT
0.718 10.469 0.437 10.219 QT
0.155 9.969 -0.251 9.875 QT
-1.063 9.719 L
-1.61 9.578 -1.97 9.195 QT
-2.329 8.813 -2.329 8.281 QT
-2.329 7.61 -1.97 7.094 QT
-1.61 6.578 -1.017 6.313 QT
-0.423 6.047 0.218 6.047 QT
0.89 6.047 1.429 6.367 QT
1.968 6.688 1.968 7.328 QT
1.968 7.672 1.772 7.938 QT
1.577 8.203 1.233 8.203 QT
1.046 8.203 0.897 8.078 QT
0.749 7.953 0.749 7.75 QT
0.749 7.578 0.851 7.414 QT
0.952 7.25 1.116 7.149 QT
1.28 7.047 1.452 7.047 QT
1.327 6.719 0.968 6.578 QT
0.608 6.438 0.187 6.438 QT
-0.204 6.438 -0.579 6.586 QT
-0.954 6.735 -1.188 7.031 QT
-1.423 7.328 -1.423 7.735 QT
-1.423 8 -1.228 8.211 QT
-1.032 8.422 -0.767 8.5 QT
0.108 8.688 L
0.53 8.766 0.874 8.992 QT
1.218 9.219 1.421 9.555 QT
1.624 9.891 1.624 10.328 QT
1.624 10.891 1.312 11.43 QT
0.999 11.969 0.546 12.297 QT
-0.251 12.844 -1.407 12.844 QT
-2.204 12.844 -2.868 12.477 QT
-3.532 12.11 -3.532 11.375 QT
-3.532 10.969 -3.298 10.664 QT
-3.063 10.36 -2.657 10.36 QT
-2.407 10.36 -2.243 10.508 QT
-2.079 10.656 -2.079 10.906 QT
-2.079 11.25 -2.337 11.5 QT
-2.595 11.75 -2.938 11.75 QT
-3.017 11.75 L
cp}def
f-120966960
f
GR
GS
[0.75 0 0 0.75 110.25008 146.53592] CT
0.149 GC
N
/f-589767001{3.577 4.319 M
3.499 4.319 3.444 4.257 QT
3.39 4.194 3.39 4.116 QT
3.39 4.038 3.444 3.976 QT
3.499 3.913 3.577 3.913 QT
9.327 3.913 L
9.405 3.913 9.452 3.976 QT
9.499 4.038 9.499 4.116 QT
9.499 4.194 9.452 4.257 QT
9.405 4.319 9.327 4.319 QT
3.577 4.319 L
cp}def
f-589767001
f
GR
GS
[0.75 0 0 0.75 110.25008 146.53592] CT
0.149 GC
N
/f1491871024{11.469 6.616 M
11.469 6.257 L
12.719 6.257 12.719 5.944 QT
12.719 0.694 L
12.203 0.944 11.422 0.944 QT
11.422 0.601 L
12.64 0.601 13.265 -0.04 QT
13.406 -0.04 L
13.437 -0.04 13.469 -0.017 QT
13.5 0.007 13.5 0.038 QT
13.5 5.944 L
13.5 6.257 14.75 6.257 QT
14.75 6.616 L
11.469 6.616 L
cp}def
f1491871024
f
GR
GS
[0.75 0 0 0.75 110.25008 146.53592] CT
0.149 GC
N
/f196068923{16.742 18.183 M
16.742 17.573 L
19.023 17.573 L
19.023 0.792 L
16.742 0.792 L
16.742 0.198 L
19.617 0.198 L
19.617 18.183 L
16.742 18.183 L
cp}def
f196068923
f
GR
GS
[0.75 0 0 0.75 0 0.25] CT
0.149 GC
2 setlinecap
1 LJ
0.667 LW
N
37 172 M
37 16 L
S
GR
GS
[0.75 0 0 0.75 0 0.25] CT
0.149 GC
2 setlinecap
1 LJ
0.667 LW
N
257 172 M
257 16 L
S
GR
GS
[0.75 0 0 0.75 0 0.25] CT
0.149 GC
2 setlinecap
1 LJ
0.667 LW
N
37 133 M
39.2 133 L
S
GR
GS
[0.75 0 0 0.75 0 0.25] CT
0.149 GC
2 setlinecap
1 LJ
0.667 LW
N
37 55 M
39.2 55 L
S
GR
GS
[0.75 0 0 0.75 0 0.25] CT
0.149 GC
2 setlinecap
1 LJ
0.667 LW
N
257 133 M
254.8 133 L
S
GR
GS
[0.75 0 0 0.75 0 0.25] CT
0.149 GC
2 setlinecap
1 LJ
0.667 LW
N
257 55 M
254.8 55 L
S
GR
GS
[0.75 0 0 0.75 23.75001 100] CT
0.149 GC
N
/f-2026418800{-3.417 3.481 M
-5.01 3.481 -5.581 2.169 QT
-6.151 0.856 -6.151 -0.941 QT
-6.151 -2.081 -5.948 -3.073 QT
-5.745 -4.066 -5.135 -4.761 QT
-4.526 -5.456 -3.417 -5.456 QT
-2.557 -5.456 -2.01 -5.042 QT
-1.464 -4.628 -1.182 -3.964 QT
-0.901 -3.3 -0.792 -2.542 QT
-0.682 -1.784 -0.682 -0.941 QT
-0.682 0.169 -0.893 1.145 QT
-1.104 2.122 -1.706 2.802 QT
-2.307 3.481 -3.417 3.481 QT
cp
-3.417 3.153 M
-2.698 3.153 -2.339 2.411 QT
-1.979 1.669 -1.901 0.762 QT
-1.823 -0.144 -1.823 -1.159 QT
-1.823 -2.128 -1.901 -2.956 QT
-1.979 -3.784 -2.331 -4.456 QT
-2.682 -5.128 -3.417 -5.128 QT
-4.151 -5.128 -4.51 -4.448 QT
-4.87 -3.769 -4.948 -2.948 QT
-5.026 -2.128 -5.026 -1.159 QT
-5.026 -0.425 -4.995 0.216 QT
-4.964 0.856 -4.807 1.536 QT
-4.651 2.216 -4.315 2.684 QT
-3.979 3.153 -3.417 3.153 QT
cp}def
f-2026418800
f
GR
GS
[0.75 0 0 0.75 23.75001 41.5] CT
0.149 GC
N
/f1361983908{-7.427 3.2 M
-7.427 2.747 L
-6.786 2.747 -6.169 2.669 QT
-5.552 2.591 -5.552 2.325 QT
-5.552 -4.816 L
-5.552 -5.097 -5.708 -5.159 QT
-5.864 -5.222 -6.208 -5.222 QT
-6.755 -5.222 L
-7.833 -5.222 -8.27 -4.753 QT
-8.505 -4.519 -8.606 -4.003 QT
-8.708 -3.488 -8.786 -2.706 QT
-9.161 -2.706 L
-8.911 -5.675 L
-0.973 -5.675 L
-0.723 -2.706 L
-1.098 -2.706 L
-1.177 -3.534 -1.27 -4.027 QT
-1.364 -4.519 -1.598 -4.753 QT
-2.067 -5.222 -3.13 -5.222 QT
-3.677 -5.222 L
-3.911 -5.222 -4.044 -5.206 QT
-4.177 -5.191 -4.255 -5.097 QT
-4.333 -5.003 -4.333 -4.816 QT
-4.333 2.325 L
-4.333 2.591 -3.716 2.669 QT
-3.098 2.747 -2.458 2.747 QT
-2.458 3.2 L
-7.427 3.2 L
cp}def
f1361983908
f
GR
GS
[0 -0.75 0.75 0 13.52777 70.74994] CT
0.149 GC
N
/f-635182659{-33.534 -5.28 M
-33.534 -5.811 L
-32.19 -5.811 -31.894 -6.686 QT
-28.737 -15.858 L
-28.69 -16.014 -28.503 -16.014 QT
-28.3 -16.014 L
-28.112 -16.014 -28.065 -15.858 QT
-24.769 -6.28 L
-24.644 -5.968 -24.245 -5.889 QT
-23.847 -5.811 -23.269 -5.811 QT
-23.269 -5.28 L
-27.456 -5.28 L
-27.456 -5.811 L
-26.206 -5.811 -26.206 -6.218 QT
-26.206 -6.28 L
-27.019 -8.624 L
-30.659 -8.624 L
-31.331 -6.686 L
-31.347 -6.639 -31.347 -6.546 QT
-31.347 -6.171 -30.987 -5.991 QT
-30.628 -5.811 -30.222 -5.811 QT
-30.222 -5.28 L
-33.534 -5.28 L
cp
-30.487 -9.155 M
-27.19 -9.155 L
-28.847 -13.936 L
-30.487 -9.155 L
cp}def
f-635182659
f
GR
GS
[0 -0.75 0.75 0 13.52777 70.74994] CT
0.149 GC
N
/f-1906024864{-22.565 -5.28 M
-22.565 -5.811 L
-22.065 -5.811 -21.73 -5.889 QT
-21.394 -5.968 -21.394 -6.28 QT
-21.394 -10.374 L
-21.394 -10.78 -21.519 -10.96 QT
-21.644 -11.139 -21.87 -11.178 QT
-22.097 -11.218 -22.565 -11.218 QT
-22.565 -11.749 L
-20.394 -11.905 L
-20.394 -10.436 L
-20.097 -11.093 -19.503 -11.499 QT
-18.909 -11.905 -18.222 -11.905 QT
-16.487 -11.905 -16.19 -10.499 QT
-15.894 -11.139 -15.315 -11.522 QT
-14.737 -11.905 -14.05 -11.905 QT
-13.362 -11.905 -12.901 -11.686 QT
-12.44 -11.468 -12.206 -11.014 QT
-11.972 -10.561 -11.972 -9.889 QT
-11.972 -6.28 L
-11.972 -5.968 -11.636 -5.889 QT
-11.3 -5.811 -10.8 -5.811 QT
-10.8 -5.28 L
-14.222 -5.28 L
-14.222 -5.811 L
-13.722 -5.811 -13.386 -5.889 QT
-13.05 -5.968 -13.05 -6.28 QT
-13.05 -9.843 L
-13.05 -10.593 -13.269 -11.053 QT
-13.487 -11.514 -14.144 -11.514 QT
-15.003 -11.514 -15.565 -10.819 QT
-16.128 -10.124 -16.128 -9.249 QT
-16.128 -6.28 L
-16.128 -5.968 -15.8 -5.889 QT
-15.472 -5.811 -14.956 -5.811 QT
-14.956 -5.28 L
-18.394 -5.28 L
-18.394 -5.811 L
-17.878 -5.811 -17.55 -5.889 QT
-17.222 -5.968 -17.222 -6.28 QT
-17.222 -9.843 L
-17.222 -10.577 -17.433 -11.046 QT
-17.644 -11.514 -18.315 -11.514 QT
-19.175 -11.514 -19.737 -10.819 QT
-20.3 -10.124 -20.3 -9.249 QT
-20.3 -6.28 L
-20.3 -5.968 -19.972 -5.889 QT
-19.644 -5.811 -19.144 -5.811 QT
-19.144 -5.28 L
-22.565 -5.28 L
cp}def
f-1906024864
f
GR
GS
[0 -0.75 0.75 0 13.52777 70.74994] CT
0.149 GC
N
/f623790312{-10.406 -2.374 M
-10.406 -2.889 L
-9.89 -2.889 -9.562 -2.975 QT
-9.234 -3.061 -9.234 -3.374 QT
-9.234 -10.608 L
-9.234 -11.014 -9.531 -11.116 QT
-9.828 -11.218 -10.406 -11.218 QT
-10.406 -11.749 L
-8.187 -11.905 L
-8.187 -10.983 L
-7.781 -11.436 -7.234 -11.671 QT
-6.687 -11.905 -6.078 -11.905 QT
-5.187 -11.905 -4.476 -11.428 QT
-3.765 -10.952 -3.367 -10.171 QT
-2.968 -9.389 -2.968 -8.514 QT
-2.968 -7.608 -3.414 -6.827 QT
-3.859 -6.046 -4.624 -5.577 QT
-5.39 -5.108 -6.296 -5.108 QT
-7.39 -5.108 -8.14 -5.999 QT
-8.14 -3.374 L
-8.14 -3.061 -7.812 -2.975 QT
-7.484 -2.889 -6.968 -2.889 QT
-6.968 -2.374 L
-10.406 -2.374 L
cp
-8.14 -6.733 M
-7.874 -6.202 -7.406 -5.858 QT
-6.937 -5.514 -6.39 -5.514 QT
-5.874 -5.514 -5.468 -5.788 QT
-5.062 -6.061 -4.796 -6.53 QT
-4.531 -6.999 -4.398 -7.514 QT
-4.265 -8.03 -4.265 -8.514 QT
-4.265 -9.124 -4.484 -9.819 QT
-4.703 -10.514 -5.148 -10.999 QT
-5.593 -11.483 -6.218 -11.483 QT
-6.828 -11.483 -7.335 -11.171 QT
-7.843 -10.858 -8.14 -10.327 QT
-8.14 -6.733 L
cp}def
f623790312
f
GR
GS
[0 -0.75 0.75 0 13.52777 70.74994] CT
0.149 GC
N
/f-1130989129{-2.179 -5.28 M
-2.179 -5.811 L
-1.679 -5.811 -1.343 -5.889 QT
-1.008 -5.968 -1.008 -6.28 QT
-1.008 -14.155 L
-1.008 -14.561 -1.133 -14.741 QT
-1.258 -14.921 -1.484 -14.96 QT
-1.711 -14.999 -2.179 -14.999 QT
-2.179 -15.53 L
0.039 -15.686 L
0.039 -6.28 L
0.039 -5.968 0.367 -5.889 QT
0.696 -5.811 1.211 -5.811 QT
1.211 -5.28 L
-2.179 -5.28 L
cp}def
f-1130989129
f
GR
GS
[0 -0.75 0.75 0 13.52777 70.74994] CT
0.149 GC
N
/f1778272899{1.895 -5.28 M
1.895 -5.811 L
2.395 -5.811 2.731 -5.889 QT
3.067 -5.968 3.067 -6.28 QT
3.067 -10.374 L
3.067 -10.952 2.84 -11.085 QT
2.613 -11.218 1.957 -11.218 QT
1.957 -11.749 L
4.113 -11.905 L
4.113 -6.28 L
4.113 -5.968 4.402 -5.889 QT
4.692 -5.811 5.16 -5.811 QT
5.16 -5.28 L
1.895 -5.28 L
cp
2.52 -14.483 M
2.52 -14.811 2.77 -15.061 QT
3.02 -15.311 3.348 -15.311 QT
3.551 -15.311 3.754 -15.202 QT
3.957 -15.093 4.067 -14.897 QT
4.176 -14.702 4.176 -14.483 QT
4.176 -14.171 3.926 -13.921 QT
3.676 -13.671 3.348 -13.671 QT
3.02 -13.671 2.77 -13.921 QT
2.52 -14.171 2.52 -14.483 QT
cp}def
f1778272899
f
GR
GS
[0 -0.75 0.75 0 13.52777 70.74994] CT
0.149 GC
N
/f-331511160{7.031 -7.077 M
7.031 -11.218 L
5.781 -11.218 L
5.781 -11.608 L
6.766 -11.608 7.227 -12.522 QT
7.688 -13.436 7.688 -14.514 QT
8.125 -14.514 L
8.125 -11.749 L
10.234 -11.749 L
10.234 -11.218 L
8.125 -11.218 L
8.125 -7.108 L
8.125 -6.483 8.336 -6.014 QT
8.547 -5.546 9.078 -5.546 QT
9.594 -5.546 9.82 -6.046 QT
10.047 -6.546 10.047 -7.108 QT
10.047 -7.999 L
10.484 -7.999 L
10.484 -7.077 L
10.484 -6.608 10.313 -6.155 QT
10.141 -5.702 9.805 -5.405 QT
9.469 -5.108 8.984 -5.108 QT
8.078 -5.108 7.555 -5.647 QT
7.031 -6.186 7.031 -7.077 QT
cp}def
f-331511160
f
GR
GS
[0 -0.75 0.75 0 13.52777 70.74994] CT
0.149 GC
N
/f-332655191{12.829 -7.061 M
12.829 -10.374 L
12.829 -10.78 12.704 -10.96 QT
12.579 -11.139 12.352 -11.178 QT
12.126 -11.218 11.657 -11.218 QT
11.657 -11.749 L
13.922 -11.905 L
13.922 -7.061 L
13.922 -6.483 14.008 -6.155 QT
14.094 -5.827 14.368 -5.671 QT
14.641 -5.514 15.235 -5.514 QT
16.047 -5.514 16.524 -6.186 QT
17.001 -6.858 17.001 -7.718 QT
17.001 -10.374 L
17.001 -10.78 16.876 -10.96 QT
16.751 -11.139 16.524 -11.178 QT
16.297 -11.218 15.829 -11.218 QT
15.829 -11.749 L
18.094 -11.905 L
18.094 -6.639 L
18.094 -6.249 18.212 -6.069 QT
18.329 -5.889 18.555 -5.85 QT
18.782 -5.811 19.266 -5.811 QT
19.266 -5.28 L
17.047 -5.108 L
17.047 -6.374 L
16.766 -5.811 16.266 -5.46 QT
15.766 -5.108 15.172 -5.108 QT
14.094 -5.108 13.462 -5.569 QT
12.829 -6.03 12.829 -7.061 QT
cp}def
f-332655191
f
GR
GS
[0 -0.75 0.75 0 13.52777 70.74994] CT
0.149 GC
N
/f622013074{23.008 -5.108 M
22.133 -5.108 21.399 -5.593 QT
20.664 -6.077 20.258 -6.858 QT
19.852 -7.639 19.852 -8.514 QT
19.852 -9.421 20.297 -10.202 QT
20.743 -10.983 21.5 -11.444 QT
22.258 -11.905 23.18 -11.905 QT
23.727 -11.905 24.219 -11.678 QT
24.711 -11.452 25.071 -11.03 QT
25.071 -14.155 L
25.071 -14.561 24.946 -14.741 QT
24.821 -14.921 24.602 -14.96 QT
24.383 -14.999 23.899 -14.999 QT
23.899 -15.53 L
26.118 -15.686 L
26.118 -6.639 L
26.118 -6.249 26.243 -6.069 QT
26.368 -5.889 26.586 -5.85 QT
26.805 -5.811 27.289 -5.811 QT
27.289 -5.28 L
25.024 -5.108 L
25.024 -6.061 L
24.633 -5.608 24.102 -5.358 QT
23.571 -5.108 23.008 -5.108 QT
cp
21.477 -6.577 M
21.743 -6.093 22.172 -5.803 QT
22.602 -5.514 23.102 -5.514 QT
23.727 -5.514 24.243 -5.866 QT
24.758 -6.218 25.024 -6.796 QT
25.024 -10.389 L
24.852 -10.718 24.578 -10.983 QT
24.305 -11.249 23.977 -11.382 QT
23.649 -11.514 23.274 -11.514 QT
22.493 -11.514 22.016 -11.077 QT
21.539 -10.639 21.344 -9.952 QT
21.149 -9.264 21.149 -8.499 QT
21.149 -7.905 21.211 -7.46 QT
21.274 -7.014 21.477 -6.577 QT
cp}def
f622013074
f
GR
GS
[0 -0.75 0.75 0 13.52777 70.74994] CT
0.149 GC
N
/f917036437{31.234 -5.108 M
30.313 -5.108 29.555 -5.593 QT
28.797 -6.077 28.359 -6.874 QT
27.922 -7.671 27.922 -8.561 QT
27.922 -9.452 28.32 -10.241 QT
28.719 -11.03 29.43 -11.514 QT
30.141 -11.999 31.016 -11.999 QT
31.719 -11.999 32.227 -11.772 QT
32.734 -11.546 33.063 -11.132 QT
33.391 -10.718 33.555 -10.163 QT
33.719 -9.608 33.719 -8.936 QT
33.719 -8.749 33.578 -8.749 QT
29.234 -8.749 L
29.234 -8.577 L
29.234 -7.343 29.734 -6.444 QT
30.234 -5.546 31.375 -5.546 QT
31.828 -5.546 32.219 -5.757 QT
32.609 -5.968 32.899 -6.327 QT
33.188 -6.686 33.297 -7.108 QT
33.313 -7.155 33.352 -7.202 QT
33.391 -7.249 33.438 -7.249 QT
33.578 -7.249 L
33.719 -7.249 33.719 -7.046 QT
33.516 -6.202 32.813 -5.655 QT
32.109 -5.108 31.234 -5.108 QT
cp
29.25 -9.124 M
32.656 -9.124 L
32.656 -9.686 32.5 -10.264 QT
32.344 -10.843 31.977 -11.225 QT
31.609 -11.608 31.016 -11.608 QT
30.172 -11.608 29.711 -10.811 QT
29.25 -10.014 29.25 -9.124 QT
cp}def
f917036437
f
GR
GS
[0.75 0 0 0.75 0 0.25] CT
1 LJ
0.667 LW
N
36.974 123.071 M
36.989 123.07 L
37.059 123.063 L
37.129 123.058 L
37.199 123.052 L
37.269 123.046 L
37.339 123.041 L
37.409 123.036 L
37.479 123.031 L
37.549 123.027 L
37.619 123.022 L
37.689 123.018 L
37.759 123.014 L
37.829 123.011 L
37.899 123.008 L
37.969 123.004 L
38.039 123.002 L
38.109 122.999 L
38.179 122.997 L
38.249 122.995 L
38.319 122.993 L
38.389 122.991 L
38.459 122.99 L
38.529 122.989 L
38.599 122.988 L
38.67 122.987 L
38.74 122.987 L
38.81 122.987 L
38.88 122.987 L
38.95 122.987 L
39.02 122.988 L
39.09 122.989 L
39.16 122.99 L
39.23 122.991 L
39.3 122.993 L
39.37 122.995 L
39.44 122.997 L
39.51 123 L
39.58 123.002 L
39.65 123.005 L
39.72 123.008 L
39.79 123.012 L
39.86 123.015 L
39.93 123.019 L
40 123.024 L
40.07 123.028 L
40.14 123.033 L
40.21 123.038 L
40.28 123.043 L
40.35 123.048 L
40.42 123.054 L
40.49 123.06 L
40.56 123.066 L
40.63 123.073 L
40.7 123.08 L
40.77 123.087 L
40.84 123.094 L
40.91 123.101 L
40.98 123.109 L
41.05 123.117 L
41.121 123.126 L
41.191 123.134 L
41.261 123.143 L
41.331 123.152 L
41.401 123.161 L
41.471 123.171 L
41.541 123.181 L
41.611 123.191 L
41.681 123.201 L
41.751 123.212 L
41.821 123.223 L
41.891 123.234 L
41.961 123.245 L
42.031 123.257 L
42.101 123.269 L
42.171 123.281 L
42.241 123.294 L
42.311 123.306 L
42.381 123.319 L
42.451 123.332 L
42.521 123.346 L
42.591 123.36 L
42.661 123.374 L
42.731 123.388 L
42.801 123.402 L
42.871 123.417 L
42.941 123.432 L
43.011 123.448 L
43.081 123.463 L
43.151 123.479 L
43.221 123.495 L
43.291 123.511 L
43.361 123.528 L
43.431 123.545 L
43.501 123.562 L
43.571 123.579 L
43.642 123.597 L
43.712 123.615 L
43.782 123.633 L
43.852 123.651 L
43.922 123.67 L
43.992 123.689 L
44.062 123.708 L
44.132 123.728 L
44.202 123.747 L
44.272 123.767 L
44.342 123.787 L
44.412 123.808 L
44.482 123.829 L
44.552 123.85 L
44.622 123.871 L
44.692 123.892 L
44.762 123.914 L
44.832 123.936 L
44.902 123.958 L
44.972 123.981 L
45.042 124.004 L
45.112 124.027 L
45.182 124.05 L
45.252 124.074 L
45.322 124.097 L
45.392 124.122 L
45.462 124.146 L
45.532 124.17 L
45.602 124.195 L
45.672 124.22 L
45.742 124.246 L
45.812 124.271 L
45.882 124.297 L
45.952 124.323 L
46.022 124.35 L
46.093 124.376 L
46.163 124.403 L
46.233 124.43 L
46.303 124.458 L
46.373 124.485 L
46.443 124.513 L
46.513 124.541 L
46.583 124.57 L
46.653 124.598 L
46.723 124.627 L
46.793 124.656 L
46.863 124.686 L
46.933 124.715 L
47.003 124.745 L
47.073 124.775 L
47.143 124.806 L
47.213 124.836 L
47.283 124.867 L
47.353 124.898 L
47.423 124.93 L
47.493 124.961 L
47.563 124.993 L
47.633 125.025 L
47.703 125.057 L
47.773 125.09 L
47.843 125.123 L
47.913 125.156 L
47.983 125.189 L
48.053 125.223 L
48.123 125.257 L
48.193 125.291 L
48.263 125.325 L
48.333 125.359 L
48.403 125.394 L
48.473 125.429 L
48.543 125.464 L
48.614 125.5 L
48.684 125.536 L
48.754 125.572 L
48.824 125.608 L
48.894 125.644 L
48.964 125.681 L
49.034 125.718 L
49.104 125.755 L
49.174 125.792 L
49.244 125.83 L
49.314 125.868 L
49.384 125.906 L
49.454 125.944 L
49.524 125.983 L
49.594 126.021 L
49.664 126.06 L
49.734 126.1 L
49.804 126.139 L
49.874 126.179 L
49.944 126.219 L
50.014 126.259 L
50.084 126.299 L
50.154 126.34 L
50.224 126.381 L
50.294 126.422 L
50.364 126.463 L
50.434 126.504 L
50.504 126.546 L
50.574 126.588 L
50.644 126.63 L
50.714 126.673 L
50.784 126.715 L
50.854 126.758 L
50.924 126.801 L
50.994 126.844 L
51.065 126.888 L
51.135 126.931 L
51.205 126.975 L
51.275 127.019 L
51.345 127.064 L
51.415 127.108 L
51.485 127.153 L
51.555 127.198 L
51.625 127.243 L
51.695 127.289 L
51.765 127.334 L
51.835 127.38 L
51.905 127.426 L
51.975 127.472 L
52.045 127.519 L
52.115 127.565 L
52.185 127.612 L
52.255 127.659 L
52.325 127.707 L
52.395 127.754 L
52.465 127.802 L
52.535 127.849 L
52.605 127.898 L
52.675 127.946 L
52.745 127.994 L
52.815 128.043 L
52.885 128.092 L
52.955 128.141 L
53.025 128.19 L
53.095 128.239 L
53.165 128.289 L
53.235 128.339 L
53.305 128.389 L
53.375 128.439 L
53.445 128.489 L
53.515 128.54 L
53.586 128.591 L
53.656 128.642 L
53.726 128.693 L
53.796 128.744 L
53.866 128.796 L
53.936 128.847 L
54.006 128.899 L
54.076 128.951 L
54.146 129.003 L
54.216 129.056 L
54.286 129.108 L
54.356 129.161 L
54.426 129.214 L
54.496 129.267 L
54.566 129.321 L
54.636 129.374 L
54.706 129.428 L
54.776 129.481 L
54.846 129.535 L
54.916 129.589 L
54.986 129.644 L
55.056 129.698 L
55.126 129.753 L
55.196 129.808 L
55.266 129.863 L
55.336 129.918 L
55.406 129.973 L
55.476 130.029 L
55.546 130.084 L
55.616 130.14 L
55.686 130.196 L
55.756 130.252 L
55.826 130.308 L
55.896 130.365 L
55.966 130.421 L
56.037 130.478 L
56.107 130.535 L
56.177 130.592 L
56.247 130.649 L
56.317 130.706 L
56.387 130.763 L
56.457 130.821 L
56.527 130.879 L
56.597 130.937 L
56.667 130.995 L
56.737 131.053 L
56.807 131.111 L
56.877 131.169 L
56.947 131.228 L
57.017 131.287 L
57.087 131.346 L
57.157 131.405 L
57.227 131.464 L
57.297 131.523 L
57.367 131.582 L
57.437 131.642 L
57.507 131.701 L
57.577 131.761 L
57.647 131.821 L
57.717 131.881 L
57.787 131.941 L
57.857 132.001 L
57.927 132.062 L
57.997 132.122 L
58.067 132.183 L
58.137 132.243 L
58.207 132.304 L
58.277 132.365 L
58.347 132.426 L
58.417 132.487 L
58.487 132.548 L
58.558 132.61 L
58.628 132.671 L
58.698 132.733 L
58.768 132.795 L
58.838 132.856 L
58.908 132.918 L
58.978 132.98 L
59.048 133.042 L
59.118 133.105 L
59.188 133.167 L
59.258 133.229 L
59.328 133.292 L
59.398 133.354 L
59.468 133.417 L
59.538 133.48 L
59.608 133.542 L
59.678 133.605 L
59.748 133.668 L
59.818 133.731 L
59.888 133.795 L
59.958 133.858 L
60.028 133.921 L
60.098 133.985 L
60.168 134.048 L
60.238 134.112 L
60.308 134.175 L
60.378 134.239 L
60.448 134.303 L
60.518 134.367 L
60.588 134.431 L
60.658 134.495 L
60.728 134.559 L
60.798 134.623 L
60.868 134.687 L
60.938 134.751 L
61.009 134.816 L
61.079 134.88 L
61.149 134.944 L
61.219 135.009 L
61.289 135.073 L
61.359 135.138 L
61.429 135.203 L
61.499 135.267 L
61.569 135.332 L
61.639 135.397 L
61.709 135.462 L
61.779 135.527 L
61.849 135.592 L
61.919 135.657 L
61.989 135.722 L
62.059 135.787 L
62.129 135.852 L
62.199 135.917 L
62.269 135.982 L
62.339 136.047 L
62.409 136.113 L
62.479 136.178 L
62.549 136.243 L
62.619 136.308 L
62.689 136.374 L
62.759 136.439 L
62.829 136.504 L
62.899 136.57 L
62.969 136.635 L
63.039 136.701 L
63.109 136.766 L
63.179 136.832 L
63.249 136.897 L
63.319 136.963 L
63.389 137.028 L
63.459 137.094 L
63.53 137.159 L
63.6 137.225 L
63.67 137.29 L
63.74 137.356 L
63.81 137.421 L
63.88 137.487 L
63.95 137.553 L
64.02 137.618 L
64.09 137.684 L
64.16 137.749 L
64.23 137.815 L
64.3 137.88 L
64.37 137.946 L
64.44 138.011 L
64.51 138.077 L
64.58 138.142 L
64.65 138.208 L
64.72 138.273 L
64.79 138.338 L
64.86 138.404 L
64.93 138.469 L
65 138.534 L
65.07 138.6 L
65.14 138.665 L
65.21 138.73 L
65.28 138.795 L
65.35 138.861 L
65.42 138.926 L
65.49 138.991 L
65.56 139.056 L
65.63 139.121 L
65.7 139.186 L
65.77 139.251 L
65.84 139.316 L
65.91 139.381 L
65.981 139.446 L
66.051 139.51 L
66.121 139.575 L
66.191 139.64 L
66.261 139.704 L
66.331 139.769 L
66.401 139.833 L
66.471 139.898 L
66.541 139.962 L
66.611 140.026 L
66.681 140.091 L
66.751 140.155 L
66.821 140.219 L
66.891 140.283 L
66.961 140.347 L
67.031 140.411 L
67.101 140.475 L
67.171 140.539 L
67.241 140.602 L
67.311 140.666 L
67.381 140.729 L
67.451 140.793 L
67.521 140.856 L
67.591 140.919 L
67.661 140.983 L
67.731 141.046 L
67.801 141.109 L
67.871 141.172 L
67.941 141.234 L
68.011 141.297 L
68.081 141.36 L
68.151 141.422 L
68.221 141.485 L
68.291 141.547 L
68.361 141.609 L
68.431 141.671 L
68.502 141.733 L
68.572 141.795 L
68.642 141.857 L
68.712 141.919 L
68.782 141.98 L
68.852 142.042 L
68.922 142.103 L
68.992 142.165 L
69.062 142.226 L
69.132 142.287 L
69.202 142.347 L
69.272 142.408 L
69.342 142.469 L
69.412 142.529 L
69.482 142.59 L
69.552 142.65 L
69.622 142.71 L
69.692 142.77 L
69.762 142.83 L
69.832 142.89 L
69.902 142.949 L
69.972 143.008 L
70.042 143.068 L
70.112 143.127 L
70.182 143.186 L
70.252 143.245 L
70.322 143.303 L
70.392 143.362 L
70.462 143.42 L
70.532 143.479 L
70.602 143.537 L
70.672 143.594 L
70.742 143.652 L
70.812 143.71 L
70.882 143.767 L
70.953 143.825 L
71.023 143.882 L
71.093 143.939 L
71.163 143.995 L
71.233 144.052 L
71.303 144.108 L
71.373 144.165 L
71.443 144.221 L
71.513 144.277 L
71.583 144.332 L
71.653 144.388 L
71.723 144.443 L
71.793 144.498 L
71.863 144.553 L
71.933 144.608 L
72.003 144.663 L
72.073 144.717 L
72.143 144.772 L
72.213 144.826 L
72.283 144.879 L
72.353 144.933 L
72.423 144.987 L
72.493 145.04 L
72.563 145.093 L
72.633 145.146 L
72.703 145.198 L
72.773 145.251 L
72.843 145.303 L
72.913 145.355 L
72.983 145.407 L
73.053 145.458 L
73.123 145.51 L
73.193 145.561 L
73.263 145.612 L
73.333 145.663 L
73.403 145.713 L
73.474 145.764 L
73.544 145.814 L
73.614 145.863 L
73.684 145.913 L
73.754 145.962 L
73.824 146.012 L
73.894 146.061 L
73.964 146.109 L
74.034 146.158 L
74.104 146.206 L
74.174 146.254 L
74.244 146.302 L
74.314 146.349 L
74.384 146.396 L
74.454 146.443 L
74.524 146.49 L
74.594 146.537 L
74.664 146.583 L
74.734 146.629 L
74.804 146.675 L
74.874 146.72 L
74.944 146.766 L
75.014 146.811 L
75.084 146.855 L
75.154 146.9 L
75.224 146.944 L
75.294 146.988 L
75.364 147.032 L
75.434 147.075 L
75.504 147.119 L
75.574 147.161 L
75.644 147.204 L
75.714 147.246 L
75.784 147.289 L
75.854 147.33 L
75.925 147.372 L
75.995 147.413 L
76.065 147.454 L
76.135 147.495 L
76.205 147.535 L
76.275 147.575 L
76.345 147.615 L
76.415 147.655 L
76.485 147.694 L
76.555 147.733 L
76.625 147.772 L
76.695 147.81 L
76.765 147.848 L
76.835 147.886 L
76.905 147.924 L
76.975 147.961 L
77.045 147.998 L
77.115 148.034 L
77.185 148.071 L
77.255 148.107 L
77.325 148.142 L
77.395 148.178 L
77.465 148.213 L
77.535 148.248 L
77.605 148.282 L
77.675 148.316 L
77.745 148.35 L
77.815 148.384 L
77.885 148.417 L
77.955 148.45 L
78.025 148.482 L
78.095 148.515 L
78.165 148.547 L
78.235 148.578 L
78.305 148.609 L
78.375 148.64 L
78.446 148.671 L
78.516 148.701 L
78.586 148.731 L
78.656 148.761 L
78.726 148.79 L
78.796 148.819 L
78.866 148.848 L
78.936 148.876 L
79.006 148.904 L
79.076 148.932 L
79.146 148.959 L
79.216 148.986 L
79.286 149.012 L
79.356 149.039 L
79.426 149.065 L
79.496 149.09 L
79.566 149.115 L
79.636 149.14 L
79.706 149.165 L
79.776 149.189 L
79.846 149.213 L
79.916 149.236 L
79.986 149.259 L
80.056 149.282 L
80.126 149.304 L
80.196 149.326 L
80.266 149.348 L
80.336 149.369 L
80.406 149.39 L
80.476 149.41 L
80.546 149.43 L
80.616 149.45 L
80.686 149.47 L
80.756 149.489 L
80.826 149.507 L
80.897 149.526 L
80.967 149.544 L
81.037 149.561 L
81.107 149.578 L
81.177 149.595 L
81.247 149.612 L
81.317 149.628 L
81.387 149.643 L
81.457 149.659 L
81.527 149.673 L
81.597 149.688 L
81.667 149.702 L
81.737 149.716 L
81.807 149.729 L
81.877 149.742 L
81.947 149.755 L
82.017 149.767 L
82.087 149.779 L
82.157 149.79 L
82.227 149.801 L
82.297 149.812 L
82.367 149.822 L
82.437 149.832 L
82.507 149.841 L
82.577 149.85 L
82.647 149.859 L
82.717 149.867 L
82.787 149.874 L
82.857 149.882 L
82.927 149.889 L
82.997 149.895 L
83.067 149.902 L
83.137 149.907 L
83.207 149.913 L
83.277 149.918 L
83.348 149.922 L
83.418 149.926 L
83.488 149.93 L
83.558 149.933 L
83.628 149.936 L
83.698 149.938 L
83.768 149.94 L
83.838 149.942 L
83.908 149.943 L
83.978 149.944 L
84.048 149.944 L
84.118 149.944 L
84.188 149.944 L
84.258 149.943 L
84.328 149.941 L
84.398 149.939 L
84.468 149.937 L
84.538 149.935 L
84.608 149.932 L
84.678 149.928 L
84.748 149.924 L
84.818 149.92 L
84.888 149.915 L
84.958 149.91 L
85.028 149.904 L
85.098 149.898 L
85.168 149.891 L
85.238 149.884 L
85.308 149.877 L
85.378 149.869 L
85.448 149.861 L
85.518 149.852 L
85.588 149.843 L
85.658 149.833 L
85.728 149.823 L
85.798 149.812 L
85.869 149.801 L
85.939 149.79 L
86.009 149.778 L
86.079 149.766 L
86.149 149.753 L
86.219 149.74 L
86.289 149.726 L
86.359 149.712 L
86.429 149.698 L
86.499 149.683 L
86.569 149.667 L
86.639 149.651 L
86.709 149.635 L
86.779 149.618 L
86.849 149.601 L
86.919 149.583 L
86.989 149.565 L
87.059 149.546 L
87.129 149.527 L
87.199 149.508 L
87.269 149.488 L
87.339 149.467 L
87.409 149.446 L
87.479 149.425 L
87.549 149.403 L
87.619 149.381 L
87.689 149.358 L
87.759 149.335 L
87.829 149.311 L
87.899 149.287 L
87.969 149.262 L
88.039 149.237 L
88.109 149.211 L
88.179 149.185 L
88.249 149.159 L
88.32 149.132 L
88.39 149.104 L
88.46 149.076 L
88.53 149.048 L
88.6 149.019 L
88.67 148.99 L
88.74 148.96 L
88.81 148.93 L
88.88 148.899 L
88.95 148.868 L
89.02 148.836 L
89.09 148.804 L
89.16 148.771 L
89.23 148.738 L
89.3 148.705 L
89.37 148.671 L
89.44 148.636 L
89.51 148.601 L
89.58 148.566 L
89.65 148.53 L
89.72 148.493 L
89.79 148.456 L
89.86 148.419 L
89.93 148.381 L
90 148.343 L
90.07 148.304 L
90.14 148.265 L
90.21 148.225 L
90.28 148.185 L
90.35 148.144 L
90.42 148.103 L
90.49 148.061 L
90.56 148.019 L
90.63 147.976 L
90.7 147.933 L
90.77 147.889 L
90.841 147.845 L
90.911 147.801 L
90.981 147.756 L
91.051 147.71 L
91.121 147.664 L
91.191 147.618 L
91.261 147.571 L
91.331 147.523 L
91.401 147.475 L
91.471 147.427 L
91.541 147.378 L
91.611 147.328 L
91.681 147.278 L
91.751 147.228 L
91.821 147.177 L
91.891 147.126 L
91.961 147.074 L
92.031 147.022 L
92.101 146.969 L
92.171 146.916 L
92.241 146.862 L
92.311 146.808 L
92.381 146.753 L
92.451 146.698 L
92.521 146.642 L
92.591 146.586 L
92.661 146.529 L
92.731 146.472 L
92.801 146.414 L
92.871 146.356 L
92.941 146.298 L
93.011 146.238 L
93.081 146.179 L
93.151 146.119 L
93.221 146.058 L
93.291 145.997 L
93.362 145.936 L
93.432 145.874 L
93.502 145.811 L
93.572 145.748 L
93.642 145.685 L
93.712 145.621 L
93.782 145.556 L
93.852 145.491 L
93.922 145.426 L
93.992 145.36 L
94.062 145.294 L
94.132 145.227 L
94.202 145.16 L
94.272 145.092 L
94.342 145.023 L
94.412 144.955 L
94.482 144.885 L
94.552 144.816 L
94.622 144.745 L
94.692 144.675 L
94.762 144.604 L
94.832 144.532 L
94.902 144.46 L
94.972 144.387 L
95.042 144.314 L
95.112 144.24 L
95.182 144.166 L
95.252 144.092 L
95.322 144.017 L
95.392 143.941 L
95.462 143.865 L
95.532 143.789 L
95.602 143.712 L
95.672 143.634 L
95.742 143.556 L
95.813 143.478 L
95.883 143.399 L
95.953 143.32 L
96.023 143.24 L
96.093 143.16 L
96.163 143.079 L
96.233 142.998 L
96.303 142.916 L
96.373 142.834 L
96.443 142.751 L
96.513 142.668 L
96.583 142.584 L
96.653 142.5 L
96.723 142.416 L
96.793 142.331 L
96.863 142.245 L
96.933 142.159 L
97.003 142.073 L
97.073 141.986 L
97.143 141.898 L
97.213 141.81 L
97.283 141.722 L
97.353 141.633 L
97.423 141.544 L
97.493 141.454 L
97.563 141.364 L
97.633 141.274 L
97.703 141.182 L
97.773 141.091 L
97.843 140.999 L
97.913 140.906 L
97.983 140.813 L
98.053 140.72 L
98.123 140.626 L
98.193 140.532 L
98.263 140.437 L
98.334 140.342 L
98.404 140.246 L
98.474 140.15 L
98.544 140.053 L
98.614 139.956 L
98.684 139.858 L
98.754 139.76 L
98.824 139.662 L
98.894 139.563 L
98.964 139.464 L
99.034 139.364 L
99.104 139.263 L
99.174 139.163 L
99.244 139.062 L
99.314 138.96 L
99.384 138.858 L
99.454 138.755 L
99.524 138.652 L
99.594 138.549 L
99.664 138.445 L
99.734 138.341 L
99.804 138.236 L
99.874 138.131 L
99.944 138.025 L
100.014 137.919 L
100.084 137.813 L
100.154 137.706 L
100.224 137.598 L
100.294 137.491 L
100.364 137.382 L
100.434 137.274 L
100.504 137.164 L
100.574 137.055 L
100.644 136.945 L
100.714 136.834 L
100.785 136.724 L
100.855 136.612 L
100.925 136.501 L
100.995 136.388 L
101.065 136.276 L
101.135 136.163 L
101.205 136.049 L
101.275 135.936 L
101.345 135.821 L
101.415 135.707 L
101.485 135.592 L
101.555 135.476 L
101.625 135.36 L
101.695 135.244 L
101.765 135.127 L
101.835 135.01 L
101.905 134.892 L
101.975 134.774 L
102.045 134.656 L
102.115 134.537 L
102.185 134.418 L
102.255 134.298 L
102.325 134.178 L
102.395 134.057 L
102.465 133.936 L
102.535 133.815 L
102.605 133.693 L
102.675 133.571 L
102.745 133.449 L
102.815 133.326 L
102.885 133.203 L
102.955 133.079 L
103.025 132.955 L
103.095 132.83 L
103.165 132.706 L
103.235 132.58 L
103.306 132.455 L
103.376 132.329 L
103.446 132.202 L
103.516 132.075 L
103.586 131.948 L
103.656 131.821 L
103.726 131.693 L
103.796 131.564 L
103.866 131.435 L
103.936 131.306 L
104.006 131.177 L
104.076 131.047 L
104.146 130.917 L
104.216 130.786 L
104.286 130.655 L
104.356 130.524 L
104.426 130.392 L
104.496 130.26 L
104.566 130.127 L
104.636 129.995 L
104.706 129.861 L
104.776 129.728 L
104.846 129.594 L
104.916 129.46 L
104.986 129.325 L
105.056 129.19 L
105.126 129.055 L
105.196 128.919 L
105.266 128.783 L
105.336 128.646 L
105.406 128.51 L
105.476 128.372 L
105.546 128.235 L
105.616 128.097 L
105.686 127.959 L
105.757 127.82 L
105.827 127.682 L
105.897 127.542 L
105.967 127.403 L
106.037 127.263 L
106.107 127.123 L
106.177 126.982 L
106.247 126.841 L
106.317 126.7 L
106.387 126.559 L
106.457 126.417 L
106.527 126.275 L
106.597 126.132 L
106.667 125.989 L
106.737 125.846 L
106.807 125.703 L
106.877 125.559 L
106.947 125.415 L
107.017 125.27 L
107.087 125.126 L
107.157 124.981 L
107.227 124.835 L
107.297 124.69 L
107.367 124.544 L
107.437 124.397 L
107.507 124.251 L
107.577 124.104 L
107.647 123.957 L
107.717 123.809 L
107.787 123.662 L
107.857 123.514 L
107.927 123.365 L
107.997 123.217 L
108.067 123.068 L
108.137 122.918 L
108.207 122.769 L
108.278 122.619 L
108.348 122.469 L
108.418 122.319 L
108.488 122.168 L
108.558 122.017 L
108.628 121.866 L
108.698 121.714 L
108.768 121.563 L
108.838 121.411 L
108.908 121.258 L
108.978 121.106 L
109.048 120.953 L
109.118 120.8 L
109.188 120.647 L
109.258 120.493 L
109.328 120.339 L
109.398 120.185 L
109.468 120.031 L
109.538 119.876 L
109.608 119.721 L
109.678 119.566 L
109.748 119.411 L
109.818 119.255 L
109.888 119.099 L
109.958 118.943 L
110.028 118.787 L
110.098 118.63 L
110.168 118.474 L
110.238 118.317 L
110.308 118.159 L
110.378 118.002 L
110.448 117.844 L
110.518 117.686 L
110.588 117.528 L
110.658 117.37 L
110.729 117.211 L
110.799 117.052 L
110.869 116.893 L
110.939 116.734 L
111.009 116.574 L
111.079 116.415 L
111.149 116.255 L
111.219 116.095 L
111.289 115.934 L
111.359 115.774 L
111.429 115.613 L
111.499 115.452 L
111.569 115.291 L
111.639 115.13 L
111.709 114.968 L
111.779 114.807 L
111.849 114.645 L
111.919 114.483 L
111.989 114.32 L
112.059 114.158 L
112.129 113.995 L
112.199 113.833 L
112.269 113.67 L
112.339 113.507 L
112.409 113.343 L
112.479 113.18 L
112.549 113.016 L
112.619 112.852 L
112.689 112.688 L
112.759 112.524 L
112.829 112.36 L
112.899 112.195 L
112.969 112.031 L
113.039 111.866 L
113.109 111.701 L
113.18 111.536 L
113.25 111.371 L
113.32 111.206 L
113.39 111.04 L
113.46 110.874 L
113.53 110.709 L
113.6 110.543 L
113.67 110.377 L
113.74 110.211 L
113.81 110.044 L
113.88 109.878 L
113.95 109.711 L
114.02 109.545 L
114.09 109.378 L
114.16 109.211 L
114.23 109.044 L
114.3 108.877 L
114.37 108.709 L
114.44 108.542 L
114.51 108.374 L
114.58 108.207 L
114.65 108.039 L
114.72 107.871 L
114.79 107.703 L
114.86 107.535 L
114.93 107.367 L
115 107.199 L
115.07 107.031 L
115.14 106.862 L
115.21 106.694 L
115.28 106.525 L
115.35 106.357 L
115.42 106.188 L
115.49 106.019 L
115.56 105.85 L
115.63 105.681 L
115.701 105.512 L
115.771 105.343 L
115.841 105.174 L
115.911 105.005 L
115.981 104.836 L
116.051 104.666 L
116.121 104.497 L
116.191 104.328 L
116.261 104.158 L
116.331 103.989 L
116.401 103.819 L
116.471 103.649 L
116.541 103.48 L
116.611 103.31 L
116.681 103.14 L
116.751 102.97 L
116.821 102.8 L
116.891 102.631 L
116.961 102.461 L
117.031 102.291 L
117.101 102.121 L
117.171 101.951 L
117.241 101.781 L
117.311 101.611 L
117.381 101.441 L
117.451 101.271 L
117.521 101.1 L
117.591 100.93 L
117.661 100.76 L
117.731 100.59 L
117.801 100.42 L
117.871 100.25 L
117.941 100.08 L
118.011 99.91 L
118.081 99.74 L
118.152 99.57 L
118.222 99.399 L
118.292 99.229 L
118.362 99.059 L
118.432 98.889 L
118.502 98.719 L
118.572 98.549 L
118.642 98.379 L
118.712 98.209 L
118.782 98.039 L
118.852 97.87 L
118.922 97.7 L
118.992 97.53 L
119.062 97.36 L
119.132 97.19 L
119.202 97.021 L
119.272 96.851 L
119.342 96.681 L
119.412 96.512 L
119.482 96.342 L
119.552 96.173 L
119.622 96.003 L
119.692 95.834 L
119.762 95.665 L
119.832 95.496 L
119.902 95.326 L
119.972 95.157 L
120.042 94.988 L
120.112 94.819 L
120.182 94.651 L
120.252 94.482 L
120.322 94.313 L
120.392 94.144 L
120.462 93.976 L
120.532 93.807 L
120.602 93.639 L
120.673 93.471 L
120.743 93.303 L
120.813 93.134 L
120.883 92.966 L
120.953 92.799 L
121.023 92.631 L
121.093 92.463 L
121.163 92.296 L
121.233 92.128 L
121.303 91.961 L
121.373 91.793 L
121.443 91.626 L
121.513 91.459 L
121.583 91.292 L
121.653 91.126 L
121.723 90.959 L
121.793 90.793 L
121.863 90.626 L
121.933 90.46 L
122.003 90.294 L
122.073 90.128 L
122.143 89.962 L
122.213 89.796 L
122.283 89.631 L
122.353 89.465 L
122.423 89.3 L
122.493 89.135 L
122.563 88.97 L
122.633 88.805 L
122.703 88.641 L
122.773 88.476 L
122.843 88.312 L
122.913 88.148 L
122.983 87.984 L
123.053 87.82 L
123.124 87.656 L
123.194 87.493 L
123.264 87.33 L
123.334 87.166 L
123.404 87.004 L
123.474 86.841 L
123.544 86.678 L
123.614 86.516 L
123.684 86.354 L
123.754 86.192 L
123.824 86.03 L
123.894 85.868 L
123.964 85.707 L
124.034 85.546 L
124.104 85.385 L
124.174 85.224 L
124.244 85.063 L
124.314 84.903 L
124.384 84.743 L
124.454 84.583 L
124.524 84.423 L
124.594 84.264 L
124.664 84.104 L
124.734 83.945 L
124.804 83.787 L
124.874 83.628 L
124.944 83.47 L
125.014 83.311 L
125.084 83.154 L
125.154 82.996 L
125.224 82.839 L
125.294 82.681 L
125.364 82.524 L
125.434 82.368 L
125.504 82.211 L
125.574 82.055 L
125.645 81.899 L
125.715 81.743 L
125.785 81.588 L
125.855 81.433 L
125.925 81.278 L
125.995 81.123 L
126.065 80.969 L
126.135 80.815 L
126.205 80.661 L
126.275 80.508 L
126.345 80.354 L
126.415 80.201 L
126.485 80.049 L
126.555 79.896 L
126.625 79.744 L
126.695 79.592 L
126.765 79.441 L
126.835 79.289 L
126.905 79.138 L
126.975 78.988 L
127.045 78.837 L
127.115 78.687 L
127.185 78.537 L
127.255 78.388 L
127.325 78.239 L
127.395 78.09 L
127.465 77.941 L
127.535 77.793 L
127.605 77.645 L
127.675 77.497 L
127.745 77.35 L
127.815 77.203 L
127.885 77.056 L
127.955 76.91 L
128.025 76.764 L
128.096 76.618 L
128.166 76.473 L
128.236 76.328 L
128.306 76.183 L
128.376 76.039 L
128.446 75.895 L
128.516 75.751 L
128.586 75.608 L
128.656 75.465 L
128.726 75.322 L
128.796 75.18 L
128.866 75.038 L
128.936 74.897 L
129.006 74.756 L
129.076 74.615 L
129.146 74.474 L
129.216 74.334 L
129.286 74.194 L
129.356 74.055 L
129.426 73.916 L
129.496 73.777 L
129.566 73.639 L
129.636 73.501 L
129.706 73.363 L
129.776 73.226 L
129.846 73.09 L
129.916 72.953 L
129.986 72.817 L
130.056 72.682 L
130.126 72.546 L
130.196 72.411 L
130.266 72.277 L
130.336 72.143 L
130.406 72.009 L
130.476 71.876 L
130.546 71.743 L
130.617 71.611 L
130.687 71.479 L
130.757 71.347 L
130.827 71.216 L
130.897 71.085 L
130.967 70.955 L
131.037 70.825 L
131.107 70.695 L
131.177 70.566 L
131.247 70.437 L
131.317 70.309 L
131.387 70.181 L
131.457 70.053 L
131.527 69.926 L
131.597 69.8 L
131.667 69.673 L
131.737 69.548 L
131.807 69.422 L
131.877 69.298 L
131.947 69.173 L
132.017 69.049 L
132.087 68.925 L
132.157 68.802 L
132.227 68.68 L
132.297 68.557 L
132.367 68.436 L
132.437 68.314 L
132.507 68.193 L
132.577 68.073 L
132.647 67.953 L
132.717 67.834 L
132.787 67.714 L
132.857 67.596 L
132.927 67.478 L
132.997 67.36 L
133.068 67.243 L
133.138 67.126 L
133.208 67.01 L
133.278 66.894 L
133.348 66.779 L
133.418 66.664 L
133.488 66.55 L
133.558 66.436 L
133.628 66.322 L
133.698 66.209 L
133.768 66.097 L
133.838 65.985 L
133.908 65.873 L
133.978 65.762 L
134.048 65.652 L
134.118 65.542 L
134.188 65.432 L
134.258 65.323 L
134.328 65.215 L
134.398 65.107 L
134.468 64.999 L
134.538 64.892 L
134.608 64.786 L
134.678 64.68 L
134.748 64.574 L
134.818 64.469 L
134.888 64.365 L
134.958 64.261 L
135.028 64.157 L
135.098 64.054 L
135.168 63.952 L
135.238 63.85 L
135.308 63.749 L
135.378 63.648 L
135.448 63.547 L
135.518 63.448 L
135.589 63.348 L
135.659 63.249 L
135.729 63.151 L
135.799 63.053 L
135.869 62.956 L
135.939 62.86 L
136.009 62.763 L
136.079 62.668 L
136.149 62.573 L
136.219 62.478 L
136.289 62.384 L
136.359 62.291 L
136.429 62.198 L
136.499 62.105 L
136.569 62.014 L
136.639 61.922 L
136.709 61.832 L
136.779 61.741 L
136.849 61.652 L
136.919 61.563 L
136.989 61.474 L
137.059 61.386 L
137.129 61.299 L
137.199 61.212 L
137.269 61.126 L
137.339 61.04 L
137.409 60.955 L
137.479 60.87 L
137.549 60.786 L
137.619 60.702 L
137.689 60.619 L
137.759 60.537 L
137.829 60.455 L
137.899 60.374 L
137.969 60.293 L
138.04 60.213 L
138.11 60.134 L
138.18 60.055 L
138.25 59.976 L
138.32 59.899 L
138.39 59.821 L
138.46 59.745 L
138.53 59.669 L
138.6 59.593 L
138.67 59.518 L
138.74 59.444 L
138.81 59.37 L
138.88 59.297 L
138.95 59.224 L
139.02 59.152 L
139.09 59.081 L
139.16 59.01 L
139.23 58.94 L
139.3 58.87 L
139.37 58.801 L
139.44 58.733 L
139.51 58.665 L
139.58 58.598 L
139.65 58.531 L
139.72 58.465 L
139.79 58.4 L
139.86 58.335 L
139.93 58.27 L
140 58.207 L
140.07 58.144 L
140.14 58.081 L
140.21 58.019 L
140.28 57.958 L
140.35 57.898 L
140.42 57.837 L
140.49 57.778 L
140.561 57.719 L
140.631 57.661 L
140.701 57.603 L
140.771 57.546 L
140.841 57.49 L
140.911 57.434 L
140.981 57.379 L
141.051 57.325 L
141.121 57.271 L
141.191 57.217 L
141.261 57.165 L
141.331 57.113 L
141.401 57.061 L
141.471 57.01 L
141.541 56.96 L
141.611 56.911 L
141.681 56.862 L
141.751 56.813 L
141.821 56.765 L
141.891 56.718 L
141.961 56.672 L
142.031 56.626 L
142.101 56.581 L
142.171 56.536 L
142.241 56.492 L
142.311 56.449 L
142.381 56.406 L
142.451 56.364 L
142.521 56.323 L
142.591 56.282 L
142.661 56.242 L
142.731 56.202 L
142.801 56.163 L
142.871 56.125 L
142.941 56.087 L
143.012 56.05 L
143.082 56.014 L
143.152 55.978 L
143.222 55.943 L
143.292 55.908 L
143.362 55.874 L
143.432 55.841 L
143.502 55.809 L
143.572 55.777 L
143.642 55.745 L
143.712 55.715 L
143.782 55.685 L
143.852 55.655 L
143.922 55.626 L
143.992 55.598 L
144.062 55.571 L
144.132 55.544 L
144.202 55.518 L
144.272 55.492 L
144.342 55.467 L
144.412 55.443 L
144.482 55.419 L
144.552 55.397 L
144.622 55.374 L
144.692 55.352 L
144.762 55.331 L
144.832 55.311 L
144.902 55.291 L
144.972 55.272 L
145.042 55.254 L
145.112 55.236 L
145.182 55.219 L
145.252 55.202 L
145.322 55.186 L
145.392 55.171 L
145.462 55.157 L
145.533 55.143 L
145.603 55.129 L
145.673 55.117 L
145.743 55.105 L
145.813 55.093 L
145.883 55.083 L
145.953 55.073 L
146.023 55.063 L
146.093 55.055 L
146.163 55.046 L
146.233 55.039 L
146.303 55.032 L
146.373 55.026 L
146.443 55.021 L
146.513 55.016 L
146.583 55.012 L
146.653 55.008 L
146.723 55.005 L
146.793 55.003 L
146.863 55.001 L
146.933 55 L
147.003 55 L
147 55 L
147.07 55 L
147.14 55.001 L
147.21 55.003 L
147.28 55.005 L
147.35 55.008 L
147.42 55.012 L
147.49 55.016 L
147.56 55.021 L
147.63 55.026 L
147.7 55.032 L
147.77 55.039 L
147.84 55.047 L
147.91 55.055 L
147.98 55.064 L
148.05 55.073 L
148.12 55.083 L
148.19 55.094 L
148.261 55.105 L
148.331 55.117 L
148.401 55.13 L
148.471 55.143 L
148.541 55.157 L
148.611 55.172 L
148.681 55.187 L
148.751 55.203 L
148.821 55.22 L
148.891 55.237 L
148.961 55.255 L
149.031 55.273 L
149.101 55.292 L
149.171 55.312 L
149.241 55.332 L
149.311 55.353 L
149.381 55.375 L
149.451 55.398 L
149.521 55.421 L
149.591 55.444 L
149.661 55.468 L
149.731 55.493 L
149.801 55.519 L
149.871 55.545 L
149.941 55.572 L
150.011 55.6 L
150.081 55.628 L
150.151 55.656 L
150.221 55.686 L
150.291 55.716 L
150.361 55.747 L
150.431 55.778 L
150.501 55.81 L
150.571 55.843 L
150.641 55.876 L
150.711 55.91 L
150.782 55.944 L
150.852 55.979 L
150.922 56.015 L
150.992 56.052 L
151.062 56.089 L
151.132 56.126 L
151.202 56.165 L
151.272 56.204 L
151.342 56.243 L
151.412 56.284 L
151.482 56.324 L
151.552 56.366 L
151.622 56.408 L
151.692 56.451 L
151.762 56.494 L
151.832 56.538 L
151.902 56.583 L
151.972 56.628 L
152.042 56.674 L
152.112 56.72 L
152.182 56.768 L
152.252 56.815 L
152.322 56.864 L
152.392 56.913 L
152.462 56.962 L
152.532 57.013 L
152.602 57.063 L
152.672 57.115 L
152.742 57.167 L
152.812 57.22 L
152.882 57.273 L
152.952 57.327 L
153.022 57.382 L
153.092 57.437 L
153.162 57.493 L
153.233 57.549 L
153.303 57.606 L
153.373 57.664 L
153.443 57.722 L
153.513 57.781 L
153.583 57.84 L
153.653 57.9 L
153.723 57.961 L
153.793 58.022 L
153.863 58.084 L
153.933 58.147 L
154.003 58.21 L
154.073 58.273 L
154.143 58.338 L
154.213 58.402 L
154.283 58.468 L
154.353 58.534 L
154.423 58.601 L
154.493 58.668 L
154.563 58.736 L
154.633 58.804 L
154.703 58.873 L
154.773 58.943 L
154.843 59.013 L
154.913 59.084 L
154.983 59.156 L
155.053 59.228 L
155.123 59.3 L
155.193 59.373 L
155.263 59.447 L
155.333 59.522 L
155.403 59.596 L
155.473 59.672 L
155.543 59.748 L
155.613 59.825 L
155.683 59.902 L
155.754 59.98 L
155.824 60.058 L
155.894 60.137 L
155.964 60.217 L
156.034 60.297 L
156.104 60.378 L
156.174 60.459 L
156.244 60.541 L
156.314 60.623 L
156.384 60.706 L
156.454 60.79 L
156.524 60.874 L
156.594 60.958 L
156.664 61.044 L
156.734 61.129 L
156.804 61.216 L
156.874 61.303 L
156.944 61.39 L
157.014 61.478 L
157.084 61.567 L
157.154 61.656 L
157.224 61.745 L
157.294 61.836 L
157.364 61.926 L
157.434 62.018 L
157.504 62.11 L
157.574 62.202 L
157.644 62.295 L
157.714 62.388 L
157.784 62.482 L
157.854 62.577 L
157.924 62.672 L
157.994 62.768 L
158.064 62.864 L
158.134 62.961 L
158.205 63.058 L
158.275 63.156 L
158.345 63.254 L
158.415 63.353 L
158.485 63.452 L
158.555 63.552 L
158.625 63.652 L
158.695 63.753 L
158.765 63.855 L
158.835 63.957 L
158.905 64.059 L
158.975 64.162 L
159.045 64.265 L
159.115 64.369 L
159.185 64.474 L
159.255 64.579 L
159.325 64.685 L
159.395 64.791 L
159.465 64.897 L
159.535 65.004 L
159.605 65.112 L
159.675 65.22 L
159.745 65.328 L
159.815 65.437 L
159.885 65.547 L
159.955 65.657 L
160.025 65.767 L
160.095 65.878 L
160.165 65.99 L
160.235 66.102 L
160.305 66.214 L
160.375 66.327 L
160.445 66.441 L
160.515 66.555 L
160.585 66.669 L
160.655 66.784 L
160.726 66.899 L
160.796 67.015 L
160.866 67.131 L
160.936 67.248 L
161.006 67.365 L
161.076 67.483 L
161.146 67.601 L
161.216 67.72 L
161.286 67.839 L
161.356 67.958 L
161.426 68.078 L
161.496 68.199 L
161.566 68.32 L
161.636 68.441 L
161.706 68.563 L
161.776 68.685 L
161.846 68.808 L
161.916 68.931 L
161.986 69.055 L
162.056 69.179 L
162.126 69.303 L
162.196 69.428 L
162.266 69.553 L
162.336 69.679 L
162.406 69.805 L
162.476 69.932 L
162.546 70.059 L
162.616 70.187 L
162.686 70.314 L
162.756 70.443 L
162.826 70.572 L
162.896 70.701 L
162.966 70.83 L
163.036 70.96 L
163.106 71.091 L
163.177 71.222 L
163.247 71.353 L
163.317 71.485 L
163.387 71.617 L
163.457 71.749 L
163.527 71.882 L
163.597 72.015 L
163.667 72.149 L
163.737 72.283 L
163.807 72.417 L
163.877 72.552 L
163.947 72.688 L
164.017 72.823 L
164.087 72.959 L
164.157 73.096 L
164.227 73.232 L
164.297 73.37 L
164.367 73.507 L
164.437 73.645 L
164.507 73.783 L
164.577 73.922 L
164.647 74.061 L
164.717 74.2 L
164.787 74.34 L
164.857 74.48 L
164.927 74.621 L
164.997 74.762 L
165.067 74.903 L
165.137 75.045 L
165.207 75.187 L
165.277 75.329 L
165.347 75.471 L
165.417 75.614 L
165.487 75.758 L
165.557 75.901 L
165.628 76.045 L
165.698 76.19 L
165.768 76.334 L
165.838 76.48 L
165.908 76.625 L
165.978 76.771 L
166.048 76.917 L
166.118 77.063 L
166.188 77.21 L
166.258 77.357 L
166.328 77.504 L
166.398 77.652 L
166.468 77.8 L
166.538 77.948 L
166.608 78.096 L
166.678 78.245 L
166.748 78.394 L
166.818 78.544 L
166.888 78.694 L
166.958 78.844 L
167.028 78.994 L
167.098 79.145 L
167.168 79.296 L
167.238 79.447 L
167.308 79.599 L
167.378 79.751 L
167.448 79.903 L
167.518 80.055 L
167.588 80.208 L
167.658 80.361 L
167.728 80.514 L
167.798 80.668 L
167.868 80.822 L
167.938 80.976 L
168.008 81.13 L
168.078 81.285 L
168.149 81.44 L
168.219 81.595 L
168.289 81.75 L
168.359 81.906 L
168.429 82.062 L
168.499 82.218 L
168.569 82.375 L
168.639 82.531 L
168.709 82.688 L
168.779 82.845 L
168.849 83.003 L
168.919 83.161 L
168.989 83.318 L
169.059 83.477 L
169.129 83.635 L
169.199 83.794 L
169.269 83.952 L
169.339 84.112 L
169.409 84.271 L
169.479 84.43 L
169.549 84.59 L
169.619 84.75 L
169.689 84.91 L
169.759 85.07 L
169.829 85.231 L
169.899 85.392 L
169.969 85.553 L
170.039 85.714 L
170.109 85.875 L
170.179 86.037 L
170.249 86.199 L
170.319 86.361 L
170.389 86.523 L
170.459 86.685 L
170.529 86.848 L
170.599 87.011 L
170.67 87.174 L
170.74 87.337 L
170.81 87.5 L
170.88 87.664 L
170.95 87.827 L
171.02 87.991 L
171.09 88.155 L
171.16 88.319 L
171.23 88.483 L
171.3 88.648 L
171.37 88.813 L
171.44 88.977 L
171.51 89.142 L
171.58 89.307 L
171.65 89.473 L
171.72 89.638 L
171.79 89.804 L
171.86 89.969 L
171.93 90.135 L
172 90.301 L
172.07 90.467 L
172.14 90.634 L
172.21 90.8 L
172.28 90.966 L
172.35 91.133 L
172.42 91.3 L
172.49 91.467 L
172.56 91.634 L
172.63 91.801 L
172.7 91.968 L
172.77 92.136 L
172.84 92.303 L
172.91 92.471 L
172.98 92.638 L
173.05 92.806 L
173.121 92.974 L
173.191 93.142 L
173.261 93.31 L
173.331 93.478 L
173.401 93.647 L
173.471 93.815 L
173.541 93.983 L
173.611 94.152 L
173.681 94.321 L
173.751 94.489 L
173.821 94.658 L
173.891 94.827 L
173.961 94.996 L
174.031 95.165 L
174.101 95.334 L
174.171 95.503 L
174.241 95.672 L
174.311 95.842 L
174.381 96.011 L
174.451 96.18 L
174.521 96.35 L
174.591 96.519 L
174.661 96.689 L
174.731 96.859 L
174.801 97.028 L
174.871 97.198 L
174.941 97.368 L
175.011 97.537 L
175.081 97.707 L
175.151 97.877 L
175.221 98.047 L
175.291 98.217 L
175.361 98.387 L
175.431 98.557 L
175.501 98.727 L
175.571 98.897 L
175.642 99.067 L
175.712 99.237 L
175.782 99.407 L
175.852 99.577 L
175.922 99.747 L
175.992 99.917 L
176.062 100.087 L
176.132 100.258 L
176.202 100.428 L
176.272 100.598 L
176.342 100.768 L
176.412 100.938 L
176.482 101.108 L
176.552 101.278 L
176.622 101.448 L
176.692 101.618 L
176.762 101.788 L
176.832 101.958 L
176.902 102.128 L
176.972 102.298 L
177.042 102.468 L
177.112 102.638 L
177.182 102.808 L
177.252 102.978 L
177.322 103.148 L
177.392 103.317 L
177.462 103.487 L
177.532 103.657 L
177.602 103.826 L
177.672 103.996 L
177.742 104.166 L
177.812 104.335 L
177.882 104.505 L
177.952 104.674 L
178.022 104.843 L
178.093 105.013 L
178.163 105.182 L
178.233 105.351 L
178.303 105.52 L
178.373 105.689 L
178.443 105.858 L
178.513 106.027 L
178.583 106.196 L
178.653 106.364 L
178.723 106.533 L
178.793 106.701 L
178.863 106.87 L
178.933 107.038 L
179.003 107.207 L
179.073 107.375 L
179.143 107.543 L
179.213 107.711 L
179.283 107.879 L
179.353 108.047 L
179.423 108.214 L
179.493 108.382 L
179.563 108.549 L
179.633 108.717 L
179.703 108.884 L
179.773 109.051 L
179.843 109.218 L
179.913 109.385 L
179.983 109.552 L
180.053 109.719 L
180.123 109.885 L
180.193 110.052 L
180.263 110.218 L
180.333 110.384 L
180.403 110.55 L
180.473 110.716 L
180.544 110.882 L
180.614 111.047 L
180.684 111.213 L
180.754 111.378 L
180.824 111.543 L
180.894 111.709 L
180.964 111.873 L
181.034 112.038 L
181.104 112.203 L
181.174 112.367 L
181.244 112.532 L
181.314 112.696 L
181.384 112.86 L
181.454 113.023 L
181.524 113.187 L
181.594 113.351 L
181.664 113.514 L
181.734 113.677 L
181.804 113.84 L
181.874 114.003 L
181.944 114.165 L
182.014 114.328 L
182.084 114.49 L
182.154 114.652 L
182.224 114.814 L
182.294 114.975 L
182.364 115.137 L
182.434 115.298 L
182.504 115.459 L
182.574 115.62 L
182.644 115.781 L
182.714 115.941 L
182.784 116.102 L
182.854 116.262 L
182.924 116.422 L
182.994 116.581 L
183.065 116.741 L
183.135 116.9 L
183.205 117.059 L
183.275 117.218 L
183.345 117.377 L
183.415 117.535 L
183.485 117.693 L
183.555 117.851 L
183.625 118.009 L
183.695 118.166 L
183.765 118.324 L
183.835 118.481 L
183.905 118.637 L
183.975 118.794 L
184.045 118.95 L
184.115 119.106 L
184.185 119.262 L
184.255 119.418 L
184.325 119.573 L
184.395 119.728 L
184.465 119.883 L
184.535 120.038 L
184.605 120.192 L
184.675 120.346 L
184.745 120.5 L
184.815 120.653 L
184.885 120.807 L
184.955 120.96 L
185.025 121.113 L
185.095 121.265 L
185.165 121.417 L
185.235 121.569 L
185.305 121.721 L
185.375 121.873 L
185.445 122.024 L
185.516 122.175 L
185.586 122.325 L
185.656 122.476 L
185.726 122.626 L
185.796 122.776 L
185.866 122.925 L
185.936 123.074 L
186.006 123.223 L
186.076 123.372 L
186.146 123.52 L
186.216 123.668 L
186.286 123.816 L
186.356 123.963 L
186.426 124.111 L
186.496 124.257 L
186.566 124.404 L
186.636 124.55 L
186.706 124.696 L
186.776 124.842 L
186.846 124.987 L
186.916 125.132 L
186.986 125.277 L
187.056 125.421 L
187.126 125.565 L
187.196 125.709 L
187.266 125.853 L
187.336 125.996 L
187.406 126.139 L
187.476 126.281 L
187.546 126.423 L
187.616 126.565 L
187.686 126.707 L
187.756 126.848 L
187.826 126.989 L
187.896 127.129 L
187.966 127.269 L
188.037 127.409 L
188.107 127.549 L
188.177 127.688 L
188.247 127.827 L
188.317 127.965 L
188.387 128.103 L
188.457 128.241 L
188.527 128.378 L
188.597 128.516 L
188.667 128.652 L
188.737 128.789 L
188.807 128.925 L
188.877 129.061 L
188.947 129.196 L
189.017 129.331 L
189.087 129.466 L
189.157 129.6 L
189.227 129.734 L
189.297 129.867 L
189.367 130 L
189.437 130.133 L
189.507 130.266 L
189.577 130.398 L
189.647 130.53 L
189.717 130.661 L
189.787 130.792 L
189.857 130.923 L
189.927 131.053 L
189.997 131.183 L
190.067 131.312 L
190.137 131.441 L
190.207 131.57 L
190.277 131.698 L
190.347 131.826 L
190.417 131.954 L
190.488 132.081 L
190.558 132.208 L
190.628 132.334 L
190.698 132.46 L
190.768 132.586 L
190.838 132.711 L
190.908 132.836 L
190.978 132.96 L
191.048 133.085 L
191.118 133.208 L
191.188 133.331 L
191.258 133.454 L
191.328 133.577 L
191.398 133.699 L
191.468 133.821 L
191.538 133.942 L
191.608 134.063 L
191.678 134.183 L
191.748 134.303 L
191.818 134.423 L
191.888 134.542 L
191.958 134.661 L
192.028 134.779 L
192.098 134.897 L
192.168 135.015 L
192.238 135.132 L
192.308 135.249 L
192.378 135.365 L
192.448 135.481 L
192.518 135.597 L
192.588 135.712 L
192.658 135.826 L
192.728 135.941 L
192.798 136.055 L
192.868 136.168 L
192.938 136.281 L
193.009 136.393 L
193.079 136.506 L
193.149 136.617 L
193.219 136.729 L
193.289 136.839 L
193.359 136.95 L
193.429 137.06 L
193.499 137.169 L
193.569 137.278 L
193.639 137.387 L
193.709 137.495 L
193.779 137.603 L
193.849 137.71 L
193.919 137.817 L
193.989 137.924 L
194.059 138.03 L
194.129 138.136 L
194.199 138.241 L
194.269 138.345 L
194.339 138.45 L
194.409 138.554 L
194.479 138.657 L
194.549 138.76 L
194.619 138.862 L
194.689 138.964 L
194.759 139.066 L
194.829 139.167 L
194.899 139.268 L
194.969 139.368 L
195.039 139.468 L
195.109 139.567 L
195.179 139.666 L
195.249 139.765 L
195.319 139.863 L
195.389 139.96 L
195.46 140.057 L
195.53 140.154 L
195.6 140.25 L
195.67 140.346 L
195.74 140.441 L
195.81 140.536 L
195.88 140.63 L
195.95 140.724 L
196.02 140.817 L
196.09 140.91 L
196.16 141.003 L
196.23 141.095 L
196.3 141.186 L
196.37 141.278 L
196.44 141.368 L
196.51 141.458 L
196.58 141.548 L
196.65 141.637 L
196.72 141.726 L
196.79 141.814 L
196.86 141.902 L
196.93 141.99 L
197 142.076 L
197.07 142.163 L
197.14 142.249 L
197.21 142.334 L
197.28 142.419 L
197.35 142.504 L
197.42 142.588 L
197.49 142.672 L
197.56 142.755 L
197.63 142.837 L
197.7 142.919 L
197.77 143.001 L
197.84 143.082 L
197.91 143.163 L
197.981 143.243 L
198.051 143.323 L
198.121 143.403 L
198.191 143.481 L
198.261 143.56 L
198.331 143.638 L
198.401 143.715 L
198.471 143.792 L
198.541 143.868 L
198.611 143.944 L
198.681 144.02 L
198.751 144.095 L
198.821 144.17 L
198.891 144.244 L
198.961 144.317 L
199.031 144.39 L
199.101 144.463 L
199.171 144.535 L
199.241 144.607 L
199.311 144.678 L
199.381 144.749 L
199.451 144.819 L
199.521 144.888 L
199.591 144.958 L
199.661 145.026 L
199.731 145.095 L
199.801 145.163 L
199.871 145.23 L
199.941 145.297 L
200.011 145.363 L
200.081 145.429 L
200.151 145.494 L
200.221 145.559 L
200.291 145.624 L
200.361 145.688 L
200.432 145.751 L
200.502 145.814 L
200.572 145.876 L
200.642 145.938 L
200.712 146 L
200.782 146.061 L
200.852 146.121 L
200.922 146.182 L
200.992 146.241 L
201.062 146.3 L
201.132 146.359 L
201.202 146.417 L
201.272 146.474 L
201.342 146.532 L
201.412 146.588 L
201.482 146.644 L
201.552 146.7 L
201.622 146.755 L
201.692 146.81 L
201.762 146.864 L
201.832 146.918 L
201.902 146.971 L
201.972 147.024 L
202.042 147.076 L
202.112 147.128 L
202.182 147.179 L
202.252 147.23 L
202.322 147.281 L
202.392 147.331 L
202.462 147.38 L
202.532 147.429 L
202.602 147.477 L
202.672 147.525 L
202.742 147.573 L
202.812 147.62 L
202.882 147.666 L
202.953 147.712 L
203.023 147.758 L
203.093 147.803 L
203.163 147.847 L
203.233 147.891 L
203.303 147.935 L
203.373 147.978 L
203.443 148.021 L
203.513 148.063 L
203.583 148.105 L
203.653 148.146 L
203.723 148.186 L
203.793 148.227 L
203.863 148.266 L
203.933 148.306 L
204.003 148.344 L
204.073 148.383 L
204.143 148.421 L
204.213 148.458 L
204.283 148.495 L
204.353 148.531 L
204.423 148.567 L
204.493 148.603 L
204.563 148.638 L
204.633 148.672 L
204.703 148.706 L
204.773 148.74 L
204.843 148.773 L
204.913 148.805 L
204.983 148.838 L
205.053 148.869 L
205.123 148.9 L
205.193 148.931 L
205.263 148.961 L
205.333 148.991 L
205.404 149.02 L
205.474 149.049 L
205.544 149.078 L
205.614 149.106 L
205.684 149.133 L
205.754 149.16 L
205.824 149.186 L
205.894 149.212 L
205.964 149.238 L
206.034 149.263 L
206.104 149.288 L
206.174 149.312 L
206.244 149.336 L
206.314 149.359 L
206.384 149.382 L
206.454 149.404 L
206.524 149.426 L
206.594 149.447 L
206.664 149.468 L
206.734 149.488 L
206.804 149.508 L
206.874 149.528 L
206.944 149.547 L
207.014 149.566 L
207.084 149.584 L
207.154 149.602 L
207.224 149.619 L
207.294 149.636 L
207.364 149.652 L
207.434 149.668 L
207.504 149.683 L
207.574 149.698 L
207.644 149.713 L
207.714 149.727 L
207.784 149.741 L
207.854 149.754 L
207.925 149.766 L
207.995 149.779 L
208.065 149.791 L
208.135 149.802 L
208.205 149.813 L
208.275 149.823 L
208.345 149.833 L
208.415 149.843 L
208.485 149.852 L
208.555 149.861 L
208.625 149.869 L
208.695 149.877 L
208.765 149.885 L
208.835 149.892 L
208.905 149.898 L
208.975 149.904 L
209.045 149.91 L
209.115 149.915 L
209.185 149.92 L
209.255 149.924 L
209.325 149.928 L
209.395 149.932 L
209.465 149.935 L
209.535 149.937 L
209.605 149.94 L
209.675 149.941 L
209.745 149.943 L
209.815 149.944 L
209.885 149.944 L
209.955 149.944 L
210.025 149.944 L
210.095 149.943 L
210.165 149.942 L
210.235 149.94 L
210.305 149.938 L
210.376 149.936 L
210.446 149.933 L
210.516 149.93 L
210.586 149.926 L
210.656 149.922 L
210.726 149.917 L
210.796 149.912 L
210.866 149.907 L
210.936 149.901 L
211.006 149.895 L
211.076 149.889 L
211.146 149.882 L
211.216 149.874 L
211.286 149.866 L
211.356 149.858 L
211.426 149.85 L
211.496 149.841 L
211.566 149.831 L
211.636 149.821 L
211.706 149.811 L
211.776 149.801 L
211.846 149.79 L
211.916 149.778 L
211.986 149.766 L
212.056 149.754 L
212.126 149.742 L
212.196 149.729 L
212.266 149.715 L
212.336 149.701 L
212.406 149.687 L
212.476 149.673 L
212.546 149.658 L
212.616 149.643 L
212.686 149.627 L
212.756 149.611 L
212.826 149.594 L
212.897 149.578 L
212.967 149.56 L
213.037 149.543 L
213.107 149.525 L
213.177 149.507 L
213.247 149.488 L
213.317 149.469 L
213.387 149.449 L
213.457 149.43 L
213.527 149.409 L
213.597 149.389 L
213.667 149.368 L
213.737 149.347 L
213.807 149.325 L
213.877 149.303 L
213.947 149.281 L
214.017 149.258 L
214.087 149.235 L
214.157 149.211 L
214.227 149.188 L
214.297 149.164 L
214.367 149.139 L
214.437 149.114 L
214.507 149.089 L
214.577 149.063 L
214.647 149.038 L
214.717 149.011 L
214.787 148.985 L
214.857 148.958 L
214.927 148.93 L
214.997 148.903 L
215.067 148.875 L
215.137 148.847 L
215.207 148.818 L
215.277 148.789 L
215.348 148.76 L
215.418 148.73 L
215.488 148.7 L
215.558 148.67 L
215.628 148.639 L
215.698 148.608 L
215.768 148.577 L
215.838 148.545 L
215.908 148.513 L
215.978 148.481 L
216.048 148.448 L
216.118 148.415 L
216.188 148.382 L
216.258 148.349 L
216.328 148.315 L
216.398 148.281 L
216.468 148.246 L
216.538 148.211 L
216.608 148.176 L
216.678 148.141 L
216.748 148.105 L
216.818 148.069 L
216.888 148.033 L
216.958 147.996 L
217.028 147.959 L
217.098 147.922 L
217.168 147.884 L
217.238 147.847 L
217.308 147.809 L
217.378 147.77 L
217.448 147.731 L
217.518 147.692 L
217.588 147.653 L
217.658 147.613 L
217.728 147.574 L
217.798 147.533 L
217.869 147.493 L
217.939 147.452 L
218.009 147.411 L
218.079 147.37 L
218.149 147.328 L
218.219 147.287 L
218.289 147.245 L
218.359 147.202 L
218.429 147.16 L
218.499 147.117 L
218.569 147.073 L
218.639 147.03 L
218.709 146.986 L
218.779 146.942 L
218.849 146.898 L
218.919 146.853 L
218.989 146.809 L
219.059 146.764 L
219.129 146.718 L
219.199 146.673 L
219.269 146.627 L
219.339 146.581 L
219.409 146.535 L
219.479 146.488 L
219.549 146.441 L
219.619 146.394 L
219.689 146.347 L
219.759 146.3 L
219.829 146.252 L
219.899 146.204 L
219.969 146.156 L
220.039 146.107 L
220.109 146.058 L
220.179 146.009 L
220.249 145.96 L
220.32 145.911 L
220.39 145.861 L
220.46 145.811 L
220.53 145.761 L
220.6 145.711 L
220.67 145.66 L
220.74 145.61 L
220.81 145.559 L
220.88 145.508 L
220.95 145.456 L
221.02 145.405 L
221.09 145.353 L
221.16 145.301 L
221.23 145.248 L
221.3 145.196 L
221.37 145.143 L
221.44 145.09 L
221.51 145.037 L
221.58 144.984 L
221.65 144.931 L
221.72 144.877 L
221.79 144.823 L
221.86 144.769 L
221.93 144.715 L
222 144.66 L
222.07 144.606 L
222.14 144.551 L
222.21 144.496 L
222.28 144.441 L
222.35 144.385 L
222.42 144.33 L
222.49 144.274 L
222.56 144.218 L
222.63 144.162 L
222.7 144.106 L
222.77 144.049 L
222.841 143.993 L
222.911 143.936 L
222.981 143.879 L
223.051 143.822 L
223.121 143.765 L
223.191 143.707 L
223.261 143.65 L
223.331 143.592 L
223.401 143.534 L
223.471 143.476 L
223.541 143.418 L
223.611 143.359 L
223.681 143.301 L
223.751 143.242 L
223.821 143.183 L
223.891 143.124 L
223.961 143.065 L
224.031 143.006 L
224.101 142.946 L
224.171 142.887 L
224.241 142.827 L
224.311 142.767 L
224.381 142.707 L
224.451 142.647 L
224.521 142.587 L
224.591 142.527 L
224.661 142.466 L
224.731 142.406 L
224.801 142.345 L
224.871 142.284 L
224.941 142.223 L
225.011 142.162 L
225.081 142.101 L
225.151 142.039 L
225.221 141.978 L
225.292 141.916 L
225.362 141.854 L
225.432 141.793 L
225.502 141.731 L
225.572 141.669 L
225.642 141.607 L
225.712 141.544 L
225.782 141.482 L
225.852 141.42 L
225.922 141.357 L
225.992 141.294 L
226.062 141.232 L
226.132 141.169 L
226.202 141.106 L
226.272 141.043 L
226.342 140.98 L
226.412 140.917 L
226.482 140.853 L
226.552 140.79 L
226.622 140.727 L
226.692 140.663 L
226.762 140.599 L
226.832 140.536 L
226.902 140.472 L
226.972 140.408 L
227.042 140.344 L
227.112 140.28 L
227.182 140.216 L
227.252 140.152 L
227.322 140.088 L
227.392 140.024 L
227.462 139.959 L
227.532 139.895 L
227.602 139.83 L
227.672 139.766 L
227.742 139.701 L
227.813 139.637 L
227.883 139.572 L
227.953 139.507 L
228.023 139.443 L
228.093 139.378 L
228.163 139.313 L
228.233 139.248 L
228.303 139.183 L
228.373 139.118 L
228.443 139.053 L
228.513 138.988 L
228.583 138.923 L
228.653 138.858 L
228.723 138.793 L
228.793 138.727 L
228.863 138.662 L
228.933 138.597 L
229.003 138.532 L
229.073 138.466 L
229.143 138.401 L
229.213 138.335 L
229.283 138.27 L
229.353 138.205 L
229.423 138.139 L
229.493 138.074 L
229.563 138.008 L
229.633 137.943 L
229.703 137.877 L
229.773 137.812 L
229.843 137.746 L
229.913 137.681 L
229.983 137.615 L
230.053 137.55 L
230.123 137.484 L
230.193 137.419 L
230.264 137.353 L
230.334 137.287 L
230.404 137.222 L
230.474 137.156 L
230.544 137.091 L
230.614 137.025 L
230.684 136.96 L
230.754 136.894 L
230.824 136.829 L
230.894 136.763 L
230.964 136.698 L
231.034 136.632 L
231.104 136.567 L
231.174 136.502 L
231.244 136.436 L
231.314 136.371 L
231.384 136.305 L
231.454 136.24 L
231.524 136.175 L
231.594 136.11 L
231.664 136.044 L
231.734 135.979 L
231.804 135.914 L
231.874 135.849 L
231.944 135.784 L
232.014 135.719 L
232.084 135.654 L
232.154 135.589 L
232.224 135.524 L
232.294 135.459 L
232.364 135.394 L
232.434 135.329 L
232.504 135.265 L
232.574 135.2 L
232.644 135.135 L
232.714 135.071 L
232.785 135.006 L
232.855 134.942 L
232.925 134.877 L
232.995 134.813 L
233.065 134.748 L
233.135 134.684 L
233.205 134.62 L
233.275 134.556 L
233.345 134.492 L
233.415 134.428 L
233.485 134.364 L
233.555 134.3 L
233.625 134.236 L
233.695 134.173 L
233.765 134.109 L
233.835 134.045 L
233.905 133.982 L
233.975 133.918 L
234.045 133.855 L
234.115 133.792 L
234.185 133.729 L
234.255 133.666 L
234.325 133.603 L
234.395 133.54 L
234.465 133.477 L
234.535 133.414 L
234.605 133.351 L
234.675 133.289 L
234.745 133.226 L
234.815 133.164 L
234.885 133.102 L
234.955 133.04 L
235.025 132.977 L
235.095 132.915 L
235.165 132.854 L
235.236 132.792 L
235.306 132.73 L
235.376 132.669 L
235.446 132.607 L
235.516 132.546 L
235.586 132.484 L
235.656 132.423 L
235.726 132.362 L
235.796 132.301 L
235.866 132.241 L
235.936 132.18 L
236.006 132.119 L
236.076 132.059 L
236.146 131.999 L
236.216 131.938 L
236.286 131.878 L
236.356 131.818 L
236.426 131.758 L
236.496 131.699 L
236.566 131.639 L
236.636 131.58 L
236.706 131.52 L
236.776 131.461 L
236.846 131.402 L
236.916 131.343 L
236.986 131.284 L
237.056 131.225 L
237.126 131.167 L
237.196 131.108 L
237.266 131.05 L
237.336 130.992 L
237.406 130.934 L
237.476 130.876 L
237.546 130.818 L
237.616 130.761 L
237.686 130.703 L
237.757 130.646 L
237.827 130.589 L
237.897 130.532 L
237.967 130.475 L
238.037 130.419 L
238.107 130.362 L
238.177 130.306 L
238.247 130.249 L
238.317 130.193 L
238.387 130.137 L
238.457 130.082 L
238.527 130.026 L
238.597 129.971 L
238.667 129.915 L
238.737 129.86 L
238.807 129.805 L
238.877 129.75 L
238.947 129.696 L
239.017 129.641 L
239.087 129.587 L
239.157 129.533 L
239.227 129.479 L
239.297 129.425 L
239.367 129.372 L
239.437 129.318 L
239.507 129.265 L
239.577 129.212 L
239.647 129.159 L
239.717 129.106 L
239.787 129.054 L
239.857 129.001 L
239.927 128.949 L
239.997 128.897 L
240.067 128.845 L
240.137 128.793 L
240.208 128.742 L
240.278 128.691 L
240.348 128.639 L
240.418 128.588 L
240.488 128.538 L
240.558 128.487 L
240.628 128.437 L
240.698 128.387 L
240.768 128.337 L
240.838 128.287 L
240.908 128.237 L
240.978 128.188 L
241.048 128.139 L
241.118 128.09 L
241.188 128.041 L
241.258 127.992 L
241.328 127.944 L
241.398 127.895 L
241.468 127.847 L
241.538 127.799 L
241.608 127.752 L
241.678 127.704 L
241.748 127.657 L
241.818 127.61 L
241.888 127.563 L
241.958 127.517 L
242.028 127.47 L
242.098 127.424 L
242.168 127.378 L
242.238 127.332 L
242.308 127.287 L
242.378 127.241 L
242.448 127.196 L
242.518 127.151 L
242.588 127.106 L
242.658 127.062 L
242.729 127.018 L
242.799 126.973 L
242.869 126.93 L
242.939 126.886 L
243.009 126.842 L
243.079 126.799 L
243.149 126.756 L
243.219 126.713 L
243.289 126.671 L
243.359 126.628 L
243.429 126.586 L
243.499 126.544 L
243.569 126.503 L
243.639 126.461 L
243.709 126.42 L
243.779 126.379 L
243.849 126.338 L
243.919 126.297 L
243.989 126.257 L
244.059 126.217 L
244.129 126.177 L
244.199 126.137 L
244.269 126.098 L
244.339 126.059 L
244.409 126.02 L
244.479 125.981 L
244.549 125.942 L
244.619 125.904 L
244.689 125.866 L
244.759 125.828 L
244.829 125.791 L
244.899 125.753 L
244.969 125.716 L
245.039 125.679 L
245.109 125.643 L
245.18 125.606 L
245.25 125.57 L
245.32 125.534 L
245.39 125.498 L
245.46 125.463 L
245.53 125.428 L
245.6 125.393 L
245.67 125.358 L
245.74 125.323 L
245.81 125.289 L
245.88 125.255 L
245.95 125.221 L
246.02 125.188 L
246.09 125.154 L
246.16 125.121 L
246.23 125.089 L
246.3 125.056 L
246.37 125.024 L
246.44 124.992 L
246.51 124.96 L
246.58 124.928 L
246.65 124.897 L
246.72 124.866 L
246.79 124.835 L
246.86 124.804 L
246.93 124.774 L
247 124.744 L
247.07 124.714 L
247.14 124.684 L
247.21 124.655 L
247.28 124.626 L
247.35 124.597 L
247.42 124.568 L
247.49 124.54 L
247.56 124.512 L
247.63 124.484 L
247.701 124.456 L
247.771 124.429 L
247.841 124.402 L
247.911 124.375 L
247.981 124.348 L
248.051 124.322 L
248.121 124.296 L
248.191 124.27 L
248.261 124.245 L
248.331 124.219 L
248.401 124.194 L
248.471 124.169 L
248.541 124.145 L
248.611 124.12 L
248.681 124.096 L
248.751 124.073 L
248.821 124.049 L
248.891 124.026 L
248.961 124.003 L
249.031 123.98 L
249.101 123.957 L
249.171 123.935 L
249.241 123.913 L
249.311 123.891 L
249.381 123.87 L
249.451 123.849 L
249.521 123.828 L
249.591 123.807 L
249.661 123.786 L
249.731 123.766 L
249.801 123.746 L
249.871 123.727 L
249.941 123.707 L
250.011 123.688 L
250.081 123.669 L
250.152 123.65 L
250.222 123.632 L
250.292 123.614 L
250.362 123.596 L
250.432 123.578 L
250.502 123.561 L
250.572 123.544 L
250.642 123.527 L
250.712 123.511 L
250.782 123.494 L
250.852 123.478 L
250.922 123.462 L
250.992 123.447 L
251.062 123.432 L
251.132 123.417 L
251.202 123.402 L
251.272 123.387 L
251.342 123.373 L
251.412 123.359 L
251.482 123.345 L
251.552 123.332 L
251.622 123.319 L
251.692 123.306 L
251.762 123.293 L
251.832 123.281 L
251.902 123.268 L
251.972 123.256 L
252.042 123.245 L
252.112 123.233 L
252.182 123.222 L
252.252 123.211 L
252.322 123.201 L
252.392 123.19 L
252.462 123.18 L
252.532 123.17 L
252.602 123.161 L
252.673 123.152 L
252.743 123.143 L
252.813 123.134 L
252.883 123.125 L
252.953 123.117 L
253.023 123.109 L
253.093 123.101 L
253.163 123.094 L
253.233 123.086 L
253.303 123.079 L
253.373 123.073 L
253.443 123.066 L
253.513 123.06 L
253.583 123.054 L
253.653 123.048 L
253.723 123.043 L
253.793 123.037 L
253.863 123.033 L
253.933 123.028 L
254.003 123.023 L
254.073 123.019 L
254.143 123.015 L
254.213 123.012 L
254.283 123.008 L
254.353 123.005 L
254.423 123.002 L
254.493 122.999 L
254.563 122.997 L
254.633 122.995 L
254.703 122.993 L
254.773 122.991 L
254.843 122.99 L
254.913 122.989 L
254.983 122.988 L
255.053 122.987 L
255.124 122.987 L
255.194 122.987 L
255.264 122.987 L
255.334 122.987 L
255.404 122.988 L
255.474 122.989 L
255.544 122.99 L
255.614 122.991 L
255.684 122.993 L
255.754 122.995 L
255.824 122.997 L
255.894 122.999 L
255.964 123.002 L
256.034 123.005 L
256.104 123.008 L
256.174 123.011 L
256.244 123.015 L
256.314 123.018 L
256.384 123.022 L
256.454 123.027 L
256.524 123.031 L
256.594 123.036 L
256.664 123.041 L
256.734 123.046 L
256.804 123.052 L
256.874 123.058 L
256.944 123.064 L
257.014 123.07 L
257.026 123.071 L
S
GR
%%Trailer
%%Pages: 1
%%EOF
