%!PS-Adobe-3.0 EPSF-3.0
%%Creator: (MATLAB, The Mathworks, Inc. Version 9.1.0.441655 \(R2016b\). Operating System: Windows 8)
%%Title: ../Dokument/Abbildungen/fourier_transformation_sinus_rechteck_bild.eps
%%CreationDate: 2017-09-03T16:46:11
%%Pages: (atend)
%%BoundingBox:     1     1   198   149
%%LanguageLevel: 3
%%EndComments
%%BeginProlog
%%BeginResource: procset (Apache XML Graphics Std ProcSet) 1.2 0
%%Version: 1.2 0
%%Copyright: (Copyright 2001-2003,2010 The Apache Software Foundation. License terms: http://www.apache.org/licenses/LICENSE-2.0)
/bd{bind def}bind def
/ld{load def}bd
/GR/grestore ld
/M/moveto ld
/LJ/setlinejoin ld
/C/curveto ld
/f/fill ld
/LW/setlinewidth ld
/GC/setgray ld
/t/show ld
/N/newpath ld
/CT/concat ld
/cp/closepath ld
/S/stroke ld
/L/lineto ld
/CC/setcmykcolor ld
/A/ashow ld
/GS/gsave ld
/RC/setrgbcolor ld
/RM/rmoveto ld
/ML/setmiterlimit ld
/re {4 2 roll M
1 index 0 rlineto
0 exch rlineto
neg 0 rlineto
cp } bd
/_ctm matrix def
/_tm matrix def
/BT { _ctm currentmatrix pop matrix _tm copy pop 0 0 moveto } bd
/ET { _ctm setmatrix } bd
/iTm { _ctm setmatrix _tm concat } bd
/Tm { _tm astore pop iTm 0 0 moveto } bd
/ux 0.0 def
/uy 0.0 def
/F {
  /Tp exch def
  /Tf exch def
  Tf findfont Tp scalefont setfont
  /cf Tf def  /cs Tp def
} bd
/ULS {currentpoint /uy exch def /ux exch def} bd
/ULE {
  /Tcx currentpoint pop def
  gsave
  newpath
  cf findfont cs scalefont dup
  /FontMatrix get 0 get /Ts exch def /FontInfo get dup
  /UnderlinePosition get Ts mul /To exch def
  /UnderlineThickness get Ts mul /Tt exch def
  ux uy To add moveto  Tcx uy To add lineto
  Tt setlinewidth stroke
  grestore
} bd
/OLE {
  /Tcx currentpoint pop def
  gsave
  newpath
  cf findfont cs scalefont dup
  /FontMatrix get 0 get /Ts exch def /FontInfo get dup
  /UnderlinePosition get Ts mul /To exch def
  /UnderlineThickness get Ts mul /Tt exch def
  ux uy To add cs add moveto Tcx uy To add cs add lineto
  Tt setlinewidth stroke
  grestore
} bd
/SOE {
  /Tcx currentpoint pop def
  gsave
  newpath
  cf findfont cs scalefont dup
  /FontMatrix get 0 get /Ts exch def /FontInfo get dup
  /UnderlinePosition get Ts mul /To exch def
  /UnderlineThickness get Ts mul /Tt exch def
  ux uy To add cs 10 mul 26 idiv add moveto Tcx uy To add cs 10 mul 26 idiv add lineto
  Tt setlinewidth stroke
  grestore
} bd
/QT {
/Y22 exch store
/X22 exch store
/Y21 exch store
/X21 exch store
currentpoint
/Y21 load 2 mul add 3 div exch
/X21 load 2 mul add 3 div exch
/X21 load 2 mul /X22 load add 3 div
/Y21 load 2 mul /Y22 load add 3 div
/X22 load /Y22 load curveto
} bd
/SSPD {
dup length /d exch dict def
{
/v exch def
/k exch def
currentpagedevice k known {
/cpdv currentpagedevice k get def
v cpdv ne {
/upd false def
/nullv v type /nulltype eq def
/nullcpdv cpdv type /nulltype eq def
nullv nullcpdv or
{
/upd true def
} {
/sametype v type cpdv type eq def
sametype {
v type /arraytype eq {
/vlen v length def
/cpdvlen cpdv length def
vlen cpdvlen eq {
0 1 vlen 1 sub {
/i exch def
/obj v i get def
/cpdobj cpdv i get def
obj cpdobj ne {
/upd true def
exit
} if
} for
} {
/upd true def
} ifelse
} {
v type /dicttype eq {
v {
/dv exch def
/dk exch def
/cpddv cpdv dk get def
dv cpddv ne {
/upd true def
exit
} if
} forall
} {
/upd true def
} ifelse
} ifelse
} if
} ifelse
upd true eq {
d k v put
} if
} if
} if
} forall
d length 0 gt {
d setpagedevice
} if
} bd
/RE { % /NewFontName [NewEncodingArray] /FontName RE -
  findfont dup length dict begin
  {
    1 index /FID ne
    {def} {pop pop} ifelse
  } forall
  /Encoding exch def
  /FontName 1 index def
  currentdict definefont pop
  end
} bind def
%%EndResource
%%BeginResource: procset (Apache XML Graphics EPS ProcSet) 1.0 0
%%Version: 1.0 0
%%Copyright: (Copyright 2002-2003 The Apache Software Foundation. License terms: http://www.apache.org/licenses/LICENSE-2.0)
/BeginEPSF { %def
/b4_Inc_state save def         % Save state for cleanup
/dict_count countdictstack def % Count objects on dict stack
/op_count count 1 sub def      % Count objects on operand stack
userdict begin                 % Push userdict on dict stack
/showpage { } def              % Redefine showpage, { } = null proc
0 setgray 0 setlinecap         % Prepare graphics state
1 setlinewidth 0 setlinejoin
10 setmiterlimit [ ] 0 setdash newpath
/languagelevel where           % If level not equal to 1 then
{pop languagelevel             % set strokeadjust and
1 ne                           % overprint to their defaults.
{false setstrokeadjust false setoverprint
} if
} if
} bd
/EndEPSF { %def
count op_count sub {pop} repeat            % Clean up stacks
countdictstack dict_count sub {end} repeat
b4_Inc_state restore
} bd
%%EndResource
%FOPBeginFontDict
%%IncludeResource: font Courier-Bold
%%IncludeResource: font Helvetica
%%IncludeResource: font Courier-BoldOblique
%%IncludeResource: font Courier-Oblique
%%IncludeResource: font Times-Roman
%%IncludeResource: font Helvetica-BoldOblique
%%IncludeResource: font Helvetica-Bold
%%IncludeResource: font Helvetica-Oblique
%%IncludeResource: font Times-BoldItalic
%%IncludeResource: font Courier
%%IncludeResource: font Times-Italic
%%IncludeResource: font Times-Bold
%%IncludeResource: font Symbol
%%IncludeResource: font ZapfDingbats
%FOPEndFontDict
%%BeginResource: encoding WinAnsiEncoding
/WinAnsiEncoding [
/.notdef /.notdef /.notdef /.notdef /.notdef
/.notdef /.notdef /.notdef /.notdef /.notdef
/.notdef /.notdef /.notdef /.notdef /.notdef
/.notdef /.notdef /.notdef /.notdef /.notdef
/.notdef /.notdef /.notdef /.notdef /.notdef
/.notdef /.notdef /.notdef /.notdef /.notdef
/.notdef /.notdef /space /exclam /quotedbl
/numbersign /dollar /percent /ampersand /quotesingle
/parenleft /parenright /asterisk /plus /comma
/hyphen /period /slash /zero /one
/two /three /four /five /six
/seven /eight /nine /colon /semicolon
/less /equal /greater /question /at
/A /B /C /D /E
/F /G /H /I /J
/K /L /M /N /O
/P /Q /R /S /T
/U /V /W /X /Y
/Z /bracketleft /backslash /bracketright /asciicircum
/underscore /quoteleft /a /b /c
/d /e /f /g /h
/i /j /k /l /m
/n /o /p /q /r
/s /t /u /v /w
/x /y /z /braceleft /bar
/braceright /asciitilde /bullet /Euro /bullet
/quotesinglbase /florin /quotedblbase /ellipsis /dagger
/daggerdbl /circumflex /perthousand /Scaron /guilsinglleft
/OE /bullet /Zcaron /bullet /bullet
/quoteleft /quoteright /quotedblleft /quotedblright /bullet
/endash /emdash /asciitilde /trademark /scaron
/guilsinglright /oe /bullet /zcaron /Ydieresis
/space /exclamdown /cent /sterling /currency
/yen /brokenbar /section /dieresis /copyright
/ordfeminine /guillemotleft /logicalnot /sfthyphen /registered
/macron /degree /plusminus /twosuperior /threesuperior
/acute /mu /paragraph /middot /cedilla
/onesuperior /ordmasculine /guillemotright /onequarter /onehalf
/threequarters /questiondown /Agrave /Aacute /Acircumflex
/Atilde /Adieresis /Aring /AE /Ccedilla
/Egrave /Eacute /Ecircumflex /Edieresis /Igrave
/Iacute /Icircumflex /Idieresis /Eth /Ntilde
/Ograve /Oacute /Ocircumflex /Otilde /Odieresis
/multiply /Oslash /Ugrave /Uacute /Ucircumflex
/Udieresis /Yacute /Thorn /germandbls /agrave
/aacute /acircumflex /atilde /adieresis /aring
/ae /ccedilla /egrave /eacute /ecircumflex
/edieresis /igrave /iacute /icircumflex /idieresis
/eth /ntilde /ograve /oacute /ocircumflex
/otilde /odieresis /divide /oslash /ugrave
/uacute /ucircumflex /udieresis /yacute /thorn
/ydieresis
] def
%%EndResource
%FOPBeginFontReencode
/Courier-Bold findfont
dup length dict begin
  {1 index /FID ne {def} {pop pop} ifelse} forall
  /Encoding WinAnsiEncoding def
  currentdict
end
/Courier-Bold exch definefont pop
/Helvetica findfont
dup length dict begin
  {1 index /FID ne {def} {pop pop} ifelse} forall
  /Encoding WinAnsiEncoding def
  currentdict
end
/Helvetica exch definefont pop
/Courier-BoldOblique findfont
dup length dict begin
  {1 index /FID ne {def} {pop pop} ifelse} forall
  /Encoding WinAnsiEncoding def
  currentdict
end
/Courier-BoldOblique exch definefont pop
/Courier-Oblique findfont
dup length dict begin
  {1 index /FID ne {def} {pop pop} ifelse} forall
  /Encoding WinAnsiEncoding def
  currentdict
end
/Courier-Oblique exch definefont pop
/Times-Roman findfont
dup length dict begin
  {1 index /FID ne {def} {pop pop} ifelse} forall
  /Encoding WinAnsiEncoding def
  currentdict
end
/Times-Roman exch definefont pop
/Helvetica-BoldOblique findfont
dup length dict begin
  {1 index /FID ne {def} {pop pop} ifelse} forall
  /Encoding WinAnsiEncoding def
  currentdict
end
/Helvetica-BoldOblique exch definefont pop
/Helvetica-Bold findfont
dup length dict begin
  {1 index /FID ne {def} {pop pop} ifelse} forall
  /Encoding WinAnsiEncoding def
  currentdict
end
/Helvetica-Bold exch definefont pop
/Helvetica-Oblique findfont
dup length dict begin
  {1 index /FID ne {def} {pop pop} ifelse} forall
  /Encoding WinAnsiEncoding def
  currentdict
end
/Helvetica-Oblique exch definefont pop
/Times-BoldItalic findfont
dup length dict begin
  {1 index /FID ne {def} {pop pop} ifelse} forall
  /Encoding WinAnsiEncoding def
  currentdict
end
/Times-BoldItalic exch definefont pop
/Courier findfont
dup length dict begin
  {1 index /FID ne {def} {pop pop} ifelse} forall
  /Encoding WinAnsiEncoding def
  currentdict
end
/Courier exch definefont pop
/Times-Italic findfont
dup length dict begin
  {1 index /FID ne {def} {pop pop} ifelse} forall
  /Encoding WinAnsiEncoding def
  currentdict
end
/Times-Italic exch definefont pop
/Times-Bold findfont
dup length dict begin
  {1 index /FID ne {def} {pop pop} ifelse} forall
  /Encoding WinAnsiEncoding def
  currentdict
end
/Times-Bold exch definefont pop
%FOPEndFontReencode
%%EndProlog
%%Page: 1 1
%%PageBoundingBox: 0 0 213 160
%%BeginPageSetup
[1 0 0 -1 0 160] CT
%%EndPageSetup
GS
[0.75 0 0 0.75 0 0.25] CT
N
0 0 M
284 0 L
284 213 L
0 213 L
0 0 L
cp
clip
1 GC
N
0 0 284 213 re
f
GR
GS
[0.75 0 0 0.75 0 0.25] CT
1 GC
N
0 0 284 213 re
f
GR
GS
[0.75 0 0 0.75 0 0.25] CT
1 GC
N
47 172 M
257 172 L
257 16 L
47 16 L
cp
f
GR
GS
[0.75 0 0 0.75 0 0.25] CT
0.873 GC
1 LJ
0.667 LW
N
47 172 M
47 16 L
S
GR
GS
[0.75 0 0 0.75 0 0.25] CT
0.873 GC
1 LJ
0.667 LW
N
73.25 172 M
73.25 16 L
S
GR
GS
[0.75 0 0 0.75 0 0.25] CT
0.873 GC
1 LJ
0.667 LW
N
99.5 172 M
99.5 16 L
S
GR
GS
[0.75 0 0 0.75 0 0.25] CT
0.873 GC
1 LJ
0.667 LW
N
125.75 172 M
125.75 16 L
S
GR
GS
[0.75 0 0 0.75 0 0.25] CT
0.873 GC
1 LJ
0.667 LW
N
152 172 M
152 16 L
S
GR
GS
[0.75 0 0 0.75 0 0.25] CT
0.873 GC
1 LJ
0.667 LW
N
178.25 172 M
178.25 16 L
S
GR
GS
[0.75 0 0 0.75 0 0.25] CT
0.873 GC
1 LJ
0.667 LW
N
204.5 172 M
204.5 16 L
S
GR
GS
[0.75 0 0 0.75 0 0.25] CT
0.873 GC
1 LJ
0.667 LW
N
230.75 172 M
230.75 16 L
S
GR
GS
[0.75 0 0 0.75 0 0.25] CT
0.873 GC
1 LJ
0.667 LW
N
257 172 M
257 16 L
S
GR
GS
[0.75 0 0 0.75 0 0.25] CT
0.873 GC
1 LJ
0.667 LW
N
257 149.714 M
47 149.714 L
S
GR
GS
[0.75 0 0 0.75 0 0.25] CT
0.873 GC
1 LJ
0.667 LW
N
257 94 M
47 94 L
S
GR
GS
[0.75 0 0 0.75 0 0.25] CT
0.873 GC
1 LJ
0.667 LW
N
257 38.286 M
47 38.286 L
S
GR
GS
[0.75 0 0 0.75 0 0.25] CT
0.149 GC
2 setlinecap
1 LJ
0.667 LW
N
47 172 M
257 172 L
S
GR
GS
[0.75 0 0 0.75 0 0.25] CT
0.149 GC
2 setlinecap
1 LJ
0.667 LW
N
47 16 M
257 16 L
S
GR
GS
[0.75 0 0 0.75 0 0.25] CT
0.149 GC
2 setlinecap
1 LJ
0.667 LW
N
47 172 M
47 169.902 L
S
GR
GS
[0.75 0 0 0.75 0 0.25] CT
0.149 GC
2 setlinecap
1 LJ
0.667 LW
N
73.25 172 M
73.25 169.902 L
S
GR
GS
[0.75 0 0 0.75 0 0.25] CT
0.149 GC
2 setlinecap
1 LJ
0.667 LW
N
99.5 172 M
99.5 169.902 L
S
GR
GS
[0.75 0 0 0.75 0 0.25] CT
0.149 GC
2 setlinecap
1 LJ
0.667 LW
N
125.75 172 M
125.75 169.902 L
S
GR
GS
[0.75 0 0 0.75 0 0.25] CT
0.149 GC
2 setlinecap
1 LJ
0.667 LW
N
152 172 M
152 169.902 L
S
GR
GS
[0.75 0 0 0.75 0 0.25] CT
0.149 GC
2 setlinecap
1 LJ
0.667 LW
N
178.25 172 M
178.25 169.902 L
S
GR
GS
[0.75 0 0 0.75 0 0.25] CT
0.149 GC
2 setlinecap
1 LJ
0.667 LW
N
204.5 172 M
204.5 169.902 L
S
GR
GS
[0.75 0 0 0.75 0 0.25] CT
0.149 GC
2 setlinecap
1 LJ
0.667 LW
N
230.75 172 M
230.75 169.902 L
S
GR
GS
[0.75 0 0 0.75 0 0.25] CT
0.149 GC
2 setlinecap
1 LJ
0.667 LW
N
257 172 M
257 169.902 L
S
GR
GS
[0.75 0 0 0.75 0 0.25] CT
0.149 GC
2 setlinecap
1 LJ
0.667 LW
N
47 16 M
47 18.098 L
S
GR
GS
[0.75 0 0 0.75 0 0.25] CT
0.149 GC
2 setlinecap
1 LJ
0.667 LW
N
73.25 16 M
73.25 18.098 L
S
GR
GS
[0.75 0 0 0.75 0 0.25] CT
0.149 GC
2 setlinecap
1 LJ
0.667 LW
N
99.5 16 M
99.5 18.098 L
S
GR
GS
[0.75 0 0 0.75 0 0.25] CT
0.149 GC
2 setlinecap
1 LJ
0.667 LW
N
125.75 16 M
125.75 18.098 L
S
GR
GS
[0.75 0 0 0.75 0 0.25] CT
0.149 GC
2 setlinecap
1 LJ
0.667 LW
N
152 16 M
152 18.098 L
S
GR
GS
[0.75 0 0 0.75 0 0.25] CT
0.149 GC
2 setlinecap
1 LJ
0.667 LW
N
178.25 16 M
178.25 18.098 L
S
GR
GS
[0.75 0 0 0.75 0 0.25] CT
0.149 GC
2 setlinecap
1 LJ
0.667 LW
N
204.5 16 M
204.5 18.098 L
S
GR
GS
[0.75 0 0 0.75 0 0.25] CT
0.149 GC
2 setlinecap
1 LJ
0.667 LW
N
230.75 16 M
230.75 18.098 L
S
GR
GS
[0.75 0 0 0.75 0 0.25] CT
0.149 GC
2 setlinecap
1 LJ
0.667 LW
N
257 16 M
257 18.098 L
S
GR
GS
[0.75 0 0 0.75 35.25 133.25] CT
0.149 GC
N
-11.23 8.216 M
-11.339 8.216 -11.409 8.13 QT
-11.48 8.044 -11.48 7.95 QT
-11.48 7.856 -11.409 7.77 QT
-11.339 7.684 -11.23 7.684 QT
-3.777 7.684 L
-3.667 7.684 -3.605 7.77 QT
-3.542 7.856 -3.542 7.95 QT
-3.542 8.044 -3.605 8.13 QT
-3.667 8.216 -3.777 8.216 QT
-11.23 8.216 L
cp
f
GR
GS
[0.75 0 0 0.75 35.25 133.25] CT
0.149 GC
N
-1.641 9.231 M
-1.641 8.45 -1.125 7.848 QT
-0.609 7.247 0.188 6.841 QT
-0.297 6.528 L
-0.734 6.247 -1.016 5.762 QT
-1.297 5.278 -1.297 4.731 QT
-1.297 4.122 -0.969 3.614 QT
-0.641 3.106 -0.094 2.825 QT
0.453 2.544 1.063 2.544 QT
1.641 2.544 2.18 2.778 QT
2.719 3.012 3.063 3.45 QT
3.406 3.887 3.406 4.497 QT
3.406 4.934 3.203 5.309 QT
3 5.684 2.641 5.981 QT
2.281 6.278 1.875 6.481 QT
2.609 6.966 L
3.125 7.294 3.438 7.841 QT
3.75 8.387 3.75 8.997 QT
3.75 9.7 3.375 10.278 QT
3 10.856 2.375 11.169 QT
1.75 11.481 1.063 11.481 QT
0.391 11.481 -0.234 11.208 QT
-0.859 10.934 -1.25 10.419 QT
-1.641 9.903 -1.641 9.231 QT
cp
-0.938 9.231 M
-0.938 9.747 -0.656 10.169 QT
-0.375 10.591 0.094 10.833 QT
0.563 11.075 1.063 11.075 QT
1.813 11.075 2.43 10.63 QT
3.047 10.184 3.047 9.466 QT
3.047 9.216 2.953 8.973 QT
2.859 8.731 2.68 8.528 QT
2.5 8.325 2.281 8.2 QT
0.547 7.075 L
0.141 7.278 -0.203 7.614 QT
-0.547 7.95 -0.742 8.356 QT
-0.938 8.762 -0.938 9.231 QT
cp
-0.047 5.262 M
1.531 6.278 L
2.078 5.95 2.43 5.505 QT
2.781 5.059 2.781 4.497 QT
2.781 4.059 2.531 3.692 QT
2.281 3.325 1.891 3.122 QT
1.5 2.919 1.047 2.919 QT
0.656 2.919 0.258 3.067 QT
-0.141 3.216 -0.398 3.52 QT
-0.656 3.825 -0.656 4.231 QT
-0.656 4.841 -0.047 5.262 QT
cp
f
GR
GS
[0.75 0 0 0.75 35.25 133.25] CT
0.149 GC
N
5.792 10.981 M
5.792 10.903 5.839 10.762 QT
6.214 10.012 6.526 9.286 QT
6.839 8.559 7.089 7.872 QT
7.339 7.184 7.542 6.403 QT
6.714 6.403 L
6.245 6.403 5.831 6.7 QT
5.417 6.997 5.135 7.45 QT
5.12 7.512 5.057 7.512 QT
4.917 7.512 L
4.792 7.512 4.792 7.372 QT
4.792 7.356 4.823 7.309 QT
5.245 6.575 5.729 6.083 QT
6.214 5.591 6.823 5.591 QT
11.542 5.591 L
11.667 5.591 11.76 5.684 QT
11.854 5.778 11.854 5.919 QT
11.854 6.122 11.721 6.262 QT
11.589 6.403 11.401 6.403 QT
9.745 6.403 L
9.526 7.419 9.51 8.387 QT
9.51 9.637 9.948 10.653 QT
9.995 10.731 9.995 10.809 QT
9.995 10.95 9.909 11.075 QT
9.823 11.2 9.69 11.27 QT
9.557 11.341 9.417 11.341 QT
9.073 11.341 8.948 10.786 QT
8.823 10.231 8.823 9.7 QT
8.823 8.966 8.948 8.27 QT
9.073 7.575 9.354 6.403 QT
7.932 6.403 L
6.917 10.559 6.698 10.997 QT
6.51 11.341 6.198 11.341 QT
6.042 11.341 5.917 11.239 QT
5.792 11.137 5.792 10.981 QT
cp
f
GR
GS
[0.75 0 0 0.75 54.9375 133.25] CT
0.149 GC
N
/f623989187{-11.23 8.216 M
-11.339 8.216 -11.409 8.13 QT
-11.48 8.044 -11.48 7.95 QT
-11.48 7.856 -11.409 7.77 QT
-11.339 7.684 -11.23 7.684 QT
-3.777 7.684 L
-3.667 7.684 -3.605 7.77 QT
-3.542 7.856 -3.542 7.95 QT
-3.542 8.044 -3.605 8.13 QT
-3.667 8.216 -3.777 8.216 QT
-11.23 8.216 L
cp}def
f623989187
f
GR
GS
[0.75 0 0 0.75 54.9375 133.25] CT
0.149 GC
N
/f-616869807{1.063 11.481 M
0.25 11.481 -0.289 11.052 QT
-0.828 10.622 -1.117 9.942 QT
-1.406 9.262 -1.523 8.512 QT
-1.641 7.762 -1.641 6.997 QT
-1.641 5.966 -1.242 4.934 QT
-0.844 3.903 -0.063 3.223 QT
0.719 2.544 1.781 2.544 QT
2.219 2.544 2.609 2.708 QT
3 2.872 3.219 3.2 QT
3.438 3.528 3.438 3.997 QT
3.438 4.262 3.25 4.442 QT
3.063 4.622 2.797 4.622 QT
2.547 4.622 2.367 4.442 QT
2.188 4.262 2.188 3.997 QT
2.188 3.747 2.367 3.559 QT
2.547 3.372 2.797 3.372 QT
2.875 3.372 L
2.703 3.137 2.406 3.028 QT
2.109 2.919 1.781 2.919 QT
1.391 2.919 1.055 3.091 QT
0.719 3.262 0.453 3.552 QT
0.188 3.841 0.008 4.192 QT
-0.172 4.544 -0.266 4.997 QT
-0.359 5.45 -0.391 5.841 QT
-0.422 6.231 -0.422 6.825 QT
-0.188 6.294 0.234 5.958 QT
0.656 5.622 1.172 5.622 QT
1.75 5.622 2.227 5.856 QT
2.703 6.091 3.047 6.505 QT
3.391 6.919 3.57 7.45 QT
3.75 7.981 3.75 8.528 QT
3.75 9.294 3.414 9.981 QT
3.078 10.669 2.461 11.075 QT
1.844 11.481 1.063 11.481 QT
cp
1.063 11.075 M
1.563 11.075 1.867 10.848 QT
2.172 10.622 2.313 10.239 QT
2.453 9.856 2.492 9.473 QT
2.531 9.091 2.531 8.528 QT
2.531 7.794 2.461 7.278 QT
2.391 6.762 2.078 6.364 QT
1.766 5.966 1.125 5.966 QT
0.594 5.966 0.258 6.317 QT
-0.078 6.669 -0.234 7.216 QT
-0.391 7.762 -0.391 8.262 QT
-0.391 8.434 -0.375 8.528 QT
-0.375 8.544 -0.383 8.552 QT
-0.391 8.559 -0.391 8.591 QT
-0.391 9.137 -0.273 9.708 QT
-0.156 10.278 0.164 10.677 QT
0.484 11.075 1.063 11.075 QT
cp}def
f-616869807
f
GR
GS
[0.75 0 0 0.75 54.9375 133.25] CT
0.149 GC
N
/f-453932370{5.792 10.981 M
5.792 10.903 5.839 10.762 QT
6.214 10.012 6.526 9.286 QT
6.839 8.559 7.089 7.872 QT
7.339 7.184 7.542 6.403 QT
6.714 6.403 L
6.245 6.403 5.831 6.7 QT
5.417 6.997 5.135 7.45 QT
5.12 7.512 5.057 7.512 QT
4.917 7.512 L
4.792 7.512 4.792 7.372 QT
4.792 7.356 4.823 7.309 QT
5.245 6.575 5.729 6.083 QT
6.214 5.591 6.823 5.591 QT
11.542 5.591 L
11.667 5.591 11.76 5.684 QT
11.854 5.778 11.854 5.919 QT
11.854 6.122 11.721 6.262 QT
11.589 6.403 11.401 6.403 QT
9.745 6.403 L
9.526 7.419 9.51 8.387 QT
9.51 9.637 9.948 10.653 QT
9.995 10.731 9.995 10.809 QT
9.995 10.95 9.909 11.075 QT
9.823 11.2 9.69 11.27 QT
9.557 11.341 9.417 11.341 QT
9.073 11.341 8.948 10.786 QT
8.823 10.231 8.823 9.7 QT
8.823 8.966 8.948 8.27 QT
9.073 7.575 9.354 6.403 QT
7.932 6.403 L
6.917 10.559 6.698 10.997 QT
6.51 11.341 6.198 11.341 QT
6.042 11.341 5.917 11.239 QT
5.792 11.137 5.792 10.981 QT
cp}def
f-453932370
f
GR
GS
[0.75 0 0 0.75 74.625 133.25] CT
0.149 GC
N
f623989187
f
GR
GS
[0.75 0 0 0.75 74.625 133.25] CT
0.149 GC
N
/f-2059806886{-1.828 9.059 M
-1.828 8.591 L
2.188 2.606 L
2.234 2.544 2.328 2.544 QT
2.516 2.544 L
2.656 2.544 2.656 2.684 QT
2.656 8.591 L
3.938 8.591 L
3.938 9.059 L
2.656 9.059 L
2.656 10.325 L
2.656 10.591 3.039 10.669 QT
3.422 10.747 3.922 10.747 QT
3.922 11.2 L
0.344 11.2 L
0.344 10.747 L
0.844 10.747 1.227 10.669 QT
1.609 10.591 1.609 10.325 QT
1.609 9.059 L
-1.828 9.059 L
cp
-1.391 8.591 M
1.688 8.591 L
1.688 3.997 L
-1.391 8.591 L
cp}def
f-2059806886
f
GR
GS
[0.75 0 0 0.75 74.625 133.25] CT
0.149 GC
N
f-453932370
f
GR
GS
[0.75 0 0 0.75 94.3125 133.25] CT
0.149 GC
N
f623989187
f
GR
GS
[0.75 0 0 0.75 94.3125 133.25] CT
0.149 GC
N
/f412135865{-1.547 11.2 M
-1.547 10.856 L
-1.547 10.825 -1.516 10.778 QT
0.5 8.544 L
0.969 8.044 1.25 7.708 QT
1.531 7.372 1.813 6.934 QT
2.094 6.497 2.258 6.044 QT
2.422 5.591 2.422 5.091 QT
2.422 4.559 2.219 4.067 QT
2.016 3.575 1.625 3.286 QT
1.234 2.997 0.688 2.997 QT
0.125 2.997 -0.328 3.341 QT
-0.781 3.684 -0.969 4.216 QT
-0.906 4.2 -0.828 4.2 QT
-0.531 4.2 -0.328 4.395 QT
-0.125 4.591 -0.125 4.903 QT
-0.125 5.2 -0.328 5.411 QT
-0.531 5.622 -0.828 5.622 QT
-1.125 5.622 -1.336 5.411 QT
-1.547 5.2 -1.547 4.903 QT
-1.547 4.419 -1.359 3.989 QT
-1.172 3.559 -0.828 3.231 QT
-0.484 2.903 -0.047 2.723 QT
0.391 2.544 0.875 2.544 QT
1.625 2.544 2.266 2.856 QT
2.906 3.169 3.281 3.747 QT
3.656 4.325 3.656 5.091 QT
3.656 5.653 3.406 6.161 QT
3.156 6.669 2.773 7.083 QT
2.391 7.497 1.781 8.028 QT
1.172 8.559 0.984 8.731 QT
-0.484 10.153 L
0.766 10.153 L
1.688 10.153 2.305 10.137 QT
2.922 10.122 2.953 10.075 QT
3.109 9.919 3.266 8.887 QT
3.656 8.887 L
3.281 11.2 L
-1.547 11.2 L
cp}def
f412135865
f
GR
GS
[0.75 0 0 0.75 94.3125 133.25] CT
0.149 GC
N
f-453932370
f
GR
GS
[0.75 0 0 0.75 114 133.25] CT
0.149 GC
N
/f1061832871{-0.083 11.481 M
-1.677 11.481 -2.247 10.169 QT
-2.818 8.856 -2.818 7.059 QT
-2.818 5.919 -2.615 4.927 QT
-2.411 3.934 -1.802 3.239 QT
-1.193 2.544 -0.083 2.544 QT
0.776 2.544 1.323 2.958 QT
1.87 3.372 2.151 4.036 QT
2.432 4.7 2.542 5.458 QT
2.651 6.216 2.651 7.059 QT
2.651 8.169 2.44 9.145 QT
2.229 10.122 1.628 10.802 QT
1.026 11.481 -0.083 11.481 QT
cp
-0.083 11.153 M
0.635 11.153 0.995 10.411 QT
1.354 9.669 1.432 8.762 QT
1.51 7.856 1.51 6.841 QT
1.51 5.872 1.432 5.044 QT
1.354 4.216 1.003 3.544 QT
0.651 2.872 -0.083 2.872 QT
-0.818 2.872 -1.177 3.552 QT
-1.536 4.231 -1.615 5.052 QT
-1.693 5.872 -1.693 6.841 QT
-1.693 7.575 -1.661 8.216 QT
-1.63 8.856 -1.474 9.536 QT
-1.318 10.216 -0.982 10.684 QT
-0.646 11.153 -0.083 11.153 QT
cp}def
f1061832871
f
GR
GS
[0.75 0 0 0.75 133.6875 133.25] CT
0.149 GC
N
/f-1981330070{-6.732 11.2 M
-6.732 10.856 L
-6.732 10.825 -6.701 10.778 QT
-4.685 8.544 L
-4.216 8.044 -3.935 7.708 QT
-3.654 7.372 -3.373 6.934 QT
-3.091 6.497 -2.927 6.044 QT
-2.763 5.591 -2.763 5.091 QT
-2.763 4.559 -2.966 4.067 QT
-3.17 3.575 -3.56 3.286 QT
-3.951 2.997 -4.498 2.997 QT
-5.06 2.997 -5.513 3.341 QT
-5.966 3.684 -6.154 4.216 QT
-6.091 4.2 -6.013 4.2 QT
-5.716 4.2 -5.513 4.395 QT
-5.31 4.591 -5.31 4.903 QT
-5.31 5.2 -5.513 5.411 QT
-5.716 5.622 -6.013 5.622 QT
-6.31 5.622 -6.521 5.411 QT
-6.732 5.2 -6.732 4.903 QT
-6.732 4.419 -6.545 3.989 QT
-6.357 3.559 -6.013 3.231 QT
-5.67 2.903 -5.232 2.723 QT
-4.795 2.544 -4.31 2.544 QT
-3.56 2.544 -2.92 2.856 QT
-2.279 3.169 -1.904 3.747 QT
-1.529 4.325 -1.529 5.091 QT
-1.529 5.653 -1.779 6.161 QT
-2.029 6.669 -2.412 7.083 QT
-2.795 7.497 -3.404 8.028 QT
-4.013 8.559 -4.201 8.731 QT
-5.67 10.153 L
-4.42 10.153 L
-3.498 10.153 -2.881 10.137 QT
-2.263 10.122 -2.232 10.075 QT
-2.076 9.919 -1.92 8.887 QT
-1.529 8.887 L
-1.904 11.2 L
-6.732 11.2 L
cp}def
f-1981330070
f
GR
GS
[0.75 0 0 0.75 133.6875 133.25] CT
0.149 GC
N
/f-1714522461{0.606 10.981 M
0.606 10.903 0.653 10.762 QT
1.028 10.012 1.341 9.286 QT
1.653 8.559 1.903 7.872 QT
2.153 7.184 2.356 6.403 QT
1.528 6.403 L
1.06 6.403 0.646 6.7 QT
0.231 6.997 -0.05 7.45 QT
-0.065 7.512 -0.128 7.512 QT
-0.269 7.512 L
-0.394 7.512 -0.394 7.372 QT
-0.394 7.356 -0.362 7.309 QT
0.06 6.575 0.544 6.083 QT
1.028 5.591 1.638 5.591 QT
6.356 5.591 L
6.481 5.591 6.575 5.684 QT
6.669 5.778 6.669 5.919 QT
6.669 6.122 6.536 6.262 QT
6.403 6.403 6.216 6.403 QT
4.56 6.403 L
4.341 7.419 4.325 8.387 QT
4.325 9.637 4.763 10.653 QT
4.81 10.731 4.81 10.809 QT
4.81 10.95 4.724 11.075 QT
4.638 11.2 4.505 11.27 QT
4.372 11.341 4.231 11.341 QT
3.888 11.341 3.763 10.786 QT
3.638 10.231 3.638 9.7 QT
3.638 8.966 3.763 8.27 QT
3.888 7.575 4.169 6.403 QT
2.747 6.403 L
1.731 10.559 1.513 10.997 QT
1.325 11.341 1.013 11.341 QT
0.856 11.341 0.731 11.239 QT
0.606 11.137 0.606 10.981 QT
cp}def
f-1714522461
f
GR
GS
[0.75 0 0 0.75 153.375 133.25] CT
0.149 GC
N
/f1974032907{-7.013 9.059 M
-7.013 8.591 L
-2.998 2.606 L
-2.951 2.544 -2.857 2.544 QT
-2.67 2.544 L
-2.529 2.544 -2.529 2.684 QT
-2.529 8.591 L
-1.248 8.591 L
-1.248 9.059 L
-2.529 9.059 L
-2.529 10.325 L
-2.529 10.591 -2.146 10.669 QT
-1.763 10.747 -1.263 10.747 QT
-1.263 11.2 L
-4.841 11.2 L
-4.841 10.747 L
-4.341 10.747 -3.959 10.669 QT
-3.576 10.591 -3.576 10.325 QT
-3.576 9.059 L
-7.013 9.059 L
cp
-6.576 8.591 M
-3.498 8.591 L
-3.498 3.997 L
-6.576 8.591 L
cp}def
f1974032907
f
GR
GS
[0.75 0 0 0.75 153.375 133.25] CT
0.149 GC
N
f-1714522461
f
GR
GS
[0.75 0 0 0.75 173.0625 133.25] CT
0.149 GC
N
/f-1363350533{-4.123 11.481 M
-4.935 11.481 -5.474 11.052 QT
-6.013 10.622 -6.302 9.942 QT
-6.591 9.262 -6.709 8.512 QT
-6.826 7.762 -6.826 6.997 QT
-6.826 5.966 -6.427 4.934 QT
-6.029 3.903 -5.248 3.223 QT
-4.466 2.544 -3.404 2.544 QT
-2.966 2.544 -2.576 2.708 QT
-2.185 2.872 -1.966 3.2 QT
-1.748 3.528 -1.748 3.997 QT
-1.748 4.262 -1.935 4.442 QT
-2.123 4.622 -2.388 4.622 QT
-2.638 4.622 -2.818 4.442 QT
-2.998 4.262 -2.998 3.997 QT
-2.998 3.747 -2.818 3.559 QT
-2.638 3.372 -2.388 3.372 QT
-2.31 3.372 L
-2.482 3.137 -2.779 3.028 QT
-3.076 2.919 -3.404 2.919 QT
-3.795 2.919 -4.131 3.091 QT
-4.466 3.262 -4.732 3.552 QT
-4.998 3.841 -5.177 4.192 QT
-5.357 4.544 -5.451 4.997 QT
-5.545 5.45 -5.576 5.841 QT
-5.607 6.231 -5.607 6.825 QT
-5.373 6.294 -4.951 5.958 QT
-4.529 5.622 -4.013 5.622 QT
-3.435 5.622 -2.959 5.856 QT
-2.482 6.091 -2.138 6.505 QT
-1.795 6.919 -1.615 7.45 QT
-1.435 7.981 -1.435 8.528 QT
-1.435 9.294 -1.771 9.981 QT
-2.107 10.669 -2.724 11.075 QT
-3.341 11.481 -4.123 11.481 QT
cp
-4.123 11.075 M
-3.623 11.075 -3.318 10.848 QT
-3.013 10.622 -2.873 10.239 QT
-2.732 9.856 -2.693 9.473 QT
-2.654 9.091 -2.654 8.528 QT
-2.654 7.794 -2.724 7.278 QT
-2.795 6.762 -3.107 6.364 QT
-3.42 5.966 -4.06 5.966 QT
-4.591 5.966 -4.927 6.317 QT
-5.263 6.669 -5.42 7.216 QT
-5.576 7.762 -5.576 8.262 QT
-5.576 8.434 -5.56 8.528 QT
-5.56 8.544 -5.568 8.552 QT
-5.576 8.559 -5.576 8.591 QT
-5.576 9.137 -5.459 9.708 QT
-5.341 10.278 -5.021 10.677 QT
-4.701 11.075 -4.123 11.075 QT
cp}def
f-1363350533
f
GR
GS
[0.75 0 0 0.75 173.0625 133.25] CT
0.149 GC
N
f-1714522461
f
GR
GS
[0.75 0 0 0.75 192.75 133.25] CT
0.149 GC
N
/f-1781667263{-6.826 9.231 M
-6.826 8.45 -6.31 7.848 QT
-5.795 7.247 -4.998 6.841 QT
-5.482 6.528 L
-5.92 6.247 -6.201 5.762 QT
-6.482 5.278 -6.482 4.731 QT
-6.482 4.122 -6.154 3.614 QT
-5.826 3.106 -5.279 2.825 QT
-4.732 2.544 -4.123 2.544 QT
-3.545 2.544 -3.006 2.778 QT
-2.466 3.012 -2.123 3.45 QT
-1.779 3.887 -1.779 4.497 QT
-1.779 4.934 -1.982 5.309 QT
-2.185 5.684 -2.545 5.981 QT
-2.904 6.278 -3.31 6.481 QT
-2.576 6.966 L
-2.06 7.294 -1.748 7.841 QT
-1.435 8.387 -1.435 8.997 QT
-1.435 9.7 -1.81 10.278 QT
-2.185 10.856 -2.81 11.169 QT
-3.435 11.481 -4.123 11.481 QT
-4.795 11.481 -5.42 11.208 QT
-6.045 10.934 -6.435 10.419 QT
-6.826 9.903 -6.826 9.231 QT
cp
-6.123 9.231 M
-6.123 9.747 -5.841 10.169 QT
-5.56 10.591 -5.091 10.833 QT
-4.623 11.075 -4.123 11.075 QT
-3.373 11.075 -2.756 10.63 QT
-2.138 10.184 -2.138 9.466 QT
-2.138 9.216 -2.232 8.973 QT
-2.326 8.731 -2.506 8.528 QT
-2.685 8.325 -2.904 8.2 QT
-4.638 7.075 L
-5.045 7.278 -5.388 7.614 QT
-5.732 7.95 -5.927 8.356 QT
-6.123 8.762 -6.123 9.231 QT
cp
-5.232 5.262 M
-3.654 6.278 L
-3.107 5.95 -2.756 5.505 QT
-2.404 5.059 -2.404 4.497 QT
-2.404 4.059 -2.654 3.692 QT
-2.904 3.325 -3.295 3.122 QT
-3.685 2.919 -4.138 2.919 QT
-4.529 2.919 -4.927 3.067 QT
-5.326 3.216 -5.584 3.52 QT
-5.841 3.825 -5.841 4.231 QT
-5.841 4.841 -5.232 5.262 QT
cp}def
f-1781667263
f
GR
GS
[0.75 0 0 0.75 192.75 133.25] CT
0.149 GC
N
f-1714522461
f
GR
GS
[0.75 0 0 0.75 114.00008 146.80001] CT
0.149 GC
N
/f1840217198{-17.86 12.492 M
-18.704 12.492 -19.079 11.867 QT
-19.454 11.242 -19.454 10.336 QT
-19.454 9.742 -19.352 9.179 QT
-19.251 8.617 -19.032 8.031 QT
-18.813 7.445 -18.54 6.937 QT
-18.266 6.429 -17.907 5.945 QT
-17.845 5.851 -17.735 5.851 QT
-17.641 5.851 -17.587 5.914 QT
-17.532 5.976 -17.532 6.054 QT
-17.532 6.132 -17.563 6.195 QT
-18.938 8.086 -18.938 9.664 QT
-18.938 10.351 -18.618 10.851 QT
-18.298 11.351 -17.657 11.351 QT
-17.095 11.351 -16.61 11.015 QT
-16.126 10.679 -15.782 10.179 QT
-15.782 9.914 -15.688 9.359 QT
-15.595 8.804 -15.399 8.367 QT
-15.204 7.929 -14.938 7.929 QT
-14.595 7.929 -14.595 8.336 QT
-14.595 8.57 -14.688 8.922 QT
-14.782 9.273 -14.907 9.578 QT
-15.032 9.882 -15.204 10.273 QT
-15.032 11.351 -14.141 11.351 QT
-13.61 11.351 -13.087 11.047 QT
-12.563 10.742 -12.165 10.257 QT
-11.766 9.773 -11.532 9.211 QT
-11.298 8.648 -11.298 8.132 QT
-11.298 7.679 -11.438 7.429 QT
-11.579 7.179 -11.813 6.898 QT
-12.048 6.617 -12.048 6.461 QT
-12.048 6.164 -11.806 5.922 QT
-11.563 5.679 -11.266 5.679 QT
-10.907 5.679 -10.751 6.007 QT
-10.595 6.336 -10.595 6.773 QT
-10.595 7.461 -10.868 8.507 QT
-11.141 9.554 -11.501 10.242 QT
-11.985 11.195 -12.712 11.843 QT
-13.438 12.492 -14.345 12.492 QT
-14.923 12.492 -15.282 12.14 QT
-15.641 11.789 -15.735 11.195 QT
-16.157 11.789 -16.688 12.14 QT
-17.22 12.492 -17.86 12.492 QT
cp}def
f1840217198
f
GR
GS
[0.75 0 0 0.75 114.00008 146.80001] CT
0.149 GC
N
/f639892864{-8.252 16.07 M
-8.252 1.07 L
-6.189 1.07 L
-6.189 1.664 L
-7.642 1.664 L
-7.642 15.476 L
-6.189 15.476 L
-6.189 16.07 L
-8.252 16.07 L
cp}def
f639892864
f
GR
GS
[0.75 0 0 0.75 114.00008 146.80001] CT
0.149 GC
N
/f852385726{-4.552 12.32 M
-4.552 11.789 L
-2.677 11.789 -2.677 11.32 QT
-2.677 3.445 L
-3.459 3.82 -4.646 3.82 QT
-4.646 3.289 L
-2.802 3.289 -1.865 2.336 QT
-1.646 2.336 L
-1.599 2.336 -1.552 2.375 QT
-1.506 2.414 -1.506 2.461 QT
-1.506 11.32 L
-1.506 11.789 0.369 11.789 QT
0.369 12.32 L
-4.552 12.32 L
cp}def
f852385726
f
GR
GS
[0.75 0 0 0.75 114.00008 146.80001] CT
0.149 GC
N
/f588830241{2.234 15.773 M
2.234 15.726 2.25 15.711 QT
7.468 1.257 L
7.484 1.164 7.562 1.117 QT
7.64 1.07 7.734 1.07 QT
7.859 1.07 7.945 1.148 QT
8.031 1.226 8.031 1.367 QT
8.031 1.429 L
2.812 15.882 L
2.734 16.07 2.531 16.07 QT
2.406 16.07 2.32 15.984 QT
2.234 15.898 2.234 15.773 QT
cp}def
f588830241
f
GR
GS
[0.75 0 0 0.75 114.00008 146.80001] CT
0.149 GC
N
/f-278240872{10.02 11.398 M
10.427 12.086 11.645 12.086 QT
12.177 12.086 12.653 11.906 QT
13.13 11.726 13.442 11.375 QT
13.755 11.023 13.755 10.507 QT
13.755 10.117 13.474 9.867 QT
13.192 9.617 12.786 9.523 QT
11.974 9.367 L
11.427 9.226 11.067 8.843 QT
10.708 8.461 10.708 7.929 QT
10.708 7.257 11.067 6.742 QT
11.427 6.226 12.02 5.961 QT
12.614 5.695 13.255 5.695 QT
13.927 5.695 14.466 6.015 QT
15.005 6.336 15.005 6.976 QT
15.005 7.32 14.81 7.586 QT
14.614 7.851 14.27 7.851 QT
14.083 7.851 13.935 7.726 QT
13.786 7.601 13.786 7.398 QT
13.786 7.226 13.888 7.062 QT
13.989 6.898 14.153 6.797 QT
14.317 6.695 14.489 6.695 QT
14.364 6.367 14.005 6.226 QT
13.645 6.086 13.224 6.086 QT
12.833 6.086 12.458 6.234 QT
12.083 6.382 11.849 6.679 QT
11.614 6.976 11.614 7.382 QT
11.614 7.648 11.81 7.859 QT
12.005 8.07 12.27 8.148 QT
13.145 8.336 L
13.567 8.414 13.911 8.64 QT
14.255 8.867 14.458 9.203 QT
14.661 9.539 14.661 9.976 QT
14.661 10.539 14.349 11.078 QT
14.036 11.617 13.583 11.945 QT
12.786 12.492 11.63 12.492 QT
10.833 12.492 10.169 12.125 QT
9.505 11.757 9.505 11.023 QT
9.505 10.617 9.739 10.312 QT
9.974 10.007 10.38 10.007 QT
10.63 10.007 10.794 10.156 QT
10.958 10.304 10.958 10.554 QT
10.958 10.898 10.7 11.148 QT
10.442 11.398 10.099 11.398 QT
10.02 11.398 L
cp}def
f-278240872
f
GR
GS
[0.75 0 0 0.75 114.00008 146.80001] CT
0.149 GC
N
/f-1877437410{15.927 16.07 M
15.927 15.476 L
17.38 15.476 L
17.38 1.664 L
15.927 1.664 L
15.927 1.07 L
17.989 1.07 L
17.989 16.07 L
15.927 16.07 L
cp}def
f-1877437410
f
GR
GS
[0.75 0 0 0.75 0 0.25] CT
0.149 GC
2 setlinecap
1 LJ
0.667 LW
N
47 172 M
47 16 L
S
GR
GS
[0.75 0 0 0.75 0 0.25] CT
0.149 GC
2 setlinecap
1 LJ
0.667 LW
N
257 172 M
257 16 L
S
GR
GS
[0.75 0 0 0.75 0 0.25] CT
0.149 GC
2 setlinecap
1 LJ
0.667 LW
N
47 149.714 M
49.098 149.714 L
S
GR
GS
[0.75 0 0 0.75 0 0.25] CT
0.149 GC
2 setlinecap
1 LJ
0.667 LW
N
47 94 M
49.098 94 L
S
GR
GS
[0.75 0 0 0.75 0 0.25] CT
0.149 GC
2 setlinecap
1 LJ
0.667 LW
N
47 38.286 M
49.098 38.286 L
S
GR
GS
[0.75 0 0 0.75 0 0.25] CT
0.149 GC
2 setlinecap
1 LJ
0.667 LW
N
257 149.714 M
254.902 149.714 L
S
GR
GS
[0.75 0 0 0.75 0 0.25] CT
0.149 GC
2 setlinecap
1 LJ
0.667 LW
N
257 94 M
254.902 94 L
S
GR
GS
[0.75 0 0 0.75 0 0.25] CT
0.149 GC
2 setlinecap
1 LJ
0.667 LW
N
257 38.286 M
254.902 38.286 L
S
GR
GS
[0.75 0 0 0.75 31.25 112.53571] CT
0.149 GC
N
/f-1653227989{-18.909 1.35 M
-19.018 1.35 -19.089 1.264 QT
-19.159 1.178 -19.159 1.084 QT
-19.159 0.99 -19.089 0.904 QT
-19.018 0.818 -18.909 0.818 QT
-11.456 0.818 L
-11.346 0.818 -11.284 0.904 QT
-11.221 0.99 -11.221 1.084 QT
-11.221 1.178 -11.284 1.264 QT
-11.346 1.35 -11.456 1.35 QT
-18.909 1.35 L
cp}def
f-1653227989
f
GR
GS
[0.75 0 0 0.75 31.25 112.53571] CT
0.149 GC
N
/f347431290{-8.232 -2.842 M
-8.232 -3.155 -8.013 -3.389 QT
-7.795 -3.624 -7.482 -3.624 QT
-7.263 -3.624 -7.123 -3.491 QT
-6.982 -3.358 -6.982 -3.155 QT
-6.982 -2.905 -7.138 -2.702 QT
-7.295 -2.499 -7.529 -2.436 QT
-7.295 -2.358 -7.076 -2.358 QT
-6.513 -2.358 -6.107 -2.866 QT
-5.701 -3.374 -5.545 -4.014 QT
-4.31 -8.905 L
-4.232 -9.28 -4.232 -9.53 QT
-4.232 -10.092 -4.607 -10.092 QT
-5.185 -10.092 -5.615 -9.577 QT
-6.045 -9.061 -6.31 -8.374 QT
-6.326 -8.296 -6.404 -8.296 QT
-6.56 -8.296 L
-6.67 -8.296 -6.67 -8.421 QT
-6.67 -8.452 L
-6.373 -9.233 -5.834 -9.835 QT
-5.295 -10.436 -4.592 -10.436 QT
-4.045 -10.436 -3.701 -10.1 QT
-3.357 -9.764 -3.357 -9.233 QT
-3.357 -9.061 -3.388 -8.874 QT
-4.623 -3.936 L
-4.763 -3.405 -5.138 -2.967 QT
-5.513 -2.53 -6.029 -2.272 QT
-6.545 -2.014 -7.092 -2.014 QT
-7.529 -2.014 -7.881 -2.225 QT
-8.232 -2.436 -8.232 -2.842 QT
cp
-4.123 -12.561 M
-4.123 -12.842 -3.896 -13.061 QT
-3.67 -13.28 -3.388 -13.28 QT
-3.17 -13.28 -3.029 -13.147 QT
-2.888 -13.014 -2.888 -12.796 QT
-2.888 -12.514 -3.123 -12.288 QT
-3.357 -12.061 -3.623 -12.061 QT
-3.842 -12.061 -3.982 -12.21 QT
-4.123 -12.358 -4.123 -12.561 QT
cp}def
f347431290
f
GR
GS
[0.75 0 0 0.75 31.25 112.53571] CT
0.149 GC
N
-8.267 0.734 6.667 0.533 re
f
GR
GS
[0.75 0 0 0.75 31.25 112.53571] CT
0.149 GC
N
/f-1107809305{-7.626 13.48 M
-7.626 13.136 L
-7.626 13.105 -7.595 13.058 QT
-5.579 10.824 L
-5.11 10.324 -4.829 9.988 QT
-4.548 9.652 -4.267 9.214 QT
-3.985 8.777 -3.821 8.324 QT
-3.657 7.871 -3.657 7.371 QT
-3.657 6.839 -3.86 6.347 QT
-4.064 5.855 -4.454 5.566 QT
-4.845 5.277 -5.392 5.277 QT
-5.954 5.277 -6.407 5.621 QT
-6.86 5.964 -7.048 6.496 QT
-6.985 6.48 -6.907 6.48 QT
-6.61 6.48 -6.407 6.675 QT
-6.204 6.871 -6.204 7.183 QT
-6.204 7.48 -6.407 7.691 QT
-6.61 7.902 -6.907 7.902 QT
-7.204 7.902 -7.415 7.691 QT
-7.626 7.48 -7.626 7.183 QT
-7.626 6.699 -7.439 6.269 QT
-7.251 5.839 -6.907 5.511 QT
-6.564 5.183 -6.126 5.003 QT
-5.689 4.824 -5.204 4.824 QT
-4.454 4.824 -3.814 5.136 QT
-3.173 5.449 -2.798 6.027 QT
-2.423 6.605 -2.423 7.371 QT
-2.423 7.933 -2.673 8.441 QT
-2.923 8.949 -3.306 9.363 QT
-3.689 9.777 -4.298 10.308 QT
-4.907 10.839 -5.095 11.011 QT
-6.564 12.433 L
-5.314 12.433 L
-4.392 12.433 -3.774 12.417 QT
-3.157 12.402 -3.126 12.355 QT
-2.97 12.199 -2.814 11.167 QT
-2.423 11.167 L
-2.798 13.48 L
-7.626 13.48 L
cp}def
f-1107809305
f
GR
GS
[0.75 0 0 0.75 31.25 70.75] CT
0.149 GC
N
/f-2026418800{-3.417 3.481 M
-5.01 3.481 -5.581 2.169 QT
-6.151 0.856 -6.151 -0.941 QT
-6.151 -2.081 -5.948 -3.073 QT
-5.745 -4.066 -5.135 -4.761 QT
-4.526 -5.456 -3.417 -5.456 QT
-2.557 -5.456 -2.01 -5.042 QT
-1.464 -4.628 -1.182 -3.964 QT
-0.901 -3.3 -0.792 -2.542 QT
-0.682 -1.784 -0.682 -0.941 QT
-0.682 0.169 -0.893 1.145 QT
-1.104 2.122 -1.706 2.802 QT
-2.307 3.481 -3.417 3.481 QT
cp
-3.417 3.153 M
-2.698 3.153 -2.339 2.411 QT
-1.979 1.669 -1.901 0.762 QT
-1.823 -0.144 -1.823 -1.159 QT
-1.823 -2.128 -1.901 -2.956 QT
-1.979 -3.784 -2.331 -4.456 QT
-2.682 -5.128 -3.417 -5.128 QT
-4.151 -5.128 -4.51 -4.448 QT
-4.87 -3.769 -4.948 -2.948 QT
-5.026 -2.128 -5.026 -1.159 QT
-5.026 -0.425 -4.995 0.216 QT
-4.964 0.856 -4.807 1.536 QT
-4.651 2.216 -4.315 2.684 QT
-3.979 3.153 -3.417 3.153 QT
cp}def
f-2026418800
f
GR
GS
[0.75 0 0 0.75 31.25 28.96428] CT
0.149 GC
N
f347431290
f
GR
GS
[0.75 0 0 0.75 31.25 28.96428] CT
0.149 GC
N
-8.267 0.734 6.667 0.533 re
f
GR
GS
[0.75 0 0 0.75 31.25 28.96428] CT
0.149 GC
N
f-1107809305
f
GR
GS
[0 -0.75 0.75 0 13.19999 70.74994] CT
0.149 GC
N
/f-635182659{-33.534 -5.28 M
-33.534 -5.811 L
-32.19 -5.811 -31.894 -6.686 QT
-28.737 -15.858 L
-28.69 -16.014 -28.503 -16.014 QT
-28.3 -16.014 L
-28.112 -16.014 -28.065 -15.858 QT
-24.769 -6.28 L
-24.644 -5.968 -24.245 -5.889 QT
-23.847 -5.811 -23.269 -5.811 QT
-23.269 -5.28 L
-27.456 -5.28 L
-27.456 -5.811 L
-26.206 -5.811 -26.206 -6.218 QT
-26.206 -6.28 L
-27.019 -8.624 L
-30.659 -8.624 L
-31.331 -6.686 L
-31.347 -6.639 -31.347 -6.546 QT
-31.347 -6.171 -30.987 -5.991 QT
-30.628 -5.811 -30.222 -5.811 QT
-30.222 -5.28 L
-33.534 -5.28 L
cp
-30.487 -9.155 M
-27.19 -9.155 L
-28.847 -13.936 L
-30.487 -9.155 L
cp}def
f-635182659
f
GR
GS
[0 -0.75 0.75 0 13.19999 70.74994] CT
0.149 GC
N
/f-1906024864{-22.565 -5.28 M
-22.565 -5.811 L
-22.065 -5.811 -21.73 -5.889 QT
-21.394 -5.968 -21.394 -6.28 QT
-21.394 -10.374 L
-21.394 -10.78 -21.519 -10.96 QT
-21.644 -11.139 -21.87 -11.178 QT
-22.097 -11.218 -22.565 -11.218 QT
-22.565 -11.749 L
-20.394 -11.905 L
-20.394 -10.436 L
-20.097 -11.093 -19.503 -11.499 QT
-18.909 -11.905 -18.222 -11.905 QT
-16.487 -11.905 -16.19 -10.499 QT
-15.894 -11.139 -15.315 -11.522 QT
-14.737 -11.905 -14.05 -11.905 QT
-13.362 -11.905 -12.901 -11.686 QT
-12.44 -11.468 -12.206 -11.014 QT
-11.972 -10.561 -11.972 -9.889 QT
-11.972 -6.28 L
-11.972 -5.968 -11.636 -5.889 QT
-11.3 -5.811 -10.8 -5.811 QT
-10.8 -5.28 L
-14.222 -5.28 L
-14.222 -5.811 L
-13.722 -5.811 -13.386 -5.889 QT
-13.05 -5.968 -13.05 -6.28 QT
-13.05 -9.843 L
-13.05 -10.593 -13.269 -11.053 QT
-13.487 -11.514 -14.144 -11.514 QT
-15.003 -11.514 -15.565 -10.819 QT
-16.128 -10.124 -16.128 -9.249 QT
-16.128 -6.28 L
-16.128 -5.968 -15.8 -5.889 QT
-15.472 -5.811 -14.956 -5.811 QT
-14.956 -5.28 L
-18.394 -5.28 L
-18.394 -5.811 L
-17.878 -5.811 -17.55 -5.889 QT
-17.222 -5.968 -17.222 -6.28 QT
-17.222 -9.843 L
-17.222 -10.577 -17.433 -11.046 QT
-17.644 -11.514 -18.315 -11.514 QT
-19.175 -11.514 -19.737 -10.819 QT
-20.3 -10.124 -20.3 -9.249 QT
-20.3 -6.28 L
-20.3 -5.968 -19.972 -5.889 QT
-19.644 -5.811 -19.144 -5.811 QT
-19.144 -5.28 L
-22.565 -5.28 L
cp}def
f-1906024864
f
GR
GS
[0 -0.75 0.75 0 13.19999 70.74994] CT
0.149 GC
N
/f623790312{-10.406 -2.374 M
-10.406 -2.889 L
-9.89 -2.889 -9.562 -2.975 QT
-9.234 -3.061 -9.234 -3.374 QT
-9.234 -10.608 L
-9.234 -11.014 -9.531 -11.116 QT
-9.828 -11.218 -10.406 -11.218 QT
-10.406 -11.749 L
-8.187 -11.905 L
-8.187 -10.983 L
-7.781 -11.436 -7.234 -11.671 QT
-6.687 -11.905 -6.078 -11.905 QT
-5.187 -11.905 -4.476 -11.428 QT
-3.765 -10.952 -3.367 -10.171 QT
-2.968 -9.389 -2.968 -8.514 QT
-2.968 -7.608 -3.414 -6.827 QT
-3.859 -6.046 -4.624 -5.577 QT
-5.39 -5.108 -6.296 -5.108 QT
-7.39 -5.108 -8.14 -5.999 QT
-8.14 -3.374 L
-8.14 -3.061 -7.812 -2.975 QT
-7.484 -2.889 -6.968 -2.889 QT
-6.968 -2.374 L
-10.406 -2.374 L
cp
-8.14 -6.733 M
-7.874 -6.202 -7.406 -5.858 QT
-6.937 -5.514 -6.39 -5.514 QT
-5.874 -5.514 -5.468 -5.788 QT
-5.062 -6.061 -4.796 -6.53 QT
-4.531 -6.999 -4.398 -7.514 QT
-4.265 -8.03 -4.265 -8.514 QT
-4.265 -9.124 -4.484 -9.819 QT
-4.703 -10.514 -5.148 -10.999 QT
-5.593 -11.483 -6.218 -11.483 QT
-6.828 -11.483 -7.335 -11.171 QT
-7.843 -10.858 -8.14 -10.327 QT
-8.14 -6.733 L
cp}def
f623790312
f
GR
GS
[0 -0.75 0.75 0 13.19999 70.74994] CT
0.149 GC
N
/f-1130989129{-2.179 -5.28 M
-2.179 -5.811 L
-1.679 -5.811 -1.343 -5.889 QT
-1.008 -5.968 -1.008 -6.28 QT
-1.008 -14.155 L
-1.008 -14.561 -1.133 -14.741 QT
-1.258 -14.921 -1.484 -14.96 QT
-1.711 -14.999 -2.179 -14.999 QT
-2.179 -15.53 L
0.039 -15.686 L
0.039 -6.28 L
0.039 -5.968 0.367 -5.889 QT
0.696 -5.811 1.211 -5.811 QT
1.211 -5.28 L
-2.179 -5.28 L
cp}def
f-1130989129
f
GR
GS
[0 -0.75 0.75 0 13.19999 70.74994] CT
0.149 GC
N
/f1778272899{1.895 -5.28 M
1.895 -5.811 L
2.395 -5.811 2.731 -5.889 QT
3.067 -5.968 3.067 -6.28 QT
3.067 -10.374 L
3.067 -10.952 2.84 -11.085 QT
2.613 -11.218 1.957 -11.218 QT
1.957 -11.749 L
4.113 -11.905 L
4.113 -6.28 L
4.113 -5.968 4.402 -5.889 QT
4.692 -5.811 5.16 -5.811 QT
5.16 -5.28 L
1.895 -5.28 L
cp
2.52 -14.483 M
2.52 -14.811 2.77 -15.061 QT
3.02 -15.311 3.348 -15.311 QT
3.551 -15.311 3.754 -15.202 QT
3.957 -15.093 4.067 -14.897 QT
4.176 -14.702 4.176 -14.483 QT
4.176 -14.171 3.926 -13.921 QT
3.676 -13.671 3.348 -13.671 QT
3.02 -13.671 2.77 -13.921 QT
2.52 -14.171 2.52 -14.483 QT
cp}def
f1778272899
f
GR
GS
[0 -0.75 0.75 0 13.19999 70.74994] CT
0.149 GC
N
/f-331511160{7.031 -7.077 M
7.031 -11.218 L
5.781 -11.218 L
5.781 -11.608 L
6.766 -11.608 7.227 -12.522 QT
7.688 -13.436 7.688 -14.514 QT
8.125 -14.514 L
8.125 -11.749 L
10.234 -11.749 L
10.234 -11.218 L
8.125 -11.218 L
8.125 -7.108 L
8.125 -6.483 8.336 -6.014 QT
8.547 -5.546 9.078 -5.546 QT
9.594 -5.546 9.82 -6.046 QT
10.047 -6.546 10.047 -7.108 QT
10.047 -7.999 L
10.484 -7.999 L
10.484 -7.077 L
10.484 -6.608 10.313 -6.155 QT
10.141 -5.702 9.805 -5.405 QT
9.469 -5.108 8.984 -5.108 QT
8.078 -5.108 7.555 -5.647 QT
7.031 -6.186 7.031 -7.077 QT
cp}def
f-331511160
f
GR
GS
[0 -0.75 0.75 0 13.19999 70.74994] CT
0.149 GC
N
/f-332655191{12.829 -7.061 M
12.829 -10.374 L
12.829 -10.78 12.704 -10.96 QT
12.579 -11.139 12.352 -11.178 QT
12.126 -11.218 11.657 -11.218 QT
11.657 -11.749 L
13.922 -11.905 L
13.922 -7.061 L
13.922 -6.483 14.008 -6.155 QT
14.094 -5.827 14.368 -5.671 QT
14.641 -5.514 15.235 -5.514 QT
16.047 -5.514 16.524 -6.186 QT
17.001 -6.858 17.001 -7.718 QT
17.001 -10.374 L
17.001 -10.78 16.876 -10.96 QT
16.751 -11.139 16.524 -11.178 QT
16.297 -11.218 15.829 -11.218 QT
15.829 -11.749 L
18.094 -11.905 L
18.094 -6.639 L
18.094 -6.249 18.212 -6.069 QT
18.329 -5.889 18.555 -5.85 QT
18.782 -5.811 19.266 -5.811 QT
19.266 -5.28 L
17.047 -5.108 L
17.047 -6.374 L
16.766 -5.811 16.266 -5.46 QT
15.766 -5.108 15.172 -5.108 QT
14.094 -5.108 13.462 -5.569 QT
12.829 -6.03 12.829 -7.061 QT
cp}def
f-332655191
f
GR
GS
[0 -0.75 0.75 0 13.19999 70.74994] CT
0.149 GC
N
/f622013074{23.008 -5.108 M
22.133 -5.108 21.399 -5.593 QT
20.664 -6.077 20.258 -6.858 QT
19.852 -7.639 19.852 -8.514 QT
19.852 -9.421 20.297 -10.202 QT
20.743 -10.983 21.5 -11.444 QT
22.258 -11.905 23.18 -11.905 QT
23.727 -11.905 24.219 -11.678 QT
24.711 -11.452 25.071 -11.03 QT
25.071 -14.155 L
25.071 -14.561 24.946 -14.741 QT
24.821 -14.921 24.602 -14.96 QT
24.383 -14.999 23.899 -14.999 QT
23.899 -15.53 L
26.118 -15.686 L
26.118 -6.639 L
26.118 -6.249 26.243 -6.069 QT
26.368 -5.889 26.586 -5.85 QT
26.805 -5.811 27.289 -5.811 QT
27.289 -5.28 L
25.024 -5.108 L
25.024 -6.061 L
24.633 -5.608 24.102 -5.358 QT
23.571 -5.108 23.008 -5.108 QT
cp
21.477 -6.577 M
21.743 -6.093 22.172 -5.803 QT
22.602 -5.514 23.102 -5.514 QT
23.727 -5.514 24.243 -5.866 QT
24.758 -6.218 25.024 -6.796 QT
25.024 -10.389 L
24.852 -10.718 24.578 -10.983 QT
24.305 -11.249 23.977 -11.382 QT
23.649 -11.514 23.274 -11.514 QT
22.493 -11.514 22.016 -11.077 QT
21.539 -10.639 21.344 -9.952 QT
21.149 -9.264 21.149 -8.499 QT
21.149 -7.905 21.211 -7.46 QT
21.274 -7.014 21.477 -6.577 QT
cp}def
f622013074
f
GR
GS
[0 -0.75 0.75 0 13.19999 70.74994] CT
0.149 GC
N
/f917036437{31.234 -5.108 M
30.313 -5.108 29.555 -5.593 QT
28.797 -6.077 28.359 -6.874 QT
27.922 -7.671 27.922 -8.561 QT
27.922 -9.452 28.32 -10.241 QT
28.719 -11.03 29.43 -11.514 QT
30.141 -11.999 31.016 -11.999 QT
31.719 -11.999 32.227 -11.772 QT
32.734 -11.546 33.063 -11.132 QT
33.391 -10.718 33.555 -10.163 QT
33.719 -9.608 33.719 -8.936 QT
33.719 -8.749 33.578 -8.749 QT
29.234 -8.749 L
29.234 -8.577 L
29.234 -7.343 29.734 -6.444 QT
30.234 -5.546 31.375 -5.546 QT
31.828 -5.546 32.219 -5.757 QT
32.609 -5.968 32.899 -6.327 QT
33.188 -6.686 33.297 -7.108 QT
33.313 -7.155 33.352 -7.202 QT
33.391 -7.249 33.438 -7.249 QT
33.578 -7.249 L
33.719 -7.249 33.719 -7.046 QT
33.516 -6.202 32.813 -5.655 QT
32.109 -5.108 31.234 -5.108 QT
cp
29.25 -9.124 M
32.656 -9.124 L
32.656 -9.686 32.5 -10.264 QT
32.344 -10.843 31.977 -11.225 QT
31.609 -11.608 31.016 -11.608 QT
30.172 -11.608 29.711 -10.811 QT
29.25 -10.014 29.25 -9.124 QT
cp}def
f917036437
f
GR
GS
[0.75 0 0 0.75 0 0.25] CT
1 LJ
0.667 LW
N
47 94 M
48.05 93.697 L
49.1 93.386 L
50.15 93.071 L
51.2 92.757 L
52.25 92.449 L
53.3 92.152 L
54.35 91.871 L
55.4 91.612 L
56.45 91.38 L
57.5 91.18 L
58.55 91.015 L
59.6 90.892 L
60.65 90.814 L
61.7 90.784 L
62.75 90.806 L
63.8 90.881 L
64.85 91.012 L
65.9 91.199 L
66.95 91.444 L
68 91.744 L
69.05 92.098 L
70.1 92.505 L
71.15 92.961 L
72.2 93.461 L
73.25 94 L
74.3 94.573 L
75.35 95.172 L
76.4 95.79 L
77.45 96.418 L
78.5 97.048 L
79.55 97.669 L
80.6 98.271 L
81.65 98.844 L
82.7 99.376 L
83.75 99.856 L
84.8 100.274 L
85.85 100.616 L
86.9 100.873 L
87.95 101.033 L
89 101.087 L
90.05 101.023 L
91.1 100.834 L
92.15 100.509 L
93.2 100.043 L
94.25 99.429 L
95.3 98.662 L
96.35 97.737 L
97.4 96.652 L
98.45 95.406 L
99.5 94 L
100.55 92.436 L
101.6 90.717 L
102.65 88.848 L
103.7 86.837 L
104.75 84.693 L
105.8 82.425 L
106.85 80.045 L
107.9 77.567 L
108.95 75.005 L
110 72.376 L
111.05 69.697 L
112.1 66.986 L
113.15 64.263 L
114.2 61.548 L
115.25 58.862 L
116.3 56.226 L
117.35 53.661 L
118.4 51.191 L
119.45 48.836 L
120.5 46.618 L
121.55 44.558 L
122.6 42.676 L
123.65 40.991 L
124.7 39.522 L
125.75 38.286 L
126.8 37.298 L
127.85 36.573 L
128.9 36.123 L
129.95 35.959 L
131 36.089 L
132.05 36.519 L
133.1 37.253 L
134.15 38.294 L
135.2 39.642 L
136.25 41.292 L
137.3 43.242 L
138.35 45.482 L
139.4 48.004 L
140.45 50.795 L
141.5 53.842 L
142.55 57.128 L
143.6 60.636 L
144.65 64.346 L
145.7 68.236 L
146.75 72.283 L
147.8 76.464 L
148.85 80.752 L
149.9 85.122 L
150.95 89.547 L
152 94 L
153.05 98.453 L
154.1 102.878 L
155.15 107.248 L
156.2 111.536 L
157.25 115.717 L
158.3 119.764 L
159.35 123.654 L
160.4 127.364 L
161.45 130.872 L
162.5 134.158 L
163.55 137.205 L
164.6 139.996 L
165.65 142.518 L
166.7 144.758 L
167.75 146.708 L
168.8 148.358 L
169.85 149.706 L
170.9 150.747 L
171.95 151.481 L
173 151.911 L
174.05 152.041 L
175.1 151.877 L
176.15 151.427 L
177.2 150.702 L
178.25 149.714 L
179.3 148.478 L
180.35 147.009 L
181.4 145.324 L
182.45 143.442 L
183.5 141.382 L
184.55 139.164 L
185.6 136.809 L
186.65 134.339 L
187.7 131.774 L
188.75 129.138 L
189.8 126.452 L
190.85 123.737 L
191.9 121.014 L
192.95 118.303 L
194 115.624 L
195.05 112.995 L
196.1 110.433 L
197.15 107.955 L
198.2 105.575 L
199.25 103.307 L
200.3 101.163 L
201.35 99.152 L
202.4 97.283 L
203.45 95.564 L
204.5 94 L
205.55 92.594 L
206.6 91.348 L
207.65 90.263 L
208.7 89.338 L
209.75 88.571 L
210.8 87.957 L
211.85 87.491 L
212.9 87.166 L
213.95 86.977 L
215 86.913 L
216.05 86.967 L
217.1 87.127 L
218.15 87.384 L
219.2 87.726 L
220.25 88.144 L
221.3 88.624 L
222.35 89.156 L
223.4 89.729 L
224.45 90.331 L
225.5 90.952 L
226.55 91.582 L
227.6 92.21 L
228.65 92.828 L
229.7 93.427 L
230.75 94 L
231.8 94.539 L
232.85 95.039 L
233.9 95.495 L
234.95 95.902 L
236 96.256 L
237.05 96.556 L
238.1 96.801 L
239.15 96.988 L
240.2 97.119 L
241.25 97.194 L
242.3 97.216 L
243.35 97.186 L
244.4 97.108 L
245.45 96.985 L
246.5 96.82 L
247.55 96.62 L
248.6 96.388 L
249.65 96.129 L
250.7 95.848 L
251.75 95.551 L
252.8 95.243 L
253.85 94.929 L
254.9 94.614 L
255.95 94.303 L
257 94 L
S
GR
GS
[0.75 0 0 0.75 0 0.25] CT
0 0.447 0.741 RC
[8 3 2 3] 0 setdash
2 LJ
0.667 LW
N
47 94 M
48.05 93.249 L
49.1 92.49 L
50.15 91.733 L
51.2 90.992 L
52.25 90.277 L
53.3 89.601 L
54.35 88.976 L
55.4 88.413 L
56.45 87.922 L
57.5 87.513 L
58.55 87.195 L
59.6 86.976 L
60.65 86.863 L
61.7 86.861 L
62.75 86.972 L
63.8 87.201 L
64.85 87.546 L
65.9 88.007 L
66.95 88.58 L
68 89.262 L
69.05 90.045 L
70.1 90.921 L
71.15 91.88 L
72.2 92.91 L
73.25 94 L
74.3 95.134 L
75.35 96.297 L
76.4 97.473 L
77.45 98.643 L
78.5 99.791 L
79.55 100.898 L
80.6 101.945 L
81.65 102.913 L
82.7 103.785 L
83.75 104.542 L
84.8 105.167 L
85.85 105.644 L
86.9 105.959 L
87.95 106.097 L
89 106.047 L
90.05 105.799 L
91.1 105.344 L
92.15 104.675 L
93.2 103.79 L
94.25 102.687 L
95.3 101.365 L
96.35 99.829 L
97.4 98.084 L
98.45 96.137 L
99.5 94 L
100.55 91.685 L
101.6 89.206 L
102.65 86.581 L
103.7 83.829 L
104.75 80.97 L
105.8 78.026 L
106.85 75.021 L
107.9 71.98 L
108.95 68.927 L
110 65.889 L
111.05 62.892 L
112.1 59.963 L
113.15 57.126 L
114.2 54.408 L
115.25 51.834 L
116.3 49.426 L
117.35 47.207 L
118.4 45.198 L
119.45 43.417 L
120.5 41.88 L
121.55 40.602 L
122.6 39.596 L
123.65 38.87 L
124.7 38.432 L
125.75 38.286 L
126.8 38.432 L
127.85 38.87 L
128.9 39.596 L
129.95 40.602 L
131 41.88 L
132.05 43.417 L
133.1 45.198 L
134.15 47.207 L
135.2 49.426 L
136.25 51.834 L
137.3 54.408 L
138.35 57.126 L
139.4 59.963 L
140.45 62.892 L
141.5 65.889 L
142.55 68.927 L
143.6 71.98 L
144.65 75.021 L
145.7 78.026 L
146.75 80.97 L
147.8 83.829 L
148.85 86.581 L
149.9 89.206 L
150.95 91.685 L
152 94 L
153.05 96.137 L
154.1 98.084 L
155.15 99.829 L
156.2 101.365 L
157.25 102.687 L
158.3 103.79 L
159.35 104.675 L
160.4 105.344 L
161.45 105.799 L
162.5 106.047 L
163.55 106.097 L
164.6 105.959 L
165.65 105.644 L
166.7 105.167 L
167.75 104.542 L
168.8 103.784 L
169.85 102.913 L
170.9 101.945 L
171.95 100.898 L
173 99.791 L
174.05 98.643 L
175.1 97.473 L
176.15 96.297 L
177.2 95.134 L
178.25 94 L
179.3 92.91 L
180.35 91.88 L
181.4 90.921 L
182.45 90.045 L
183.5 89.262 L
184.55 88.58 L
185.6 88.007 L
186.65 87.546 L
187.7 87.201 L
188.75 86.972 L
189.8 86.861 L
190.85 86.863 L
191.9 86.976 L
192.95 87.195 L
194 87.513 L
195.05 87.922 L
196.1 88.413 L
197.15 88.976 L
198.2 89.601 L
199.25 90.277 L
200.3 90.992 L
201.35 91.733 L
202.4 92.49 L
203.45 93.249 L
204.5 94 L
205.55 94.731 L
206.6 95.432 L
207.65 96.092 L
208.7 96.704 L
209.75 97.258 L
210.8 97.747 L
211.85 98.166 L
212.9 98.51 L
213.95 98.776 L
215 98.961 L
216.05 99.064 L
217.1 99.086 L
218.15 99.028 L
219.2 98.893 L
220.25 98.685 L
221.3 98.408 L
222.35 98.069 L
223.4 97.673 L
224.45 97.229 L
225.5 96.743 L
226.55 96.225 L
227.6 95.683 L
228.65 95.125 L
229.7 94.561 L
230.75 94 L
231.8 93.45 L
232.85 92.919 L
233.9 92.415 L
234.95 91.946 L
236 91.518 L
237.05 91.137 L
238.1 90.807 L
239.15 90.534 L
240.2 90.32 L
241.25 90.167 L
242.3 90.077 L
243.35 90.049 L
244.4 90.084 L
245.45 90.18 L
246.5 90.333 L
247.55 90.542 L
248.6 90.8 L
249.65 91.105 L
250.7 91.45 L
251.75 91.828 L
252.8 92.235 L
253.85 92.662 L
254.9 93.104 L
255.95 93.552 L
257 94 L
S
GR
GS
[0.75 0 0 0.75 0 0.25] CT
0.851 0.325 0.098 RC
[8 3 2 3] 0 setdash
2 LJ
0.667 LW
N
47 94 M
48.05 93.552 L
49.1 93.104 L
50.15 92.662 L
51.2 92.235 L
52.25 91.828 L
53.3 91.45 L
54.35 91.105 L
55.4 90.8 L
56.45 90.542 L
57.5 90.333 L
58.55 90.18 L
59.6 90.084 L
60.65 90.049 L
61.7 90.077 L
62.75 90.167 L
63.8 90.32 L
64.85 90.534 L
65.9 90.807 L
66.95 91.137 L
68 91.518 L
69.05 91.946 L
70.1 92.415 L
71.15 92.919 L
72.2 93.45 L
73.25 94 L
74.3 94.561 L
75.35 95.125 L
76.4 95.683 L
77.45 96.225 L
78.5 96.743 L
79.55 97.229 L
80.6 97.673 L
81.65 98.069 L
82.7 98.408 L
83.75 98.685 L
84.8 98.893 L
85.85 99.028 L
86.9 99.086 L
87.95 99.064 L
89 98.961 L
90.05 98.776 L
91.1 98.51 L
92.15 98.166 L
93.2 97.747 L
94.25 97.258 L
95.3 96.704 L
96.35 96.092 L
97.4 95.432 L
98.45 94.731 L
99.5 94 L
100.55 93.249 L
101.6 92.49 L
102.65 91.733 L
103.7 90.992 L
104.75 90.277 L
105.8 89.601 L
106.85 88.976 L
107.9 88.413 L
108.95 87.922 L
110 87.513 L
111.05 87.195 L
112.1 86.976 L
113.15 86.863 L
114.2 86.861 L
115.25 86.972 L
116.3 87.201 L
117.35 87.546 L
118.4 88.007 L
119.45 88.58 L
120.5 89.262 L
121.55 90.045 L
122.6 90.921 L
123.65 91.88 L
124.7 92.91 L
125.75 94 L
126.8 95.134 L
127.85 96.297 L
128.9 97.473 L
129.95 98.643 L
131 99.791 L
132.05 100.898 L
133.1 101.945 L
134.15 102.913 L
135.2 103.785 L
136.25 104.542 L
137.3 105.167 L
138.35 105.644 L
139.4 105.959 L
140.45 106.097 L
141.5 106.047 L
142.55 105.799 L
143.6 105.344 L
144.65 104.675 L
145.7 103.79 L
146.75 102.687 L
147.8 101.365 L
148.85 99.829 L
149.9 98.084 L
150.95 96.137 L
152 94 L
153.05 91.685 L
154.1 89.206 L
155.15 86.581 L
156.2 83.829 L
157.25 80.97 L
158.3 78.026 L
159.35 75.021 L
160.4 71.98 L
161.45 68.927 L
162.5 65.889 L
163.55 62.892 L
164.6 59.963 L
165.65 57.126 L
166.7 54.408 L
167.75 51.834 L
168.8 49.426 L
169.85 47.207 L
170.9 45.198 L
171.95 43.417 L
173 41.88 L
174.05 40.602 L
175.1 39.596 L
176.15 38.87 L
177.2 38.432 L
178.25 38.286 L
179.3 38.432 L
180.35 38.87 L
181.4 39.596 L
182.45 40.602 L
183.5 41.88 L
184.55 43.417 L
185.6 45.198 L
186.65 47.207 L
187.7 49.426 L
188.75 51.834 L
189.8 54.408 L
190.85 57.126 L
191.9 59.963 L
192.95 62.892 L
194 65.889 L
195.05 68.927 L
196.1 71.98 L
197.15 75.021 L
198.2 78.026 L
199.25 80.97 L
200.3 83.829 L
201.35 86.581 L
202.4 89.206 L
203.45 91.685 L
204.5 94 L
205.55 96.137 L
206.6 98.084 L
207.65 99.829 L
208.7 101.365 L
209.75 102.687 L
210.8 103.79 L
211.85 104.675 L
212.9 105.344 L
213.95 105.799 L
215 106.047 L
216.05 106.097 L
217.1 105.959 L
218.15 105.644 L
219.2 105.167 L
220.25 104.542 L
221.3 103.784 L
222.35 102.913 L
223.4 101.945 L
224.45 100.898 L
225.5 99.791 L
226.55 98.643 L
227.6 97.473 L
228.65 96.297 L
229.7 95.134 L
230.75 94 L
231.8 92.91 L
232.85 91.88 L
233.9 90.921 L
234.95 90.045 L
236 89.262 L
237.05 88.58 L
238.1 88.007 L
239.15 87.546 L
240.2 87.201 L
241.25 86.972 L
242.3 86.861 L
243.35 86.863 L
244.4 86.976 L
245.45 87.195 L
246.5 87.513 L
247.55 87.922 L
248.6 88.413 L
249.65 88.976 L
250.7 89.601 L
251.75 90.277 L
252.8 90.992 L
253.85 91.733 L
254.9 92.49 L
255.95 93.249 L
257 94 L
S
GR
GS
[0.75 0 0 0.75 0 0.25] CT
1 GC
N
61 159 M
61 111 L
128 111 L
128 159 L
cp
f
GR
GS
[0.75 0 0 0.75 73.24691 90.37137] CT
N
/f-1787578382{0.563 2.88 M
0.453 2.88 0.453 2.724 QT
0.453 2.692 0.469 2.622 QT
0.484 2.552 0.516 2.505 QT
0.547 2.458 0.594 2.458 QT
1.328 2.458 1.625 2.38 QT
1.781 2.317 1.844 2.052 QT
3.5 -4.542 L
3.516 -4.651 3.516 -4.698 QT
3.516 -4.839 3.375 -4.854 QT
3.141 -4.901 2.516 -4.901 QT
2.391 -4.901 2.391 -5.058 QT
2.391 -5.089 2.414 -5.159 QT
2.438 -5.229 2.469 -5.276 QT
2.5 -5.323 2.547 -5.323 QT
8.891 -5.323 L
9 -5.323 9 -5.167 QT
8.719 -2.683 L
8.719 -2.636 8.672 -2.604 QT
8.625 -2.573 8.594 -2.573 QT
8.484 -2.573 L
8.359 -2.573 8.359 -2.729 QT
8.438 -3.261 8.438 -3.62 QT
8.438 -4.214 8.18 -4.495 QT
7.922 -4.776 7.531 -4.839 QT
7.141 -4.901 6.453 -4.901 QT
5.156 -4.901 L
4.828 -4.901 4.727 -4.847 QT
4.625 -4.792 4.531 -4.479 QT
3.766 -1.433 L
4.672 -1.433 L
5.109 -1.433 5.391 -1.479 QT
5.672 -1.526 5.852 -1.659 QT
6.031 -1.792 6.148 -2.05 QT
6.266 -2.308 6.375 -2.729 QT
6.406 -2.839 6.5 -2.839 QT
6.594 -2.839 L
6.719 -2.839 6.719 -2.683 QT
5.984 0.286 L
5.938 0.396 5.859 0.396 QT
5.766 0.396 L
5.641 0.396 5.641 0.239 QT
5.672 0.114 5.688 0.028 QT
5.703 -0.058 5.734 -0.206 QT
5.766 -0.354 5.766 -0.479 QT
5.766 -0.823 5.461 -0.917 QT
5.156 -1.011 4.656 -1.011 QT
3.672 -1.011 L
2.891 2.099 L
2.859 2.224 2.859 2.224 QT
2.859 2.364 2.953 2.38 QT
3.266 2.458 4.172 2.458 QT
4.297 2.458 4.297 2.614 QT
4.25 2.786 4.227 2.833 QT
4.203 2.88 4.094 2.88 QT
0.563 2.88 L
cp}def
f-1787578382
f
GR
GS
[0.75 0 0 0.75 73.24691 90.37137] CT
N
/f-1497745530{13.102 5.864 M
12.43 5.333 11.954 4.646 QT
11.477 3.958 11.165 3.185 QT
10.852 2.411 10.704 1.567 QT
10.555 0.724 10.555 -0.12 QT
10.555 -0.979 10.704 -1.823 QT
10.852 -2.667 11.165 -3.448 QT
11.477 -4.229 11.969 -4.909 QT
12.461 -5.589 13.102 -6.104 QT
13.102 -6.12 13.165 -6.12 QT
13.274 -6.12 L
13.305 -6.12 13.336 -6.089 QT
13.368 -6.058 13.368 -6.011 QT
13.368 -5.964 13.352 -5.933 QT
12.758 -5.37 12.368 -4.714 QT
11.977 -4.058 11.743 -3.315 QT
11.508 -2.573 11.399 -1.776 QT
11.29 -0.979 11.29 -0.12 QT
11.29 3.692 13.336 5.677 QT
13.368 5.708 13.368 5.771 QT
13.368 5.802 13.336 5.841 QT
13.305 5.88 13.274 5.88 QT
13.165 5.88 L
13.102 5.88 13.102 5.864 QT
cp}def
f-1497745530
f
GR
GS
[0.75 0 0 0.75 73.24691 90.37137] CT
N
/f1230900712{15.503 3.021 M
14.831 3.021 14.527 2.521 QT
14.222 2.021 14.222 1.302 QT
14.222 0.817 14.308 0.364 QT
14.394 -0.089 14.566 -0.55 QT
14.738 -1.011 14.956 -1.425 QT
15.175 -1.839 15.456 -2.214 QT
15.503 -2.292 15.597 -2.292 QT
15.675 -2.292 15.722 -2.245 QT
15.769 -2.198 15.769 -2.136 QT
15.769 -2.073 15.738 -2.026 QT
14.644 -0.511 14.644 0.755 QT
14.644 1.302 14.894 1.7 QT
15.144 2.099 15.675 2.099 QT
16.113 2.099 16.503 1.833 QT
16.894 1.567 17.175 1.161 QT
17.175 0.958 17.245 0.513 QT
17.316 0.067 17.472 -0.284 QT
17.628 -0.636 17.847 -0.636 QT
18.113 -0.636 18.113 -0.308 QT
18.113 -0.12 18.034 0.161 QT
17.956 0.442 17.863 0.685 QT
17.769 0.927 17.628 1.239 QT
17.769 2.099 18.488 2.099 QT
18.894 2.099 19.316 1.857 QT
19.738 1.614 20.058 1.224 QT
20.378 0.833 20.566 0.388 QT
20.753 -0.058 20.753 -0.464 QT
20.753 -0.823 20.636 -1.026 QT
20.519 -1.229 20.331 -1.456 QT
20.144 -1.683 20.144 -1.808 QT
20.144 -2.042 20.347 -2.237 QT
20.55 -2.433 20.769 -2.433 QT
21.066 -2.433 21.191 -2.167 QT
21.316 -1.901 21.316 -1.558 QT
21.316 -1.011 21.097 -0.175 QT
20.878 0.661 20.597 1.224 QT
20.206 1.974 19.62 2.497 QT
19.034 3.021 18.316 3.021 QT
17.847 3.021 17.566 2.739 QT
17.284 2.458 17.191 1.974 QT
16.863 2.458 16.433 2.739 QT
16.003 3.021 15.503 3.021 QT
cp}def
f1230900712
f
GR
GS
[0.75 0 0 0.75 73.24691 90.37137] CT
N
/f-1848081229{22.731 5.88 M
22.622 5.88 22.622 5.771 QT
22.622 5.724 22.653 5.692 QT
24.7 3.692 24.7 -0.12 QT
24.7 -3.933 22.669 -5.917 QT
22.622 -5.948 22.622 -6.011 QT
22.622 -6.058 22.653 -6.089 QT
22.684 -6.12 22.731 -6.12 QT
22.841 -6.12 L
22.872 -6.12 22.903 -6.104 QT
23.763 -5.417 24.333 -4.448 QT
24.903 -3.479 25.177 -2.378 QT
25.45 -1.276 25.45 -0.12 QT
25.45 0.724 25.302 1.552 QT
25.153 2.38 24.841 3.177 QT
24.528 3.974 24.052 4.653 QT
23.575 5.333 22.903 5.864 QT
22.872 5.88 22.841 5.88 QT
22.731 5.88 L
cp}def
f-1848081229
f
GR
GS
[0.75 0 0 0.75 0 0.25] CT
1 LJ
0.667 LW
N
64.964 120.162 M
94.69 120.162 L
S
GR
GS
[0.75 0 0 0.75 73.24691 101.5] CT
N
/f-1867300564{0.391 2.88 M
0.391 2.458 L
1.453 2.458 1.703 1.755 QT
4.219 -5.589 L
4.266 -5.714 4.422 -5.714 QT
4.578 -5.714 L
4.734 -5.714 4.766 -5.589 QT
7.391 2.083 L
7.5 2.333 7.82 2.396 QT
8.141 2.458 8.609 2.458 QT
8.609 2.88 L
5.25 2.88 L
5.25 2.458 L
6.25 2.458 6.25 2.13 QT
6.25 2.083 L
5.609 0.208 L
2.688 0.208 L
2.156 1.755 L
2.141 1.786 2.141 1.864 QT
2.141 2.177 2.422 2.317 QT
2.703 2.458 3.031 2.458 QT
3.031 2.88 L
0.391 2.88 L
cp
2.828 -0.214 M
5.469 -0.214 L
4.141 -4.042 L
2.828 -0.214 L
cp}def
f-1867300564
f
GR
GS
[0.75 0 0 0.75 0 0.25] CT
0 0.447 0.741 RC
[8 3 2 3] 0 setdash
2 LJ
0.667 LW
N
64.964 135 M
94.69 135 L
S
GR
GS
[0.75 0 0 0.75 73.24691 112.62864] CT
N
/f1227047727{0.406 2.88 M
0.406 2.458 L
1.641 2.458 1.641 2.083 QT
1.641 -4.511 L
1.641 -4.901 0.406 -4.901 QT
0.406 -5.323 L
4.828 -5.323 L
5.438 -5.323 6.055 -5.081 QT
6.672 -4.839 7.078 -4.378 QT
7.484 -3.917 7.484 -3.276 QT
7.484 -2.542 6.883 -2.05 QT
6.281 -1.558 5.484 -1.401 QT
6 -1.401 6.555 -1.112 QT
7.109 -0.823 7.461 -0.347 QT
7.813 0.13 7.813 0.677 QT
7.813 1.333 7.422 1.833 QT
7.031 2.333 6.414 2.607 QT
5.797 2.88 5.156 2.88 QT
0.406 2.88 L
cp
2.688 2.083 M
2.688 2.333 2.836 2.396 QT
2.984 2.458 3.297 2.458 QT
4.828 2.458 L
5.297 2.458 5.695 2.208 QT
6.094 1.958 6.328 1.552 QT
6.563 1.146 6.563 0.677 QT
6.563 0.208 6.367 -0.229 QT
6.172 -0.667 5.813 -0.948 QT
5.453 -1.229 5 -1.229 QT
2.688 -1.229 L
2.688 2.083 L
cp
2.688 -1.542 M
4.484 -1.542 L
4.859 -1.542 5.172 -1.675 QT
5.484 -1.808 5.742 -2.058 QT
6 -2.308 6.141 -2.62 QT
6.281 -2.933 6.281 -3.276 QT
6.281 -3.589 6.18 -3.878 QT
6.078 -4.167 5.875 -4.401 QT
5.672 -4.636 5.406 -4.768 QT
5.141 -4.901 4.828 -4.901 QT
3.297 -4.901 L
3.078 -4.901 2.961 -4.878 QT
2.844 -4.854 2.766 -4.776 QT
2.688 -4.698 2.688 -4.511 QT
2.688 -1.542 L
cp}def
f1227047727
f
GR
GS
[0.75 0 0 0.75 0 0.25] CT
0.851 0.325 0.098 RC
[8 3 2 3] 0 setdash
2 LJ
0.667 LW
N
64.964 149.838 M
94.69 149.838 L
S
GR
GS
[0.75 0 0 0.75 0 0.25] CT
0.149 GC
10.0 ML
0.667 LW
N
61 159 M
61 111 L
128 111 L
128 159 L
cp
S
GR
%%Trailer
%%Pages: 1
%%EOF
