%!PS-Adobe-3.0 EPSF-3.0
%%Creator: (MATLAB, The Mathworks, Inc. Version 9.1.0.441655 \(R2016b\). Operating System: Windows 7)
%%Title: ../Dokument/Abbildungen/Nebensprechen_Sensor_Varianten.eps
%%CreationDate: 2017-08-30T11:09:36
%%Pages: (atend)
%%BoundingBox:     1     0   199   153
%%LanguageLevel: 3
%%EndComments
%%BeginProlog
%%BeginResource: procset (Apache XML Graphics Std ProcSet) 1.2 0
%%Version: 1.2 0
%%Copyright: (Copyright 2001-2003,2010 The Apache Software Foundation. License terms: http://www.apache.org/licenses/LICENSE-2.0)
/bd{bind def}bind def
/ld{load def}bd
/GR/grestore ld
/M/moveto ld
/LJ/setlinejoin ld
/C/curveto ld
/f/fill ld
/LW/setlinewidth ld
/GC/setgray ld
/t/show ld
/N/newpath ld
/CT/concat ld
/cp/closepath ld
/S/stroke ld
/L/lineto ld
/CC/setcmykcolor ld
/A/ashow ld
/GS/gsave ld
/RC/setrgbcolor ld
/RM/rmoveto ld
/ML/setmiterlimit ld
/re {4 2 roll M
1 index 0 rlineto
0 exch rlineto
neg 0 rlineto
cp } bd
/_ctm matrix def
/_tm matrix def
/BT { _ctm currentmatrix pop matrix _tm copy pop 0 0 moveto } bd
/ET { _ctm setmatrix } bd
/iTm { _ctm setmatrix _tm concat } bd
/Tm { _tm astore pop iTm 0 0 moveto } bd
/ux 0.0 def
/uy 0.0 def
/F {
  /Tp exch def
  /Tf exch def
  Tf findfont Tp scalefont setfont
  /cf Tf def  /cs Tp def
} bd
/ULS {currentpoint /uy exch def /ux exch def} bd
/ULE {
  /Tcx currentpoint pop def
  gsave
  newpath
  cf findfont cs scalefont dup
  /FontMatrix get 0 get /Ts exch def /FontInfo get dup
  /UnderlinePosition get Ts mul /To exch def
  /UnderlineThickness get Ts mul /Tt exch def
  ux uy To add moveto  Tcx uy To add lineto
  Tt setlinewidth stroke
  grestore
} bd
/OLE {
  /Tcx currentpoint pop def
  gsave
  newpath
  cf findfont cs scalefont dup
  /FontMatrix get 0 get /Ts exch def /FontInfo get dup
  /UnderlinePosition get Ts mul /To exch def
  /UnderlineThickness get Ts mul /Tt exch def
  ux uy To add cs add moveto Tcx uy To add cs add lineto
  Tt setlinewidth stroke
  grestore
} bd
/SOE {
  /Tcx currentpoint pop def
  gsave
  newpath
  cf findfont cs scalefont dup
  /FontMatrix get 0 get /Ts exch def /FontInfo get dup
  /UnderlinePosition get Ts mul /To exch def
  /UnderlineThickness get Ts mul /Tt exch def
  ux uy To add cs 10 mul 26 idiv add moveto Tcx uy To add cs 10 mul 26 idiv add lineto
  Tt setlinewidth stroke
  grestore
} bd
/QT {
/Y22 exch store
/X22 exch store
/Y21 exch store
/X21 exch store
currentpoint
/Y21 load 2 mul add 3 div exch
/X21 load 2 mul add 3 div exch
/X21 load 2 mul /X22 load add 3 div
/Y21 load 2 mul /Y22 load add 3 div
/X22 load /Y22 load curveto
} bd
/SSPD {
dup length /d exch dict def
{
/v exch def
/k exch def
currentpagedevice k known {
/cpdv currentpagedevice k get def
v cpdv ne {
/upd false def
/nullv v type /nulltype eq def
/nullcpdv cpdv type /nulltype eq def
nullv nullcpdv or
{
/upd true def
} {
/sametype v type cpdv type eq def
sametype {
v type /arraytype eq {
/vlen v length def
/cpdvlen cpdv length def
vlen cpdvlen eq {
0 1 vlen 1 sub {
/i exch def
/obj v i get def
/cpdobj cpdv i get def
obj cpdobj ne {
/upd true def
exit
} if
} for
} {
/upd true def
} ifelse
} {
v type /dicttype eq {
v {
/dv exch def
/dk exch def
/cpddv cpdv dk get def
dv cpddv ne {
/upd true def
exit
} if
} forall
} {
/upd true def
} ifelse
} ifelse
} if
} ifelse
upd true eq {
d k v put
} if
} if
} if
} forall
d length 0 gt {
d setpagedevice
} if
} bd
/RE { % /NewFontName [NewEncodingArray] /FontName RE -
  findfont dup length dict begin
  {
    1 index /FID ne
    {def} {pop pop} ifelse
  } forall
  /Encoding exch def
  /FontName 1 index def
  currentdict definefont pop
  end
} bind def
%%EndResource
%%BeginResource: procset (Apache XML Graphics EPS ProcSet) 1.0 0
%%Version: 1.0 0
%%Copyright: (Copyright 2002-2003 The Apache Software Foundation. License terms: http://www.apache.org/licenses/LICENSE-2.0)
/BeginEPSF { %def
/b4_Inc_state save def         % Save state for cleanup
/dict_count countdictstack def % Count objects on dict stack
/op_count count 1 sub def      % Count objects on operand stack
userdict begin                 % Push userdict on dict stack
/showpage { } def              % Redefine showpage, { } = null proc
0 setgray 0 setlinecap         % Prepare graphics state
1 setlinewidth 0 setlinejoin
10 setmiterlimit [ ] 0 setdash newpath
/languagelevel where           % If level not equal to 1 then
{pop languagelevel             % set strokeadjust and
1 ne                           % overprint to their defaults.
{false setstrokeadjust false setoverprint
} if
} if
} bd
/EndEPSF { %def
count op_count sub {pop} repeat            % Clean up stacks
countdictstack dict_count sub {end} repeat
b4_Inc_state restore
} bd
%%EndResource
%FOPBeginFontDict
%%IncludeResource: font Courier-Bold
%%IncludeResource: font Helvetica
%%IncludeResource: font Courier-BoldOblique
%%IncludeResource: font Courier-Oblique
%%IncludeResource: font Times-Roman
%%IncludeResource: font Helvetica-BoldOblique
%%IncludeResource: font Helvetica-Bold
%%IncludeResource: font Helvetica-Oblique
%%IncludeResource: font Times-BoldItalic
%%IncludeResource: font Courier
%%IncludeResource: font Times-Italic
%%IncludeResource: font Times-Bold
%%IncludeResource: font Symbol
%%IncludeResource: font ZapfDingbats
%FOPEndFontDict
%%BeginResource: encoding WinAnsiEncoding
/WinAnsiEncoding [
/.notdef /.notdef /.notdef /.notdef /.notdef
/.notdef /.notdef /.notdef /.notdef /.notdef
/.notdef /.notdef /.notdef /.notdef /.notdef
/.notdef /.notdef /.notdef /.notdef /.notdef
/.notdef /.notdef /.notdef /.notdef /.notdef
/.notdef /.notdef /.notdef /.notdef /.notdef
/.notdef /.notdef /space /exclam /quotedbl
/numbersign /dollar /percent /ampersand /quotesingle
/parenleft /parenright /asterisk /plus /comma
/hyphen /period /slash /zero /one
/two /three /four /five /six
/seven /eight /nine /colon /semicolon
/less /equal /greater /question /at
/A /B /C /D /E
/F /G /H /I /J
/K /L /M /N /O
/P /Q /R /S /T
/U /V /W /X /Y
/Z /bracketleft /backslash /bracketright /asciicircum
/underscore /quoteleft /a /b /c
/d /e /f /g /h
/i /j /k /l /m
/n /o /p /q /r
/s /t /u /v /w
/x /y /z /braceleft /bar
/braceright /asciitilde /bullet /Euro /bullet
/quotesinglbase /florin /quotedblbase /ellipsis /dagger
/daggerdbl /circumflex /perthousand /Scaron /guilsinglleft
/OE /bullet /Zcaron /bullet /bullet
/quoteleft /quoteright /quotedblleft /quotedblright /bullet
/endash /emdash /asciitilde /trademark /scaron
/guilsinglright /oe /bullet /zcaron /Ydieresis
/space /exclamdown /cent /sterling /currency
/yen /brokenbar /section /dieresis /copyright
/ordfeminine /guillemotleft /logicalnot /sfthyphen /registered
/macron /degree /plusminus /twosuperior /threesuperior
/acute /mu /paragraph /middot /cedilla
/onesuperior /ordmasculine /guillemotright /onequarter /onehalf
/threequarters /questiondown /Agrave /Aacute /Acircumflex
/Atilde /Adieresis /Aring /AE /Ccedilla
/Egrave /Eacute /Ecircumflex /Edieresis /Igrave
/Iacute /Icircumflex /Idieresis /Eth /Ntilde
/Ograve /Oacute /Ocircumflex /Otilde /Odieresis
/multiply /Oslash /Ugrave /Uacute /Ucircumflex
/Udieresis /Yacute /Thorn /germandbls /agrave
/aacute /acircumflex /atilde /adieresis /aring
/ae /ccedilla /egrave /eacute /ecircumflex
/edieresis /igrave /iacute /icircumflex /idieresis
/eth /ntilde /ograve /oacute /ocircumflex
/otilde /odieresis /divide /oslash /ugrave
/uacute /ucircumflex /udieresis /yacute /thorn
/ydieresis
] def
%%EndResource
%FOPBeginFontReencode
/Courier-Bold findfont
dup length dict begin
  {1 index /FID ne {def} {pop pop} ifelse} forall
  /Encoding WinAnsiEncoding def
  currentdict
end
/Courier-Bold exch definefont pop
/Helvetica findfont
dup length dict begin
  {1 index /FID ne {def} {pop pop} ifelse} forall
  /Encoding WinAnsiEncoding def
  currentdict
end
/Helvetica exch definefont pop
/Courier-BoldOblique findfont
dup length dict begin
  {1 index /FID ne {def} {pop pop} ifelse} forall
  /Encoding WinAnsiEncoding def
  currentdict
end
/Courier-BoldOblique exch definefont pop
/Courier-Oblique findfont
dup length dict begin
  {1 index /FID ne {def} {pop pop} ifelse} forall
  /Encoding WinAnsiEncoding def
  currentdict
end
/Courier-Oblique exch definefont pop
/Times-Roman findfont
dup length dict begin
  {1 index /FID ne {def} {pop pop} ifelse} forall
  /Encoding WinAnsiEncoding def
  currentdict
end
/Times-Roman exch definefont pop
/Helvetica-BoldOblique findfont
dup length dict begin
  {1 index /FID ne {def} {pop pop} ifelse} forall
  /Encoding WinAnsiEncoding def
  currentdict
end
/Helvetica-BoldOblique exch definefont pop
/Helvetica-Bold findfont
dup length dict begin
  {1 index /FID ne {def} {pop pop} ifelse} forall
  /Encoding WinAnsiEncoding def
  currentdict
end
/Helvetica-Bold exch definefont pop
/Helvetica-Oblique findfont
dup length dict begin
  {1 index /FID ne {def} {pop pop} ifelse} forall
  /Encoding WinAnsiEncoding def
  currentdict
end
/Helvetica-Oblique exch definefont pop
/Times-BoldItalic findfont
dup length dict begin
  {1 index /FID ne {def} {pop pop} ifelse} forall
  /Encoding WinAnsiEncoding def
  currentdict
end
/Times-BoldItalic exch definefont pop
/Courier findfont
dup length dict begin
  {1 index /FID ne {def} {pop pop} ifelse} forall
  /Encoding WinAnsiEncoding def
  currentdict
end
/Courier exch definefont pop
/Times-Italic findfont
dup length dict begin
  {1 index /FID ne {def} {pop pop} ifelse} forall
  /Encoding WinAnsiEncoding def
  currentdict
end
/Times-Italic exch definefont pop
/Times-Bold findfont
dup length dict begin
  {1 index /FID ne {def} {pop pop} ifelse} forall
  /Encoding WinAnsiEncoding def
  currentdict
end
/Times-Bold exch definefont pop
%FOPEndFontReencode
%%EndProlog
%%Page: 1 1
%%PageBoundingBox: 0 0 213 161
%%BeginPageSetup
[1 0 0 -1 0 161] CT
%%EndPageSetup
GS
[0.75 0 0 0.75 0 0.5] CT
1 GC
N
0 0 284 214 re
f
GR
GS
[0.75 0 0 0.75 0 0.5] CT
1 GC
N
0 0 284 214 re
f
GR
GS
[0.75 0 0 0.75 0 0.5] CT
1 GC
N
45 174 M
257 174 L
257 16 L
45 16 L
cp
f
GR
GS
[0.75 0 0 0.75 0 0.5] CT
0.775 GC
[1 3] 0 setdash
2 LJ
0.667 LW
N
60.955 174 M
60.955 16 L
S
GR
GS
[0.75 0 0 0.75 0 0.5] CT
0.775 GC
[1 3] 0 setdash
2 LJ
0.667 LW
N
70.287 174 M
70.287 16 L
S
GR
GS
[0.75 0 0 0.75 0 0.5] CT
0.775 GC
[1 3] 0 setdash
2 LJ
0.667 LW
N
76.909 174 M
76.909 16 L
S
GR
GS
[0.75 0 0 0.75 0 0.5] CT
0.775 GC
[1 3] 0 setdash
2 LJ
0.667 LW
N
82.045 174 M
82.045 16 L
S
GR
GS
[0.75 0 0 0.75 0 0.5] CT
0.775 GC
[1 3] 0 setdash
2 LJ
0.667 LW
N
86.242 174 M
86.242 16 L
S
GR
GS
[0.75 0 0 0.75 0 0.5] CT
0.775 GC
[1 3] 0 setdash
2 LJ
0.667 LW
N
89.79 174 M
89.79 16 L
S
GR
GS
[0.75 0 0 0.75 0 0.5] CT
0.775 GC
[1 3] 0 setdash
2 LJ
0.667 LW
N
92.864 174 M
92.864 16 L
S
GR
GS
[0.75 0 0 0.75 0 0.5] CT
0.775 GC
[1 3] 0 setdash
2 LJ
0.667 LW
N
95.575 174 M
95.575 16 L
S
GR
GS
[0.75 0 0 0.75 0 0.5] CT
0.775 GC
[1 3] 0 setdash
2 LJ
0.667 LW
N
98 174 M
98 16 L
S
GR
GS
[0.75 0 0 0.75 0 0.5] CT
0.775 GC
[1 3] 0 setdash
2 LJ
0.667 LW
N
113.955 174 M
113.955 16 L
S
GR
GS
[0.75 0 0 0.75 0 0.5] CT
0.775 GC
[1 3] 0 setdash
2 LJ
0.667 LW
N
123.287 174 M
123.287 16 L
S
GR
GS
[0.75 0 0 0.75 0 0.5] CT
0.775 GC
[1 3] 0 setdash
2 LJ
0.667 LW
N
129.909 174 M
129.909 16 L
S
GR
GS
[0.75 0 0 0.75 0 0.5] CT
0.775 GC
[1 3] 0 setdash
2 LJ
0.667 LW
N
135.045 174 M
135.045 16 L
S
GR
GS
[0.75 0 0 0.75 0 0.5] CT
0.775 GC
[1 3] 0 setdash
2 LJ
0.667 LW
N
139.242 174 M
139.242 16 L
S
GR
GS
[0.75 0 0 0.75 0 0.5] CT
0.775 GC
[1 3] 0 setdash
2 LJ
0.667 LW
N
142.79 174 M
142.79 16 L
S
GR
GS
[0.75 0 0 0.75 0 0.5] CT
0.775 GC
[1 3] 0 setdash
2 LJ
0.667 LW
N
145.864 174 M
145.864 16 L
S
GR
GS
[0.75 0 0 0.75 0 0.5] CT
0.775 GC
[1 3] 0 setdash
2 LJ
0.667 LW
N
148.575 174 M
148.575 16 L
S
GR
GS
[0.75 0 0 0.75 0 0.5] CT
0.775 GC
[1 3] 0 setdash
2 LJ
0.667 LW
N
166.955 174 M
166.955 16 L
S
GR
GS
[0.75 0 0 0.75 0 0.5] CT
0.775 GC
[1 3] 0 setdash
2 LJ
0.667 LW
N
176.287 174 M
176.287 16 L
S
GR
GS
[0.75 0 0 0.75 0 0.5] CT
0.775 GC
[1 3] 0 setdash
2 LJ
0.667 LW
N
182.909 174 M
182.909 16 L
S
GR
GS
[0.75 0 0 0.75 0 0.5] CT
0.775 GC
[1 3] 0 setdash
2 LJ
0.667 LW
N
188.045 174 M
188.045 16 L
S
GR
GS
[0.75 0 0 0.75 0 0.5] CT
0.775 GC
[1 3] 0 setdash
2 LJ
0.667 LW
N
192.242 174 M
192.242 16 L
S
GR
GS
[0.75 0 0 0.75 0 0.5] CT
0.775 GC
[1 3] 0 setdash
2 LJ
0.667 LW
N
195.79 174 M
195.79 16 L
S
GR
GS
[0.75 0 0 0.75 0 0.5] CT
0.775 GC
[1 3] 0 setdash
2 LJ
0.667 LW
N
198.864 174 M
198.864 16 L
S
GR
GS
[0.75 0 0 0.75 0 0.5] CT
0.775 GC
[1 3] 0 setdash
2 LJ
0.667 LW
N
201.575 174 M
201.575 16 L
S
GR
GS
[0.75 0 0 0.75 0 0.5] CT
0.775 GC
[1 3] 0 setdash
2 LJ
0.667 LW
N
204 174 M
204 16 L
S
GR
GS
[0.75 0 0 0.75 0 0.5] CT
0.775 GC
[1 3] 0 setdash
2 LJ
0.667 LW
N
219.955 174 M
219.955 16 L
S
GR
GS
[0.75 0 0 0.75 0 0.5] CT
0.775 GC
[1 3] 0 setdash
2 LJ
0.667 LW
N
229.287 174 M
229.287 16 L
S
GR
GS
[0.75 0 0 0.75 0 0.5] CT
0.775 GC
[1 3] 0 setdash
2 LJ
0.667 LW
N
235.909 174 M
235.909 16 L
S
GR
GS
[0.75 0 0 0.75 0 0.5] CT
0.775 GC
[1 3] 0 setdash
2 LJ
0.667 LW
N
241.045 174 M
241.045 16 L
S
GR
GS
[0.75 0 0 0.75 0 0.5] CT
0.775 GC
[1 3] 0 setdash
2 LJ
0.667 LW
N
245.242 174 M
245.242 16 L
S
GR
GS
[0.75 0 0 0.75 0 0.5] CT
0.775 GC
[1 3] 0 setdash
2 LJ
0.667 LW
N
248.79 174 M
248.79 16 L
S
GR
GS
[0.75 0 0 0.75 0 0.5] CT
0.775 GC
[1 3] 0 setdash
2 LJ
0.667 LW
N
251.864 174 M
251.864 16 L
S
GR
GS
[0.75 0 0 0.75 0 0.5] CT
0.775 GC
[1 3] 0 setdash
2 LJ
0.667 LW
N
254.575 174 M
254.575 16 L
S
GR
GS
[0.75 0 0 0.75 0 0.5] CT
0.873 GC
1 LJ
0.667 LW
N
45 174 M
45 16 L
S
GR
GS
[0.75 0 0 0.75 0 0.5] CT
0.873 GC
1 LJ
0.667 LW
N
151 174 M
151 16 L
S
GR
GS
[0.75 0 0 0.75 0 0.5] CT
0.873 GC
1 LJ
0.667 LW
N
257 174 M
257 16 L
S
GR
GS
[0.75 0 0 0.75 0 0.5] CT
0.873 GC
1 LJ
0.667 LW
N
257 174 M
45 174 L
S
GR
GS
[0.75 0 0 0.75 0 0.5] CT
0.873 GC
1 LJ
0.667 LW
N
257 121.333 M
45 121.333 L
S
GR
GS
[0.75 0 0 0.75 0 0.5] CT
0.873 GC
1 LJ
0.667 LW
N
257 68.667 M
45 68.667 L
S
GR
GS
[0.75 0 0 0.75 0 0.5] CT
0.873 GC
1 LJ
0.667 LW
N
257 16 M
45 16 L
S
GR
GS
[0.75 0 0 0.75 0 0.5] CT
0.149 GC
2 setlinecap
1 LJ
0.667 LW
N
45 174 M
257 174 L
S
GR
GS
[0.75 0 0 0.75 0 0.5] CT
0.149 GC
2 setlinecap
1 LJ
0.667 LW
N
45 16 M
257 16 L
S
GR
GS
[0.75 0 0 0.75 0 0.5] CT
0.149 GC
2 setlinecap
1 LJ
0.667 LW
N
45 174 M
45 171.88 L
S
GR
GS
[0.75 0 0 0.75 0 0.5] CT
0.149 GC
2 setlinecap
1 LJ
0.667 LW
N
151 174 M
151 171.88 L
S
GR
GS
[0.75 0 0 0.75 0 0.5] CT
0.149 GC
2 setlinecap
1 LJ
0.667 LW
N
257 174 M
257 171.88 L
S
GR
GS
[0.75 0 0 0.75 0 0.5] CT
0.149 GC
2 setlinecap
1 LJ
0.667 LW
N
45 16 M
45 18.12 L
S
GR
GS
[0.75 0 0 0.75 0 0.5] CT
0.149 GC
2 setlinecap
1 LJ
0.667 LW
N
151 16 M
151 18.12 L
S
GR
GS
[0.75 0 0 0.75 0 0.5] CT
0.149 GC
2 setlinecap
1 LJ
0.667 LW
N
257 16 M
257 18.12 L
S
GR
GS
[0.75 0 0 0.75 0 0.5] CT
0.149 GC
2 setlinecap
1 LJ
0.667 LW
N
45 174 M
45 172.94 L
S
GR
GS
[0.75 0 0 0.75 0 0.5] CT
0.149 GC
2 setlinecap
1 LJ
0.667 LW
N
60.955 174 M
60.955 172.94 L
S
GR
GS
[0.75 0 0 0.75 0 0.5] CT
0.149 GC
2 setlinecap
1 LJ
0.667 LW
N
70.287 174 M
70.287 172.94 L
S
GR
GS
[0.75 0 0 0.75 0 0.5] CT
0.149 GC
2 setlinecap
1 LJ
0.667 LW
N
76.909 174 M
76.909 172.94 L
S
GR
GS
[0.75 0 0 0.75 0 0.5] CT
0.149 GC
2 setlinecap
1 LJ
0.667 LW
N
82.045 174 M
82.045 172.94 L
S
GR
GS
[0.75 0 0 0.75 0 0.5] CT
0.149 GC
2 setlinecap
1 LJ
0.667 LW
N
86.242 174 M
86.242 172.94 L
S
GR
GS
[0.75 0 0 0.75 0 0.5] CT
0.149 GC
2 setlinecap
1 LJ
0.667 LW
N
89.79 174 M
89.79 172.94 L
S
GR
GS
[0.75 0 0 0.75 0 0.5] CT
0.149 GC
2 setlinecap
1 LJ
0.667 LW
N
92.864 174 M
92.864 172.94 L
S
GR
GS
[0.75 0 0 0.75 0 0.5] CT
0.149 GC
2 setlinecap
1 LJ
0.667 LW
N
95.575 174 M
95.575 172.94 L
S
GR
GS
[0.75 0 0 0.75 0 0.5] CT
0.149 GC
2 setlinecap
1 LJ
0.667 LW
N
98 174 M
98 172.94 L
S
GR
GS
[0.75 0 0 0.75 0 0.5] CT
0.149 GC
2 setlinecap
1 LJ
0.667 LW
N
113.955 174 M
113.955 172.94 L
S
GR
GS
[0.75 0 0 0.75 0 0.5] CT
0.149 GC
2 setlinecap
1 LJ
0.667 LW
N
123.287 174 M
123.287 172.94 L
S
GR
GS
[0.75 0 0 0.75 0 0.5] CT
0.149 GC
2 setlinecap
1 LJ
0.667 LW
N
129.909 174 M
129.909 172.94 L
S
GR
GS
[0.75 0 0 0.75 0 0.5] CT
0.149 GC
2 setlinecap
1 LJ
0.667 LW
N
135.045 174 M
135.045 172.94 L
S
GR
GS
[0.75 0 0 0.75 0 0.5] CT
0.149 GC
2 setlinecap
1 LJ
0.667 LW
N
139.242 174 M
139.242 172.94 L
S
GR
GS
[0.75 0 0 0.75 0 0.5] CT
0.149 GC
2 setlinecap
1 LJ
0.667 LW
N
142.79 174 M
142.79 172.94 L
S
GR
GS
[0.75 0 0 0.75 0 0.5] CT
0.149 GC
2 setlinecap
1 LJ
0.667 LW
N
145.864 174 M
145.864 172.94 L
S
GR
GS
[0.75 0 0 0.75 0 0.5] CT
0.149 GC
2 setlinecap
1 LJ
0.667 LW
N
148.575 174 M
148.575 172.94 L
S
GR
GS
[0.75 0 0 0.75 0 0.5] CT
0.149 GC
2 setlinecap
1 LJ
0.667 LW
N
151 174 M
151 172.94 L
S
GR
GS
[0.75 0 0 0.75 0 0.5] CT
0.149 GC
2 setlinecap
1 LJ
0.667 LW
N
166.955 174 M
166.955 172.94 L
S
GR
GS
[0.75 0 0 0.75 0 0.5] CT
0.149 GC
2 setlinecap
1 LJ
0.667 LW
N
176.287 174 M
176.287 172.94 L
S
GR
GS
[0.75 0 0 0.75 0 0.5] CT
0.149 GC
2 setlinecap
1 LJ
0.667 LW
N
182.909 174 M
182.909 172.94 L
S
GR
GS
[0.75 0 0 0.75 0 0.5] CT
0.149 GC
2 setlinecap
1 LJ
0.667 LW
N
188.045 174 M
188.045 172.94 L
S
GR
GS
[0.75 0 0 0.75 0 0.5] CT
0.149 GC
2 setlinecap
1 LJ
0.667 LW
N
192.242 174 M
192.242 172.94 L
S
GR
GS
[0.75 0 0 0.75 0 0.5] CT
0.149 GC
2 setlinecap
1 LJ
0.667 LW
N
195.79 174 M
195.79 172.94 L
S
GR
GS
[0.75 0 0 0.75 0 0.5] CT
0.149 GC
2 setlinecap
1 LJ
0.667 LW
N
198.864 174 M
198.864 172.94 L
S
GR
GS
[0.75 0 0 0.75 0 0.5] CT
0.149 GC
2 setlinecap
1 LJ
0.667 LW
N
201.575 174 M
201.575 172.94 L
S
GR
GS
[0.75 0 0 0.75 0 0.5] CT
0.149 GC
2 setlinecap
1 LJ
0.667 LW
N
204 174 M
204 172.94 L
S
GR
GS
[0.75 0 0 0.75 0 0.5] CT
0.149 GC
2 setlinecap
1 LJ
0.667 LW
N
219.955 174 M
219.955 172.94 L
S
GR
GS
[0.75 0 0 0.75 0 0.5] CT
0.149 GC
2 setlinecap
1 LJ
0.667 LW
N
229.287 174 M
229.287 172.94 L
S
GR
GS
[0.75 0 0 0.75 0 0.5] CT
0.149 GC
2 setlinecap
1 LJ
0.667 LW
N
235.909 174 M
235.909 172.94 L
S
GR
GS
[0.75 0 0 0.75 0 0.5] CT
0.149 GC
2 setlinecap
1 LJ
0.667 LW
N
241.045 174 M
241.045 172.94 L
S
GR
GS
[0.75 0 0 0.75 0 0.5] CT
0.149 GC
2 setlinecap
1 LJ
0.667 LW
N
245.242 174 M
245.242 172.94 L
S
GR
GS
[0.75 0 0 0.75 0 0.5] CT
0.149 GC
2 setlinecap
1 LJ
0.667 LW
N
248.79 174 M
248.79 172.94 L
S
GR
GS
[0.75 0 0 0.75 0 0.5] CT
0.149 GC
2 setlinecap
1 LJ
0.667 LW
N
251.864 174 M
251.864 172.94 L
S
GR
GS
[0.75 0 0 0.75 0 0.5] CT
0.149 GC
2 setlinecap
1 LJ
0.667 LW
N
254.575 174 M
254.575 172.94 L
S
GR
GS
[0.75 0 0 0.75 0 0.5] CT
0.149 GC
2 setlinecap
1 LJ
0.667 LW
N
257 174 M
257 172.94 L
S
GR
GS
[0.75 0 0 0.75 0 0.5] CT
0.149 GC
2 setlinecap
1 LJ
0.667 LW
N
45 16 M
45 17.06 L
S
GR
GS
[0.75 0 0 0.75 0 0.5] CT
0.149 GC
2 setlinecap
1 LJ
0.667 LW
N
60.955 16 M
60.955 17.06 L
S
GR
GS
[0.75 0 0 0.75 0 0.5] CT
0.149 GC
2 setlinecap
1 LJ
0.667 LW
N
70.287 16 M
70.287 17.06 L
S
GR
GS
[0.75 0 0 0.75 0 0.5] CT
0.149 GC
2 setlinecap
1 LJ
0.667 LW
N
76.909 16 M
76.909 17.06 L
S
GR
GS
[0.75 0 0 0.75 0 0.5] CT
0.149 GC
2 setlinecap
1 LJ
0.667 LW
N
82.045 16 M
82.045 17.06 L
S
GR
GS
[0.75 0 0 0.75 0 0.5] CT
0.149 GC
2 setlinecap
1 LJ
0.667 LW
N
86.242 16 M
86.242 17.06 L
S
GR
GS
[0.75 0 0 0.75 0 0.5] CT
0.149 GC
2 setlinecap
1 LJ
0.667 LW
N
89.79 16 M
89.79 17.06 L
S
GR
GS
[0.75 0 0 0.75 0 0.5] CT
0.149 GC
2 setlinecap
1 LJ
0.667 LW
N
92.864 16 M
92.864 17.06 L
S
GR
GS
[0.75 0 0 0.75 0 0.5] CT
0.149 GC
2 setlinecap
1 LJ
0.667 LW
N
95.575 16 M
95.575 17.06 L
S
GR
GS
[0.75 0 0 0.75 0 0.5] CT
0.149 GC
2 setlinecap
1 LJ
0.667 LW
N
98 16 M
98 17.06 L
S
GR
GS
[0.75 0 0 0.75 0 0.5] CT
0.149 GC
2 setlinecap
1 LJ
0.667 LW
N
113.955 16 M
113.955 17.06 L
S
GR
GS
[0.75 0 0 0.75 0 0.5] CT
0.149 GC
2 setlinecap
1 LJ
0.667 LW
N
123.287 16 M
123.287 17.06 L
S
GR
GS
[0.75 0 0 0.75 0 0.5] CT
0.149 GC
2 setlinecap
1 LJ
0.667 LW
N
129.909 16 M
129.909 17.06 L
S
GR
GS
[0.75 0 0 0.75 0 0.5] CT
0.149 GC
2 setlinecap
1 LJ
0.667 LW
N
135.045 16 M
135.045 17.06 L
S
GR
GS
[0.75 0 0 0.75 0 0.5] CT
0.149 GC
2 setlinecap
1 LJ
0.667 LW
N
139.242 16 M
139.242 17.06 L
S
GR
GS
[0.75 0 0 0.75 0 0.5] CT
0.149 GC
2 setlinecap
1 LJ
0.667 LW
N
142.79 16 M
142.79 17.06 L
S
GR
GS
[0.75 0 0 0.75 0 0.5] CT
0.149 GC
2 setlinecap
1 LJ
0.667 LW
N
145.864 16 M
145.864 17.06 L
S
GR
GS
[0.75 0 0 0.75 0 0.5] CT
0.149 GC
2 setlinecap
1 LJ
0.667 LW
N
148.575 16 M
148.575 17.06 L
S
GR
GS
[0.75 0 0 0.75 0 0.5] CT
0.149 GC
2 setlinecap
1 LJ
0.667 LW
N
151 16 M
151 17.06 L
S
GR
GS
[0.75 0 0 0.75 0 0.5] CT
0.149 GC
2 setlinecap
1 LJ
0.667 LW
N
166.955 16 M
166.955 17.06 L
S
GR
GS
[0.75 0 0 0.75 0 0.5] CT
0.149 GC
2 setlinecap
1 LJ
0.667 LW
N
176.287 16 M
176.287 17.06 L
S
GR
GS
[0.75 0 0 0.75 0 0.5] CT
0.149 GC
2 setlinecap
1 LJ
0.667 LW
N
182.909 16 M
182.909 17.06 L
S
GR
GS
[0.75 0 0 0.75 0 0.5] CT
0.149 GC
2 setlinecap
1 LJ
0.667 LW
N
188.045 16 M
188.045 17.06 L
S
GR
GS
[0.75 0 0 0.75 0 0.5] CT
0.149 GC
2 setlinecap
1 LJ
0.667 LW
N
192.242 16 M
192.242 17.06 L
S
GR
GS
[0.75 0 0 0.75 0 0.5] CT
0.149 GC
2 setlinecap
1 LJ
0.667 LW
N
195.79 16 M
195.79 17.06 L
S
GR
GS
[0.75 0 0 0.75 0 0.5] CT
0.149 GC
2 setlinecap
1 LJ
0.667 LW
N
198.864 16 M
198.864 17.06 L
S
GR
GS
[0.75 0 0 0.75 0 0.5] CT
0.149 GC
2 setlinecap
1 LJ
0.667 LW
N
201.575 16 M
201.575 17.06 L
S
GR
GS
[0.75 0 0 0.75 0 0.5] CT
0.149 GC
2 setlinecap
1 LJ
0.667 LW
N
204 16 M
204 17.06 L
S
GR
GS
[0.75 0 0 0.75 0 0.5] CT
0.149 GC
2 setlinecap
1 LJ
0.667 LW
N
219.955 16 M
219.955 17.06 L
S
GR
GS
[0.75 0 0 0.75 0 0.5] CT
0.149 GC
2 setlinecap
1 LJ
0.667 LW
N
229.287 16 M
229.287 17.06 L
S
GR
GS
[0.75 0 0 0.75 0 0.5] CT
0.149 GC
2 setlinecap
1 LJ
0.667 LW
N
235.909 16 M
235.909 17.06 L
S
GR
GS
[0.75 0 0 0.75 0 0.5] CT
0.149 GC
2 setlinecap
1 LJ
0.667 LW
N
241.045 16 M
241.045 17.06 L
S
GR
GS
[0.75 0 0 0.75 0 0.5] CT
0.149 GC
2 setlinecap
1 LJ
0.667 LW
N
245.242 16 M
245.242 17.06 L
S
GR
GS
[0.75 0 0 0.75 0 0.5] CT
0.149 GC
2 setlinecap
1 LJ
0.667 LW
N
248.79 16 M
248.79 17.06 L
S
GR
GS
[0.75 0 0 0.75 0 0.5] CT
0.149 GC
2 setlinecap
1 LJ
0.667 LW
N
251.864 16 M
251.864 17.06 L
S
GR
GS
[0.75 0 0 0.75 0 0.5] CT
0.149 GC
2 setlinecap
1 LJ
0.667 LW
N
254.575 16 M
254.575 17.06 L
S
GR
GS
[0.75 0 0 0.75 0 0.5] CT
0.149 GC
2 setlinecap
1 LJ
0.667 LW
N
257 16 M
257 17.06 L
S
GR
GS
[0.75 0 0 0.75 33.75 135] CT
0.149 GC
N
-8.13 11.2 M
-8.13 10.747 L
-6.505 10.747 -6.505 10.325 QT
-6.505 3.512 L
-7.177 3.825 -8.208 3.825 QT
-8.208 3.372 L
-6.615 3.372 -5.802 2.544 QT
-5.615 2.544 L
-5.568 2.544 -5.529 2.575 QT
-5.49 2.606 -5.49 2.653 QT
-5.49 10.325 L
-5.49 10.747 -3.865 10.747 QT
-3.865 11.2 L
-8.13 11.2 L
cp
f
GR
GS
[0.75 0 0 0.75 33.75 135] CT
0.149 GC
N
0.583 11.481 M
-1.01 11.481 -1.581 10.169 QT
-2.151 8.856 -2.151 7.059 QT
-2.151 5.919 -1.948 4.927 QT
-1.745 3.934 -1.135 3.239 QT
-0.526 2.544 0.583 2.544 QT
1.443 2.544 1.99 2.958 QT
2.536 3.372 2.818 4.036 QT
3.099 4.7 3.208 5.458 QT
3.318 6.216 3.318 7.059 QT
3.318 8.169 3.107 9.145 QT
2.896 10.122 2.294 10.802 QT
1.693 11.481 0.583 11.481 QT
cp
0.583 11.153 M
1.302 11.153 1.661 10.411 QT
2.021 9.669 2.099 8.762 QT
2.177 7.856 2.177 6.841 QT
2.177 5.872 2.099 5.044 QT
2.021 4.216 1.669 3.544 QT
1.318 2.872 0.583 2.872 QT
-0.151 2.872 -0.51 3.552 QT
-0.87 4.231 -0.948 5.052 QT
-1.026 5.872 -1.026 6.841 QT
-1.026 7.575 -0.995 8.216 QT
-0.964 8.856 -0.807 9.536 QT
-0.651 10.216 -0.315 10.684 QT
0.021 11.153 0.583 11.153 QT
cp
f
GR
GS
[0.75 0 0 0.75 33.75 135] CT
0.149 GC
N
4.453 6.361 M
4.453 6.127 L
4.453 6.096 4.469 6.065 QT
5.859 4.518 L
6.188 4.174 6.383 3.947 QT
6.578 3.721 6.773 3.416 QT
6.969 3.111 7.078 2.799 QT
7.188 2.486 7.188 2.127 QT
7.188 1.768 7.047 1.424 QT
6.906 1.08 6.641 0.885 QT
6.375 0.69 5.984 0.69 QT
5.594 0.69 5.281 0.924 QT
4.969 1.158 4.844 1.533 QT
4.891 1.518 4.938 1.518 QT
5.141 1.518 5.289 1.65 QT
5.438 1.783 5.438 2.002 QT
5.438 2.205 5.289 2.354 QT
5.141 2.502 4.938 2.502 QT
4.734 2.502 4.594 2.354 QT
4.453 2.205 4.453 2.002 QT
4.453 1.674 4.578 1.377 QT
4.703 1.08 4.945 0.846 QT
5.188 0.611 5.484 0.486 QT
5.781 0.361 6.125 0.361 QT
6.641 0.361 7.086 0.58 QT
7.531 0.799 7.789 1.197 QT
8.047 1.596 8.047 2.127 QT
8.047 2.518 7.875 2.869 QT
7.703 3.221 7.438 3.51 QT
7.172 3.799 6.75 4.166 QT
6.328 4.533 6.203 4.658 QT
5.172 5.627 L
6.047 5.627 L
6.688 5.627 7.109 5.619 QT
7.531 5.611 7.563 5.58 QT
7.672 5.471 7.781 4.752 QT
8.047 4.752 L
7.781 6.361 L
4.453 6.361 L
cp
f
GR
GS
[0.75 0 0 0.75 113.25 135] CT
0.149 GC
N
/f117695946{-8.13 11.2 M
-8.13 10.747 L
-6.505 10.747 -6.505 10.325 QT
-6.505 3.512 L
-7.177 3.825 -8.208 3.825 QT
-8.208 3.372 L
-6.615 3.372 -5.802 2.544 QT
-5.615 2.544 L
-5.568 2.544 -5.529 2.575 QT
-5.49 2.606 -5.49 2.653 QT
-5.49 10.325 L
-5.49 10.747 -3.865 10.747 QT
-3.865 11.2 L
-8.13 11.2 L
cp}def
f117695946
f
GR
GS
[0.75 0 0 0.75 113.25 135] CT
0.149 GC
N
/f2138031099{0.583 11.481 M
-1.01 11.481 -1.581 10.169 QT
-2.151 8.856 -2.151 7.059 QT
-2.151 5.919 -1.948 4.927 QT
-1.745 3.934 -1.135 3.239 QT
-0.526 2.544 0.583 2.544 QT
1.443 2.544 1.99 2.958 QT
2.536 3.372 2.818 4.036 QT
3.099 4.7 3.208 5.458 QT
3.318 6.216 3.318 7.059 QT
3.318 8.169 3.107 9.145 QT
2.896 10.122 2.294 10.802 QT
1.693 11.481 0.583 11.481 QT
cp
0.583 11.153 M
1.302 11.153 1.661 10.411 QT
2.021 9.669 2.099 8.762 QT
2.177 7.856 2.177 6.841 QT
2.177 5.872 2.099 5.044 QT
2.021 4.216 1.669 3.544 QT
1.318 2.872 0.583 2.872 QT
-0.151 2.872 -0.51 3.552 QT
-0.87 4.231 -0.948 5.052 QT
-1.026 5.872 -1.026 6.841 QT
-1.026 7.575 -0.995 8.216 QT
-0.964 8.856 -0.807 9.536 QT
-0.651 10.216 -0.315 10.684 QT
0.021 11.153 0.583 11.153 QT
cp}def
f2138031099
f
GR
GS
[0.75 0 0 0.75 113.25 135] CT
0.149 GC
N
/f968019605{4.25 4.877 M
4.25 4.565 L
7.031 0.408 L
7.063 0.361 7.125 0.361 QT
7.25 0.361 L
7.359 0.361 7.359 0.471 QT
7.359 4.565 L
8.234 4.565 L
8.234 4.877 L
7.359 4.877 L
7.359 5.752 L
7.359 5.94 7.625 5.994 QT
7.891 6.049 8.234 6.049 QT
8.234 6.361 L
5.75 6.361 L
5.75 6.049 L
6.094 6.049 6.359 5.994 QT
6.625 5.94 6.625 5.752 QT
6.625 4.877 L
4.25 4.877 L
cp
4.547 4.565 M
6.688 4.565 L
6.688 1.377 L
4.547 4.565 L
cp}def
f968019605
f
GR
GS
[0.75 0 0 0.75 192.75 135] CT
0.149 GC
N
f117695946
f
GR
GS
[0.75 0 0 0.75 192.75 135] CT
0.149 GC
N
f2138031099
f
GR
GS
[0.75 0 0 0.75 192.75 135] CT
0.149 GC
N
/f-1214363871{6.25 6.565 M
5.688 6.565 5.313 6.268 QT
4.938 5.971 4.734 5.494 QT
4.531 5.018 4.453 4.502 QT
4.375 3.986 4.375 3.455 QT
4.375 2.736 4.656 2.025 QT
4.938 1.315 5.477 0.838 QT
6.016 0.361 6.75 0.361 QT
7.047 0.361 7.32 0.479 QT
7.594 0.596 7.742 0.822 QT
7.891 1.049 7.891 1.377 QT
7.891 1.565 7.766 1.69 QT
7.641 1.815 7.453 1.815 QT
7.281 1.815 7.156 1.682 QT
7.031 1.549 7.031 1.377 QT
7.031 1.205 7.156 1.072 QT
7.281 0.94 7.453 0.94 QT
7.5 0.94 L
7.391 0.783 7.18 0.705 QT
6.969 0.627 6.75 0.627 QT
6.469 0.627 6.242 0.744 QT
6.016 0.861 5.828 1.065 QT
5.641 1.268 5.516 1.51 QT
5.391 1.752 5.328 2.065 QT
5.266 2.377 5.242 2.65 QT
5.219 2.924 5.219 3.33 QT
5.391 2.971 5.68 2.736 QT
5.969 2.502 6.328 2.502 QT
6.734 2.502 7.063 2.666 QT
7.391 2.83 7.625 3.111 QT
7.859 3.393 7.984 3.768 QT
8.109 4.143 8.109 4.518 QT
8.109 5.049 7.875 5.525 QT
7.641 6.002 7.219 6.283 QT
6.797 6.565 6.25 6.565 QT
cp
6.25 6.268 M
6.594 6.268 6.805 6.111 QT
7.016 5.955 7.117 5.697 QT
7.219 5.44 7.242 5.174 QT
7.266 4.908 7.266 4.518 QT
7.266 4.002 7.219 3.643 QT
7.172 3.283 6.953 3.01 QT
6.734 2.736 6.297 2.736 QT
5.922 2.736 5.688 2.979 QT
5.453 3.221 5.352 3.604 QT
5.25 3.986 5.25 4.33 QT
5.25 4.44 5.25 4.502 QT
5.25 4.518 5.25 4.525 QT
5.25 4.533 5.25 4.549 QT
5.25 4.94 5.328 5.33 QT
5.406 5.721 5.625 5.994 QT
5.844 6.268 6.25 6.268 QT
cp}def
f-1214363871
f
GR
GS
[0.75 0 0 0.75 113.25008 148] CT
0.149 GC
N
/f-2035873689{-17.034 12.32 M
-17.034 11.789 L
-16.534 11.789 -16.206 11.711 QT
-15.878 11.632 -15.878 11.32 QT
-15.878 6.382 L
-17.019 6.382 L
-17.019 5.851 L
-15.878 5.851 L
-15.878 4.054 L
-15.878 3.57 -15.675 3.148 QT
-15.472 2.726 -15.128 2.414 QT
-14.784 2.101 -14.339 1.922 QT
-13.894 1.742 -13.425 1.742 QT
-12.925 1.742 -12.519 2.047 QT
-12.112 2.351 -12.112 2.836 QT
-12.112 3.132 -12.3 3.328 QT
-12.487 3.523 -12.784 3.523 QT
-13.065 3.523 -13.269 3.328 QT
-13.472 3.132 -13.472 2.836 QT
-13.472 2.367 -13.065 2.211 QT
-13.3 2.132 -13.503 2.132 QT
-13.94 2.132 -14.253 2.445 QT
-14.565 2.757 -14.714 3.203 QT
-14.862 3.648 -14.862 4.086 QT
-14.862 5.851 L
-13.144 5.851 L
-13.144 6.382 L
-14.815 6.382 L
-14.815 11.32 L
-14.815 11.617 -14.378 11.703 QT
-13.94 11.789 -13.362 11.789 QT
-13.362 12.32 L
-17.034 12.32 L
cp}def
f-2035873689
f
GR
GS
[0.75 0 0 0.75 113.25008 148] CT
0.149 GC
N
/f2028202385{-6.383 16.07 M
-6.383 1.07 L
-4.32 1.07 L
-4.32 1.664 L
-5.773 1.664 L
-5.773 15.476 L
-4.32 15.476 L
-4.32 16.07 L
-6.383 16.07 L
cp}def
f2028202385
f
GR
GS
[0.75 0 0 0.75 113.25008 148] CT
0.149 GC
N
/f-374141431{-3.605 12.32 M
-3.605 11.789 L
-2.074 11.789 -2.074 11.32 QT
-2.074 3.07 L
-2.074 2.601 -3.605 2.601 QT
-3.605 2.07 L
0.879 2.07 L
0.879 2.601 L
-0.668 2.601 -0.668 3.07 QT
-0.668 6.726 L
3.754 6.726 L
3.754 3.07 L
3.754 2.601 2.207 2.601 QT
2.207 2.07 L
6.692 2.07 L
6.692 2.601 L
5.16 2.601 5.16 3.07 QT
5.16 11.32 L
5.16 11.789 6.692 11.789 QT
6.692 12.32 L
2.207 12.32 L
2.207 11.789 L
3.754 11.789 3.754 11.32 QT
3.754 7.257 L
-0.668 7.257 L
-0.668 11.32 L
-0.668 11.789 0.879 11.789 QT
0.879 12.32 L
-3.605 12.32 L
cp}def
f-374141431
f
GR
GS
[0.75 0 0 0.75 113.25008 148] CT
0.149 GC
N
/f-353581992{7.52 12.32 M
7.348 12.32 7.348 12.148 QT
7.348 12.039 L
7.348 11.976 7.395 11.929 QT
11.582 6.242 L
10.223 6.242 L
9.598 6.242 9.184 6.328 QT
8.77 6.414 8.496 6.632 QT
8.223 6.851 8.106 7.242 QT
7.988 7.632 7.988 8.336 QT
7.551 8.336 L
7.723 5.851 L
12.754 5.851 L
12.817 5.851 12.863 5.898 QT
12.91 5.945 12.91 6.023 QT
12.91 6.101 L
12.91 6.148 12.879 6.211 QT
8.692 11.882 L
10.113 11.882 L
10.77 11.882 11.207 11.804 QT
11.645 11.726 11.957 11.414 QT
12.238 11.132 12.34 10.648 QT
12.442 10.164 12.504 9.461 QT
12.942 9.461 L
12.676 12.32 L
7.52 12.32 L
cp}def
f-353581992
f
GR
GS
[0.75 0 0 0.75 113.25008 148] CT
0.149 GC
N
/f-1726549143{13.773 16.07 M
13.773 15.476 L
15.226 15.476 L
15.226 1.664 L
13.773 1.664 L
13.773 1.07 L
15.835 1.07 L
15.835 16.07 L
13.773 16.07 L
cp}def
f-1726549143
f
GR
GS
[0.75 0 0 0.75 0 0.5] CT
0.149 GC
2 setlinecap
1 LJ
0.667 LW
N
45 174 M
45 16 L
S
GR
GS
[0.75 0 0 0.75 0 0.5] CT
0.149 GC
2 setlinecap
1 LJ
0.667 LW
N
257 174 M
257 16 L
S
GR
GS
[0.75 0 0 0.75 0 0.5] CT
0.149 GC
2 setlinecap
1 LJ
0.667 LW
N
45 174 M
47.12 174 L
S
GR
GS
[0.75 0 0 0.75 0 0.5] CT
0.149 GC
2 setlinecap
1 LJ
0.667 LW
N
45 121.333 M
47.12 121.333 L
S
GR
GS
[0.75 0 0 0.75 0 0.5] CT
0.149 GC
2 setlinecap
1 LJ
0.667 LW
N
45 68.667 M
47.12 68.667 L
S
GR
GS
[0.75 0 0 0.75 0 0.5] CT
0.149 GC
2 setlinecap
1 LJ
0.667 LW
N
45 16 M
47.12 16 L
S
GR
GS
[0.75 0 0 0.75 0 0.5] CT
0.149 GC
2 setlinecap
1 LJ
0.667 LW
N
257 174 M
254.88 174 L
S
GR
GS
[0.75 0 0 0.75 0 0.5] CT
0.149 GC
2 setlinecap
1 LJ
0.667 LW
N
257 121.333 M
254.88 121.333 L
S
GR
GS
[0.75 0 0 0.75 0 0.5] CT
0.149 GC
2 setlinecap
1 LJ
0.667 LW
N
257 68.667 M
254.88 68.667 L
S
GR
GS
[0.75 0 0 0.75 0 0.5] CT
0.149 GC
2 setlinecap
1 LJ
0.667 LW
N
257 16 M
254.88 16 L
S
GR
GS
[0.75 0 0 0.75 29.75 131] CT
0.149 GC
N
/f314435565{-17.637 0.794 M
-17.637 -0.019 L
-14.184 -0.019 L
-14.184 0.794 L
-17.637 0.794 L
cp}def
f314435565
f
GR
GS
[0.75 0 0 0.75 29.75 131] CT
0.149 GC
N
/f84713511{-12.786 1.231 M
-12.786 0.45 -12.271 -0.152 QT
-11.755 -0.753 -10.958 -1.159 QT
-11.443 -1.472 L
-11.88 -1.753 -12.161 -2.238 QT
-12.443 -2.722 -12.443 -3.269 QT
-12.443 -3.878 -12.115 -4.386 QT
-11.786 -4.894 -11.24 -5.175 QT
-10.693 -5.456 -10.083 -5.456 QT
-9.505 -5.456 -8.966 -5.222 QT
-8.427 -4.988 -8.083 -4.55 QT
-7.74 -4.113 -7.74 -3.503 QT
-7.74 -3.066 -7.943 -2.691 QT
-8.146 -2.316 -8.505 -2.019 QT
-8.865 -1.722 -9.271 -1.519 QT
-8.536 -1.034 L
-8.021 -0.706 -7.708 -0.159 QT
-7.396 0.387 -7.396 0.997 QT
-7.396 1.7 -7.771 2.278 QT
-8.146 2.856 -8.771 3.169 QT
-9.396 3.481 -10.083 3.481 QT
-10.755 3.481 -11.38 3.208 QT
-12.005 2.934 -12.396 2.419 QT
-12.786 1.903 -12.786 1.231 QT
cp
-12.083 1.231 M
-12.083 1.747 -11.802 2.169 QT
-11.521 2.591 -11.052 2.833 QT
-10.583 3.075 -10.083 3.075 QT
-9.333 3.075 -8.716 2.63 QT
-8.099 2.184 -8.099 1.466 QT
-8.099 1.216 -8.193 0.973 QT
-8.286 0.731 -8.466 0.528 QT
-8.646 0.325 -8.865 0.2 QT
-10.599 -0.925 L
-11.005 -0.722 -11.349 -0.386 QT
-11.693 -0.05 -11.888 0.356 QT
-12.083 0.762 -12.083 1.231 QT
cp
-11.193 -2.738 M
-9.615 -1.722 L
-9.068 -2.05 -8.716 -2.495 QT
-8.365 -2.941 -8.365 -3.503 QT
-8.365 -3.941 -8.615 -4.308 QT
-8.865 -4.675 -9.255 -4.878 QT
-9.646 -5.081 -10.099 -5.081 QT
-10.49 -5.081 -10.888 -4.933 QT
-11.286 -4.784 -11.544 -4.48 QT
-11.802 -4.175 -11.802 -3.769 QT
-11.802 -3.159 -11.193 -2.738 QT
cp}def
f84713511
f
GR
GS
[0.75 0 0 0.75 29.75 131] CT
0.149 GC
N
/f-2026418800{-3.417 3.481 M
-5.01 3.481 -5.581 2.169 QT
-6.151 0.856 -6.151 -0.941 QT
-6.151 -2.081 -5.948 -3.073 QT
-5.745 -4.066 -5.135 -4.761 QT
-4.526 -5.456 -3.417 -5.456 QT
-2.557 -5.456 -2.01 -5.042 QT
-1.464 -4.628 -1.182 -3.964 QT
-0.901 -3.3 -0.792 -2.542 QT
-0.682 -1.784 -0.682 -0.941 QT
-0.682 0.169 -0.893 1.145 QT
-1.104 2.122 -1.706 2.802 QT
-2.307 3.481 -3.417 3.481 QT
cp
-3.417 3.153 M
-2.698 3.153 -2.339 2.411 QT
-1.979 1.669 -1.901 0.762 QT
-1.823 -0.144 -1.823 -1.159 QT
-1.823 -2.128 -1.901 -2.956 QT
-1.979 -3.784 -2.331 -4.456 QT
-2.682 -5.128 -3.417 -5.128 QT
-4.151 -5.128 -4.51 -4.448 QT
-4.87 -3.769 -4.948 -2.948 QT
-5.026 -2.128 -5.026 -1.159 QT
-5.026 -0.425 -4.995 0.216 QT
-4.964 0.856 -4.807 1.536 QT
-4.651 2.216 -4.315 2.684 QT
-3.979 3.153 -3.417 3.153 QT
cp}def
f-2026418800
f
GR
GS
[0.75 0 0 0.75 29.75 91.5] CT
0.149 GC
N
f314435565
f
GR
GS
[0.75 0 0 0.75 29.75 91.5] CT
0.149 GC
N
/f-858803262{-10.083 3.481 M
-10.896 3.481 -11.435 3.052 QT
-11.974 2.622 -12.263 1.942 QT
-12.552 1.262 -12.669 0.512 QT
-12.786 -0.238 -12.786 -1.003 QT
-12.786 -2.034 -12.388 -3.066 QT
-11.99 -4.097 -11.208 -4.777 QT
-10.427 -5.456 -9.365 -5.456 QT
-8.927 -5.456 -8.536 -5.292 QT
-8.146 -5.128 -7.927 -4.8 QT
-7.708 -4.472 -7.708 -4.003 QT
-7.708 -3.738 -7.896 -3.558 QT
-8.083 -3.378 -8.349 -3.378 QT
-8.599 -3.378 -8.779 -3.558 QT
-8.958 -3.738 -8.958 -4.003 QT
-8.958 -4.253 -8.779 -4.441 QT
-8.599 -4.628 -8.349 -4.628 QT
-8.271 -4.628 L
-8.443 -4.863 -8.74 -4.972 QT
-9.036 -5.081 -9.365 -5.081 QT
-9.755 -5.081 -10.091 -4.909 QT
-10.427 -4.738 -10.693 -4.448 QT
-10.958 -4.159 -11.138 -3.808 QT
-11.318 -3.456 -11.411 -3.003 QT
-11.505 -2.55 -11.536 -2.159 QT
-11.568 -1.769 -11.568 -1.175 QT
-11.333 -1.706 -10.911 -2.042 QT
-10.49 -2.378 -9.974 -2.378 QT
-9.396 -2.378 -8.919 -2.144 QT
-8.443 -1.909 -8.099 -1.495 QT
-7.755 -1.081 -7.576 -0.55 QT
-7.396 -0.019 -7.396 0.528 QT
-7.396 1.294 -7.732 1.981 QT
-8.068 2.669 -8.685 3.075 QT
-9.302 3.481 -10.083 3.481 QT
cp
-10.083 3.075 M
-9.583 3.075 -9.279 2.848 QT
-8.974 2.622 -8.833 2.239 QT
-8.693 1.856 -8.654 1.473 QT
-8.615 1.091 -8.615 0.528 QT
-8.615 -0.206 -8.685 -0.722 QT
-8.755 -1.238 -9.068 -1.636 QT
-9.38 -2.034 -10.021 -2.034 QT
-10.552 -2.034 -10.888 -1.683 QT
-11.224 -1.331 -11.38 -0.784 QT
-11.536 -0.238 -11.536 0.262 QT
-11.536 0.434 -11.521 0.528 QT
-11.521 0.544 -11.529 0.552 QT
-11.536 0.559 -11.536 0.591 QT
-11.536 1.137 -11.419 1.708 QT
-11.302 2.278 -10.982 2.677 QT
-10.661 3.075 -10.083 3.075 QT
cp}def
f-858803262
f
GR
GS
[0.75 0 0 0.75 29.75 91.5] CT
0.149 GC
N
f-2026418800
f
GR
GS
[0.75 0 0 0.75 29.75 52] CT
0.149 GC
N
f314435565
f
GR
GS
[0.75 0 0 0.75 29.75 52] CT
0.149 GC
N
/f-1847366670{-12.974 1.059 M
-12.974 0.591 L
-8.958 -5.394 L
-8.911 -5.456 -8.818 -5.456 QT
-8.63 -5.456 L
-8.49 -5.456 -8.49 -5.316 QT
-8.49 0.591 L
-7.208 0.591 L
-7.208 1.059 L
-8.49 1.059 L
-8.49 2.325 L
-8.49 2.591 -8.107 2.669 QT
-7.724 2.747 -7.224 2.747 QT
-7.224 3.2 L
-10.802 3.2 L
-10.802 2.747 L
-10.302 2.747 -9.919 2.669 QT
-9.536 2.591 -9.536 2.325 QT
-9.536 1.059 L
-12.974 1.059 L
cp
-12.536 0.591 M
-9.458 0.591 L
-9.458 -4.003 L
-12.536 0.591 L
cp}def
f-1847366670
f
GR
GS
[0.75 0 0 0.75 29.75 52] CT
0.149 GC
N
f-2026418800
f
GR
GS
[0.75 0 0 0.75 29.75 12.5] CT
0.149 GC
N
f314435565
f
GR
GS
[0.75 0 0 0.75 29.75 12.5] CT
0.149 GC
N
/f1626408430{-12.693 3.2 M
-12.693 2.856 L
-12.693 2.825 -12.661 2.778 QT
-10.646 0.544 L
-10.177 0.044 -9.896 -0.292 QT
-9.615 -0.628 -9.333 -1.066 QT
-9.052 -1.503 -8.888 -1.956 QT
-8.724 -2.409 -8.724 -2.909 QT
-8.724 -3.441 -8.927 -3.933 QT
-9.13 -4.425 -9.521 -4.714 QT
-9.911 -5.003 -10.458 -5.003 QT
-11.021 -5.003 -11.474 -4.659 QT
-11.927 -4.316 -12.115 -3.784 QT
-12.052 -3.8 -11.974 -3.8 QT
-11.677 -3.8 -11.474 -3.605 QT
-11.271 -3.409 -11.271 -3.097 QT
-11.271 -2.8 -11.474 -2.589 QT
-11.677 -2.378 -11.974 -2.378 QT
-12.271 -2.378 -12.482 -2.589 QT
-12.693 -2.8 -12.693 -3.097 QT
-12.693 -3.581 -12.505 -4.011 QT
-12.318 -4.441 -11.974 -4.769 QT
-11.63 -5.097 -11.193 -5.277 QT
-10.755 -5.456 -10.271 -5.456 QT
-9.521 -5.456 -8.88 -5.144 QT
-8.24 -4.831 -7.865 -4.253 QT
-7.49 -3.675 -7.49 -2.909 QT
-7.49 -2.347 -7.74 -1.839 QT
-7.99 -1.331 -8.372 -0.917 QT
-8.755 -0.503 -9.365 0.028 QT
-9.974 0.559 -10.161 0.731 QT
-11.63 2.153 L
-10.38 2.153 L
-9.458 2.153 -8.841 2.137 QT
-8.224 2.122 -8.193 2.075 QT
-8.036 1.919 -7.88 0.887 QT
-7.49 0.887 L
-7.865 3.2 L
-12.693 3.2 L
cp}def
f1626408430
f
GR
GS
[0.75 0 0 0.75 29.75 12.5] CT
0.149 GC
N
f-2026418800
f
GR
GS
[0 -0.75 0.75 0 13.41664 71.74994] CT
0.149 GC
N
/f1294275169{-42.412 -6.889 M
-41.896 -6.233 -41.13 -5.858 QT
-40.365 -5.483 -39.537 -5.483 QT
-38.833 -5.483 -38.24 -5.757 QT
-37.646 -6.03 -37.208 -6.522 QT
-36.771 -7.014 -36.529 -7.632 QT
-36.287 -8.249 -36.287 -8.936 QT
-36.287 -9.061 -36.162 -9.061 QT
-35.974 -9.061 L
-35.865 -9.061 -35.865 -8.921 QT
-35.865 -8.124 -36.162 -7.397 QT
-36.458 -6.671 -37.005 -6.116 QT
-37.552 -5.561 -38.271 -5.257 QT
-38.99 -4.952 -39.755 -4.952 QT
-40.833 -4.952 -41.802 -5.389 QT
-42.771 -5.827 -43.482 -6.585 QT
-44.193 -7.343 -44.591 -8.335 QT
-44.99 -9.327 -44.99 -10.405 QT
-44.99 -11.483 -44.591 -12.483 QT
-44.193 -13.483 -43.482 -14.241 QT
-42.771 -14.999 -41.802 -15.428 QT
-40.833 -15.858 -39.755 -15.858 QT
-38.99 -15.858 -38.287 -15.522 QT
-37.583 -15.186 -37.052 -14.577 QT
-36.193 -15.811 L
-36.099 -15.858 -36.083 -15.858 QT
-35.974 -15.858 L
-35.927 -15.858 -35.896 -15.819 QT
-35.865 -15.78 -35.865 -15.733 QT
-35.865 -11.686 L
-35.865 -11.546 -35.974 -11.546 QT
-36.24 -11.546 L
-36.38 -11.546 -36.38 -11.686 QT
-36.38 -12.108 -36.552 -12.647 QT
-36.724 -13.186 -36.997 -13.663 QT
-37.271 -14.139 -37.615 -14.514 QT
-38.458 -15.327 -39.552 -15.327 QT
-40.38 -15.327 -41.138 -14.952 QT
-41.896 -14.577 -42.412 -13.921 QT
-42.958 -13.218 -43.169 -12.319 QT
-43.38 -11.421 -43.38 -10.405 QT
-43.38 -9.389 -43.169 -8.491 QT
-42.958 -7.593 -42.412 -6.889 QT
cp}def
f1294275169
f
GR
GS
[0 -0.75 0.75 0 13.41664 71.74994] CT
0.149 GC
N
/f495191731{-34.85 -5.28 M
-34.85 -5.811 L
-34.335 -5.811 -34.006 -5.889 QT
-33.678 -5.968 -33.678 -6.28 QT
-33.678 -10.374 L
-33.678 -10.78 -33.803 -10.96 QT
-33.928 -11.139 -34.155 -11.178 QT
-34.381 -11.218 -34.85 -11.218 QT
-34.85 -11.749 L
-32.71 -11.905 L
-32.71 -10.436 L
-32.46 -11.093 -32.014 -11.499 QT
-31.569 -11.905 -30.928 -11.905 QT
-30.491 -11.905 -30.139 -11.639 QT
-29.788 -11.374 -29.788 -10.952 QT
-29.788 -10.671 -29.983 -10.475 QT
-30.178 -10.28 -30.46 -10.28 QT
-30.741 -10.28 -30.936 -10.475 QT
-31.131 -10.671 -31.131 -10.952 QT
-31.131 -11.358 -30.85 -11.514 QT
-30.928 -11.514 L
-31.538 -11.514 -31.921 -11.077 QT
-32.303 -10.639 -32.467 -9.991 QT
-32.631 -9.343 -32.631 -8.749 QT
-32.631 -6.28 L
-32.631 -5.811 -31.178 -5.811 QT
-31.178 -5.28 L
-34.85 -5.28 L
cp}def
f495191731
f
GR
GS
[0 -0.75 0.75 0 13.41664 71.74994] CT
0.149 GC
N
/f605335236{-25.746 -5.108 M
-26.653 -5.108 -27.418 -5.569 QT
-28.184 -6.03 -28.629 -6.796 QT
-29.074 -7.561 -29.074 -8.468 QT
-29.074 -9.155 -28.832 -9.796 QT
-28.59 -10.436 -28.129 -10.936 QT
-27.668 -11.436 -27.059 -11.718 QT
-26.449 -11.999 -25.746 -11.999 QT
-24.824 -11.999 -24.067 -11.514 QT
-23.309 -11.03 -22.871 -10.21 QT
-22.434 -9.389 -22.434 -8.468 QT
-22.434 -7.577 -22.879 -6.803 QT
-23.324 -6.03 -24.09 -5.569 QT
-24.856 -5.108 -25.746 -5.108 QT
cp
-25.746 -5.546 M
-24.543 -5.546 -24.145 -6.421 QT
-23.746 -7.296 -23.746 -8.639 QT
-23.746 -9.389 -23.824 -9.889 QT
-23.903 -10.389 -24.168 -10.796 QT
-24.34 -11.03 -24.598 -11.218 QT
-24.856 -11.405 -25.145 -11.507 QT
-25.434 -11.608 -25.746 -11.608 QT
-26.215 -11.608 -26.637 -11.397 QT
-27.059 -11.186 -27.34 -10.796 QT
-27.621 -10.358 -27.692 -9.85 QT
-27.762 -9.343 -27.762 -8.639 QT
-27.762 -7.796 -27.621 -7.124 QT
-27.481 -6.452 -27.035 -5.999 QT
-26.59 -5.546 -25.746 -5.546 QT
cp}def
f605335236
f
GR
GS
[0 -0.75 0.75 0 13.41664 71.74994] CT
0.149 GC
N
/f1835653784{-21.663 -5.233 M
-21.663 -7.686 L
-21.663 -7.796 -21.538 -7.796 QT
-21.351 -7.796 L
-21.257 -7.796 -21.226 -7.686 QT
-20.819 -5.514 -19.21 -5.514 QT
-18.507 -5.514 -18.022 -5.835 QT
-17.538 -6.155 -17.538 -6.827 QT
-17.538 -7.311 -17.913 -7.647 QT
-18.288 -7.983 -18.804 -8.108 QT
-19.804 -8.311 L
-20.304 -8.421 -20.718 -8.647 QT
-21.132 -8.874 -21.397 -9.249 QT
-21.663 -9.624 -21.663 -10.124 QT
-21.663 -10.796 -21.319 -11.21 QT
-20.976 -11.624 -20.413 -11.811 QT
-19.851 -11.999 -19.21 -11.999 QT
-18.444 -11.999 -17.866 -11.593 QT
-17.444 -11.968 L
-17.444 -11.999 -17.366 -11.999 QT
-17.257 -11.999 L
-17.21 -11.999 -17.171 -11.96 QT
-17.132 -11.921 -17.132 -11.874 QT
-17.132 -9.921 L
-17.132 -9.78 -17.257 -9.78 QT
-17.444 -9.78 L
-17.569 -9.78 -17.569 -9.921 QT
-17.569 -10.702 -18.007 -11.178 QT
-18.444 -11.655 -19.226 -11.655 QT
-19.897 -11.655 -20.39 -11.405 QT
-20.882 -11.155 -20.882 -10.546 QT
-20.882 -10.124 -20.53 -9.858 QT
-20.179 -9.593 -19.694 -9.483 QT
-18.679 -9.28 L
-18.179 -9.171 -17.733 -8.889 QT
-17.288 -8.608 -17.03 -8.186 QT
-16.772 -7.764 -16.772 -7.233 QT
-16.772 -6.686 -16.952 -6.288 QT
-17.132 -5.889 -17.468 -5.624 QT
-17.804 -5.358 -18.257 -5.233 QT
-18.71 -5.108 -19.21 -5.108 QT
-20.147 -5.108 -20.819 -5.749 QT
-21.366 -5.155 L
-21.366 -5.108 -21.444 -5.108 QT
-21.538 -5.108 L
-21.663 -5.108 -21.663 -5.233 QT
cp}def
f1835653784
f
GR
GS
[0 -0.75 0.75 0 13.41664 71.74994] CT
0.149 GC
N
/f457166001{-15.878 -5.233 M
-15.878 -7.686 L
-15.878 -7.796 -15.753 -7.796 QT
-15.565 -7.796 L
-15.472 -7.796 -15.44 -7.686 QT
-15.034 -5.514 -13.425 -5.514 QT
-12.722 -5.514 -12.237 -5.835 QT
-11.753 -6.155 -11.753 -6.827 QT
-11.753 -7.311 -12.128 -7.647 QT
-12.503 -7.983 -13.018 -8.108 QT
-14.018 -8.311 L
-14.518 -8.421 -14.933 -8.647 QT
-15.347 -8.874 -15.612 -9.249 QT
-15.878 -9.624 -15.878 -10.124 QT
-15.878 -10.796 -15.534 -11.21 QT
-15.19 -11.624 -14.628 -11.811 QT
-14.065 -11.999 -13.425 -11.999 QT
-12.659 -11.999 -12.081 -11.593 QT
-11.659 -11.968 L
-11.659 -11.999 -11.581 -11.999 QT
-11.472 -11.999 L
-11.425 -11.999 -11.386 -11.96 QT
-11.347 -11.921 -11.347 -11.874 QT
-11.347 -9.921 L
-11.347 -9.78 -11.472 -9.78 QT
-11.659 -9.78 L
-11.784 -9.78 -11.784 -9.921 QT
-11.784 -10.702 -12.222 -11.178 QT
-12.659 -11.655 -13.44 -11.655 QT
-14.112 -11.655 -14.604 -11.405 QT
-15.097 -11.155 -15.097 -10.546 QT
-15.097 -10.124 -14.745 -9.858 QT
-14.393 -9.593 -13.909 -9.483 QT
-12.893 -9.28 L
-12.393 -9.171 -11.948 -8.889 QT
-11.503 -8.608 -11.245 -8.186 QT
-10.987 -7.764 -10.987 -7.233 QT
-10.987 -6.686 -11.167 -6.288 QT
-11.347 -5.889 -11.683 -5.624 QT
-12.018 -5.358 -12.472 -5.233 QT
-12.925 -5.108 -13.425 -5.108 QT
-14.362 -5.108 -15.034 -5.749 QT
-15.581 -5.155 L
-15.581 -5.108 -15.659 -5.108 QT
-15.753 -5.108 L
-15.878 -5.108 -15.878 -5.233 QT
cp}def
f457166001
f
GR
GS
[0 -0.75 0.75 0 13.41664 71.74994] CT
0.149 GC
N
/f460085319{-9.061 -7.077 M
-9.061 -11.218 L
-10.311 -11.218 L
-10.311 -11.608 L
-9.327 -11.608 -8.866 -12.522 QT
-8.405 -13.436 -8.405 -14.514 QT
-7.968 -14.514 L
-7.968 -11.749 L
-5.858 -11.749 L
-5.858 -11.218 L
-7.968 -11.218 L
-7.968 -7.108 L
-7.968 -6.483 -7.757 -6.014 QT
-7.546 -5.546 -7.015 -5.546 QT
-6.499 -5.546 -6.272 -6.046 QT
-6.046 -6.546 -6.046 -7.108 QT
-6.046 -7.999 L
-5.608 -7.999 L
-5.608 -7.077 L
-5.608 -6.608 -5.78 -6.155 QT
-5.952 -5.702 -6.288 -5.405 QT
-6.624 -5.108 -7.108 -5.108 QT
-8.015 -5.108 -8.538 -5.647 QT
-9.061 -6.186 -9.061 -7.077 QT
cp}def
f460085319
f
GR
GS
[0 -0.75 0.75 0 13.41664 71.74994] CT
0.149 GC
N
/f-792095243{-4.295 -6.749 M
-4.295 -7.639 -3.592 -8.202 QT
-2.889 -8.764 -1.897 -8.999 QT
-0.905 -9.233 -0.03 -9.233 QT
-0.03 -9.843 L
-0.03 -10.28 -0.217 -10.686 QT
-0.405 -11.093 -0.764 -11.35 QT
-1.123 -11.608 -1.561 -11.608 QT
-2.545 -11.608 -3.076 -11.155 QT
-2.78 -11.155 -2.6 -10.944 QT
-2.42 -10.733 -2.42 -10.436 QT
-2.42 -10.139 -2.631 -9.928 QT
-2.842 -9.718 -3.123 -9.718 QT
-3.436 -9.718 -3.647 -9.928 QT
-3.858 -10.139 -3.858 -10.436 QT
-3.858 -11.233 -3.139 -11.616 QT
-2.42 -11.999 -1.561 -11.999 QT
-0.951 -11.999 -0.334 -11.741 QT
0.283 -11.483 0.674 -10.999 QT
1.064 -10.514 1.064 -9.874 QT
1.064 -6.499 L
1.064 -6.202 1.189 -5.96 QT
1.314 -5.718 1.58 -5.718 QT
1.83 -5.718 1.947 -5.968 QT
2.064 -6.218 2.064 -6.499 QT
2.064 -7.452 L
2.502 -7.452 L
2.502 -6.499 L
2.502 -6.155 2.33 -5.85 QT
2.158 -5.546 1.861 -5.366 QT
1.564 -5.186 1.22 -5.186 QT
0.783 -5.186 0.463 -5.53 QT
0.142 -5.874 0.111 -6.343 QT
-0.17 -5.78 -0.709 -5.444 QT
-1.248 -5.108 -1.873 -5.108 QT
-2.436 -5.108 -2.99 -5.28 QT
-3.545 -5.452 -3.92 -5.811 QT
-4.295 -6.171 -4.295 -6.749 QT
cp
-3.076 -6.749 M
-3.076 -6.218 -2.686 -5.866 QT
-2.295 -5.514 -1.764 -5.514 QT
-1.28 -5.514 -0.889 -5.749 QT
-0.498 -5.983 -0.264 -6.405 QT
-0.03 -6.827 -0.03 -7.28 QT
-0.03 -8.843 L
-0.701 -8.843 -1.42 -8.624 QT
-2.139 -8.405 -2.608 -7.928 QT
-3.076 -7.452 -3.076 -6.749 QT
cp}def
f-792095243
f
GR
GS
[0 -0.75 0.75 0 13.41664 71.74994] CT
0.149 GC
N
/f-1813877954{2.913 -5.28 M
2.913 -5.811 L
3.413 -5.811 3.749 -5.889 QT
4.085 -5.968 4.085 -6.28 QT
4.085 -14.155 L
4.085 -14.561 3.96 -14.741 QT
3.835 -14.921 3.608 -14.96 QT
3.382 -14.999 2.913 -14.999 QT
2.913 -15.53 L
5.132 -15.686 L
5.132 -6.28 L
5.132 -5.968 5.46 -5.889 QT
5.788 -5.811 6.304 -5.811 QT
6.304 -5.28 L
2.913 -5.28 L
cp}def
f-1813877954
f
GR
GS
[0 -0.75 0.75 0 13.41664 71.74994] CT
0.149 GC
N
/f617168901{6.909 -5.28 M
6.909 -5.811 L
7.425 -5.811 7.753 -5.889 QT
8.081 -5.968 8.081 -6.28 QT
8.081 -14.155 L
8.081 -14.561 7.956 -14.741 QT
7.831 -14.921 7.604 -14.96 QT
7.378 -14.999 6.909 -14.999 QT
6.909 -15.53 L
9.128 -15.686 L
9.128 -8.561 L
11.144 -10.327 L
11.44 -10.624 11.44 -10.858 QT
11.44 -11.03 11.315 -11.124 QT
11.19 -11.218 11.019 -11.218 QT
11.019 -11.749 L
13.831 -11.749 L
13.831 -11.218 L
12.815 -11.218 11.8 -10.327 QT
10.737 -9.405 L
12.644 -6.686 L
13.034 -6.124 13.3 -5.968 QT
13.565 -5.811 14.19 -5.811 QT
14.19 -5.28 L
11.206 -5.28 L
11.206 -5.811 L
11.706 -5.811 11.706 -6.124 QT
11.706 -6.343 11.44 -6.686 QT
10.003 -8.749 L
9.081 -7.952 L
9.081 -6.28 L
9.081 -5.968 9.417 -5.889 QT
9.753 -5.811 10.253 -5.811 QT
10.253 -5.28 L
6.909 -5.28 L
cp}def
f617168901
f
GR
GS
[0 -0.75 0.75 0 13.41664 71.74994] CT
0.149 GC
N
/f778355214{20.914 -1.53 M
20.914 -16.53 L
22.976 -16.53 L
22.976 -15.936 L
21.523 -15.936 L
21.523 -2.124 L
22.976 -2.124 L
22.976 -1.53 L
20.914 -1.53 L
cp}def
f778355214
f
GR
GS
[0 -0.75 0.75 0 13.41664 71.74994] CT
0.149 GC
N
/f-917358277{26.879 -5.108 M
26.004 -5.108 25.269 -5.593 QT
24.535 -6.077 24.129 -6.858 QT
23.722 -7.639 23.722 -8.514 QT
23.722 -9.421 24.168 -10.202 QT
24.613 -10.983 25.371 -11.444 QT
26.129 -11.905 27.05 -11.905 QT
27.597 -11.905 28.089 -11.678 QT
28.582 -11.452 28.941 -11.03 QT
28.941 -14.155 L
28.941 -14.561 28.816 -14.741 QT
28.691 -14.921 28.472 -14.96 QT
28.254 -14.999 27.769 -14.999 QT
27.769 -15.53 L
29.988 -15.686 L
29.988 -6.639 L
29.988 -6.249 30.113 -6.069 QT
30.238 -5.889 30.457 -5.85 QT
30.675 -5.811 31.16 -5.811 QT
31.16 -5.28 L
28.894 -5.108 L
28.894 -6.061 L
28.504 -5.608 27.972 -5.358 QT
27.441 -5.108 26.879 -5.108 QT
cp
25.347 -6.577 M
25.613 -6.093 26.043 -5.803 QT
26.472 -5.514 26.972 -5.514 QT
27.597 -5.514 28.113 -5.866 QT
28.629 -6.218 28.894 -6.796 QT
28.894 -10.389 L
28.722 -10.718 28.449 -10.983 QT
28.175 -11.249 27.847 -11.382 QT
27.519 -11.514 27.144 -11.514 QT
26.363 -11.514 25.886 -11.077 QT
25.41 -10.639 25.214 -9.952 QT
25.019 -9.264 25.019 -8.499 QT
25.019 -7.905 25.082 -7.46 QT
25.144 -7.014 25.347 -6.577 QT
cp}def
f-917358277
f
GR
GS
[0 -0.75 0.75 0 13.41664 71.74994] CT
0.149 GC
N
/f-1904015448{31.886 -5.28 M
31.886 -5.811 L
33.433 -5.811 33.433 -6.28 QT
33.433 -14.53 L
33.433 -14.999 31.886 -14.999 QT
31.886 -15.53 L
37.402 -15.53 L
38.167 -15.53 38.941 -15.233 QT
39.714 -14.936 40.222 -14.35 QT
40.73 -13.764 40.73 -12.983 QT
40.73 -12.061 39.98 -11.444 QT
39.23 -10.827 38.23 -10.639 QT
38.87 -10.639 39.566 -10.28 QT
40.261 -9.921 40.699 -9.319 QT
41.136 -8.718 41.136 -8.046 QT
41.136 -7.218 40.652 -6.593 QT
40.167 -5.968 39.386 -5.624 QT
38.605 -5.28 37.824 -5.28 QT
31.886 -5.28 L
cp
34.73 -6.28 M
34.73 -5.968 34.917 -5.889 QT
35.105 -5.811 35.495 -5.811 QT
37.402 -5.811 L
37.98 -5.811 38.488 -6.116 QT
38.995 -6.421 39.284 -6.936 QT
39.574 -7.452 39.574 -8.046 QT
39.574 -8.608 39.331 -9.155 QT
39.089 -9.702 38.636 -10.053 QT
38.183 -10.405 37.605 -10.405 QT
34.73 -10.405 L
34.73 -6.28 L
cp
34.73 -10.796 M
36.98 -10.796 L
37.433 -10.796 37.831 -10.968 QT
38.23 -11.139 38.55 -11.444 QT
38.87 -11.749 39.042 -12.147 QT
39.214 -12.546 39.214 -12.983 QT
39.214 -13.374 39.089 -13.725 QT
38.964 -14.077 38.714 -14.374 QT
38.464 -14.671 38.128 -14.835 QT
37.792 -14.999 37.402 -14.999 QT
35.495 -14.999 L
35.23 -14.999 35.074 -14.975 QT
34.917 -14.952 34.824 -14.85 QT
34.73 -14.749 34.73 -14.53 QT
34.73 -10.796 L
cp}def
f-1904015448
f
GR
GS
[0 -0.75 0.75 0 13.41664 71.74994] CT
0.149 GC
N
/f1098626257{42.087 -1.53 M
42.087 -2.124 L
43.541 -2.124 L
43.541 -15.936 L
42.087 -15.936 L
42.087 -16.53 L
44.15 -16.53 L
44.15 -1.53 L
42.087 -1.53 L
cp}def
f1098626257
f
GR
GS
[0.75 0 0 0.75 33.75 107.64869] CT
0 0.447 0.741 RC
10.0 ML
0.667 LW
N
0 -4 M
0 4 L
-4 0 M
4 0 L
-2.828 -2.828 M
2.828 2.828 L
-2.828 2.828 M
2.828 -2.828 L
S
GR
GS
[0.75 0 0 0.75 41.7 107.23251] CT
0 0.447 0.741 RC
10.0 ML
0.667 LW
N
0 -4 M
0 4 L
-4 0 M
4 0 L
-2.828 -2.828 M
2.828 2.828 L
-2.828 2.828 M
2.828 -2.828 L
S
GR
GS
[0.75 0 0 0.75 49.65 108.03601] CT
0 0.447 0.741 RC
10.0 ML
0.667 LW
N
0 -4 M
0 4 L
-4 0 M
4 0 L
-2.828 -2.828 M
2.828 2.828 L
-2.828 2.828 M
2.828 -2.828 L
S
GR
GS
[0.75 0 0 0.75 57.6 109.07139] CT
0 0.447 0.741 RC
10.0 ML
0.667 LW
N
0 -4 M
0 4 L
-4 0 M
4 0 L
-2.828 -2.828 M
2.828 2.828 L
-2.828 2.828 M
2.828 -2.828 L
S
GR
GS
[0.75 0 0 0.75 65.55 108.59334] CT
0 0.447 0.741 RC
10.0 ML
0.667 LW
N
0 -4 M
0 4 L
-4 0 M
4 0 L
-2.828 -2.828 M
2.828 2.828 L
-2.828 2.828 M
2.828 -2.828 L
S
GR
GS
[0.75 0 0 0.75 73.5 110.88161] CT
0 0.447 0.741 RC
10.0 ML
0.667 LW
N
0 -4 M
0 4 L
-4 0 M
4 0 L
-2.828 -2.828 M
2.828 2.828 L
-2.828 2.828 M
2.828 -2.828 L
S
GR
GS
[0.75 0 0 0.75 81.45 110.11824] CT
0 0.447 0.741 RC
10.0 ML
0.667 LW
N
0 -4 M
0 4 L
-4 0 M
4 0 L
-2.828 -2.828 M
2.828 2.828 L
-2.828 2.828 M
2.828 -2.828 L
S
GR
GS
[0.75 0 0 0.75 89.4 107.01983] CT
0 0.447 0.741 RC
10.0 ML
0.667 LW
N
0 -4 M
0 4 L
-4 0 M
4 0 L
-2.828 -2.828 M
2.828 2.828 L
-2.828 2.828 M
2.828 -2.828 L
S
GR
GS
[0.75 0 0 0.75 97.35 104.94756] CT
0 0.447 0.741 RC
10.0 ML
0.667 LW
N
0 -4 M
0 4 L
-4 0 M
4 0 L
-2.828 -2.828 M
2.828 2.828 L
-2.828 2.828 M
2.828 -2.828 L
S
GR
GS
[0.75 0 0 0.75 105.3 100.58382] CT
0 0.447 0.741 RC
10.0 ML
0.667 LW
N
0 -4 M
0 4 L
-4 0 M
4 0 L
-2.828 -2.828 M
2.828 2.828 L
-2.828 2.828 M
2.828 -2.828 L
S
GR
GS
[0.75 0 0 0.75 113.25 93.87204] CT
0 0.447 0.741 RC
10.0 ML
0.667 LW
N
0 -4 M
0 4 L
-4 0 M
4 0 L
-2.828 -2.828 M
2.828 2.828 L
-2.828 2.828 M
2.828 -2.828 L
S
GR
GS
[0.75 0 0 0.75 121.2 89.36954] CT
0 0.447 0.741 RC
10.0 ML
0.667 LW
N
0 -4 M
0 4 L
-4 0 M
4 0 L
-2.828 -2.828 M
2.828 2.828 L
-2.828 2.828 M
2.828 -2.828 L
S
GR
GS
[0.75 0 0 0.75 129.15001 86.83746] CT
0 0.447 0.741 RC
10.0 ML
0.667 LW
N
0 -4 M
0 4 L
-4 0 M
4 0 L
-2.828 -2.828 M
2.828 2.828 L
-2.828 2.828 M
2.828 -2.828 L
S
GR
GS
[0.75 0 0 0.75 137.09999 85.74514] CT
0 0.447 0.741 RC
10.0 ML
0.667 LW
N
0 -4 M
0 4 L
-4 0 M
4 0 L
-2.828 -2.828 M
2.828 2.828 L
-2.828 2.828 M
2.828 -2.828 L
S
GR
GS
[0.75 0 0 0.75 145.05 82.37895] CT
0 0.447 0.741 RC
10.0 ML
0.667 LW
N
0 -4 M
0 4 L
-4 0 M
4 0 L
-2.828 -2.828 M
2.828 2.828 L
-2.828 2.828 M
2.828 -2.828 L
S
GR
GS
[0.75 0 0 0.75 153 78.94434] CT
0 0.447 0.741 RC
10.0 ML
0.667 LW
N
0 -4 M
0 4 L
-4 0 M
4 0 L
-2.828 -2.828 M
2.828 2.828 L
-2.828 2.828 M
2.828 -2.828 L
S
GR
GS
[0.75 0 0 0.75 160.95 78.12221] CT
0 0.447 0.741 RC
10.0 ML
0.667 LW
N
0 -4 M
0 4 L
-4 0 M
4 0 L
-2.828 -2.828 M
2.828 2.828 L
-2.828 2.828 M
2.828 -2.828 L
S
GR
GS
[0.75 0 0 0.75 168.90001 77.69035] CT
0 0.447 0.741 RC
10.0 ML
0.667 LW
N
0 -4 M
0 4 L
-4 0 M
4 0 L
-2.828 -2.828 M
2.828 2.828 L
-2.828 2.828 M
2.828 -2.828 L
S
GR
GS
[0.75 0 0 0.75 176.84999 75.91878] CT
0 0.447 0.741 RC
10.0 ML
0.667 LW
N
0 -4 M
0 4 L
-4 0 M
4 0 L
-2.828 -2.828 M
2.828 2.828 L
-2.828 2.828 M
2.828 -2.828 L
S
GR
GS
[0.75 0 0 0.75 184.8 76.40715] CT
0 0.447 0.741 RC
10.0 ML
0.667 LW
N
0 -4 M
0 4 L
-4 0 M
4 0 L
-2.828 -2.828 M
2.828 2.828 L
-2.828 2.828 M
2.828 -2.828 L
S
GR
GS
[0.75 0 0 0.75 192.75 74.79777] CT
0 0.447 0.741 RC
10.0 ML
0.667 LW
N
0 -4 M
0 4 L
-4 0 M
4 0 L
-2.828 -2.828 M
2.828 2.828 L
-2.828 2.828 M
2.828 -2.828 L
S
GR
GS
[0.75 0 0 0.75 33.75 108.25503] CT
0.851 0.325 0.098 RC
10.0 ML
0.667 LW
N
0 -4 M
0 4 L
-4 0 M
4 0 L
-2.828 -2.828 M
2.828 2.828 L
-2.828 2.828 M
2.828 -2.828 L
S
GR
GS
[0.75 0 0 0.75 41.7 109.8166] CT
0.851 0.325 0.098 RC
10.0 ML
0.667 LW
N
0 -4 M
0 4 L
-4 0 M
4 0 L
-2.828 -2.828 M
2.828 2.828 L
-2.828 2.828 M
2.828 -2.828 L
S
GR
GS
[0.75 0 0 0.75 49.65 109.82922] CT
0.851 0.325 0.098 RC
10.0 ML
0.667 LW
N
0 -4 M
0 4 L
-4 0 M
4 0 L
-2.828 -2.828 M
2.828 2.828 L
-2.828 2.828 M
2.828 -2.828 L
S
GR
GS
[0.75 0 0 0.75 57.6 109.69582] CT
0.851 0.325 0.098 RC
10.0 ML
0.667 LW
N
0 -4 M
0 4 L
-4 0 M
4 0 L
-2.828 -2.828 M
2.828 2.828 L
-2.828 2.828 M
2.828 -2.828 L
S
GR
GS
[0.75 0 0 0.75 65.55 108.15564] CT
0.851 0.325 0.098 RC
10.0 ML
0.667 LW
N
0 -4 M
0 4 L
-4 0 M
4 0 L
-2.828 -2.828 M
2.828 2.828 L
-2.828 2.828 M
2.828 -2.828 L
S
GR
GS
[0.75 0 0 0.75 73.5 107.37469] CT
0.851 0.325 0.098 RC
10.0 ML
0.667 LW
N
0 -4 M
0 4 L
-4 0 M
4 0 L
-2.828 -2.828 M
2.828 2.828 L
-2.828 2.828 M
2.828 -2.828 L
S
GR
GS
[0.75 0 0 0.75 81.45 108.4187] CT
0.851 0.325 0.098 RC
10.0 ML
0.667 LW
N
0 -4 M
0 4 L
-4 0 M
4 0 L
-2.828 -2.828 M
2.828 2.828 L
-2.828 2.828 M
2.828 -2.828 L
S
GR
GS
[0.75 0 0 0.75 89.4 109.53003] CT
0.851 0.325 0.098 RC
10.0 ML
0.667 LW
N
0 -4 M
0 4 L
-4 0 M
4 0 L
-2.828 -2.828 M
2.828 2.828 L
-2.828 2.828 M
2.828 -2.828 L
S
GR
GS
[0.75 0 0 0.75 97.35 109.61804] CT
0.851 0.325 0.098 RC
10.0 ML
0.667 LW
N
0 -4 M
0 4 L
-4 0 M
4 0 L
-2.828 -2.828 M
2.828 2.828 L
-2.828 2.828 M
2.828 -2.828 L
S
GR
GS
[0.75 0 0 0.75 105.3 105.32675] CT
0.851 0.325 0.098 RC
10.0 ML
0.667 LW
N
0 -4 M
0 4 L
-4 0 M
4 0 L
-2.828 -2.828 M
2.828 2.828 L
-2.828 2.828 M
2.828 -2.828 L
S
GR
GS
[0.75 0 0 0.75 113.25 107.46644] CT
0.851 0.325 0.098 RC
10.0 ML
0.667 LW
N
0 -4 M
0 4 L
-4 0 M
4 0 L
-2.828 -2.828 M
2.828 2.828 L
-2.828 2.828 M
2.828 -2.828 L
S
GR
GS
[0.75 0 0 0.75 121.2 112.91671] CT
0.851 0.325 0.098 RC
10.0 ML
0.667 LW
N
0 -4 M
0 4 L
-4 0 M
4 0 L
-2.828 -2.828 M
2.828 2.828 L
-2.828 2.828 M
2.828 -2.828 L
S
GR
GS
[0.75 0 0 0.75 129.15001 112.22104] CT
0.851 0.325 0.098 RC
10.0 ML
0.667 LW
N
0 -4 M
0 4 L
-4 0 M
4 0 L
-2.828 -2.828 M
2.828 2.828 L
-2.828 2.828 M
2.828 -2.828 L
S
GR
GS
[0.75 0 0 0.75 137.09999 108.54017] CT
0.851 0.325 0.098 RC
10.0 ML
0.667 LW
N
0 -4 M
0 4 L
-4 0 M
4 0 L
-2.828 -2.828 M
2.828 2.828 L
-2.828 2.828 M
2.828 -2.828 L
S
GR
GS
[0.75 0 0 0.75 145.05 105.01982] CT
0.851 0.325 0.098 RC
10.0 ML
0.667 LW
N
0 -4 M
0 4 L
-4 0 M
4 0 L
-2.828 -2.828 M
2.828 2.828 L
-2.828 2.828 M
2.828 -2.828 L
S
GR
GS
[0.75 0 0 0.75 153 110.61097] CT
0.851 0.325 0.098 RC
10.0 ML
0.667 LW
N
0 -4 M
0 4 L
-4 0 M
4 0 L
-2.828 -2.828 M
2.828 2.828 L
-2.828 2.828 M
2.828 -2.828 L
S
GR
GS
[0.75 0 0 0.75 160.95 106.52318] CT
0.851 0.325 0.098 RC
10.0 ML
0.667 LW
N
0 -4 M
0 4 L
-4 0 M
4 0 L
-2.828 -2.828 M
2.828 2.828 L
-2.828 2.828 M
2.828 -2.828 L
S
GR
GS
[0.75 0 0 0.75 168.90001 104.39625] CT
0.851 0.325 0.098 RC
10.0 ML
0.667 LW
N
0 -4 M
0 4 L
-4 0 M
4 0 L
-2.828 -2.828 M
2.828 2.828 L
-2.828 2.828 M
2.828 -2.828 L
S
GR
GS
[0.75 0 0 0.75 176.84999 98.95911] CT
0.851 0.325 0.098 RC
10.0 ML
0.667 LW
N
0 -4 M
0 4 L
-4 0 M
4 0 L
-2.828 -2.828 M
2.828 2.828 L
-2.828 2.828 M
2.828 -2.828 L
S
GR
GS
[0.75 0 0 0.75 184.8 95.8375] CT
0.851 0.325 0.098 RC
10.0 ML
0.667 LW
N
0 -4 M
0 4 L
-4 0 M
4 0 L
-2.828 -2.828 M
2.828 2.828 L
-2.828 2.828 M
2.828 -2.828 L
S
GR
GS
[0.75 0 0 0.75 192.75 96.66668] CT
0.851 0.325 0.098 RC
10.0 ML
0.667 LW
N
0 -4 M
0 4 L
-4 0 M
4 0 L
-2.828 -2.828 M
2.828 2.828 L
-2.828 2.828 M
2.828 -2.828 L
S
GR
GS
[0.75 0 0 0.75 33.75 76.20231] CT
0.929 0.694 0.125 RC
10.0 ML
0.667 LW
N
0 -4 M
0 4 L
-4 0 M
4 0 L
-2.828 -2.828 M
2.828 2.828 L
-2.828 2.828 M
2.828 -2.828 L
S
GR
GS
[0.75 0 0 0.75 41.7 75.24105] CT
0.929 0.694 0.125 RC
10.0 ML
0.667 LW
N
0 -4 M
0 4 L
-4 0 M
4 0 L
-2.828 -2.828 M
2.828 2.828 L
-2.828 2.828 M
2.828 -2.828 L
S
GR
GS
[0.75 0 0 0.75 49.65 72.975] CT
0.929 0.694 0.125 RC
10.0 ML
0.667 LW
N
0 -4 M
0 4 L
-4 0 M
4 0 L
-2.828 -2.828 M
2.828 2.828 L
-2.828 2.828 M
2.828 -2.828 L
S
GR
GS
[0.75 0 0 0.75 57.6 72.09507] CT
0.929 0.694 0.125 RC
10.0 ML
0.667 LW
N
0 -4 M
0 4 L
-4 0 M
4 0 L
-2.828 -2.828 M
2.828 2.828 L
-2.828 2.828 M
2.828 -2.828 L
S
GR
GS
[0.75 0 0 0.75 65.55 73.37023] CT
0.929 0.694 0.125 RC
10.0 ML
0.667 LW
N
0 -4 M
0 4 L
-4 0 M
4 0 L
-2.828 -2.828 M
2.828 2.828 L
-2.828 2.828 M
2.828 -2.828 L
S
GR
GS
[0.75 0 0 0.75 73.5 70.25364] CT
0.929 0.694 0.125 RC
10.0 ML
0.667 LW
N
0 -4 M
0 4 L
-4 0 M
4 0 L
-2.828 -2.828 M
2.828 2.828 L
-2.828 2.828 M
2.828 -2.828 L
S
GR
GS
[0.75 0 0 0.75 81.45 73.48883] CT
0.929 0.694 0.125 RC
10.0 ML
0.667 LW
N
0 -4 M
0 4 L
-4 0 M
4 0 L
-2.828 -2.828 M
2.828 2.828 L
-2.828 2.828 M
2.828 -2.828 L
S
GR
GS
[0.75 0 0 0.75 89.4 60.56627] CT
0.929 0.694 0.125 RC
10.0 ML
0.667 LW
N
0 -4 M
0 4 L
-4 0 M
4 0 L
-2.828 -2.828 M
2.828 2.828 L
-2.828 2.828 M
2.828 -2.828 L
S
GR
GS
[0.75 0 0 0.75 97.35 55.46535] CT
0.929 0.694 0.125 RC
10.0 ML
0.667 LW
N
0 -4 M
0 4 L
-4 0 M
4 0 L
-2.828 -2.828 M
2.828 2.828 L
-2.828 2.828 M
2.828 -2.828 L
S
GR
GS
[0.75 0 0 0.75 105.3 52.76046] CT
0.929 0.694 0.125 RC
10.0 ML
0.667 LW
N
0 -4 M
0 4 L
-4 0 M
4 0 L
-2.828 -2.828 M
2.828 2.828 L
-2.828 2.828 M
2.828 -2.828 L
S
GR
GS
[0.75 0 0 0.75 113.25 50.22263] CT
0.929 0.694 0.125 RC
10.0 ML
0.667 LW
N
0 -4 M
0 4 L
-4 0 M
4 0 L
-2.828 -2.828 M
2.828 2.828 L
-2.828 2.828 M
2.828 -2.828 L
S
GR
GS
[0.75 0 0 0.75 121.2 50.05019] CT
0.929 0.694 0.125 RC
10.0 ML
0.667 LW
N
0 -4 M
0 4 L
-4 0 M
4 0 L
-2.828 -2.828 M
2.828 2.828 L
-2.828 2.828 M
2.828 -2.828 L
S
GR
GS
[0.75 0 0 0.75 129.15001 44.89402] CT
0.929 0.694 0.125 RC
10.0 ML
0.667 LW
N
0 -4 M
0 4 L
-4 0 M
4 0 L
-2.828 -2.828 M
2.828 2.828 L
-2.828 2.828 M
2.828 -2.828 L
S
GR
GS
[0.75 0 0 0.75 137.09999 42.72509] CT
0.929 0.694 0.125 RC
10.0 ML
0.667 LW
N
0 -4 M
0 4 L
-4 0 M
4 0 L
-2.828 -2.828 M
2.828 2.828 L
-2.828 2.828 M
2.828 -2.828 L
S
GR
GS
[0.75 0 0 0.75 145.05 29.88027] CT
0.929 0.694 0.125 RC
10.0 ML
0.667 LW
N
0 -4 M
0 4 L
-4 0 M
4 0 L
-2.828 -2.828 M
2.828 2.828 L
-2.828 2.828 M
2.828 -2.828 L
S
GR
GS
[0.75 0 0 0.75 153 25.39124] CT
0.929 0.694 0.125 RC
10.0 ML
0.667 LW
N
0 -4 M
0 4 L
-4 0 M
4 0 L
-2.828 -2.828 M
2.828 2.828 L
-2.828 2.828 M
2.828 -2.828 L
S
GR
GS
[0.75 0 0 0.75 160.95 23.60478] CT
0.929 0.694 0.125 RC
10.0 ML
0.667 LW
N
0 -4 M
0 4 L
-4 0 M
4 0 L
-2.828 -2.828 M
2.828 2.828 L
-2.828 2.828 M
2.828 -2.828 L
S
GR
GS
[0.75 0 0 0.75 168.90001 22.96891] CT
0.929 0.694 0.125 RC
10.0 ML
0.667 LW
N
0 -4 M
0 4 L
-4 0 M
4 0 L
-2.828 -2.828 M
2.828 2.828 L
-2.828 2.828 M
2.828 -2.828 L
S
GR
GS
[0.75 0 0 0.75 176.84999 22.6162] CT
0.929 0.694 0.125 RC
10.0 ML
0.667 LW
N
0 -4 M
0 4 L
-4 0 M
4 0 L
-2.828 -2.828 M
2.828 2.828 L
-2.828 2.828 M
2.828 -2.828 L
S
GR
GS
[0.75 0 0 0.75 184.8 22.81367] CT
0.929 0.694 0.125 RC
10.0 ML
0.667 LW
N
0 -4 M
0 4 L
-4 0 M
4 0 L
-2.828 -2.828 M
2.828 2.828 L
-2.828 2.828 M
2.828 -2.828 L
S
GR
GS
[0.75 0 0 0.75 192.75 22.34328] CT
0.929 0.694 0.125 RC
10.0 ML
0.667 LW
N
0 -4 M
0 4 L
-4 0 M
4 0 L
-2.828 -2.828 M
2.828 2.828 L
-2.828 2.828 M
2.828 -2.828 L
S
GR
GS
[0.75 0 0 0.75 33.75 66.44641] CT
0.494 0.184 0.557 RC
10.0 ML
0.667 LW
N
0 -4 M
0 4 L
-4 0 M
4 0 L
-2.828 -2.828 M
2.828 2.828 L
-2.828 2.828 M
2.828 -2.828 L
S
GR
GS
[0.75 0 0 0.75 41.7 61.61781] CT
0.494 0.184 0.557 RC
10.0 ML
0.667 LW
N
0 -4 M
0 4 L
-4 0 M
4 0 L
-2.828 -2.828 M
2.828 2.828 L
-2.828 2.828 M
2.828 -2.828 L
S
GR
GS
[0.75 0 0 0.75 49.65 55.86026] CT
0.494 0.184 0.557 RC
10.0 ML
0.667 LW
N
0 -4 M
0 4 L
-4 0 M
4 0 L
-2.828 -2.828 M
2.828 2.828 L
-2.828 2.828 M
2.828 -2.828 L
S
GR
GS
[0.75 0 0 0.75 57.6 49.85279] CT
0.494 0.184 0.557 RC
10.0 ML
0.667 LW
N
0 -4 M
0 4 L
-4 0 M
4 0 L
-2.828 -2.828 M
2.828 2.828 L
-2.828 2.828 M
2.828 -2.828 L
S
GR
GS
[0.75 0 0 0.75 65.55 45.22108] CT
0.494 0.184 0.557 RC
10.0 ML
0.667 LW
N
0 -4 M
0 4 L
-4 0 M
4 0 L
-2.828 -2.828 M
2.828 2.828 L
-2.828 2.828 M
2.828 -2.828 L
S
GR
GS
[0.75 0 0 0.75 73.5 42.00673] CT
0.494 0.184 0.557 RC
10.0 ML
0.667 LW
N
0 -4 M
0 4 L
-4 0 M
4 0 L
-2.828 -2.828 M
2.828 2.828 L
-2.828 2.828 M
2.828 -2.828 L
S
GR
GS
[0.75 0 0 0.75 81.45 40.2087] CT
0.494 0.184 0.557 RC
10.0 ML
0.667 LW
N
0 -4 M
0 4 L
-4 0 M
4 0 L
-2.828 -2.828 M
2.828 2.828 L
-2.828 2.828 M
2.828 -2.828 L
S
GR
GS
[0.75 0 0 0.75 89.4 39.19271] CT
0.494 0.184 0.557 RC
10.0 ML
0.667 LW
N
0 -4 M
0 4 L
-4 0 M
4 0 L
-2.828 -2.828 M
2.828 2.828 L
-2.828 2.828 M
2.828 -2.828 L
S
GR
GS
[0.75 0 0 0.75 97.35 38.82368] CT
0.494 0.184 0.557 RC
10.0 ML
0.667 LW
N
0 -4 M
0 4 L
-4 0 M
4 0 L
-2.828 -2.828 M
2.828 2.828 L
-2.828 2.828 M
2.828 -2.828 L
S
GR
GS
[0.75 0 0 0.75 105.3 38.57286] CT
0.494 0.184 0.557 RC
10.0 ML
0.667 LW
N
0 -4 M
0 4 L
-4 0 M
4 0 L
-2.828 -2.828 M
2.828 2.828 L
-2.828 2.828 M
2.828 -2.828 L
S
GR
GS
[0.75 0 0 0.75 113.25 38.19995] CT
0.494 0.184 0.557 RC
10.0 ML
0.667 LW
N
0 -4 M
0 4 L
-4 0 M
4 0 L
-2.828 -2.828 M
2.828 2.828 L
-2.828 2.828 M
2.828 -2.828 L
S
GR
GS
[0.75 0 0 0.75 121.2 37.55404] CT
0.494 0.184 0.557 RC
10.0 ML
0.667 LW
N
0 -4 M
0 4 L
-4 0 M
4 0 L
-2.828 -2.828 M
2.828 2.828 L
-2.828 2.828 M
2.828 -2.828 L
S
GR
GS
[0.75 0 0 0.75 129.15001 36.1115] CT
0.494 0.184 0.557 RC
10.0 ML
0.667 LW
N
0 -4 M
0 4 L
-4 0 M
4 0 L
-2.828 -2.828 M
2.828 2.828 L
-2.828 2.828 M
2.828 -2.828 L
S
GR
GS
[0.75 0 0 0.75 137.09999 35.61197] CT
0.494 0.184 0.557 RC
10.0 ML
0.667 LW
N
0 -4 M
0 4 L
-4 0 M
4 0 L
-2.828 -2.828 M
2.828 2.828 L
-2.828 2.828 M
2.828 -2.828 L
S
GR
GS
[0.75 0 0 0.75 145.05 29.42578] CT
0.494 0.184 0.557 RC
10.0 ML
0.667 LW
N
0 -4 M
0 4 L
-4 0 M
4 0 L
-2.828 -2.828 M
2.828 2.828 L
-2.828 2.828 M
2.828 -2.828 L
S
GR
GS
[0.75 0 0 0.75 153 25.63944] CT
0.494 0.184 0.557 RC
10.0 ML
0.667 LW
N
0 -4 M
0 4 L
-4 0 M
4 0 L
-2.828 -2.828 M
2.828 2.828 L
-2.828 2.828 M
2.828 -2.828 L
S
GR
GS
[0.75 0 0 0.75 160.95 23.83954] CT
0.494 0.184 0.557 RC
10.0 ML
0.667 LW
N
0 -4 M
0 4 L
-4 0 M
4 0 L
-2.828 -2.828 M
2.828 2.828 L
-2.828 2.828 M
2.828 -2.828 L
S
GR
GS
[0.75 0 0 0.75 168.90001 23.10531] CT
0.494 0.184 0.557 RC
10.0 ML
0.667 LW
N
0 -4 M
0 4 L
-4 0 M
4 0 L
-2.828 -2.828 M
2.828 2.828 L
-2.828 2.828 M
2.828 -2.828 L
S
GR
GS
[0.75 0 0 0.75 176.84999 22.97897] CT
0.494 0.184 0.557 RC
10.0 ML
0.667 LW
N
0 -4 M
0 4 L
-4 0 M
4 0 L
-2.828 -2.828 M
2.828 2.828 L
-2.828 2.828 M
2.828 -2.828 L
S
GR
GS
[0.75 0 0 0.75 184.8 22.92657] CT
0.494 0.184 0.557 RC
10.0 ML
0.667 LW
N
0 -4 M
0 4 L
-4 0 M
4 0 L
-2.828 -2.828 M
2.828 2.828 L
-2.828 2.828 M
2.828 -2.828 L
S
GR
GS
[0.75 0 0 0.75 192.75 23.40096] CT
0.494 0.184 0.557 RC
10.0 ML
0.667 LW
N
0 -4 M
0 4 L
-4 0 M
4 0 L
-2.828 -2.828 M
2.828 2.828 L
-2.828 2.828 M
2.828 -2.828 L
S
GR
%%Trailer
%%Pages: 1
%%EOF
