%!PS-Adobe-3.0 EPSF-3.0
%%Creator: (MATLAB, The Mathworks, Inc. Version 9.1.0.441655 \(R2016b\). Operating System: Windows 7)
%%Title: ../Dokument/Abbildungen/Nebensprechen_Sensor.eps
%%CreationDate: 2017-08-24T15:59:23
%%Pages: (atend)
%%BoundingBox:    17     0   404   152
%%LanguageLevel: 3
%%EndComments
%%BeginProlog
%%BeginResource: procset (Apache XML Graphics Std ProcSet) 1.2 0
%%Version: 1.2 0
%%Copyright: (Copyright 2001-2003,2010 The Apache Software Foundation. License terms: http://www.apache.org/licenses/LICENSE-2.0)
/bd{bind def}bind def
/ld{load def}bd
/GR/grestore ld
/M/moveto ld
/LJ/setlinejoin ld
/C/curveto ld
/f/fill ld
/LW/setlinewidth ld
/GC/setgray ld
/t/show ld
/N/newpath ld
/CT/concat ld
/cp/closepath ld
/S/stroke ld
/L/lineto ld
/CC/setcmykcolor ld
/A/ashow ld
/GS/gsave ld
/RC/setrgbcolor ld
/RM/rmoveto ld
/ML/setmiterlimit ld
/re {4 2 roll M
1 index 0 rlineto
0 exch rlineto
neg 0 rlineto
cp } bd
/_ctm matrix def
/_tm matrix def
/BT { _ctm currentmatrix pop matrix _tm copy pop 0 0 moveto } bd
/ET { _ctm setmatrix } bd
/iTm { _ctm setmatrix _tm concat } bd
/Tm { _tm astore pop iTm 0 0 moveto } bd
/ux 0.0 def
/uy 0.0 def
/F {
  /Tp exch def
  /Tf exch def
  Tf findfont Tp scalefont setfont
  /cf Tf def  /cs Tp def
} bd
/ULS {currentpoint /uy exch def /ux exch def} bd
/ULE {
  /Tcx currentpoint pop def
  gsave
  newpath
  cf findfont cs scalefont dup
  /FontMatrix get 0 get /Ts exch def /FontInfo get dup
  /UnderlinePosition get Ts mul /To exch def
  /UnderlineThickness get Ts mul /Tt exch def
  ux uy To add moveto  Tcx uy To add lineto
  Tt setlinewidth stroke
  grestore
} bd
/OLE {
  /Tcx currentpoint pop def
  gsave
  newpath
  cf findfont cs scalefont dup
  /FontMatrix get 0 get /Ts exch def /FontInfo get dup
  /UnderlinePosition get Ts mul /To exch def
  /UnderlineThickness get Ts mul /Tt exch def
  ux uy To add cs add moveto Tcx uy To add cs add lineto
  Tt setlinewidth stroke
  grestore
} bd
/SOE {
  /Tcx currentpoint pop def
  gsave
  newpath
  cf findfont cs scalefont dup
  /FontMatrix get 0 get /Ts exch def /FontInfo get dup
  /UnderlinePosition get Ts mul /To exch def
  /UnderlineThickness get Ts mul /Tt exch def
  ux uy To add cs 10 mul 26 idiv add moveto Tcx uy To add cs 10 mul 26 idiv add lineto
  Tt setlinewidth stroke
  grestore
} bd
/QT {
/Y22 exch store
/X22 exch store
/Y21 exch store
/X21 exch store
currentpoint
/Y21 load 2 mul add 3 div exch
/X21 load 2 mul add 3 div exch
/X21 load 2 mul /X22 load add 3 div
/Y21 load 2 mul /Y22 load add 3 div
/X22 load /Y22 load curveto
} bd
/SSPD {
dup length /d exch dict def
{
/v exch def
/k exch def
currentpagedevice k known {
/cpdv currentpagedevice k get def
v cpdv ne {
/upd false def
/nullv v type /nulltype eq def
/nullcpdv cpdv type /nulltype eq def
nullv nullcpdv or
{
/upd true def
} {
/sametype v type cpdv type eq def
sametype {
v type /arraytype eq {
/vlen v length def
/cpdvlen cpdv length def
vlen cpdvlen eq {
0 1 vlen 1 sub {
/i exch def
/obj v i get def
/cpdobj cpdv i get def
obj cpdobj ne {
/upd true def
exit
} if
} for
} {
/upd true def
} ifelse
} {
v type /dicttype eq {
v {
/dv exch def
/dk exch def
/cpddv cpdv dk get def
dv cpddv ne {
/upd true def
exit
} if
} forall
} {
/upd true def
} ifelse
} ifelse
} if
} ifelse
upd true eq {
d k v put
} if
} if
} if
} forall
d length 0 gt {
d setpagedevice
} if
} bd
/RE { % /NewFontName [NewEncodingArray] /FontName RE -
  findfont dup length dict begin
  {
    1 index /FID ne
    {def} {pop pop} ifelse
  } forall
  /Encoding exch def
  /FontName 1 index def
  currentdict definefont pop
  end
} bind def
%%EndResource
%%BeginResource: procset (Apache XML Graphics EPS ProcSet) 1.0 0
%%Version: 1.0 0
%%Copyright: (Copyright 2002-2003 The Apache Software Foundation. License terms: http://www.apache.org/licenses/LICENSE-2.0)
/BeginEPSF { %def
/b4_Inc_state save def         % Save state for cleanup
/dict_count countdictstack def % Count objects on dict stack
/op_count count 1 sub def      % Count objects on operand stack
userdict begin                 % Push userdict on dict stack
/showpage { } def              % Redefine showpage, { } = null proc
0 setgray 0 setlinecap         % Prepare graphics state
1 setlinewidth 0 setlinejoin
10 setmiterlimit [ ] 0 setdash newpath
/languagelevel where           % If level not equal to 1 then
{pop languagelevel             % set strokeadjust and
1 ne                           % overprint to their defaults.
{false setstrokeadjust false setoverprint
} if
} if
} bd
/EndEPSF { %def
count op_count sub {pop} repeat            % Clean up stacks
countdictstack dict_count sub {end} repeat
b4_Inc_state restore
} bd
%%EndResource
%FOPBeginFontDict
%%IncludeResource: font Courier-Bold
%%IncludeResource: font Helvetica
%%IncludeResource: font Courier-BoldOblique
%%IncludeResource: font Courier-Oblique
%%IncludeResource: font Times-Roman
%%IncludeResource: font Helvetica-BoldOblique
%%IncludeResource: font Helvetica-Bold
%%IncludeResource: font Helvetica-Oblique
%%IncludeResource: font Times-BoldItalic
%%IncludeResource: font Courier
%%IncludeResource: font Times-Italic
%%IncludeResource: font Times-Bold
%%IncludeResource: font Symbol
%%IncludeResource: font ZapfDingbats
%FOPEndFontDict
%%BeginResource: encoding WinAnsiEncoding
/WinAnsiEncoding [
/.notdef /.notdef /.notdef /.notdef /.notdef
/.notdef /.notdef /.notdef /.notdef /.notdef
/.notdef /.notdef /.notdef /.notdef /.notdef
/.notdef /.notdef /.notdef /.notdef /.notdef
/.notdef /.notdef /.notdef /.notdef /.notdef
/.notdef /.notdef /.notdef /.notdef /.notdef
/.notdef /.notdef /space /exclam /quotedbl
/numbersign /dollar /percent /ampersand /quotesingle
/parenleft /parenright /asterisk /plus /comma
/hyphen /period /slash /zero /one
/two /three /four /five /six
/seven /eight /nine /colon /semicolon
/less /equal /greater /question /at
/A /B /C /D /E
/F /G /H /I /J
/K /L /M /N /O
/P /Q /R /S /T
/U /V /W /X /Y
/Z /bracketleft /backslash /bracketright /asciicircum
/underscore /quoteleft /a /b /c
/d /e /f /g /h
/i /j /k /l /m
/n /o /p /q /r
/s /t /u /v /w
/x /y /z /braceleft /bar
/braceright /asciitilde /bullet /Euro /bullet
/quotesinglbase /florin /quotedblbase /ellipsis /dagger
/daggerdbl /circumflex /perthousand /Scaron /guilsinglleft
/OE /bullet /Zcaron /bullet /bullet
/quoteleft /quoteright /quotedblleft /quotedblright /bullet
/endash /emdash /asciitilde /trademark /scaron
/guilsinglright /oe /bullet /zcaron /Ydieresis
/space /exclamdown /cent /sterling /currency
/yen /brokenbar /section /dieresis /copyright
/ordfeminine /guillemotleft /logicalnot /sfthyphen /registered
/macron /degree /plusminus /twosuperior /threesuperior
/acute /mu /paragraph /middot /cedilla
/onesuperior /ordmasculine /guillemotright /onequarter /onehalf
/threequarters /questiondown /Agrave /Aacute /Acircumflex
/Atilde /Adieresis /Aring /AE /Ccedilla
/Egrave /Eacute /Ecircumflex /Edieresis /Igrave
/Iacute /Icircumflex /Idieresis /Eth /Ntilde
/Ograve /Oacute /Ocircumflex /Otilde /Odieresis
/multiply /Oslash /Ugrave /Uacute /Ucircumflex
/Udieresis /Yacute /Thorn /germandbls /agrave
/aacute /acircumflex /atilde /adieresis /aring
/ae /ccedilla /egrave /eacute /ecircumflex
/edieresis /igrave /iacute /icircumflex /idieresis
/eth /ntilde /ograve /oacute /ocircumflex
/otilde /odieresis /divide /oslash /ugrave
/uacute /ucircumflex /udieresis /yacute /thorn
/ydieresis
] def
%%EndResource
%FOPBeginFontReencode
/Courier-Bold findfont
dup length dict begin
  {1 index /FID ne {def} {pop pop} ifelse} forall
  /Encoding WinAnsiEncoding def
  currentdict
end
/Courier-Bold exch definefont pop
/Helvetica findfont
dup length dict begin
  {1 index /FID ne {def} {pop pop} ifelse} forall
  /Encoding WinAnsiEncoding def
  currentdict
end
/Helvetica exch definefont pop
/Courier-BoldOblique findfont
dup length dict begin
  {1 index /FID ne {def} {pop pop} ifelse} forall
  /Encoding WinAnsiEncoding def
  currentdict
end
/Courier-BoldOblique exch definefont pop
/Courier-Oblique findfont
dup length dict begin
  {1 index /FID ne {def} {pop pop} ifelse} forall
  /Encoding WinAnsiEncoding def
  currentdict
end
/Courier-Oblique exch definefont pop
/Times-Roman findfont
dup length dict begin
  {1 index /FID ne {def} {pop pop} ifelse} forall
  /Encoding WinAnsiEncoding def
  currentdict
end
/Times-Roman exch definefont pop
/Helvetica-BoldOblique findfont
dup length dict begin
  {1 index /FID ne {def} {pop pop} ifelse} forall
  /Encoding WinAnsiEncoding def
  currentdict
end
/Helvetica-BoldOblique exch definefont pop
/Helvetica-Bold findfont
dup length dict begin
  {1 index /FID ne {def} {pop pop} ifelse} forall
  /Encoding WinAnsiEncoding def
  currentdict
end
/Helvetica-Bold exch definefont pop
/Helvetica-Oblique findfont
dup length dict begin
  {1 index /FID ne {def} {pop pop} ifelse} forall
  /Encoding WinAnsiEncoding def
  currentdict
end
/Helvetica-Oblique exch definefont pop
/Times-BoldItalic findfont
dup length dict begin
  {1 index /FID ne {def} {pop pop} ifelse} forall
  /Encoding WinAnsiEncoding def
  currentdict
end
/Times-BoldItalic exch definefont pop
/Courier findfont
dup length dict begin
  {1 index /FID ne {def} {pop pop} ifelse} forall
  /Encoding WinAnsiEncoding def
  currentdict
end
/Courier exch definefont pop
/Times-Italic findfont
dup length dict begin
  {1 index /FID ne {def} {pop pop} ifelse} forall
  /Encoding WinAnsiEncoding def
  currentdict
end
/Times-Italic exch definefont pop
/Times-Bold findfont
dup length dict begin
  {1 index /FID ne {def} {pop pop} ifelse} forall
  /Encoding WinAnsiEncoding def
  currentdict
end
/Times-Bold exch definefont pop
%FOPEndFontReencode
%%EndProlog
%%Page: 1 1
%%PageBoundingBox: 0 0 438 161
%%BeginPageSetup
[1 0 0 -1 0 161] CT
%%EndPageSetup
GS
[0.75 0 0 0.75 0 0.5] CT
1 GC
N
0 0 584 214 re
f
GR
GS
[0.75 0 0 0.75 0 0.5] CT
1 GC
N
0 0 584 214 re
f
GR
GS
[0.75 0 0 0.75 0 0.5] CT
1 GC
N
76 169 M
529 169 L
529 16 L
76 16 L
cp
f
GR
GS
[0.75 0 0 0.75 0 0.5] CT
0.775 GC
[1 3] 0 setdash
2 LJ
0.667 LW
N
110.092 169 M
110.092 16 L
S
GR
GS
[0.75 0 0 0.75 0 0.5] CT
0.775 GC
[1 3] 0 setdash
2 LJ
0.667 LW
N
130.034 169 M
130.034 16 L
S
GR
GS
[0.75 0 0 0.75 0 0.5] CT
0.775 GC
[1 3] 0 setdash
2 LJ
0.667 LW
N
144.183 169 M
144.183 16 L
S
GR
GS
[0.75 0 0 0.75 0 0.5] CT
0.775 GC
[1 3] 0 setdash
2 LJ
0.667 LW
N
155.158 169 M
155.158 16 L
S
GR
GS
[0.75 0 0 0.75 0 0.5] CT
0.775 GC
[1 3] 0 setdash
2 LJ
0.667 LW
N
164.126 169 M
164.126 16 L
S
GR
GS
[0.75 0 0 0.75 0 0.5] CT
0.775 GC
[1 3] 0 setdash
2 LJ
0.667 LW
N
171.707 169 M
171.707 16 L
S
GR
GS
[0.75 0 0 0.75 0 0.5] CT
0.775 GC
[1 3] 0 setdash
2 LJ
0.667 LW
N
178.275 169 M
178.275 16 L
S
GR
GS
[0.75 0 0 0.75 0 0.5] CT
0.775 GC
[1 3] 0 setdash
2 LJ
0.667 LW
N
184.068 169 M
184.068 16 L
S
GR
GS
[0.75 0 0 0.75 0 0.5] CT
0.775 GC
[1 3] 0 setdash
2 LJ
0.667 LW
N
223.342 169 M
223.342 16 L
S
GR
GS
[0.75 0 0 0.75 0 0.5] CT
0.775 GC
[1 3] 0 setdash
2 LJ
0.667 LW
N
243.284 169 M
243.284 16 L
S
GR
GS
[0.75 0 0 0.75 0 0.5] CT
0.775 GC
[1 3] 0 setdash
2 LJ
0.667 LW
N
257.433 169 M
257.433 16 L
S
GR
GS
[0.75 0 0 0.75 0 0.5] CT
0.775 GC
[1 3] 0 setdash
2 LJ
0.667 LW
N
268.408 169 M
268.408 16 L
S
GR
GS
[0.75 0 0 0.75 0 0.5] CT
0.775 GC
[1 3] 0 setdash
2 LJ
0.667 LW
N
277.376 169 M
277.376 16 L
S
GR
GS
[0.75 0 0 0.75 0 0.5] CT
0.775 GC
[1 3] 0 setdash
2 LJ
0.667 LW
N
284.957 169 M
284.957 16 L
S
GR
GS
[0.75 0 0 0.75 0 0.5] CT
0.775 GC
[1 3] 0 setdash
2 LJ
0.667 LW
N
291.525 169 M
291.525 16 L
S
GR
GS
[0.75 0 0 0.75 0 0.5] CT
0.775 GC
[1 3] 0 setdash
2 LJ
0.667 LW
N
297.318 169 M
297.318 16 L
S
GR
GS
[0.75 0 0 0.75 0 0.5] CT
0.775 GC
[1 3] 0 setdash
2 LJ
0.667 LW
N
336.592 169 M
336.592 16 L
S
GR
GS
[0.75 0 0 0.75 0 0.5] CT
0.775 GC
[1 3] 0 setdash
2 LJ
0.667 LW
N
356.534 169 M
356.534 16 L
S
GR
GS
[0.75 0 0 0.75 0 0.5] CT
0.775 GC
[1 3] 0 setdash
2 LJ
0.667 LW
N
370.683 169 M
370.683 16 L
S
GR
GS
[0.75 0 0 0.75 0 0.5] CT
0.775 GC
[1 3] 0 setdash
2 LJ
0.667 LW
N
381.658 169 M
381.658 16 L
S
GR
GS
[0.75 0 0 0.75 0 0.5] CT
0.775 GC
[1 3] 0 setdash
2 LJ
0.667 LW
N
390.626 169 M
390.626 16 L
S
GR
GS
[0.75 0 0 0.75 0 0.5] CT
0.775 GC
[1 3] 0 setdash
2 LJ
0.667 LW
N
398.207 169 M
398.207 16 L
S
GR
GS
[0.75 0 0 0.75 0 0.5] CT
0.775 GC
[1 3] 0 setdash
2 LJ
0.667 LW
N
404.775 169 M
404.775 16 L
S
GR
GS
[0.75 0 0 0.75 0 0.5] CT
0.775 GC
[1 3] 0 setdash
2 LJ
0.667 LW
N
410.568 169 M
410.568 16 L
S
GR
GS
[0.75 0 0 0.75 0 0.5] CT
0.775 GC
[1 3] 0 setdash
2 LJ
0.667 LW
N
449.842 169 M
449.842 16 L
S
GR
GS
[0.75 0 0 0.75 0 0.5] CT
0.775 GC
[1 3] 0 setdash
2 LJ
0.667 LW
N
469.784 169 M
469.784 16 L
S
GR
GS
[0.75 0 0 0.75 0 0.5] CT
0.775 GC
[1 3] 0 setdash
2 LJ
0.667 LW
N
483.933 169 M
483.933 16 L
S
GR
GS
[0.75 0 0 0.75 0 0.5] CT
0.775 GC
[1 3] 0 setdash
2 LJ
0.667 LW
N
494.908 169 M
494.908 16 L
S
GR
GS
[0.75 0 0 0.75 0 0.5] CT
0.775 GC
[1 3] 0 setdash
2 LJ
0.667 LW
N
503.876 169 M
503.876 16 L
S
GR
GS
[0.75 0 0 0.75 0 0.5] CT
0.775 GC
[1 3] 0 setdash
2 LJ
0.667 LW
N
511.457 169 M
511.457 16 L
S
GR
GS
[0.75 0 0 0.75 0 0.5] CT
0.775 GC
[1 3] 0 setdash
2 LJ
0.667 LW
N
518.025 169 M
518.025 16 L
S
GR
GS
[0.75 0 0 0.75 0 0.5] CT
0.775 GC
[1 3] 0 setdash
2 LJ
0.667 LW
N
523.818 169 M
523.818 16 L
S
GR
GS
[0.75 0 0 0.75 0 0.5] CT
0.873 GC
1 LJ
0.667 LW
N
76 169 M
76 16 L
S
GR
GS
[0.75 0 0 0.75 0 0.5] CT
0.873 GC
1 LJ
0.667 LW
N
189.25 169 M
189.25 16 L
S
GR
GS
[0.75 0 0 0.75 0 0.5] CT
0.873 GC
1 LJ
0.667 LW
N
302.5 169 M
302.5 16 L
S
GR
GS
[0.75 0 0 0.75 0 0.5] CT
0.873 GC
1 LJ
0.667 LW
N
415.75 169 M
415.75 16 L
S
GR
GS
[0.75 0 0 0.75 0 0.5] CT
0.873 GC
1 LJ
0.667 LW
N
529 169 M
529 16 L
S
GR
GS
[0.75 0 0 0.75 0 0.5] CT
0.873 GC
1 LJ
0.667 LW
N
529 169 M
76 169 L
S
GR
GS
[0.75 0 0 0.75 0 0.5] CT
0.873 GC
1 LJ
0.667 LW
N
529 130.75 M
76 130.75 L
S
GR
GS
[0.75 0 0 0.75 0 0.5] CT
0.873 GC
1 LJ
0.667 LW
N
529 92.5 M
76 92.5 L
S
GR
GS
[0.75 0 0 0.75 0 0.5] CT
0.873 GC
1 LJ
0.667 LW
N
529 54.25 M
76 54.25 L
S
GR
GS
[0.75 0 0 0.75 0 0.5] CT
0.873 GC
1 LJ
0.667 LW
N
529 16 M
76 16 L
S
GR
GS
[0.75 0 0 0.75 0 0.5] CT
0.149 GC
2 setlinecap
1 LJ
0.667 LW
N
76 169 M
529 169 L
S
GR
GS
[0.75 0 0 0.75 0 0.5] CT
0.149 GC
2 setlinecap
1 LJ
0.667 LW
N
76 16 M
529 16 L
S
GR
GS
[0.75 0 0 0.75 0 0.5] CT
0.149 GC
2 setlinecap
1 LJ
0.667 LW
N
76 169 M
76 164.47 L
S
GR
GS
[0.75 0 0 0.75 0 0.5] CT
0.149 GC
2 setlinecap
1 LJ
0.667 LW
N
189.25 169 M
189.25 164.47 L
S
GR
GS
[0.75 0 0 0.75 0 0.5] CT
0.149 GC
2 setlinecap
1 LJ
0.667 LW
N
302.5 169 M
302.5 164.47 L
S
GR
GS
[0.75 0 0 0.75 0 0.5] CT
0.149 GC
2 setlinecap
1 LJ
0.667 LW
N
415.75 169 M
415.75 164.47 L
S
GR
GS
[0.75 0 0 0.75 0 0.5] CT
0.149 GC
2 setlinecap
1 LJ
0.667 LW
N
529 169 M
529 164.47 L
S
GR
GS
[0.75 0 0 0.75 0 0.5] CT
0.149 GC
2 setlinecap
1 LJ
0.667 LW
N
76 16 M
76 20.53 L
S
GR
GS
[0.75 0 0 0.75 0 0.5] CT
0.149 GC
2 setlinecap
1 LJ
0.667 LW
N
189.25 16 M
189.25 20.53 L
S
GR
GS
[0.75 0 0 0.75 0 0.5] CT
0.149 GC
2 setlinecap
1 LJ
0.667 LW
N
302.5 16 M
302.5 20.53 L
S
GR
GS
[0.75 0 0 0.75 0 0.5] CT
0.149 GC
2 setlinecap
1 LJ
0.667 LW
N
415.75 16 M
415.75 20.53 L
S
GR
GS
[0.75 0 0 0.75 0 0.5] CT
0.149 GC
2 setlinecap
1 LJ
0.667 LW
N
529 16 M
529 20.53 L
S
GR
GS
[0.75 0 0 0.75 0 0.5] CT
0.149 GC
2 setlinecap
1 LJ
0.667 LW
N
76 169 M
76 166.735 L
S
GR
GS
[0.75 0 0 0.75 0 0.5] CT
0.149 GC
2 setlinecap
1 LJ
0.667 LW
N
110.092 169 M
110.092 166.735 L
S
GR
GS
[0.75 0 0 0.75 0 0.5] CT
0.149 GC
2 setlinecap
1 LJ
0.667 LW
N
130.034 169 M
130.034 166.735 L
S
GR
GS
[0.75 0 0 0.75 0 0.5] CT
0.149 GC
2 setlinecap
1 LJ
0.667 LW
N
144.183 169 M
144.183 166.735 L
S
GR
GS
[0.75 0 0 0.75 0 0.5] CT
0.149 GC
2 setlinecap
1 LJ
0.667 LW
N
155.158 169 M
155.158 166.735 L
S
GR
GS
[0.75 0 0 0.75 0 0.5] CT
0.149 GC
2 setlinecap
1 LJ
0.667 LW
N
164.126 169 M
164.126 166.735 L
S
GR
GS
[0.75 0 0 0.75 0 0.5] CT
0.149 GC
2 setlinecap
1 LJ
0.667 LW
N
171.707 169 M
171.707 166.735 L
S
GR
GS
[0.75 0 0 0.75 0 0.5] CT
0.149 GC
2 setlinecap
1 LJ
0.667 LW
N
178.275 169 M
178.275 166.735 L
S
GR
GS
[0.75 0 0 0.75 0 0.5] CT
0.149 GC
2 setlinecap
1 LJ
0.667 LW
N
184.068 169 M
184.068 166.735 L
S
GR
GS
[0.75 0 0 0.75 0 0.5] CT
0.149 GC
2 setlinecap
1 LJ
0.667 LW
N
189.25 169 M
189.25 166.735 L
S
GR
GS
[0.75 0 0 0.75 0 0.5] CT
0.149 GC
2 setlinecap
1 LJ
0.667 LW
N
223.342 169 M
223.342 166.735 L
S
GR
GS
[0.75 0 0 0.75 0 0.5] CT
0.149 GC
2 setlinecap
1 LJ
0.667 LW
N
243.284 169 M
243.284 166.735 L
S
GR
GS
[0.75 0 0 0.75 0 0.5] CT
0.149 GC
2 setlinecap
1 LJ
0.667 LW
N
257.433 169 M
257.433 166.735 L
S
GR
GS
[0.75 0 0 0.75 0 0.5] CT
0.149 GC
2 setlinecap
1 LJ
0.667 LW
N
268.408 169 M
268.408 166.735 L
S
GR
GS
[0.75 0 0 0.75 0 0.5] CT
0.149 GC
2 setlinecap
1 LJ
0.667 LW
N
277.376 169 M
277.376 166.735 L
S
GR
GS
[0.75 0 0 0.75 0 0.5] CT
0.149 GC
2 setlinecap
1 LJ
0.667 LW
N
284.957 169 M
284.957 166.735 L
S
GR
GS
[0.75 0 0 0.75 0 0.5] CT
0.149 GC
2 setlinecap
1 LJ
0.667 LW
N
291.525 169 M
291.525 166.735 L
S
GR
GS
[0.75 0 0 0.75 0 0.5] CT
0.149 GC
2 setlinecap
1 LJ
0.667 LW
N
297.318 169 M
297.318 166.735 L
S
GR
GS
[0.75 0 0 0.75 0 0.5] CT
0.149 GC
2 setlinecap
1 LJ
0.667 LW
N
302.5 169 M
302.5 166.735 L
S
GR
GS
[0.75 0 0 0.75 0 0.5] CT
0.149 GC
2 setlinecap
1 LJ
0.667 LW
N
336.592 169 M
336.592 166.735 L
S
GR
GS
[0.75 0 0 0.75 0 0.5] CT
0.149 GC
2 setlinecap
1 LJ
0.667 LW
N
356.534 169 M
356.534 166.735 L
S
GR
GS
[0.75 0 0 0.75 0 0.5] CT
0.149 GC
2 setlinecap
1 LJ
0.667 LW
N
370.683 169 M
370.683 166.735 L
S
GR
GS
[0.75 0 0 0.75 0 0.5] CT
0.149 GC
2 setlinecap
1 LJ
0.667 LW
N
381.658 169 M
381.658 166.735 L
S
GR
GS
[0.75 0 0 0.75 0 0.5] CT
0.149 GC
2 setlinecap
1 LJ
0.667 LW
N
390.626 169 M
390.626 166.735 L
S
GR
GS
[0.75 0 0 0.75 0 0.5] CT
0.149 GC
2 setlinecap
1 LJ
0.667 LW
N
398.207 169 M
398.207 166.735 L
S
GR
GS
[0.75 0 0 0.75 0 0.5] CT
0.149 GC
2 setlinecap
1 LJ
0.667 LW
N
404.775 169 M
404.775 166.735 L
S
GR
GS
[0.75 0 0 0.75 0 0.5] CT
0.149 GC
2 setlinecap
1 LJ
0.667 LW
N
410.568 169 M
410.568 166.735 L
S
GR
GS
[0.75 0 0 0.75 0 0.5] CT
0.149 GC
2 setlinecap
1 LJ
0.667 LW
N
415.75 169 M
415.75 166.735 L
S
GR
GS
[0.75 0 0 0.75 0 0.5] CT
0.149 GC
2 setlinecap
1 LJ
0.667 LW
N
449.842 169 M
449.842 166.735 L
S
GR
GS
[0.75 0 0 0.75 0 0.5] CT
0.149 GC
2 setlinecap
1 LJ
0.667 LW
N
469.784 169 M
469.784 166.735 L
S
GR
GS
[0.75 0 0 0.75 0 0.5] CT
0.149 GC
2 setlinecap
1 LJ
0.667 LW
N
483.933 169 M
483.933 166.735 L
S
GR
GS
[0.75 0 0 0.75 0 0.5] CT
0.149 GC
2 setlinecap
1 LJ
0.667 LW
N
494.908 169 M
494.908 166.735 L
S
GR
GS
[0.75 0 0 0.75 0 0.5] CT
0.149 GC
2 setlinecap
1 LJ
0.667 LW
N
503.876 169 M
503.876 166.735 L
S
GR
GS
[0.75 0 0 0.75 0 0.5] CT
0.149 GC
2 setlinecap
1 LJ
0.667 LW
N
511.457 169 M
511.457 166.735 L
S
GR
GS
[0.75 0 0 0.75 0 0.5] CT
0.149 GC
2 setlinecap
1 LJ
0.667 LW
N
518.025 169 M
518.025 166.735 L
S
GR
GS
[0.75 0 0 0.75 0 0.5] CT
0.149 GC
2 setlinecap
1 LJ
0.667 LW
N
523.818 169 M
523.818 166.735 L
S
GR
GS
[0.75 0 0 0.75 0 0.5] CT
0.149 GC
2 setlinecap
1 LJ
0.667 LW
N
529 169 M
529 166.735 L
S
GR
GS
[0.75 0 0 0.75 0 0.5] CT
0.149 GC
2 setlinecap
1 LJ
0.667 LW
N
76 16 M
76 18.265 L
S
GR
GS
[0.75 0 0 0.75 0 0.5] CT
0.149 GC
2 setlinecap
1 LJ
0.667 LW
N
110.092 16 M
110.092 18.265 L
S
GR
GS
[0.75 0 0 0.75 0 0.5] CT
0.149 GC
2 setlinecap
1 LJ
0.667 LW
N
130.034 16 M
130.034 18.265 L
S
GR
GS
[0.75 0 0 0.75 0 0.5] CT
0.149 GC
2 setlinecap
1 LJ
0.667 LW
N
144.183 16 M
144.183 18.265 L
S
GR
GS
[0.75 0 0 0.75 0 0.5] CT
0.149 GC
2 setlinecap
1 LJ
0.667 LW
N
155.158 16 M
155.158 18.265 L
S
GR
GS
[0.75 0 0 0.75 0 0.5] CT
0.149 GC
2 setlinecap
1 LJ
0.667 LW
N
164.126 16 M
164.126 18.265 L
S
GR
GS
[0.75 0 0 0.75 0 0.5] CT
0.149 GC
2 setlinecap
1 LJ
0.667 LW
N
171.707 16 M
171.707 18.265 L
S
GR
GS
[0.75 0 0 0.75 0 0.5] CT
0.149 GC
2 setlinecap
1 LJ
0.667 LW
N
178.275 16 M
178.275 18.265 L
S
GR
GS
[0.75 0 0 0.75 0 0.5] CT
0.149 GC
2 setlinecap
1 LJ
0.667 LW
N
184.068 16 M
184.068 18.265 L
S
GR
GS
[0.75 0 0 0.75 0 0.5] CT
0.149 GC
2 setlinecap
1 LJ
0.667 LW
N
189.25 16 M
189.25 18.265 L
S
GR
GS
[0.75 0 0 0.75 0 0.5] CT
0.149 GC
2 setlinecap
1 LJ
0.667 LW
N
223.342 16 M
223.342 18.265 L
S
GR
GS
[0.75 0 0 0.75 0 0.5] CT
0.149 GC
2 setlinecap
1 LJ
0.667 LW
N
243.284 16 M
243.284 18.265 L
S
GR
GS
[0.75 0 0 0.75 0 0.5] CT
0.149 GC
2 setlinecap
1 LJ
0.667 LW
N
257.433 16 M
257.433 18.265 L
S
GR
GS
[0.75 0 0 0.75 0 0.5] CT
0.149 GC
2 setlinecap
1 LJ
0.667 LW
N
268.408 16 M
268.408 18.265 L
S
GR
GS
[0.75 0 0 0.75 0 0.5] CT
0.149 GC
2 setlinecap
1 LJ
0.667 LW
N
277.376 16 M
277.376 18.265 L
S
GR
GS
[0.75 0 0 0.75 0 0.5] CT
0.149 GC
2 setlinecap
1 LJ
0.667 LW
N
284.957 16 M
284.957 18.265 L
S
GR
GS
[0.75 0 0 0.75 0 0.5] CT
0.149 GC
2 setlinecap
1 LJ
0.667 LW
N
291.525 16 M
291.525 18.265 L
S
GR
GS
[0.75 0 0 0.75 0 0.5] CT
0.149 GC
2 setlinecap
1 LJ
0.667 LW
N
297.318 16 M
297.318 18.265 L
S
GR
GS
[0.75 0 0 0.75 0 0.5] CT
0.149 GC
2 setlinecap
1 LJ
0.667 LW
N
302.5 16 M
302.5 18.265 L
S
GR
GS
[0.75 0 0 0.75 0 0.5] CT
0.149 GC
2 setlinecap
1 LJ
0.667 LW
N
336.592 16 M
336.592 18.265 L
S
GR
GS
[0.75 0 0 0.75 0 0.5] CT
0.149 GC
2 setlinecap
1 LJ
0.667 LW
N
356.534 16 M
356.534 18.265 L
S
GR
GS
[0.75 0 0 0.75 0 0.5] CT
0.149 GC
2 setlinecap
1 LJ
0.667 LW
N
370.683 16 M
370.683 18.265 L
S
GR
GS
[0.75 0 0 0.75 0 0.5] CT
0.149 GC
2 setlinecap
1 LJ
0.667 LW
N
381.658 16 M
381.658 18.265 L
S
GR
GS
[0.75 0 0 0.75 0 0.5] CT
0.149 GC
2 setlinecap
1 LJ
0.667 LW
N
390.626 16 M
390.626 18.265 L
S
GR
GS
[0.75 0 0 0.75 0 0.5] CT
0.149 GC
2 setlinecap
1 LJ
0.667 LW
N
398.207 16 M
398.207 18.265 L
S
GR
GS
[0.75 0 0 0.75 0 0.5] CT
0.149 GC
2 setlinecap
1 LJ
0.667 LW
N
404.775 16 M
404.775 18.265 L
S
GR
GS
[0.75 0 0 0.75 0 0.5] CT
0.149 GC
2 setlinecap
1 LJ
0.667 LW
N
410.568 16 M
410.568 18.265 L
S
GR
GS
[0.75 0 0 0.75 0 0.5] CT
0.149 GC
2 setlinecap
1 LJ
0.667 LW
N
415.75 16 M
415.75 18.265 L
S
GR
GS
[0.75 0 0 0.75 0 0.5] CT
0.149 GC
2 setlinecap
1 LJ
0.667 LW
N
449.842 16 M
449.842 18.265 L
S
GR
GS
[0.75 0 0 0.75 0 0.5] CT
0.149 GC
2 setlinecap
1 LJ
0.667 LW
N
469.784 16 M
469.784 18.265 L
S
GR
GS
[0.75 0 0 0.75 0 0.5] CT
0.149 GC
2 setlinecap
1 LJ
0.667 LW
N
483.933 16 M
483.933 18.265 L
S
GR
GS
[0.75 0 0 0.75 0 0.5] CT
0.149 GC
2 setlinecap
1 LJ
0.667 LW
N
494.908 16 M
494.908 18.265 L
S
GR
GS
[0.75 0 0 0.75 0 0.5] CT
0.149 GC
2 setlinecap
1 LJ
0.667 LW
N
503.876 16 M
503.876 18.265 L
S
GR
GS
[0.75 0 0 0.75 0 0.5] CT
0.149 GC
2 setlinecap
1 LJ
0.667 LW
N
511.457 16 M
511.457 18.265 L
S
GR
GS
[0.75 0 0 0.75 0 0.5] CT
0.149 GC
2 setlinecap
1 LJ
0.667 LW
N
518.025 16 M
518.025 18.265 L
S
GR
GS
[0.75 0 0 0.75 0 0.5] CT
0.149 GC
2 setlinecap
1 LJ
0.667 LW
N
523.818 16 M
523.818 18.265 L
S
GR
GS
[0.75 0 0 0.75 0 0.5] CT
0.149 GC
2 setlinecap
1 LJ
0.667 LW
N
529 16 M
529 18.265 L
S
GR
GS
[0.75 0 0 0.75 48.75 144.5] CT
0.149 GC
/Helvetica 13.333 F
GS
[1 0 0 1 0 0] CT
0 0 moveto 
1 -1 scale
(10) t 
GR
GR
GS
[0.75 0 0 0.75 60 140] CT
0.149 GC
/Helvetica 10.667 F
GS
[1 0 0 1 0 0] CT
0 0 moveto 
1 -1 scale
(2) t 
GR
GR
GS
[0.75 0 0 0.75 133.5 144.5] CT
0.149 GC
/Helvetica 13.333 F
GS
[1 0 0 1 0 0] CT
0 0 moveto 
1 -1 scale
(10) t 
GR
GR
GS
[0.75 0 0 0.75 144.75 140] CT
0.149 GC
/Helvetica 10.667 F
GS
[1 0 0 1 0 0] CT
0 0 moveto 
1 -1 scale
(3) t 
GR
GR
GS
[0.75 0 0 0.75 219 144.5] CT
0.149 GC
/Helvetica 13.333 F
GS
[1 0 0 1 0 0] CT
0 0 moveto 
1 -1 scale
(10) t 
GR
GR
GS
[0.75 0 0 0.75 230.25 140] CT
0.149 GC
/Helvetica 10.667 F
GS
[1 0 0 1 0 0] CT
0 0 moveto 
1 -1 scale
(4) t 
GR
GR
GS
[0.75 0 0 0.75 303.75 144.5] CT
0.149 GC
/Helvetica 13.333 F
GS
[1 0 0 1 0 0] CT
0 0 moveto 
1 -1 scale
(10) t 
GR
GR
GS
[0.75 0 0 0.75 315 140] CT
0.149 GC
/Helvetica 10.667 F
GS
[1 0 0 1 0 0] CT
0 0 moveto 
1 -1 scale
(5) t 
GR
GR
GS
[0.75 0 0 0.75 388.5 144.5] CT
0.149 GC
/Helvetica 13.333 F
GS
[1 0 0 1 0 0] CT
0 0 moveto 
1 -1 scale
(10) t 
GR
GR
GS
[0.75 0 0 0.75 399.75 140] CT
0.149 GC
/Helvetica 10.667 F
GS
[1 0 0 1 0 0] CT
0 0 moveto 
1 -1 scale
(6) t 
GR
GR
GS
[0.75 0 0 0.75 226.87516 148] CT
0.149 GC
N
-20.905 12.32 M
-20.905 11.789 L
-20.405 11.789 -20.076 11.711 QT
-19.748 11.632 -19.748 11.32 QT
-19.748 6.382 L
-20.889 6.382 L
-20.889 5.851 L
-19.748 5.851 L
-19.748 4.054 L
-19.748 3.57 -19.545 3.148 QT
-19.342 2.726 -18.998 2.414 QT
-18.655 2.101 -18.209 1.922 QT
-17.764 1.742 -17.295 1.742 QT
-16.795 1.742 -16.389 2.047 QT
-15.983 2.351 -15.983 2.836 QT
-15.983 3.132 -16.17 3.328 QT
-16.358 3.523 -16.655 3.523 QT
-16.936 3.523 -17.139 3.328 QT
-17.342 3.132 -17.342 2.836 QT
-17.342 2.367 -16.936 2.211 QT
-17.17 2.132 -17.373 2.132 QT
-17.811 2.132 -18.123 2.445 QT
-18.436 2.757 -18.584 3.203 QT
-18.733 3.648 -18.733 4.086 QT
-18.733 5.851 L
-17.014 5.851 L
-17.014 6.382 L
-18.686 6.382 L
-18.686 11.32 L
-18.686 11.617 -18.248 11.703 QT
-17.811 11.789 -17.233 11.789 QT
-17.233 12.32 L
-20.905 12.32 L
cp
f
GR
GS
[0.75 0 0 0.75 226.87516 148] CT
0.149 GC
N
-10.253 16.07 M
-10.253 1.07 L
-8.19 1.07 L
-8.19 1.664 L
-9.644 1.664 L
-9.644 15.476 L
-8.19 15.476 L
-8.19 16.07 L
-10.253 16.07 L
cp
f
GR
GS
[0.75 0 0 0.75 226.87516 148] CT
0.149 GC
N
-7.554 12.32 M
-7.554 11.789 L
-7.038 11.789 -6.71 11.711 QT
-6.382 11.632 -6.382 11.32 QT
-6.382 3.445 L
-6.382 3.039 -6.507 2.859 QT
-6.632 2.679 -6.859 2.64 QT
-7.085 2.601 -7.554 2.601 QT
-7.554 2.07 L
-5.335 1.914 L
-5.335 9.039 L
-3.319 7.273 L
-3.023 6.976 -3.023 6.742 QT
-3.023 6.57 -3.148 6.476 QT
-3.273 6.382 -3.444 6.382 QT
-3.444 5.851 L
-0.632 5.851 L
-0.632 6.382 L
-1.648 6.382 -2.663 7.273 QT
-3.726 8.195 L
-1.819 10.914 L
-1.429 11.476 -1.163 11.632 QT
-0.898 11.789 -0.273 11.789 QT
-0.273 12.32 L
-3.257 12.32 L
-3.257 11.789 L
-2.757 11.789 -2.757 11.476 QT
-2.757 11.257 -3.023 10.914 QT
-4.46 8.851 L
-5.382 9.648 L
-5.382 11.32 L
-5.382 11.632 -5.046 11.711 QT
-4.71 11.789 -4.21 11.789 QT
-4.21 12.32 L
-7.554 12.32 L
cp
f
GR
GS
[0.75 0 0 0.75 226.87516 148] CT
0.149 GC
N
0.265 12.32 M
0.265 11.789 L
1.796 11.789 1.796 11.32 QT
1.796 3.07 L
1.796 2.601 0.265 2.601 QT
0.265 2.07 L
4.749 2.07 L
4.749 2.601 L
3.203 2.601 3.203 3.07 QT
3.203 6.726 L
7.624 6.726 L
7.624 3.07 L
7.624 2.601 6.078 2.601 QT
6.078 2.07 L
10.562 2.07 L
10.562 2.601 L
9.031 2.601 9.031 3.07 QT
9.031 11.32 L
9.031 11.789 10.562 11.789 QT
10.562 12.32 L
6.078 12.32 L
6.078 11.789 L
7.624 11.789 7.624 11.32 QT
7.624 7.257 L
3.203 7.257 L
3.203 11.32 L
3.203 11.789 4.749 11.789 QT
4.749 12.32 L
0.265 12.32 L
cp
f
GR
GS
[0.75 0 0 0.75 226.87516 148] CT
0.149 GC
N
11.39 12.32 M
11.218 12.32 11.218 12.148 QT
11.218 12.039 L
11.218 11.976 11.265 11.929 QT
15.453 6.242 L
14.093 6.242 L
13.468 6.242 13.054 6.328 QT
12.64 6.414 12.367 6.632 QT
12.093 6.851 11.976 7.242 QT
11.859 7.632 11.859 8.336 QT
11.421 8.336 L
11.593 5.851 L
16.624 5.851 L
16.687 5.851 16.734 5.898 QT
16.781 5.945 16.781 6.023 QT
16.781 6.101 L
16.781 6.148 16.749 6.211 QT
12.562 11.882 L
13.984 11.882 L
14.64 11.882 15.078 11.804 QT
15.515 11.726 15.828 11.414 QT
16.109 11.132 16.21 10.648 QT
16.312 10.164 16.374 9.461 QT
16.812 9.461 L
16.546 12.32 L
11.39 12.32 L
cp
f
GR
GS
[0.75 0 0 0.75 226.87516 148] CT
0.149 GC
N
17.643 16.07 M
17.643 15.476 L
19.096 15.476 L
19.096 1.664 L
17.643 1.664 L
17.643 1.07 L
19.705 1.07 L
19.705 16.07 L
17.643 16.07 L
cp
f
GR
GS
[0.75 0 0 0.75 0 0.5] CT
0.149 GC
2 setlinecap
1 LJ
0.667 LW
N
76 169 M
76 16 L
S
GR
GS
[0.75 0 0 0.75 0 0.5] CT
0.149 GC
2 setlinecap
1 LJ
0.667 LW
N
529 169 M
529 16 L
S
GR
GS
[0.75 0 0 0.75 0 0.5] CT
0.149 GC
2 setlinecap
1 LJ
0.667 LW
N
76 169 M
80.53 169 L
S
GR
GS
[0.75 0 0 0.75 0 0.5] CT
0.149 GC
2 setlinecap
1 LJ
0.667 LW
N
76 130.75 M
80.53 130.75 L
S
GR
GS
[0.75 0 0 0.75 0 0.5] CT
0.149 GC
2 setlinecap
1 LJ
0.667 LW
N
76 92.5 M
80.53 92.5 L
S
GR
GS
[0.75 0 0 0.75 0 0.5] CT
0.149 GC
2 setlinecap
1 LJ
0.667 LW
N
76 54.25 M
80.53 54.25 L
S
GR
GS
[0.75 0 0 0.75 0 0.5] CT
0.149 GC
2 setlinecap
1 LJ
0.667 LW
N
76 16 M
80.53 16 L
S
GR
GS
[0.75 0 0 0.75 0 0.5] CT
0.149 GC
2 setlinecap
1 LJ
0.667 LW
N
529 169 M
524.47 169 L
S
GR
GS
[0.75 0 0 0.75 0 0.5] CT
0.149 GC
2 setlinecap
1 LJ
0.667 LW
N
529 130.75 M
524.47 130.75 L
S
GR
GS
[0.75 0 0 0.75 0 0.5] CT
0.149 GC
2 setlinecap
1 LJ
0.667 LW
N
529 92.5 M
524.47 92.5 L
S
GR
GS
[0.75 0 0 0.75 0 0.5] CT
0.149 GC
2 setlinecap
1 LJ
0.667 LW
N
529 54.25 M
524.47 54.25 L
S
GR
GS
[0.75 0 0 0.75 0 0.5] CT
0.149 GC
2 setlinecap
1 LJ
0.667 LW
N
529 16 M
524.47 16 L
S
GR
GS
[0.75 0 0 0.75 53 127.25] CT
0.149 GC
/Helvetica 13.333 F
GS
[1 0 0 1 0 0] CT
-27 5.5 moveto 
1 -1 scale
(-170) t 
GR
GR
GS
[0.75 0 0 0.75 53 98.5625] CT
0.149 GC
/Helvetica 13.333 F
GS
[1 0 0 1 0 0] CT
-27 5.5 moveto 
1 -1 scale
(-160) t 
GR
GR
GS
[0.75 0 0 0.75 53 69.875] CT
0.149 GC
/Helvetica 13.333 F
GS
[1 0 0 1 0 0] CT
-27 5.5 moveto 
1 -1 scale
(-150) t 
GR
GR
GS
[0.75 0 0 0.75 53 41.1875] CT
0.149 GC
/Helvetica 13.333 F
GS
[1 0 0 1 0 0] CT
-27 5.5 moveto 
1 -1 scale
(-140) t 
GR
GR
GS
[0.75 0 0 0.75 53 12.5] CT
0.149 GC
/Helvetica 13.333 F
GS
[1 0 0 1 0 0] CT
-27 5.5 moveto 
1 -1 scale
(-130) t 
GR
GR
GS
[0 -0.75 0.75 0 29.75 69.87494] CT
0.149 GC
N
-26.624 -6.889 M
-26.109 -6.233 -25.343 -5.858 QT
-24.578 -5.483 -23.749 -5.483 QT
-23.046 -5.483 -22.453 -5.757 QT
-21.859 -6.03 -21.421 -6.522 QT
-20.984 -7.014 -20.742 -7.632 QT
-20.499 -8.249 -20.499 -8.936 QT
-20.499 -9.061 -20.374 -9.061 QT
-20.187 -9.061 L
-20.078 -9.061 -20.078 -8.921 QT
-20.078 -8.124 -20.374 -7.397 QT
-20.671 -6.671 -21.218 -6.116 QT
-21.765 -5.561 -22.484 -5.257 QT
-23.203 -4.952 -23.968 -4.952 QT
-25.046 -4.952 -26.015 -5.389 QT
-26.984 -5.827 -27.695 -6.585 QT
-28.406 -7.343 -28.804 -8.335 QT
-29.203 -9.327 -29.203 -10.405 QT
-29.203 -11.483 -28.804 -12.483 QT
-28.406 -13.483 -27.695 -14.241 QT
-26.984 -14.999 -26.015 -15.428 QT
-25.046 -15.858 -23.968 -15.858 QT
-23.203 -15.858 -22.499 -15.522 QT
-21.796 -15.186 -21.265 -14.577 QT
-20.406 -15.811 L
-20.312 -15.858 -20.296 -15.858 QT
-20.187 -15.858 L
-20.14 -15.858 -20.109 -15.819 QT
-20.078 -15.78 -20.078 -15.733 QT
-20.078 -11.686 L
-20.078 -11.546 -20.187 -11.546 QT
-20.453 -11.546 L
-20.593 -11.546 -20.593 -11.686 QT
-20.593 -12.108 -20.765 -12.647 QT
-20.937 -13.186 -21.21 -13.663 QT
-21.484 -14.139 -21.828 -14.514 QT
-22.671 -15.327 -23.765 -15.327 QT
-24.593 -15.327 -25.351 -14.952 QT
-26.109 -14.577 -26.624 -13.921 QT
-27.171 -13.218 -27.382 -12.319 QT
-27.593 -11.421 -27.593 -10.405 QT
-27.593 -9.389 -27.382 -8.491 QT
-27.171 -7.593 -26.624 -6.889 QT
cp
f
GR
GS
[0 -0.75 0.75 0 29.75 69.87494] CT
0.149 GC
N
-19.063 -5.28 M
-19.063 -5.811 L
-18.547 -5.811 -18.219 -5.889 QT
-17.891 -5.968 -17.891 -6.28 QT
-17.891 -10.374 L
-17.891 -10.78 -18.016 -10.96 QT
-18.141 -11.139 -18.368 -11.178 QT
-18.594 -11.218 -19.063 -11.218 QT
-19.063 -11.749 L
-16.922 -11.905 L
-16.922 -10.436 L
-16.672 -11.093 -16.227 -11.499 QT
-15.782 -11.905 -15.141 -11.905 QT
-14.704 -11.905 -14.352 -11.639 QT
-14.001 -11.374 -14.001 -10.952 QT
-14.001 -10.671 -14.196 -10.475 QT
-14.391 -10.28 -14.672 -10.28 QT
-14.954 -10.28 -15.149 -10.475 QT
-15.344 -10.671 -15.344 -10.952 QT
-15.344 -11.358 -15.063 -11.514 QT
-15.141 -11.514 L
-15.751 -11.514 -16.133 -11.077 QT
-16.516 -10.639 -16.68 -9.991 QT
-16.844 -9.343 -16.844 -8.749 QT
-16.844 -6.28 L
-16.844 -5.811 -15.391 -5.811 QT
-15.391 -5.28 L
-19.063 -5.28 L
cp
f
GR
GS
[0 -0.75 0.75 0 29.75 69.87494] CT
0.149 GC
N
-9.959 -5.108 M
-10.866 -5.108 -11.631 -5.569 QT
-12.397 -6.03 -12.842 -6.796 QT
-13.287 -7.561 -13.287 -8.468 QT
-13.287 -9.155 -13.045 -9.796 QT
-12.803 -10.436 -12.342 -10.936 QT
-11.881 -11.436 -11.272 -11.718 QT
-10.662 -11.999 -9.959 -11.999 QT
-9.037 -11.999 -8.28 -11.514 QT
-7.522 -11.03 -7.084 -10.21 QT
-6.647 -9.389 -6.647 -8.468 QT
-6.647 -7.577 -7.092 -6.803 QT
-7.537 -6.03 -8.303 -5.569 QT
-9.069 -5.108 -9.959 -5.108 QT
cp
-9.959 -5.546 M
-8.756 -5.546 -8.358 -6.421 QT
-7.959 -7.296 -7.959 -8.639 QT
-7.959 -9.389 -8.037 -9.889 QT
-8.116 -10.389 -8.381 -10.796 QT
-8.553 -11.03 -8.811 -11.218 QT
-9.069 -11.405 -9.358 -11.507 QT
-9.647 -11.608 -9.959 -11.608 QT
-10.428 -11.608 -10.85 -11.397 QT
-11.272 -11.186 -11.553 -10.796 QT
-11.834 -10.358 -11.905 -9.85 QT
-11.975 -9.343 -11.975 -8.639 QT
-11.975 -7.796 -11.834 -7.124 QT
-11.694 -6.452 -11.248 -5.999 QT
-10.803 -5.546 -9.959 -5.546 QT
cp
f
GR
GS
[0 -0.75 0.75 0 29.75 69.87494] CT
0.149 GC
N
-5.876 -5.233 M
-5.876 -7.686 L
-5.876 -7.796 -5.751 -7.796 QT
-5.563 -7.796 L
-5.47 -7.796 -5.438 -7.686 QT
-5.032 -5.514 -3.423 -5.514 QT
-2.72 -5.514 -2.235 -5.835 QT
-1.751 -6.155 -1.751 -6.827 QT
-1.751 -7.311 -2.126 -7.647 QT
-2.501 -7.983 -3.017 -8.108 QT
-4.017 -8.311 L
-4.517 -8.421 -4.931 -8.647 QT
-5.345 -8.874 -5.61 -9.249 QT
-5.876 -9.624 -5.876 -10.124 QT
-5.876 -10.796 -5.532 -11.21 QT
-5.188 -11.624 -4.626 -11.811 QT
-4.063 -11.999 -3.423 -11.999 QT
-2.657 -11.999 -2.079 -11.593 QT
-1.657 -11.968 L
-1.657 -11.999 -1.579 -11.999 QT
-1.47 -11.999 L
-1.423 -11.999 -1.384 -11.96 QT
-1.345 -11.921 -1.345 -11.874 QT
-1.345 -9.921 L
-1.345 -9.78 -1.47 -9.78 QT
-1.657 -9.78 L
-1.782 -9.78 -1.782 -9.921 QT
-1.782 -10.702 -2.22 -11.178 QT
-2.657 -11.655 -3.438 -11.655 QT
-4.11 -11.655 -4.602 -11.405 QT
-5.095 -11.155 -5.095 -10.546 QT
-5.095 -10.124 -4.743 -9.858 QT
-4.392 -9.593 -3.907 -9.483 QT
-2.892 -9.28 L
-2.392 -9.171 -1.946 -8.889 QT
-1.501 -8.608 -1.243 -8.186 QT
-0.985 -7.764 -0.985 -7.233 QT
-0.985 -6.686 -1.165 -6.288 QT
-1.345 -5.889 -1.681 -5.624 QT
-2.017 -5.358 -2.47 -5.233 QT
-2.923 -5.108 -3.423 -5.108 QT
-4.36 -5.108 -5.032 -5.749 QT
-5.579 -5.155 L
-5.579 -5.108 -5.657 -5.108 QT
-5.751 -5.108 L
-5.876 -5.108 -5.876 -5.233 QT
cp
f
GR
GS
[0 -0.75 0.75 0 29.75 69.87494] CT
0.149 GC
N
-0.091 -5.233 M
-0.091 -7.686 L
-0.091 -7.796 0.034 -7.796 QT
0.222 -7.796 L
0.315 -7.796 0.347 -7.686 QT
0.753 -5.514 2.362 -5.514 QT
3.065 -5.514 3.55 -5.835 QT
4.034 -6.155 4.034 -6.827 QT
4.034 -7.311 3.659 -7.647 QT
3.284 -7.983 2.769 -8.108 QT
1.769 -8.311 L
1.269 -8.421 0.855 -8.647 QT
0.44 -8.874 0.175 -9.249 QT
-0.091 -9.624 -0.091 -10.124 QT
-0.091 -10.796 0.253 -11.21 QT
0.597 -11.624 1.159 -11.811 QT
1.722 -11.999 2.362 -11.999 QT
3.128 -11.999 3.706 -11.593 QT
4.128 -11.968 L
4.128 -11.999 4.206 -11.999 QT
4.315 -11.999 L
4.362 -11.999 4.401 -11.96 QT
4.44 -11.921 4.44 -11.874 QT
4.44 -9.921 L
4.44 -9.78 4.315 -9.78 QT
4.128 -9.78 L
4.003 -9.78 4.003 -9.921 QT
4.003 -10.702 3.565 -11.178 QT
3.128 -11.655 2.347 -11.655 QT
1.675 -11.655 1.183 -11.405 QT
0.69 -11.155 0.69 -10.546 QT
0.69 -10.124 1.042 -9.858 QT
1.394 -9.593 1.878 -9.483 QT
2.894 -9.28 L
3.394 -9.171 3.839 -8.889 QT
4.284 -8.608 4.542 -8.186 QT
4.8 -7.764 4.8 -7.233 QT
4.8 -6.686 4.62 -6.288 QT
4.44 -5.889 4.105 -5.624 QT
3.769 -5.358 3.315 -5.233 QT
2.862 -5.108 2.362 -5.108 QT
1.425 -5.108 0.753 -5.749 QT
0.206 -5.155 L
0.206 -5.108 0.128 -5.108 QT
0.034 -5.108 L
-0.091 -5.108 -0.091 -5.233 QT
cp
f
GR
GS
[0 -0.75 0.75 0 29.75 69.87494] CT
0.149 GC
N
6.726 -7.077 M
6.726 -11.218 L
5.476 -11.218 L
5.476 -11.608 L
6.46 -11.608 6.921 -12.522 QT
7.382 -13.436 7.382 -14.514 QT
7.819 -14.514 L
7.819 -11.749 L
9.929 -11.749 L
9.929 -11.218 L
7.819 -11.218 L
7.819 -7.108 L
7.819 -6.483 8.03 -6.014 QT
8.241 -5.546 8.773 -5.546 QT
9.288 -5.546 9.515 -6.046 QT
9.741 -6.546 9.741 -7.108 QT
9.741 -7.999 L
10.179 -7.999 L
10.179 -7.077 L
10.179 -6.608 10.007 -6.155 QT
9.835 -5.702 9.499 -5.405 QT
9.163 -5.108 8.679 -5.108 QT
7.773 -5.108 7.249 -5.647 QT
6.726 -6.186 6.726 -7.077 QT
cp
f
GR
GS
[0 -0.75 0.75 0 29.75 69.87494] CT
0.149 GC
N
11.492 -6.749 M
11.492 -7.639 12.195 -8.202 QT
12.898 -8.764 13.89 -8.999 QT
14.883 -9.233 15.758 -9.233 QT
15.758 -9.843 L
15.758 -10.28 15.57 -10.686 QT
15.383 -11.093 15.023 -11.35 QT
14.664 -11.608 14.226 -11.608 QT
13.242 -11.608 12.711 -11.155 QT
13.008 -11.155 13.187 -10.944 QT
13.367 -10.733 13.367 -10.436 QT
13.367 -10.139 13.156 -9.928 QT
12.945 -9.718 12.664 -9.718 QT
12.351 -9.718 12.14 -9.928 QT
11.929 -10.139 11.929 -10.436 QT
11.929 -11.233 12.648 -11.616 QT
13.367 -11.999 14.226 -11.999 QT
14.836 -11.999 15.453 -11.741 QT
16.07 -11.483 16.461 -10.999 QT
16.851 -10.514 16.851 -9.874 QT
16.851 -6.499 L
16.851 -6.202 16.976 -5.96 QT
17.101 -5.718 17.367 -5.718 QT
17.617 -5.718 17.734 -5.968 QT
17.851 -6.218 17.851 -6.499 QT
17.851 -7.452 L
18.289 -7.452 L
18.289 -6.499 L
18.289 -6.155 18.117 -5.85 QT
17.945 -5.546 17.648 -5.366 QT
17.351 -5.186 17.008 -5.186 QT
16.57 -5.186 16.25 -5.53 QT
15.929 -5.874 15.898 -6.343 QT
15.617 -5.78 15.078 -5.444 QT
14.539 -5.108 13.914 -5.108 QT
13.351 -5.108 12.797 -5.28 QT
12.242 -5.452 11.867 -5.811 QT
11.492 -6.171 11.492 -6.749 QT
cp
12.711 -6.749 M
12.711 -6.218 13.101 -5.866 QT
13.492 -5.514 14.023 -5.514 QT
14.508 -5.514 14.898 -5.749 QT
15.289 -5.983 15.523 -6.405 QT
15.758 -6.827 15.758 -7.28 QT
15.758 -8.843 L
15.086 -8.843 14.367 -8.624 QT
13.648 -8.405 13.179 -7.928 QT
12.711 -7.452 12.711 -6.749 QT
cp
f
GR
GS
[0 -0.75 0.75 0 29.75 69.87494] CT
0.149 GC
N
18.7 -5.28 M
18.7 -5.811 L
19.2 -5.811 19.536 -5.889 QT
19.872 -5.968 19.872 -6.28 QT
19.872 -14.155 L
19.872 -14.561 19.747 -14.741 QT
19.622 -14.921 19.396 -14.96 QT
19.169 -14.999 18.7 -14.999 QT
18.7 -15.53 L
20.919 -15.686 L
20.919 -6.28 L
20.919 -5.968 21.247 -5.889 QT
21.575 -5.811 22.091 -5.811 QT
22.091 -5.28 L
18.7 -5.28 L
cp
f
GR
GS
[0 -0.75 0.75 0 29.75 69.87494] CT
0.149 GC
N
22.696 -5.28 M
22.696 -5.811 L
23.212 -5.811 23.54 -5.889 QT
23.868 -5.968 23.868 -6.28 QT
23.868 -14.155 L
23.868 -14.561 23.743 -14.741 QT
23.618 -14.921 23.392 -14.96 QT
23.165 -14.999 22.696 -14.999 QT
22.696 -15.53 L
24.915 -15.686 L
24.915 -8.561 L
26.931 -10.327 L
27.227 -10.624 27.227 -10.858 QT
27.227 -11.03 27.102 -11.124 QT
26.977 -11.218 26.806 -11.218 QT
26.806 -11.749 L
29.618 -11.749 L
29.618 -11.218 L
28.602 -11.218 27.587 -10.327 QT
26.524 -9.405 L
28.431 -6.686 L
28.821 -6.124 29.087 -5.968 QT
29.352 -5.811 29.977 -5.811 QT
29.977 -5.28 L
26.993 -5.28 L
26.993 -5.811 L
27.493 -5.811 27.493 -6.124 QT
27.493 -6.343 27.227 -6.686 QT
25.79 -8.749 L
24.868 -7.952 L
24.868 -6.28 L
24.868 -5.968 25.204 -5.889 QT
25.54 -5.811 26.04 -5.811 QT
26.04 -5.28 L
22.696 -5.28 L
cp
f
GR
GS
[0.75 0 0 0.75 0 0.5] CT
0 0.447 0.741 RC
1 LJ
0.667 LW
N
76 122.337 M
76 127.093 L
S
GR
GS
[0.75 0 0 0.75 0 0.5] CT
0 0.447 0.741 RC
1 LJ
0.667 LW
N
98.65 120.62 M
98.65 125.243 L
S
GR
GS
[0.75 0 0 0.75 0 0.5] CT
0 0.447 0.741 RC
1 LJ
0.667 LW
N
121.3 120.631 M
121.3 123.795 L
S
GR
GS
[0.75 0 0 0.75 0 0.5] CT
0 0.447 0.741 RC
1 LJ
0.667 LW
N
143.95 128.298 M
143.95 133.791 L
S
GR
GS
[0.75 0 0 0.75 0 0.5] CT
0 0.447 0.741 RC
1 LJ
0.667 LW
N
166.6 129.274 M
166.6 133.496 L
S
GR
GS
[0.75 0 0 0.75 0 0.5] CT
0 0.447 0.741 RC
1 LJ
0.667 LW
N
189.25 128.433 M
189.25 132.785 L
S
GR
GS
[0.75 0 0 0.75 0 0.5] CT
0 0.447 0.741 RC
1 LJ
0.667 LW
N
211.9 126.072 M
211.9 130.15 L
S
GR
GS
[0.75 0 0 0.75 0 0.5] CT
0 0.447 0.741 RC
1 LJ
0.667 LW
N
234.55 124.386 M
234.55 129.854 L
S
GR
GS
[0.75 0 0 0.75 0 0.5] CT
0 0.447 0.741 RC
1 LJ
0.667 LW
N
257.2 116.155 M
257.2 121.406 L
S
GR
GS
[0.75 0 0 0.75 0 0.5] CT
0 0.447 0.741 RC
1 LJ
0.667 LW
N
279.85 104.938 M
279.85 109.508 L
S
GR
GS
[0.75 0 0 0.75 0 0.5] CT
0 0.447 0.741 RC
1 LJ
0.667 LW
N
302.5 80.689 M
302.5 87.372 L
S
GR
GS
[0.75 0 0 0.75 0 0.5] CT
0 0.447 0.741 RC
1 LJ
0.667 LW
N
325.15 66.671 M
325.15 73.956 L
S
GR
GS
[0.75 0 0 0.75 0 0.5] CT
0 0.447 0.741 RC
1 LJ
0.667 LW
N
347.8 58.96 M
347.8 65.638 L
S
GR
GS
[0.75 0 0 0.75 0 0.5] CT
0 0.447 0.741 RC
1 LJ
0.667 LW
N
370.45 56.877 M
370.45 61.103 L
S
GR
GS
[0.75 0 0 0.75 0 0.5] CT
0 0.447 0.741 RC
1 LJ
0.667 LW
N
393.1 52.88 M
393.1 62.602 L
S
GR
GS
[0.75 0 0 0.75 0 0.5] CT
0 0.447 0.741 RC
1 LJ
0.667 LW
N
415.75 49.922 M
415.75 59.678 L
S
GR
GS
[0.75 0 0 0.75 0 0.5] CT
0 0.447 0.741 RC
1 LJ
0.667 LW
N
438.4 48.47 M
438.4 54.749 L
S
GR
GS
[0.75 0 0 0.75 0 0.5] CT
0 0.447 0.741 RC
1 LJ
0.667 LW
N
461.05 42.496 M
461.05 51.59 L
S
GR
GS
[0.75 0 0 0.75 0 0.5] CT
0 0.447 0.741 RC
1 LJ
0.667 LW
N
483.7 37.683 M
483.7 48.731 L
S
GR
GS
[0.75 0 0 0.75 0 0.5] CT
0 0.447 0.741 RC
1 LJ
0.667 LW
N
506.35 34.372 M
506.35 42.162 L
S
GR
GS
[0.75 0 0 0.75 0 0.5] CT
0 0.447 0.741 RC
1 LJ
0.667 LW
N
529 33.215 M
529 44.213 L
S
GR
GS
[0.75 0 0 0.75 0 0.5] CT
0 0.447 0.741 RC
1 LJ
0.667 LW
N
76 122.337 M
76 117.581 L
S
GR
GS
[0.75 0 0 0.75 0 0.5] CT
0 0.447 0.741 RC
1 LJ
0.667 LW
N
98.65 120.62 M
98.65 115.996 L
S
GR
GS
[0.75 0 0 0.75 0 0.5] CT
0 0.447 0.741 RC
1 LJ
0.667 LW
N
121.3 120.631 M
121.3 117.467 L
S
GR
GS
[0.75 0 0 0.75 0 0.5] CT
0 0.447 0.741 RC
1 LJ
0.667 LW
N
143.95 128.298 M
143.95 122.805 L
S
GR
GS
[0.75 0 0 0.75 0 0.5] CT
0 0.447 0.741 RC
1 LJ
0.667 LW
N
166.6 129.274 M
166.6 125.052 L
S
GR
GS
[0.75 0 0 0.75 0 0.5] CT
0 0.447 0.741 RC
1 LJ
0.667 LW
N
189.25 128.433 M
189.25 124.081 L
S
GR
GS
[0.75 0 0 0.75 0 0.5] CT
0 0.447 0.741 RC
1 LJ
0.667 LW
N
211.9 126.072 M
211.9 121.994 L
S
GR
GS
[0.75 0 0 0.75 0 0.5] CT
0 0.447 0.741 RC
1 LJ
0.667 LW
N
234.55 124.386 M
234.55 118.919 L
S
GR
GS
[0.75 0 0 0.75 0 0.5] CT
0 0.447 0.741 RC
1 LJ
0.667 LW
N
257.2 116.155 M
257.2 110.904 L
S
GR
GS
[0.75 0 0 0.75 0 0.5] CT
0 0.447 0.741 RC
1 LJ
0.667 LW
N
279.85 104.938 M
279.85 100.369 L
S
GR
GS
[0.75 0 0 0.75 0 0.5] CT
0 0.447 0.741 RC
1 LJ
0.667 LW
N
302.5 80.689 M
302.5 74.005 L
S
GR
GS
[0.75 0 0 0.75 0 0.5] CT
0 0.447 0.741 RC
1 LJ
0.667 LW
N
325.15 66.671 M
325.15 59.385 L
S
GR
GS
[0.75 0 0 0.75 0 0.5] CT
0 0.447 0.741 RC
1 LJ
0.667 LW
N
347.8 58.96 M
347.8 52.283 L
S
GR
GS
[0.75 0 0 0.75 0 0.5] CT
0 0.447 0.741 RC
1 LJ
0.667 LW
N
370.45 56.877 M
370.45 52.65 L
S
GR
GS
[0.75 0 0 0.75 0 0.5] CT
0 0.447 0.741 RC
1 LJ
0.667 LW
N
393.1 52.88 M
393.1 43.157 L
S
GR
GS
[0.75 0 0 0.75 0 0.5] CT
0 0.447 0.741 RC
1 LJ
0.667 LW
N
415.75 49.922 M
415.75 40.165 L
S
GR
GS
[0.75 0 0 0.75 0 0.5] CT
0 0.447 0.741 RC
1 LJ
0.667 LW
N
438.4 48.47 M
438.4 42.192 L
S
GR
GS
[0.75 0 0 0.75 0 0.5] CT
0 0.447 0.741 RC
1 LJ
0.667 LW
N
461.05 42.496 M
461.05 33.403 L
S
GR
GS
[0.75 0 0 0.75 0 0.5] CT
0 0.447 0.741 RC
1 LJ
0.667 LW
N
483.7 37.683 M
483.7 26.636 L
S
GR
GS
[0.75 0 0 0.75 0 0.5] CT
0 0.447 0.741 RC
1 LJ
0.667 LW
N
506.35 34.372 M
506.35 26.582 L
S
GR
GS
[0.75 0 0 0.75 0 0.5] CT
0 0.447 0.741 RC
1 LJ
0.667 LW
N
529 33.215 M
529 22.217 L
S
GR
GS
[0.75 0 0 0.75 0 0.5] CT
0 0.447 0.741 RC
1 LJ
0.667 LW
N
76 122.337 M
98.65 120.62 L
121.3 120.631 L
143.95 128.298 L
166.6 129.274 L
189.25 128.433 L
211.9 126.072 L
234.55 124.386 L
257.2 116.155 L
279.85 104.938 L
302.5 80.689 L
325.15 66.671 L
347.8 58.96 L
370.45 56.877 L
393.1 52.88 L
415.75 49.922 L
438.4 48.47 L
461.05 42.496 L
483.7 37.683 L
506.35 34.372 L
529 33.215 L
S
GR
GS
[0.75 0 0 0.75 57 95.81947] CT
0 0.447 0.741 RC
N
-4 0 M
4 0 L
f
GR
GS
[0.75 0 0 0.75 57 95.81947] CT
0 0.447 0.741 RC
10.0 ML
0.667 LW
N
-4 0 M
4 0 L
S
GR
GS
[0.75 0 0 0.75 73.9875 94.43244] CT
0 0.447 0.741 RC
N
/f-401390582{-4 0 M
4 0 L}def
f-401390582
f
GR
GS
[0.75 0 0 0.75 73.9875 94.43244] CT
0 0.447 0.741 RC
10.0 ML
0.667 LW
N
-4 0 M
4 0 L
S
GR
GS
[0.75 0 0 0.75 90.975 93.34588] CT
0 0.447 0.741 RC
N
f-401390582
f
GR
GS
[0.75 0 0 0.75 90.975 93.34588] CT
0 0.447 0.741 RC
10.0 ML
0.667 LW
N
-4 0 M
4 0 L
S
GR
GS
[0.75 0 0 0.75 107.9625 100.8435] CT
0 0.447 0.741 RC
N
f-401390582
f
GR
GS
[0.75 0 0 0.75 107.9625 100.8435] CT
0 0.447 0.741 RC
10.0 ML
0.667 LW
N
-4 0 M
4 0 L
S
GR
GS
[0.75 0 0 0.75 124.95 100.62192] CT
0 0.447 0.741 RC
N
f-401390582
f
GR
GS
[0.75 0 0 0.75 124.95 100.62192] CT
0 0.447 0.741 RC
10.0 ML
0.667 LW
N
-4 0 M
4 0 L
S
GR
GS
[0.75 0 0 0.75 141.9375 100.08911] CT
0 0.447 0.741 RC
N
f-401390582
f
GR
GS
[0.75 0 0 0.75 141.9375 100.08911] CT
0 0.447 0.741 RC
10.0 ML
0.667 LW
N
-4 0 M
4 0 L
S
GR
GS
[0.75 0 0 0.75 158.92501 98.11254] CT
0 0.447 0.741 RC
N
f-401390582
f
GR
GS
[0.75 0 0 0.75 158.92501 98.11254] CT
0 0.447 0.741 RC
10.0 ML
0.667 LW
N
-4 0 M
4 0 L
S
GR
GS
[0.75 0 0 0.75 175.9125 97.89019] CT
0 0.447 0.741 RC
N
f-401390582
f
GR
GS
[0.75 0 0 0.75 175.9125 97.89019] CT
0 0.447 0.741 RC
10.0 ML
0.667 LW
N
-4 0 M
4 0 L
S
GR
GS
[0.75 0 0 0.75 192.90001 91.55468] CT
0 0.447 0.741 RC
N
f-401390582
f
GR
GS
[0.75 0 0 0.75 192.90001 91.55468] CT
0 0.447 0.741 RC
10.0 ML
0.667 LW
N
-4 0 M
4 0 L
S
GR
GS
[0.75 0 0 0.75 209.8875 82.63064] CT
0 0.447 0.741 RC
N
f-401390582
f
GR
GS
[0.75 0 0 0.75 209.8875 82.63064] CT
0 0.447 0.741 RC
10.0 ML
0.667 LW
N
-4 0 M
4 0 L
S
GR
GS
[0.75 0 0 0.75 226.875 66.02902] CT
0 0.447 0.741 RC
N
f-401390582
f
GR
GS
[0.75 0 0 0.75 226.875 66.02902] CT
0 0.447 0.741 RC
10.0 ML
0.667 LW
N
-4 0 M
4 0 L
S
GR
GS
[0.75 0 0 0.75 243.8625 55.96717] CT
0 0.447 0.741 RC
N
f-401390582
f
GR
GS
[0.75 0 0 0.75 243.8625 55.96717] CT
0 0.447 0.741 RC
10.0 ML
0.667 LW
N
-4 0 M
4 0 L
S
GR
GS
[0.75 0 0 0.75 260.85001 49.72816] CT
0 0.447 0.741 RC
N
f-401390582
f
GR
GS
[0.75 0 0 0.75 260.85001 49.72816] CT
0 0.447 0.741 RC
10.0 ML
0.667 LW
N
-4 0 M
4 0 L
S
GR
GS
[0.75 0 0 0.75 277.83749 46.32758] CT
0 0.447 0.741 RC
N
f-401390582
f
GR
GS
[0.75 0 0 0.75 277.83749 46.32758] CT
0 0.447 0.741 RC
10.0 ML
0.667 LW
N
-4 0 M
4 0 L
S
GR
GS
[0.75 0 0 0.75 294.825 47.4517] CT
0 0.447 0.741 RC
N
f-401390582
f
GR
GS
[0.75 0 0 0.75 294.825 47.4517] CT
0 0.447 0.741 RC
10.0 ML
0.667 LW
N
-4 0 M
4 0 L
S
GR
GS
[0.75 0 0 0.75 311.8125 45.25852] CT
0 0.447 0.741 RC
N
f-401390582
f
GR
GS
[0.75 0 0 0.75 311.8125 45.25852] CT
0 0.447 0.741 RC
10.0 ML
0.667 LW
N
-4 0 M
4 0 L
S
GR
GS
[0.75 0 0 0.75 328.8 41.56179] CT
0 0.447 0.741 RC
N
f-401390582
f
GR
GS
[0.75 0 0 0.75 328.8 41.56179] CT
0 0.447 0.741 RC
10.0 ML
0.667 LW
N
-4 0 M
4 0 L
S
GR
GS
[0.75 0 0 0.75 345.78751 39.19253] CT
0 0.447 0.741 RC
N
f-401390582
f
GR
GS
[0.75 0 0 0.75 345.78751 39.19253] CT
0 0.447 0.741 RC
10.0 ML
0.667 LW
N
-4 0 M
4 0 L
S
GR
GS
[0.75 0 0 0.75 362.77499 37.04789] CT
0 0.447 0.741 RC
N
f-401390582
f
GR
GS
[0.75 0 0 0.75 362.77499 37.04789] CT
0 0.447 0.741 RC
10.0 ML
0.667 LW
N
-4 0 M
4 0 L
S
GR
GS
[0.75 0 0 0.75 379.7625 32.12153] CT
0 0.447 0.741 RC
N
f-401390582
f
GR
GS
[0.75 0 0 0.75 379.7625 32.12153] CT
0 0.447 0.741 RC
10.0 ML
0.667 LW
N
-4 0 M
4 0 L
S
GR
GS
[0.75 0 0 0.75 396.75 33.65963] CT
0 0.447 0.741 RC
N
f-401390582
f
GR
GS
[0.75 0 0 0.75 396.75 33.65963] CT
0 0.447 0.741 RC
10.0 ML
0.667 LW
N
-4 0 M
4 0 L
S
GR
GS
[0.75 0 0 0.75 57 88.68567] CT
0 0.447 0.741 RC
N
f-401390582
f
GR
GS
[0.75 0 0 0.75 57 88.68567] CT
0 0.447 0.741 RC
10.0 ML
0.667 LW
N
-4 0 M
4 0 L
S
GR
GS
[0.75 0 0 0.75 73.9875 87.49725] CT
0 0.447 0.741 RC
N
f-401390582
f
GR
GS
[0.75 0 0 0.75 73.9875 87.49725] CT
0 0.447 0.741 RC
10.0 ML
0.667 LW
N
-4 0 M
4 0 L
S
GR
GS
[0.75 0 0 0.75 90.975 88.60047] CT
0 0.447 0.741 RC
N
f-401390582
f
GR
GS
[0.75 0 0 0.75 90.975 88.60047] CT
0 0.447 0.741 RC
10.0 ML
0.667 LW
N
-4 0 M
4 0 L
S
GR
GS
[0.75 0 0 0.75 107.9625 92.60397] CT
0 0.447 0.741 RC
N
f-401390582
f
GR
GS
[0.75 0 0 0.75 107.9625 92.60397] CT
0 0.447 0.741 RC
10.0 ML
0.667 LW
N
-4 0 M
4 0 L
S
GR
GS
[0.75 0 0 0.75 124.95 94.28864] CT
0 0.447 0.741 RC
N
f-401390582
f
GR
GS
[0.75 0 0 0.75 124.95 94.28864] CT
0 0.447 0.741 RC
10.0 ML
0.667 LW
N
-4 0 M
4 0 L
S
GR
GS
[0.75 0 0 0.75 141.9375 93.56066] CT
0 0.447 0.741 RC
N
f-401390582
f
GR
GS
[0.75 0 0 0.75 141.9375 93.56066] CT
0 0.447 0.741 RC
10.0 ML
0.667 LW
N
-4 0 M
4 0 L
S
GR
GS
[0.75 0 0 0.75 158.92501 91.99553] CT
0 0.447 0.741 RC
N
f-401390582
f
GR
GS
[0.75 0 0 0.75 158.92501 91.99553] CT
0 0.447 0.741 RC
10.0 ML
0.667 LW
N
-4 0 M
4 0 L
S
GR
GS
[0.75 0 0 0.75 175.9125 89.68903] CT
0 0.447 0.741 RC
N
f-401390582
f
GR
GS
[0.75 0 0 0.75 175.9125 89.68903] CT
0 0.447 0.741 RC
10.0 ML
0.667 LW
N
-4 0 M
4 0 L
S
GR
GS
[0.75 0 0 0.75 192.90001 83.67819] CT
0 0.447 0.741 RC
N
f-401390582
f
GR
GS
[0.75 0 0 0.75 192.90001 83.67819] CT
0 0.447 0.741 RC
10.0 ML
0.667 LW
N
-4 0 M
4 0 L
S
GR
GS
[0.75 0 0 0.75 209.8875 75.77696] CT
0 0.447 0.741 RC
N
f-401390582
f
GR
GS
[0.75 0 0 0.75 209.8875 75.77696] CT
0 0.447 0.741 RC
10.0 ML
0.667 LW
N
-4 0 M
4 0 L
S
GR
GS
[0.75 0 0 0.75 226.875 56.00394] CT
0 0.447 0.741 RC
N
f-401390582
f
GR
GS
[0.75 0 0 0.75 226.875 56.00394] CT
0 0.447 0.741 RC
10.0 ML
0.667 LW
N
-4 0 M
4 0 L
S
GR
GS
[0.75 0 0 0.75 243.8625 45.03861] CT
0 0.447 0.741 RC
N
f-401390582
f
GR
GS
[0.75 0 0 0.75 243.8625 45.03861] CT
0 0.447 0.741 RC
10.0 ML
0.667 LW
N
-4 0 M
4 0 L
S
GR
GS
[0.75 0 0 0.75 260.85001 39.71208] CT
0 0.447 0.741 RC
N
f-401390582
f
GR
GS
[0.75 0 0 0.75 260.85001 39.71208] CT
0 0.447 0.741 RC
10.0 ML
0.667 LW
N
-4 0 M
4 0 L
S
GR
GS
[0.75 0 0 0.75 277.83749 39.98764] CT
0 0.447 0.741 RC
N
f-401390582
f
GR
GS
[0.75 0 0 0.75 277.83749 39.98764] CT
0 0.447 0.741 RC
10.0 ML
0.667 LW
N
-4 0 M
4 0 L
S
GR
GS
[0.75 0 0 0.75 294.825 32.86786] CT
0 0.447 0.741 RC
N
f-401390582
f
GR
GS
[0.75 0 0 0.75 294.825 32.86786] CT
0 0.447 0.741 RC
10.0 ML
0.667 LW
N
-4 0 M
4 0 L
S
GR
GS
[0.75 0 0 0.75 311.8125 30.62412] CT
0 0.447 0.741 RC
N
f-401390582
f
GR
GS
[0.75 0 0 0.75 311.8125 30.62412] CT
0 0.447 0.741 RC
10.0 ML
0.667 LW
N
-4 0 M
4 0 L
S
GR
GS
[0.75 0 0 0.75 328.8 32.14375] CT
0 0.447 0.741 RC
N
f-401390582
f
GR
GS
[0.75 0 0 0.75 328.8 32.14375] CT
0 0.447 0.741 RC
10.0 ML
0.667 LW
N
-4 0 M
4 0 L
S
GR
GS
[0.75 0 0 0.75 345.78751 25.55188] CT
0 0.447 0.741 RC
N
f-401390582
f
GR
GS
[0.75 0 0 0.75 345.78751 25.55188] CT
0 0.447 0.741 RC
10.0 ML
0.667 LW
N
-4 0 M
4 0 L
S
GR
GS
[0.75 0 0 0.75 362.77499 20.47691] CT
0 0.447 0.741 RC
N
f-401390582
f
GR
GS
[0.75 0 0 0.75 362.77499 20.47691] CT
0 0.447 0.741 RC
10.0 ML
0.667 LW
N
-4 0 M
4 0 L
S
GR
GS
[0.75 0 0 0.75 379.7625 20.4364] CT
0 0.447 0.741 RC
N
f-401390582
f
GR
GS
[0.75 0 0 0.75 379.7625 20.4364] CT
0 0.447 0.741 RC
10.0 ML
0.667 LW
N
-4 0 M
4 0 L
S
GR
GS
[0.75 0 0 0.75 396.75 17.16239] CT
0 0.447 0.741 RC
N
f-401390582
f
GR
GS
[0.75 0 0 0.75 396.75 17.16239] CT
0 0.447 0.741 RC
10.0 ML
0.667 LW
N
-4 0 M
4 0 L
S
GR
%%Trailer
%%Pages: 1
%%EOF
