%!PS-Adobe-3.0 EPSF-3.0
%%Creator: (MATLAB, The Mathworks, Inc. Version 9.1.0.441655 \(R2016b\). Operating System: Windows 8)
%%Title: ../Dokument/Abbildungen/V_E_phi.eps
%%CreationDate: 2017-08-27T19:50:32
%%Pages: (atend)
%%BoundingBox:     3     0   197   152
%%LanguageLevel: 3
%%EndComments
%%BeginProlog
%%BeginResource: procset (Apache XML Graphics Std ProcSet) 1.2 0
%%Version: 1.2 0
%%Copyright: (Copyright 2001-2003,2010 The Apache Software Foundation. License terms: http://www.apache.org/licenses/LICENSE-2.0)
/bd{bind def}bind def
/ld{load def}bd
/GR/grestore ld
/M/moveto ld
/LJ/setlinejoin ld
/C/curveto ld
/f/fill ld
/LW/setlinewidth ld
/GC/setgray ld
/t/show ld
/N/newpath ld
/CT/concat ld
/cp/closepath ld
/S/stroke ld
/L/lineto ld
/CC/setcmykcolor ld
/A/ashow ld
/GS/gsave ld
/RC/setrgbcolor ld
/RM/rmoveto ld
/ML/setmiterlimit ld
/re {4 2 roll M
1 index 0 rlineto
0 exch rlineto
neg 0 rlineto
cp } bd
/_ctm matrix def
/_tm matrix def
/BT { _ctm currentmatrix pop matrix _tm copy pop 0 0 moveto } bd
/ET { _ctm setmatrix } bd
/iTm { _ctm setmatrix _tm concat } bd
/Tm { _tm astore pop iTm 0 0 moveto } bd
/ux 0.0 def
/uy 0.0 def
/F {
  /Tp exch def
  /Tf exch def
  Tf findfont Tp scalefont setfont
  /cf Tf def  /cs Tp def
} bd
/ULS {currentpoint /uy exch def /ux exch def} bd
/ULE {
  /Tcx currentpoint pop def
  gsave
  newpath
  cf findfont cs scalefont dup
  /FontMatrix get 0 get /Ts exch def /FontInfo get dup
  /UnderlinePosition get Ts mul /To exch def
  /UnderlineThickness get Ts mul /Tt exch def
  ux uy To add moveto  Tcx uy To add lineto
  Tt setlinewidth stroke
  grestore
} bd
/OLE {
  /Tcx currentpoint pop def
  gsave
  newpath
  cf findfont cs scalefont dup
  /FontMatrix get 0 get /Ts exch def /FontInfo get dup
  /UnderlinePosition get Ts mul /To exch def
  /UnderlineThickness get Ts mul /Tt exch def
  ux uy To add cs add moveto Tcx uy To add cs add lineto
  Tt setlinewidth stroke
  grestore
} bd
/SOE {
  /Tcx currentpoint pop def
  gsave
  newpath
  cf findfont cs scalefont dup
  /FontMatrix get 0 get /Ts exch def /FontInfo get dup
  /UnderlinePosition get Ts mul /To exch def
  /UnderlineThickness get Ts mul /Tt exch def
  ux uy To add cs 10 mul 26 idiv add moveto Tcx uy To add cs 10 mul 26 idiv add lineto
  Tt setlinewidth stroke
  grestore
} bd
/QT {
/Y22 exch store
/X22 exch store
/Y21 exch store
/X21 exch store
currentpoint
/Y21 load 2 mul add 3 div exch
/X21 load 2 mul add 3 div exch
/X21 load 2 mul /X22 load add 3 div
/Y21 load 2 mul /Y22 load add 3 div
/X22 load /Y22 load curveto
} bd
/SSPD {
dup length /d exch dict def
{
/v exch def
/k exch def
currentpagedevice k known {
/cpdv currentpagedevice k get def
v cpdv ne {
/upd false def
/nullv v type /nulltype eq def
/nullcpdv cpdv type /nulltype eq def
nullv nullcpdv or
{
/upd true def
} {
/sametype v type cpdv type eq def
sametype {
v type /arraytype eq {
/vlen v length def
/cpdvlen cpdv length def
vlen cpdvlen eq {
0 1 vlen 1 sub {
/i exch def
/obj v i get def
/cpdobj cpdv i get def
obj cpdobj ne {
/upd true def
exit
} if
} for
} {
/upd true def
} ifelse
} {
v type /dicttype eq {
v {
/dv exch def
/dk exch def
/cpddv cpdv dk get def
dv cpddv ne {
/upd true def
exit
} if
} forall
} {
/upd true def
} ifelse
} ifelse
} if
} ifelse
upd true eq {
d k v put
} if
} if
} if
} forall
d length 0 gt {
d setpagedevice
} if
} bd
/RE { % /NewFontName [NewEncodingArray] /FontName RE -
  findfont dup length dict begin
  {
    1 index /FID ne
    {def} {pop pop} ifelse
  } forall
  /Encoding exch def
  /FontName 1 index def
  currentdict definefont pop
  end
} bind def
%%EndResource
%%BeginResource: procset (Apache XML Graphics EPS ProcSet) 1.0 0
%%Version: 1.0 0
%%Copyright: (Copyright 2002-2003 The Apache Software Foundation. License terms: http://www.apache.org/licenses/LICENSE-2.0)
/BeginEPSF { %def
/b4_Inc_state save def         % Save state for cleanup
/dict_count countdictstack def % Count objects on dict stack
/op_count count 1 sub def      % Count objects on operand stack
userdict begin                 % Push userdict on dict stack
/showpage { } def              % Redefine showpage, { } = null proc
0 setgray 0 setlinecap         % Prepare graphics state
1 setlinewidth 0 setlinejoin
10 setmiterlimit [ ] 0 setdash newpath
/languagelevel where           % If level not equal to 1 then
{pop languagelevel             % set strokeadjust and
1 ne                           % overprint to their defaults.
{false setstrokeadjust false setoverprint
} if
} if
} bd
/EndEPSF { %def
count op_count sub {pop} repeat            % Clean up stacks
countdictstack dict_count sub {end} repeat
b4_Inc_state restore
} bd
%%EndResource
%FOPBeginFontDict
%%IncludeResource: font Courier-Bold
%%IncludeResource: font Helvetica
%%IncludeResource: font Courier-BoldOblique
%%IncludeResource: font Courier-Oblique
%%IncludeResource: font Times-Roman
%%IncludeResource: font Helvetica-BoldOblique
%%IncludeResource: font Helvetica-Bold
%%IncludeResource: font Helvetica-Oblique
%%IncludeResource: font Times-BoldItalic
%%IncludeResource: font Courier
%%IncludeResource: font Times-Italic
%%IncludeResource: font Times-Bold
%%IncludeResource: font Symbol
%%IncludeResource: font ZapfDingbats
%FOPEndFontDict
%%BeginResource: encoding WinAnsiEncoding
/WinAnsiEncoding [
/.notdef /.notdef /.notdef /.notdef /.notdef
/.notdef /.notdef /.notdef /.notdef /.notdef
/.notdef /.notdef /.notdef /.notdef /.notdef
/.notdef /.notdef /.notdef /.notdef /.notdef
/.notdef /.notdef /.notdef /.notdef /.notdef
/.notdef /.notdef /.notdef /.notdef /.notdef
/.notdef /.notdef /space /exclam /quotedbl
/numbersign /dollar /percent /ampersand /quotesingle
/parenleft /parenright /asterisk /plus /comma
/hyphen /period /slash /zero /one
/two /three /four /five /six
/seven /eight /nine /colon /semicolon
/less /equal /greater /question /at
/A /B /C /D /E
/F /G /H /I /J
/K /L /M /N /O
/P /Q /R /S /T
/U /V /W /X /Y
/Z /bracketleft /backslash /bracketright /asciicircum
/underscore /quoteleft /a /b /c
/d /e /f /g /h
/i /j /k /l /m
/n /o /p /q /r
/s /t /u /v /w
/x /y /z /braceleft /bar
/braceright /asciitilde /bullet /Euro /bullet
/quotesinglbase /florin /quotedblbase /ellipsis /dagger
/daggerdbl /circumflex /perthousand /Scaron /guilsinglleft
/OE /bullet /Zcaron /bullet /bullet
/quoteleft /quoteright /quotedblleft /quotedblright /bullet
/endash /emdash /asciitilde /trademark /scaron
/guilsinglright /oe /bullet /zcaron /Ydieresis
/space /exclamdown /cent /sterling /currency
/yen /brokenbar /section /dieresis /copyright
/ordfeminine /guillemotleft /logicalnot /sfthyphen /registered
/macron /degree /plusminus /twosuperior /threesuperior
/acute /mu /paragraph /middot /cedilla
/onesuperior /ordmasculine /guillemotright /onequarter /onehalf
/threequarters /questiondown /Agrave /Aacute /Acircumflex
/Atilde /Adieresis /Aring /AE /Ccedilla
/Egrave /Eacute /Ecircumflex /Edieresis /Igrave
/Iacute /Icircumflex /Idieresis /Eth /Ntilde
/Ograve /Oacute /Ocircumflex /Otilde /Odieresis
/multiply /Oslash /Ugrave /Uacute /Ucircumflex
/Udieresis /Yacute /Thorn /germandbls /agrave
/aacute /acircumflex /atilde /adieresis /aring
/ae /ccedilla /egrave /eacute /ecircumflex
/edieresis /igrave /iacute /icircumflex /idieresis
/eth /ntilde /ograve /oacute /ocircumflex
/otilde /odieresis /divide /oslash /ugrave
/uacute /ucircumflex /udieresis /yacute /thorn
/ydieresis
] def
%%EndResource
%FOPBeginFontReencode
/Courier-Bold findfont
dup length dict begin
  {1 index /FID ne {def} {pop pop} ifelse} forall
  /Encoding WinAnsiEncoding def
  currentdict
end
/Courier-Bold exch definefont pop
/Helvetica findfont
dup length dict begin
  {1 index /FID ne {def} {pop pop} ifelse} forall
  /Encoding WinAnsiEncoding def
  currentdict
end
/Helvetica exch definefont pop
/Courier-BoldOblique findfont
dup length dict begin
  {1 index /FID ne {def} {pop pop} ifelse} forall
  /Encoding WinAnsiEncoding def
  currentdict
end
/Courier-BoldOblique exch definefont pop
/Courier-Oblique findfont
dup length dict begin
  {1 index /FID ne {def} {pop pop} ifelse} forall
  /Encoding WinAnsiEncoding def
  currentdict
end
/Courier-Oblique exch definefont pop
/Times-Roman findfont
dup length dict begin
  {1 index /FID ne {def} {pop pop} ifelse} forall
  /Encoding WinAnsiEncoding def
  currentdict
end
/Times-Roman exch definefont pop
/Helvetica-BoldOblique findfont
dup length dict begin
  {1 index /FID ne {def} {pop pop} ifelse} forall
  /Encoding WinAnsiEncoding def
  currentdict
end
/Helvetica-BoldOblique exch definefont pop
/Helvetica-Bold findfont
dup length dict begin
  {1 index /FID ne {def} {pop pop} ifelse} forall
  /Encoding WinAnsiEncoding def
  currentdict
end
/Helvetica-Bold exch definefont pop
/Helvetica-Oblique findfont
dup length dict begin
  {1 index /FID ne {def} {pop pop} ifelse} forall
  /Encoding WinAnsiEncoding def
  currentdict
end
/Helvetica-Oblique exch definefont pop
/Times-BoldItalic findfont
dup length dict begin
  {1 index /FID ne {def} {pop pop} ifelse} forall
  /Encoding WinAnsiEncoding def
  currentdict
end
/Times-BoldItalic exch definefont pop
/Courier findfont
dup length dict begin
  {1 index /FID ne {def} {pop pop} ifelse} forall
  /Encoding WinAnsiEncoding def
  currentdict
end
/Courier exch definefont pop
/Times-Italic findfont
dup length dict begin
  {1 index /FID ne {def} {pop pop} ifelse} forall
  /Encoding WinAnsiEncoding def
  currentdict
end
/Times-Italic exch definefont pop
/Times-Bold findfont
dup length dict begin
  {1 index /FID ne {def} {pop pop} ifelse} forall
  /Encoding WinAnsiEncoding def
  currentdict
end
/Times-Bold exch definefont pop
%FOPEndFontReencode
%%EndProlog
%%Page: 1 1
%%PageBoundingBox: 0 0 213 160
%%BeginPageSetup
[1 0 0 -1 0 160] CT
%%EndPageSetup
GS
[0.75 0 0 0.75 0 0.25] CT
N
0 0 M
284 0 L
284 213 L
0 213 L
0 0 L
cp
clip
1 GC
N
0 0 284 213 re
f
GR
GS
[0.75 0 0 0.75 0 0.25] CT
1 GC
N
0 0 284 213 re
f
GR
GS
[0.75 0 0 0.75 0 0.25] CT
1 GC
N
43 172 M
257 172 L
257 16 L
43 16 L
cp
f
GR
GS
[0.75 0 0 0.75 0 0.25] CT
0.775 GC
[1 3] 0 setdash
2 LJ
0.667 LW
N
63.131 172 M
63.131 16 L
S
GR
GS
[0.75 0 0 0.75 0 0.25] CT
0.775 GC
[1 3] 0 setdash
2 LJ
0.667 LW
N
74.907 172 M
74.907 16 L
S
GR
GS
[0.75 0 0 0.75 0 0.25] CT
0.775 GC
[1 3] 0 setdash
2 LJ
0.667 LW
N
83.263 172 M
83.263 16 L
S
GR
GS
[0.75 0 0 0.75 0 0.25] CT
0.775 GC
[1 3] 0 setdash
2 LJ
0.667 LW
N
89.744 172 M
89.744 16 L
S
GR
GS
[0.75 0 0 0.75 0 0.25] CT
0.775 GC
[1 3] 0 setdash
2 LJ
0.667 LW
N
95.039 172 M
95.039 16 L
S
GR
GS
[0.75 0 0 0.75 0 0.25] CT
0.775 GC
[1 3] 0 setdash
2 LJ
0.667 LW
N
99.516 172 M
99.516 16 L
S
GR
GS
[0.75 0 0 0.75 0 0.25] CT
0.775 GC
[1 3] 0 setdash
2 LJ
0.667 LW
N
103.394 172 M
103.394 16 L
S
GR
GS
[0.75 0 0 0.75 0 0.25] CT
0.775 GC
[1 3] 0 setdash
2 LJ
0.667 LW
N
106.815 172 M
106.815 16 L
S
GR
GS
[0.75 0 0 0.75 0 0.25] CT
0.775 GC
[1 3] 0 setdash
2 LJ
0.667 LW
N
109.875 172 M
109.875 16 L
S
GR
GS
[0.75 0 0 0.75 0 0.25] CT
0.775 GC
[1 3] 0 setdash
2 LJ
0.667 LW
N
130.006 172 M
130.006 16 L
S
GR
GS
[0.75 0 0 0.75 0 0.25] CT
0.775 GC
[1 3] 0 setdash
2 LJ
0.667 LW
N
141.782 172 M
141.782 16 L
S
GR
GS
[0.75 0 0 0.75 0 0.25] CT
0.775 GC
[1 3] 0 setdash
2 LJ
0.667 LW
N
150.138 172 M
150.138 16 L
S
GR
GS
[0.75 0 0 0.75 0 0.25] CT
0.775 GC
[1 3] 0 setdash
2 LJ
0.667 LW
N
156.619 172 M
156.619 16 L
S
GR
GS
[0.75 0 0 0.75 0 0.25] CT
0.775 GC
[1 3] 0 setdash
2 LJ
0.667 LW
N
161.914 172 M
161.914 16 L
S
GR
GS
[0.75 0 0 0.75 0 0.25] CT
0.775 GC
[1 3] 0 setdash
2 LJ
0.667 LW
N
166.391 172 M
166.391 16 L
S
GR
GS
[0.75 0 0 0.75 0 0.25] CT
0.775 GC
[1 3] 0 setdash
2 LJ
0.667 LW
N
170.269 172 M
170.269 16 L
S
GR
GS
[0.75 0 0 0.75 0 0.25] CT
0.775 GC
[1 3] 0 setdash
2 LJ
0.667 LW
N
173.69 172 M
173.69 16 L
S
GR
GS
[0.75 0 0 0.75 0 0.25] CT
0.775 GC
[1 3] 0 setdash
2 LJ
0.667 LW
N
196.881 172 M
196.881 16 L
S
GR
GS
[0.75 0 0 0.75 0 0.25] CT
0.775 GC
[1 3] 0 setdash
2 LJ
0.667 LW
N
208.657 172 M
208.657 16 L
S
GR
GS
[0.75 0 0 0.75 0 0.25] CT
0.775 GC
[1 3] 0 setdash
2 LJ
0.667 LW
N
217.013 172 M
217.013 16 L
S
GR
GS
[0.75 0 0 0.75 0 0.25] CT
0.775 GC
[1 3] 0 setdash
2 LJ
0.667 LW
N
223.494 172 M
223.494 16 L
S
GR
GS
[0.75 0 0 0.75 0 0.25] CT
0.775 GC
[1 3] 0 setdash
2 LJ
0.667 LW
N
228.789 172 M
228.789 16 L
S
GR
GS
[0.75 0 0 0.75 0 0.25] CT
0.775 GC
[1 3] 0 setdash
2 LJ
0.667 LW
N
233.266 172 M
233.266 16 L
S
GR
GS
[0.75 0 0 0.75 0 0.25] CT
0.775 GC
[1 3] 0 setdash
2 LJ
0.667 LW
N
237.144 172 M
237.144 16 L
S
GR
GS
[0.75 0 0 0.75 0 0.25] CT
0.775 GC
[1 3] 0 setdash
2 LJ
0.667 LW
N
240.565 172 M
240.565 16 L
S
GR
GS
[0.75 0 0 0.75 0 0.25] CT
0.775 GC
[1 3] 0 setdash
2 LJ
0.667 LW
N
243.625 172 M
243.625 16 L
S
GR
GS
[0.75 0 0 0.75 0 0.25] CT
0.873 GC
1 LJ
0.667 LW
N
43 172 M
43 16 L
S
GR
GS
[0.75 0 0 0.75 0 0.25] CT
0.873 GC
1 LJ
0.667 LW
N
176.75 172 M
176.75 16 L
S
GR
GS
[0.75 0 0 0.75 0 0.25] CT
0.873 GC
1 LJ
0.667 LW
N
257 172 M
43 172 L
S
GR
GS
[0.75 0 0 0.75 0 0.25] CT
0.873 GC
1 LJ
0.667 LW
N
257 133 M
43 133 L
S
GR
GS
[0.75 0 0 0.75 0 0.25] CT
0.873 GC
1 LJ
0.667 LW
N
257 94 M
43 94 L
S
GR
GS
[0.75 0 0 0.75 0 0.25] CT
0.873 GC
1 LJ
0.667 LW
N
257 55 M
43 55 L
S
GR
GS
[0.75 0 0 0.75 0 0.25] CT
0.873 GC
1 LJ
0.667 LW
N
257 16 M
43 16 L
S
GR
GS
[0.75 0 0 0.75 0 0.25] CT
0.149 GC
2 setlinecap
1 LJ
0.667 LW
N
43 172 M
257 172 L
S
GR
GS
[0.75 0 0 0.75 0 0.25] CT
0.149 GC
2 setlinecap
1 LJ
0.667 LW
N
43 16 M
257 16 L
S
GR
GS
[0.75 0 0 0.75 0 0.25] CT
0.149 GC
2 setlinecap
1 LJ
0.667 LW
N
43 172 M
43 169.86 L
S
GR
GS
[0.75 0 0 0.75 0 0.25] CT
0.149 GC
2 setlinecap
1 LJ
0.667 LW
N
176.75 172 M
176.75 169.86 L
S
GR
GS
[0.75 0 0 0.75 0 0.25] CT
0.149 GC
2 setlinecap
1 LJ
0.667 LW
N
43 16 M
43 18.14 L
S
GR
GS
[0.75 0 0 0.75 0 0.25] CT
0.149 GC
2 setlinecap
1 LJ
0.667 LW
N
176.75 16 M
176.75 18.14 L
S
GR
GS
[0.75 0 0 0.75 0 0.25] CT
0.149 GC
2 setlinecap
1 LJ
0.667 LW
N
43 172 M
43 170.93 L
S
GR
GS
[0.75 0 0 0.75 0 0.25] CT
0.149 GC
2 setlinecap
1 LJ
0.667 LW
N
63.131 172 M
63.131 170.93 L
S
GR
GS
[0.75 0 0 0.75 0 0.25] CT
0.149 GC
2 setlinecap
1 LJ
0.667 LW
N
74.907 172 M
74.907 170.93 L
S
GR
GS
[0.75 0 0 0.75 0 0.25] CT
0.149 GC
2 setlinecap
1 LJ
0.667 LW
N
83.263 172 M
83.263 170.93 L
S
GR
GS
[0.75 0 0 0.75 0 0.25] CT
0.149 GC
2 setlinecap
1 LJ
0.667 LW
N
89.744 172 M
89.744 170.93 L
S
GR
GS
[0.75 0 0 0.75 0 0.25] CT
0.149 GC
2 setlinecap
1 LJ
0.667 LW
N
95.039 172 M
95.039 170.93 L
S
GR
GS
[0.75 0 0 0.75 0 0.25] CT
0.149 GC
2 setlinecap
1 LJ
0.667 LW
N
99.516 172 M
99.516 170.93 L
S
GR
GS
[0.75 0 0 0.75 0 0.25] CT
0.149 GC
2 setlinecap
1 LJ
0.667 LW
N
103.394 172 M
103.394 170.93 L
S
GR
GS
[0.75 0 0 0.75 0 0.25] CT
0.149 GC
2 setlinecap
1 LJ
0.667 LW
N
106.815 172 M
106.815 170.93 L
S
GR
GS
[0.75 0 0 0.75 0 0.25] CT
0.149 GC
2 setlinecap
1 LJ
0.667 LW
N
109.875 172 M
109.875 170.93 L
S
GR
GS
[0.75 0 0 0.75 0 0.25] CT
0.149 GC
2 setlinecap
1 LJ
0.667 LW
N
130.006 172 M
130.006 170.93 L
S
GR
GS
[0.75 0 0 0.75 0 0.25] CT
0.149 GC
2 setlinecap
1 LJ
0.667 LW
N
141.782 172 M
141.782 170.93 L
S
GR
GS
[0.75 0 0 0.75 0 0.25] CT
0.149 GC
2 setlinecap
1 LJ
0.667 LW
N
150.138 172 M
150.138 170.93 L
S
GR
GS
[0.75 0 0 0.75 0 0.25] CT
0.149 GC
2 setlinecap
1 LJ
0.667 LW
N
156.619 172 M
156.619 170.93 L
S
GR
GS
[0.75 0 0 0.75 0 0.25] CT
0.149 GC
2 setlinecap
1 LJ
0.667 LW
N
161.914 172 M
161.914 170.93 L
S
GR
GS
[0.75 0 0 0.75 0 0.25] CT
0.149 GC
2 setlinecap
1 LJ
0.667 LW
N
166.391 172 M
166.391 170.93 L
S
GR
GS
[0.75 0 0 0.75 0 0.25] CT
0.149 GC
2 setlinecap
1 LJ
0.667 LW
N
170.269 172 M
170.269 170.93 L
S
GR
GS
[0.75 0 0 0.75 0 0.25] CT
0.149 GC
2 setlinecap
1 LJ
0.667 LW
N
173.69 172 M
173.69 170.93 L
S
GR
GS
[0.75 0 0 0.75 0 0.25] CT
0.149 GC
2 setlinecap
1 LJ
0.667 LW
N
176.75 172 M
176.75 170.93 L
S
GR
GS
[0.75 0 0 0.75 0 0.25] CT
0.149 GC
2 setlinecap
1 LJ
0.667 LW
N
196.881 172 M
196.881 170.93 L
S
GR
GS
[0.75 0 0 0.75 0 0.25] CT
0.149 GC
2 setlinecap
1 LJ
0.667 LW
N
208.657 172 M
208.657 170.93 L
S
GR
GS
[0.75 0 0 0.75 0 0.25] CT
0.149 GC
2 setlinecap
1 LJ
0.667 LW
N
217.013 172 M
217.013 170.93 L
S
GR
GS
[0.75 0 0 0.75 0 0.25] CT
0.149 GC
2 setlinecap
1 LJ
0.667 LW
N
223.494 172 M
223.494 170.93 L
S
GR
GS
[0.75 0 0 0.75 0 0.25] CT
0.149 GC
2 setlinecap
1 LJ
0.667 LW
N
228.789 172 M
228.789 170.93 L
S
GR
GS
[0.75 0 0 0.75 0 0.25] CT
0.149 GC
2 setlinecap
1 LJ
0.667 LW
N
233.266 172 M
233.266 170.93 L
S
GR
GS
[0.75 0 0 0.75 0 0.25] CT
0.149 GC
2 setlinecap
1 LJ
0.667 LW
N
237.144 172 M
237.144 170.93 L
S
GR
GS
[0.75 0 0 0.75 0 0.25] CT
0.149 GC
2 setlinecap
1 LJ
0.667 LW
N
240.565 172 M
240.565 170.93 L
S
GR
GS
[0.75 0 0 0.75 0 0.25] CT
0.149 GC
2 setlinecap
1 LJ
0.667 LW
N
243.625 172 M
243.625 170.93 L
S
GR
GS
[0.75 0 0 0.75 0 0.25] CT
0.149 GC
2 setlinecap
1 LJ
0.667 LW
N
43 16 M
43 17.07 L
S
GR
GS
[0.75 0 0 0.75 0 0.25] CT
0.149 GC
2 setlinecap
1 LJ
0.667 LW
N
63.131 16 M
63.131 17.07 L
S
GR
GS
[0.75 0 0 0.75 0 0.25] CT
0.149 GC
2 setlinecap
1 LJ
0.667 LW
N
74.907 16 M
74.907 17.07 L
S
GR
GS
[0.75 0 0 0.75 0 0.25] CT
0.149 GC
2 setlinecap
1 LJ
0.667 LW
N
83.263 16 M
83.263 17.07 L
S
GR
GS
[0.75 0 0 0.75 0 0.25] CT
0.149 GC
2 setlinecap
1 LJ
0.667 LW
N
89.744 16 M
89.744 17.07 L
S
GR
GS
[0.75 0 0 0.75 0 0.25] CT
0.149 GC
2 setlinecap
1 LJ
0.667 LW
N
95.039 16 M
95.039 17.07 L
S
GR
GS
[0.75 0 0 0.75 0 0.25] CT
0.149 GC
2 setlinecap
1 LJ
0.667 LW
N
99.516 16 M
99.516 17.07 L
S
GR
GS
[0.75 0 0 0.75 0 0.25] CT
0.149 GC
2 setlinecap
1 LJ
0.667 LW
N
103.394 16 M
103.394 17.07 L
S
GR
GS
[0.75 0 0 0.75 0 0.25] CT
0.149 GC
2 setlinecap
1 LJ
0.667 LW
N
106.815 16 M
106.815 17.07 L
S
GR
GS
[0.75 0 0 0.75 0 0.25] CT
0.149 GC
2 setlinecap
1 LJ
0.667 LW
N
109.875 16 M
109.875 17.07 L
S
GR
GS
[0.75 0 0 0.75 0 0.25] CT
0.149 GC
2 setlinecap
1 LJ
0.667 LW
N
130.006 16 M
130.006 17.07 L
S
GR
GS
[0.75 0 0 0.75 0 0.25] CT
0.149 GC
2 setlinecap
1 LJ
0.667 LW
N
141.782 16 M
141.782 17.07 L
S
GR
GS
[0.75 0 0 0.75 0 0.25] CT
0.149 GC
2 setlinecap
1 LJ
0.667 LW
N
150.138 16 M
150.138 17.07 L
S
GR
GS
[0.75 0 0 0.75 0 0.25] CT
0.149 GC
2 setlinecap
1 LJ
0.667 LW
N
156.619 16 M
156.619 17.07 L
S
GR
GS
[0.75 0 0 0.75 0 0.25] CT
0.149 GC
2 setlinecap
1 LJ
0.667 LW
N
161.914 16 M
161.914 17.07 L
S
GR
GS
[0.75 0 0 0.75 0 0.25] CT
0.149 GC
2 setlinecap
1 LJ
0.667 LW
N
166.391 16 M
166.391 17.07 L
S
GR
GS
[0.75 0 0 0.75 0 0.25] CT
0.149 GC
2 setlinecap
1 LJ
0.667 LW
N
170.269 16 M
170.269 17.07 L
S
GR
GS
[0.75 0 0 0.75 0 0.25] CT
0.149 GC
2 setlinecap
1 LJ
0.667 LW
N
173.69 16 M
173.69 17.07 L
S
GR
GS
[0.75 0 0 0.75 0 0.25] CT
0.149 GC
2 setlinecap
1 LJ
0.667 LW
N
176.75 16 M
176.75 17.07 L
S
GR
GS
[0.75 0 0 0.75 0 0.25] CT
0.149 GC
2 setlinecap
1 LJ
0.667 LW
N
196.881 16 M
196.881 17.07 L
S
GR
GS
[0.75 0 0 0.75 0 0.25] CT
0.149 GC
2 setlinecap
1 LJ
0.667 LW
N
208.657 16 M
208.657 17.07 L
S
GR
GS
[0.75 0 0 0.75 0 0.25] CT
0.149 GC
2 setlinecap
1 LJ
0.667 LW
N
217.013 16 M
217.013 17.07 L
S
GR
GS
[0.75 0 0 0.75 0 0.25] CT
0.149 GC
2 setlinecap
1 LJ
0.667 LW
N
223.494 16 M
223.494 17.07 L
S
GR
GS
[0.75 0 0 0.75 0 0.25] CT
0.149 GC
2 setlinecap
1 LJ
0.667 LW
N
228.789 16 M
228.789 17.07 L
S
GR
GS
[0.75 0 0 0.75 0 0.25] CT
0.149 GC
2 setlinecap
1 LJ
0.667 LW
N
233.266 16 M
233.266 17.07 L
S
GR
GS
[0.75 0 0 0.75 0 0.25] CT
0.149 GC
2 setlinecap
1 LJ
0.667 LW
N
237.144 16 M
237.144 17.07 L
S
GR
GS
[0.75 0 0 0.75 0 0.25] CT
0.149 GC
2 setlinecap
1 LJ
0.667 LW
N
240.565 16 M
240.565 17.07 L
S
GR
GS
[0.75 0 0 0.75 0 0.25] CT
0.149 GC
2 setlinecap
1 LJ
0.667 LW
N
243.625 16 M
243.625 17.07 L
S
GR
GS
[0.75 0 0 0.75 32.25 133.25] CT
0.149 GC
N
-8.13 11.2 M
-8.13 10.747 L
-6.505 10.747 -6.505 10.325 QT
-6.505 3.512 L
-7.177 3.825 -8.208 3.825 QT
-8.208 3.372 L
-6.615 3.372 -5.802 2.544 QT
-5.615 2.544 L
-5.568 2.544 -5.529 2.575 QT
-5.49 2.606 -5.49 2.653 QT
-5.49 10.325 L
-5.49 10.747 -3.865 10.747 QT
-3.865 11.2 L
-8.13 11.2 L
cp
f
GR
GS
[0.75 0 0 0.75 32.25 133.25] CT
0.149 GC
N
0.583 11.481 M
-1.01 11.481 -1.581 10.169 QT
-2.151 8.856 -2.151 7.059 QT
-2.151 5.919 -1.948 4.927 QT
-1.745 3.934 -1.135 3.239 QT
-0.526 2.544 0.583 2.544 QT
1.443 2.544 1.99 2.958 QT
2.536 3.372 2.818 4.036 QT
3.099 4.7 3.208 5.458 QT
3.318 6.216 3.318 7.059 QT
3.318 8.169 3.107 9.145 QT
2.896 10.122 2.294 10.802 QT
1.693 11.481 0.583 11.481 QT
cp
0.583 11.153 M
1.302 11.153 1.661 10.411 QT
2.021 9.669 2.099 8.762 QT
2.177 7.856 2.177 6.841 QT
2.177 5.872 2.099 5.044 QT
2.021 4.216 1.669 3.544 QT
1.318 2.872 0.583 2.872 QT
-0.151 2.872 -0.51 3.552 QT
-0.87 4.231 -0.948 5.052 QT
-1.026 5.872 -1.026 6.841 QT
-1.026 7.575 -0.995 8.216 QT
-0.964 8.856 -0.807 9.536 QT
-0.651 10.216 -0.315 10.684 QT
0.021 11.153 0.583 11.153 QT
cp
f
GR
GS
[0.75 0 0 0.75 32.25 133.25] CT
0.149 GC
N
4.453 6.361 M
4.453 6.127 L
4.453 6.096 4.469 6.065 QT
5.859 4.518 L
6.188 4.174 6.383 3.947 QT
6.578 3.721 6.773 3.416 QT
6.969 3.111 7.078 2.799 QT
7.188 2.486 7.188 2.127 QT
7.188 1.768 7.047 1.424 QT
6.906 1.08 6.641 0.885 QT
6.375 0.69 5.984 0.69 QT
5.594 0.69 5.281 0.924 QT
4.969 1.158 4.844 1.533 QT
4.891 1.518 4.938 1.518 QT
5.141 1.518 5.289 1.65 QT
5.438 1.783 5.438 2.002 QT
5.438 2.205 5.289 2.354 QT
5.141 2.502 4.938 2.502 QT
4.734 2.502 4.594 2.354 QT
4.453 2.205 4.453 2.002 QT
4.453 1.674 4.578 1.377 QT
4.703 1.08 4.945 0.846 QT
5.188 0.611 5.484 0.486 QT
5.781 0.361 6.125 0.361 QT
6.641 0.361 7.086 0.58 QT
7.531 0.799 7.789 1.197 QT
8.047 1.596 8.047 2.127 QT
8.047 2.518 7.875 2.869 QT
7.703 3.221 7.438 3.51 QT
7.172 3.799 6.75 4.166 QT
6.328 4.533 6.203 4.658 QT
5.172 5.627 L
6.047 5.627 L
6.688 5.627 7.109 5.619 QT
7.531 5.611 7.563 5.58 QT
7.672 5.471 7.781 4.752 QT
8.047 4.752 L
7.781 6.361 L
4.453 6.361 L
cp
f
GR
GS
[0.75 0 0 0.75 132.5625 133.25] CT
0.149 GC
N
/f117695946{-8.13 11.2 M
-8.13 10.747 L
-6.505 10.747 -6.505 10.325 QT
-6.505 3.512 L
-7.177 3.825 -8.208 3.825 QT
-8.208 3.372 L
-6.615 3.372 -5.802 2.544 QT
-5.615 2.544 L
-5.568 2.544 -5.529 2.575 QT
-5.49 2.606 -5.49 2.653 QT
-5.49 10.325 L
-5.49 10.747 -3.865 10.747 QT
-3.865 11.2 L
-8.13 11.2 L
cp}def
f117695946
f
GR
GS
[0.75 0 0 0.75 132.5625 133.25] CT
0.149 GC
N
/f2138031099{0.583 11.481 M
-1.01 11.481 -1.581 10.169 QT
-2.151 8.856 -2.151 7.059 QT
-2.151 5.919 -1.948 4.927 QT
-1.745 3.934 -1.135 3.239 QT
-0.526 2.544 0.583 2.544 QT
1.443 2.544 1.99 2.958 QT
2.536 3.372 2.818 4.036 QT
3.099 4.7 3.208 5.458 QT
3.318 6.216 3.318 7.059 QT
3.318 8.169 3.107 9.145 QT
2.896 10.122 2.294 10.802 QT
1.693 11.481 0.583 11.481 QT
cp
0.583 11.153 M
1.302 11.153 1.661 10.411 QT
2.021 9.669 2.099 8.762 QT
2.177 7.856 2.177 6.841 QT
2.177 5.872 2.099 5.044 QT
2.021 4.216 1.669 3.544 QT
1.318 2.872 0.583 2.872 QT
-0.151 2.872 -0.51 3.552 QT
-0.87 4.231 -0.948 5.052 QT
-1.026 5.872 -1.026 6.841 QT
-1.026 7.575 -0.995 8.216 QT
-0.964 8.856 -0.807 9.536 QT
-0.651 10.216 -0.315 10.684 QT
0.021 11.153 0.583 11.153 QT
cp}def
f2138031099
f
GR
GS
[0.75 0 0 0.75 132.5625 133.25] CT
0.149 GC
N
/f968019605{4.25 4.877 M
4.25 4.565 L
7.031 0.408 L
7.063 0.361 7.125 0.361 QT
7.25 0.361 L
7.359 0.361 7.359 0.471 QT
7.359 4.565 L
8.234 4.565 L
8.234 4.877 L
7.359 4.877 L
7.359 5.752 L
7.359 5.94 7.625 5.994 QT
7.891 6.049 8.234 6.049 QT
8.234 6.361 L
5.75 6.361 L
5.75 6.049 L
6.094 6.049 6.359 5.994 QT
6.625 5.94 6.625 5.752 QT
6.625 4.877 L
4.25 4.877 L
cp
4.547 4.565 M
6.688 4.565 L
6.688 1.377 L
4.547 4.565 L
cp}def
f968019605
f
GR
GS
[0.75 0 0 0.75 112.50008 147] CT
0.149 GC
N
/f-2035873689{-17.034 12.32 M
-17.034 11.789 L
-16.534 11.789 -16.206 11.711 QT
-15.878 11.632 -15.878 11.32 QT
-15.878 6.382 L
-17.019 6.382 L
-17.019 5.851 L
-15.878 5.851 L
-15.878 4.054 L
-15.878 3.57 -15.675 3.148 QT
-15.472 2.726 -15.128 2.414 QT
-14.784 2.101 -14.339 1.922 QT
-13.894 1.742 -13.425 1.742 QT
-12.925 1.742 -12.519 2.047 QT
-12.112 2.351 -12.112 2.836 QT
-12.112 3.132 -12.3 3.328 QT
-12.487 3.523 -12.784 3.523 QT
-13.065 3.523 -13.269 3.328 QT
-13.472 3.132 -13.472 2.836 QT
-13.472 2.367 -13.065 2.211 QT
-13.3 2.132 -13.503 2.132 QT
-13.94 2.132 -14.253 2.445 QT
-14.565 2.757 -14.714 3.203 QT
-14.862 3.648 -14.862 4.086 QT
-14.862 5.851 L
-13.144 5.851 L
-13.144 6.382 L
-14.815 6.382 L
-14.815 11.32 L
-14.815 11.617 -14.378 11.703 QT
-13.94 11.789 -13.362 11.789 QT
-13.362 12.32 L
-17.034 12.32 L
cp}def
f-2035873689
f
GR
GS
[0.75 0 0 0.75 112.50008 147] CT
0.149 GC
N
/f2028202385{-6.383 16.07 M
-6.383 1.07 L
-4.32 1.07 L
-4.32 1.664 L
-5.773 1.664 L
-5.773 15.476 L
-4.32 15.476 L
-4.32 16.07 L
-6.383 16.07 L
cp}def
f2028202385
f
GR
GS
[0.75 0 0 0.75 112.50008 147] CT
0.149 GC
N
/f-374141431{-3.605 12.32 M
-3.605 11.789 L
-2.074 11.789 -2.074 11.32 QT
-2.074 3.07 L
-2.074 2.601 -3.605 2.601 QT
-3.605 2.07 L
0.879 2.07 L
0.879 2.601 L
-0.668 2.601 -0.668 3.07 QT
-0.668 6.726 L
3.754 6.726 L
3.754 3.07 L
3.754 2.601 2.207 2.601 QT
2.207 2.07 L
6.692 2.07 L
6.692 2.601 L
5.16 2.601 5.16 3.07 QT
5.16 11.32 L
5.16 11.789 6.692 11.789 QT
6.692 12.32 L
2.207 12.32 L
2.207 11.789 L
3.754 11.789 3.754 11.32 QT
3.754 7.257 L
-0.668 7.257 L
-0.668 11.32 L
-0.668 11.789 0.879 11.789 QT
0.879 12.32 L
-3.605 12.32 L
cp}def
f-374141431
f
GR
GS
[0.75 0 0 0.75 112.50008 147] CT
0.149 GC
N
/f-353581992{7.52 12.32 M
7.348 12.32 7.348 12.148 QT
7.348 12.039 L
7.348 11.976 7.395 11.929 QT
11.582 6.242 L
10.223 6.242 L
9.598 6.242 9.184 6.328 QT
8.77 6.414 8.496 6.632 QT
8.223 6.851 8.106 7.242 QT
7.988 7.632 7.988 8.336 QT
7.551 8.336 L
7.723 5.851 L
12.754 5.851 L
12.817 5.851 12.863 5.898 QT
12.91 5.945 12.91 6.023 QT
12.91 6.101 L
12.91 6.148 12.879 6.211 QT
8.692 11.882 L
10.113 11.882 L
10.77 11.882 11.207 11.804 QT
11.645 11.726 11.957 11.414 QT
12.238 11.132 12.34 10.648 QT
12.442 10.164 12.504 9.461 QT
12.942 9.461 L
12.676 12.32 L
7.52 12.32 L
cp}def
f-353581992
f
GR
GS
[0.75 0 0 0.75 112.50008 147] CT
0.149 GC
N
/f-1726549143{13.773 16.07 M
13.773 15.476 L
15.226 15.476 L
15.226 1.664 L
13.773 1.664 L
13.773 1.07 L
15.835 1.07 L
15.835 16.07 L
13.773 16.07 L
cp}def
f-1726549143
f
GR
GS
[0.75 0 0 0.75 0 0.25] CT
0.149 GC
2 setlinecap
1 LJ
0.667 LW
N
43 172 M
43 16 L
S
GR
GS
[0.75 0 0 0.75 0 0.25] CT
0.149 GC
2 setlinecap
1 LJ
0.667 LW
N
257 172 M
257 16 L
S
GR
GS
[0.75 0 0 0.75 0 0.25] CT
0.149 GC
2 setlinecap
1 LJ
0.667 LW
N
43 172 M
45.14 172 L
S
GR
GS
[0.75 0 0 0.75 0 0.25] CT
0.149 GC
2 setlinecap
1 LJ
0.667 LW
N
43 133 M
45.14 133 L
S
GR
GS
[0.75 0 0 0.75 0 0.25] CT
0.149 GC
2 setlinecap
1 LJ
0.667 LW
N
43 94 M
45.14 94 L
S
GR
GS
[0.75 0 0 0.75 0 0.25] CT
0.149 GC
2 setlinecap
1 LJ
0.667 LW
N
43 55 M
45.14 55 L
S
GR
GS
[0.75 0 0 0.75 0 0.25] CT
0.149 GC
2 setlinecap
1 LJ
0.667 LW
N
43 16 M
45.14 16 L
S
GR
GS
[0.75 0 0 0.75 0 0.25] CT
0.149 GC
2 setlinecap
1 LJ
0.667 LW
N
257 172 M
254.86 172 L
S
GR
GS
[0.75 0 0 0.75 0 0.25] CT
0.149 GC
2 setlinecap
1 LJ
0.667 LW
N
257 133 M
254.86 133 L
S
GR
GS
[0.75 0 0 0.75 0 0.25] CT
0.149 GC
2 setlinecap
1 LJ
0.667 LW
N
257 94 M
254.86 94 L
S
GR
GS
[0.75 0 0 0.75 0 0.25] CT
0.149 GC
2 setlinecap
1 LJ
0.667 LW
N
257 55 M
254.86 55 L
S
GR
GS
[0.75 0 0 0.75 0 0.25] CT
0.149 GC
2 setlinecap
1 LJ
0.667 LW
N
257 16 M
254.86 16 L
S
GR
GS
[0.75 0 0 0.75 28.25 129.25] CT
0.149 GC
N
/f-2026418800{-3.417 3.481 M
-5.01 3.481 -5.581 2.169 QT
-6.151 0.856 -6.151 -0.941 QT
-6.151 -2.081 -5.948 -3.073 QT
-5.745 -4.066 -5.135 -4.761 QT
-4.526 -5.456 -3.417 -5.456 QT
-2.557 -5.456 -2.01 -5.042 QT
-1.464 -4.628 -1.182 -3.964 QT
-0.901 -3.3 -0.792 -2.542 QT
-0.682 -1.784 -0.682 -0.941 QT
-0.682 0.169 -0.893 1.145 QT
-1.104 2.122 -1.706 2.802 QT
-2.307 3.481 -3.417 3.481 QT
cp
-3.417 3.153 M
-2.698 3.153 -2.339 2.411 QT
-1.979 1.669 -1.901 0.762 QT
-1.823 -0.144 -1.823 -1.159 QT
-1.823 -2.128 -1.901 -2.956 QT
-1.979 -3.784 -2.331 -4.456 QT
-2.682 -5.128 -3.417 -5.128 QT
-4.151 -5.128 -4.51 -4.448 QT
-4.87 -3.769 -4.948 -2.948 QT
-5.026 -2.128 -5.026 -1.159 QT
-5.026 -0.425 -4.995 0.216 QT
-4.964 0.856 -4.807 1.536 QT
-4.651 2.216 -4.315 2.684 QT
-3.979 3.153 -3.417 3.153 QT
cp}def
f-2026418800
f
GR
GS
[0.75 0 0 0.75 28.25 100] CT
0.149 GC
N
/f1525863041{-12.13 3.2 M
-12.13 2.747 L
-10.505 2.747 -10.505 2.325 QT
-10.505 -4.488 L
-11.177 -4.175 -12.208 -4.175 QT
-12.208 -4.628 L
-10.615 -4.628 -9.802 -5.456 QT
-9.615 -5.456 L
-9.568 -5.456 -9.529 -5.425 QT
-9.49 -5.394 -9.49 -5.347 QT
-9.49 2.325 L
-9.49 2.747 -7.865 2.747 QT
-7.865 3.2 L
-12.13 3.2 L
cp}def
f1525863041
f
GR
GS
[0.75 0 0 0.75 28.25 100] CT
0.149 GC
N
f-2026418800
f
GR
GS
[0.75 0 0 0.75 28.25 70.75] CT
0.149 GC
N
/f1626408430{-12.693 3.2 M
-12.693 2.856 L
-12.693 2.825 -12.661 2.778 QT
-10.646 0.544 L
-10.177 0.044 -9.896 -0.292 QT
-9.615 -0.628 -9.333 -1.066 QT
-9.052 -1.503 -8.888 -1.956 QT
-8.724 -2.409 -8.724 -2.909 QT
-8.724 -3.441 -8.927 -3.933 QT
-9.13 -4.425 -9.521 -4.714 QT
-9.911 -5.003 -10.458 -5.003 QT
-11.021 -5.003 -11.474 -4.659 QT
-11.927 -4.316 -12.115 -3.784 QT
-12.052 -3.8 -11.974 -3.8 QT
-11.677 -3.8 -11.474 -3.605 QT
-11.271 -3.409 -11.271 -3.097 QT
-11.271 -2.8 -11.474 -2.589 QT
-11.677 -2.378 -11.974 -2.378 QT
-12.271 -2.378 -12.482 -2.589 QT
-12.693 -2.8 -12.693 -3.097 QT
-12.693 -3.581 -12.505 -4.011 QT
-12.318 -4.441 -11.974 -4.769 QT
-11.63 -5.097 -11.193 -5.277 QT
-10.755 -5.456 -10.271 -5.456 QT
-9.521 -5.456 -8.88 -5.144 QT
-8.24 -4.831 -7.865 -4.253 QT
-7.49 -3.675 -7.49 -2.909 QT
-7.49 -2.347 -7.74 -1.839 QT
-7.99 -1.331 -8.372 -0.917 QT
-8.755 -0.503 -9.365 0.028 QT
-9.974 0.559 -10.161 0.731 QT
-11.63 2.153 L
-10.38 2.153 L
-9.458 2.153 -8.841 2.137 QT
-8.224 2.122 -8.193 2.075 QT
-8.036 1.919 -7.88 0.887 QT
-7.49 0.887 L
-7.865 3.2 L
-12.693 3.2 L
cp}def
f1626408430
f
GR
GS
[0.75 0 0 0.75 28.25 70.75] CT
0.149 GC
N
f-2026418800
f
GR
GS
[0.75 0 0 0.75 28.25 41.5] CT
0.149 GC
N
/f1940848200{-12.099 2.2 M
-11.786 2.637 -11.271 2.856 QT
-10.755 3.075 -10.177 3.075 QT
-9.411 3.075 -9.099 2.427 QT
-8.786 1.778 -8.786 0.966 QT
-8.786 0.591 -8.849 0.223 QT
-8.911 -0.144 -9.076 -0.456 QT
-9.24 -0.769 -9.513 -0.964 QT
-9.786 -1.159 -10.177 -1.159 QT
-11.052 -1.159 L
-11.161 -1.159 -11.161 -1.269 QT
-11.161 -1.394 L
-11.161 -1.488 -11.052 -1.488 QT
-10.333 -1.55 L
-9.88 -1.55 -9.576 -1.894 QT
-9.271 -2.238 -9.13 -2.73 QT
-8.99 -3.222 -8.99 -3.659 QT
-8.99 -4.284 -9.279 -4.683 QT
-9.568 -5.081 -10.177 -5.081 QT
-10.661 -5.081 -11.115 -4.894 QT
-11.568 -4.706 -11.833 -4.331 QT
-11.802 -4.331 -11.786 -4.339 QT
-11.771 -4.347 -11.74 -4.347 QT
-11.458 -4.347 -11.263 -4.144 QT
-11.068 -3.941 -11.068 -3.644 QT
-11.068 -3.363 -11.263 -3.159 QT
-11.458 -2.956 -11.74 -2.956 QT
-12.036 -2.956 -12.24 -3.159 QT
-12.443 -3.363 -12.443 -3.644 QT
-12.443 -4.206 -12.107 -4.62 QT
-11.771 -5.034 -11.24 -5.245 QT
-10.708 -5.456 -10.177 -5.456 QT
-9.771 -5.456 -9.333 -5.339 QT
-8.896 -5.222 -8.544 -5.003 QT
-8.193 -4.784 -7.966 -4.441 QT
-7.74 -4.097 -7.74 -3.659 QT
-7.74 -3.113 -7.982 -2.652 QT
-8.224 -2.191 -8.654 -1.855 QT
-9.083 -1.519 -9.583 -1.347 QT
-9.021 -1.238 -8.513 -0.925 QT
-8.005 -0.613 -7.701 -0.113 QT
-7.396 0.387 -7.396 0.95 QT
-7.396 1.669 -7.786 2.247 QT
-8.177 2.825 -8.818 3.153 QT
-9.458 3.481 -10.177 3.481 QT
-10.786 3.481 -11.396 3.255 QT
-12.005 3.028 -12.396 2.559 QT
-12.786 2.091 -12.786 1.45 QT
-12.786 1.122 -12.568 0.911 QT
-12.349 0.7 -12.036 0.7 QT
-11.818 0.7 -11.646 0.794 QT
-11.474 0.887 -11.372 1.067 QT
-11.271 1.247 -11.271 1.45 QT
-11.271 1.762 -11.497 1.981 QT
-11.724 2.2 -12.036 2.2 QT
-12.099 2.2 L
cp}def
f1940848200
f
GR
GS
[0.75 0 0 0.75 28.25 41.5] CT
0.149 GC
N
f-2026418800
f
GR
GS
[0.75 0 0 0.75 28.25 12.25] CT
0.149 GC
N
/f-1847366670{-12.974 1.059 M
-12.974 0.591 L
-8.958 -5.394 L
-8.911 -5.456 -8.818 -5.456 QT
-8.63 -5.456 L
-8.49 -5.456 -8.49 -5.316 QT
-8.49 0.591 L
-7.208 0.591 L
-7.208 1.059 L
-8.49 1.059 L
-8.49 2.325 L
-8.49 2.591 -8.107 2.669 QT
-7.724 2.747 -7.224 2.747 QT
-7.224 3.2 L
-10.802 3.2 L
-10.802 2.747 L
-10.302 2.747 -9.919 2.669 QT
-9.536 2.591 -9.536 2.325 QT
-9.536 1.059 L
-12.974 1.059 L
cp
-12.536 0.591 M
-9.458 0.591 L
-9.458 -4.003 L
-12.536 0.591 L
cp}def
f-1847366670
f
GR
GS
[0.75 0 0 0.75 28.25 12.25] CT
0.149 GC
N
f-2026418800
f
GR
GS
[0 -0.75 0.75 0 12 81.25] CT
0.149 GC
N
/f-1202883411{2.906 2.922 M
3.578 0.219 L
2.813 0.219 2.156 -0.141 QT
1.5 -0.5 1.102 -1.133 QT
0.703 -1.766 0.703 -2.516 QT
0.703 -3.328 1.109 -4.07 QT
1.516 -4.813 2.211 -5.414 QT
2.906 -6.016 3.711 -6.344 QT
4.516 -6.672 5.313 -6.672 QT
6.219 -10.313 L
6.234 -10.406 6.328 -10.406 QT
6.516 -10.406 L
6.563 -10.406 6.602 -10.359 QT
6.641 -10.313 6.641 -10.266 QT
5.75 -6.672 L
6.313 -6.672 6.836 -6.469 QT
7.359 -6.266 7.766 -5.891 QT
8.172 -5.516 8.398 -5.016 QT
8.625 -4.516 8.625 -3.953 QT
8.625 -3.141 8.227 -2.398 QT
7.828 -1.656 7.141 -1.063 QT
6.453 -0.469 5.617 -0.125 QT
4.781 0.219 4.016 0.219 QT
3.328 2.984 L
3.297 3.078 3.203 3.078 QT
3.031 3.078 L
2.969 3.078 2.938 3.023 QT
2.906 2.969 2.906 2.922 QT
cp
3.672 -0.188 M
5.203 -6.281 L
4.828 -6.281 4.406 -6.133 QT
3.984 -5.984 3.617 -5.75 QT
3.25 -5.516 2.953 -5.203 QT
2.578 -4.844 2.305 -4.344 QT
2.031 -3.844 1.891 -3.289 QT
1.75 -2.734 1.75 -2.203 QT
1.75 -1.641 1.992 -1.18 QT
2.234 -0.719 2.672 -0.453 QT
3.109 -0.188 3.672 -0.188 QT
cp
4.125 -0.188 M
4.688 -0.188 5.328 -0.508 QT
5.969 -0.828 6.375 -1.266 QT
6.938 -1.813 7.266 -2.625 QT
7.594 -3.438 7.594 -4.266 QT
7.594 -4.813 7.352 -5.281 QT
7.109 -5.75 6.664 -6.016 QT
6.219 -6.281 5.656 -6.281 QT
4.125 -0.188 L
cp}def
f-1202883411
f
GR
GS
[0 -0.75 0.75 0 12 74.5] CT
0.149 GC
/Helvetica 14.667 F
GS
[1 0 0 1 0 0] CT
0 0 moveto 
1 -1 scale
( [\260]) t 
GR
GR
GS
[0.75 0 0 0.75 32.25 129.25] CT
0 0.447 0.741 RC
10.0 ML
0.667 LW
N
0 -4 M
0 4 L
-4 0 M
4 0 L
-2.828 -2.828 M
2.828 2.828 L
-2.828 2.828 M
2.828 -2.828 L
S
GR
GS
[0.75 0 0 0.75 42.28125 129.25] CT
0 0.447 0.741 RC
10.0 ML
0.667 LW
N
0 -4 M
0 4 L
-4 0 M
4 0 L
-2.828 -2.828 M
2.828 2.828 L
-2.828 2.828 M
2.828 -2.828 L
S
GR
GS
[0.75 0 0 0.75 52.3125 129.25] CT
0 0.447 0.741 RC
10.0 ML
0.667 LW
N
0 -4 M
0 4 L
-4 0 M
4 0 L
-2.828 -2.828 M
2.828 2.828 L
-2.828 2.828 M
2.828 -2.828 L
S
GR
GS
[0.75 0 0 0.75 62.34375 128.92093] CT
0 0.447 0.741 RC
10.0 ML
0.667 LW
N
0 -4 M
0 4 L
-4 0 M
4 0 L
-2.828 -2.828 M
2.828 2.828 L
-2.828 2.828 M
2.828 -2.828 L
S
GR
GS
[0.75 0 0 0.75 72.375 128.92096] CT
0 0.447 0.741 RC
10.0 ML
0.667 LW
N
0 -4 M
0 4 L
-4 0 M
4 0 L
-2.828 -2.828 M
2.828 2.828 L
-2.828 2.828 M
2.828 -2.828 L
S
GR
GS
[0.75 0 0 0.75 82.40625 128.92094] CT
0 0.447 0.741 RC
10.0 ML
0.667 LW
N
0 -4 M
0 4 L
-4 0 M
4 0 L
-2.828 -2.828 M
2.828 2.828 L
-2.828 2.828 M
2.828 -2.828 L
S
GR
GS
[0.75 0 0 0.75 92.4375 127.93367] CT
0 0.447 0.741 RC
10.0 ML
0.667 LW
N
0 -4 M
0 4 L
-4 0 M
4 0 L
-2.828 -2.828 M
2.828 2.828 L
-2.828 2.828 M
2.828 -2.828 L
S
GR
GS
[0.75 0 0 0.75 102.46875 127.27516] CT
0 0.447 0.741 RC
10.0 ML
0.667 LW
N
0 -4 M
0 4 L
-4 0 M
4 0 L
-2.828 -2.828 M
2.828 2.828 L
-2.828 2.828 M
2.828 -2.828 L
S
GR
GS
[0.75 0 0 0.75 112.5 126.2883] CT
0 0.447 0.741 RC
10.0 ML
0.667 LW
N
0 -4 M
0 4 L
-4 0 M
4 0 L
-2.828 -2.828 M
2.828 2.828 L
-2.828 2.828 M
2.828 -2.828 L
S
GR
GS
[0.75 0 0 0.75 122.53125 124.31684] CT
0 0.447 0.741 RC
10.0 ML
0.667 LW
N
0 -4 M
0 4 L
-4 0 M
4 0 L
-2.828 -2.828 M
2.828 2.828 L
-2.828 2.828 M
2.828 -2.828 L
S
GR
GS
[0.75 0 0 0.75 132.5625 121.68156] CT
0 0.447 0.741 RC
10.0 ML
0.667 LW
N
0 -4 M
0 4 L
-4 0 M
4 0 L
-2.828 -2.828 M
2.828 2.828 L
-2.828 2.828 M
2.828 -2.828 L
S
GR
GS
[0.75 0 0 0.75 142.59375 117.42172] CT
0 0.447 0.741 RC
10.0 ML
0.667 LW
N
0 -4 M
0 4 L
-4 0 M
4 0 L
-2.828 -2.828 M
2.828 2.828 L
-2.828 2.828 M
2.828 -2.828 L
S
GR
GS
[0.75 0 0 0.75 152.625 110.49849] CT
0 0.447 0.741 RC
10.0 ML
0.667 LW
N
0 -4 M
0 4 L
-4 0 M
4 0 L
-2.828 -2.828 M
2.828 2.828 L
-2.828 2.828 M
2.828 -2.828 L
S
GR
GS
[0.75 0 0 0.75 162.65625 100.19897] CT
0 0.447 0.741 RC
10.0 ML
0.667 LW
N
0 -4 M
0 4 L
-4 0 M
4 0 L
-2.828 -2.828 M
2.828 2.828 L
-2.828 2.828 M
2.828 -2.828 L
S
GR
GS
[0.75 0 0 0.75 172.6875 84.30762] CT
0 0.447 0.741 RC
10.0 ML
0.667 LW
N
0 -4 M
0 4 L
-4 0 M
4 0 L
-2.828 -2.828 M
2.828 2.828 L
-2.828 2.828 M
2.828 -2.828 L
S
GR
GS
[0.75 0 0 0.75 182.71875 61.13407] CT
0 0.447 0.741 RC
10.0 ML
0.667 LW
N
0 -4 M
0 4 L
-4 0 M
4 0 L
-2.828 -2.828 M
2.828 2.828 L
-2.828 2.828 M
2.828 -2.828 L
S
GR
GS
[0.75 0 0 0.75 192.75 31.4529] CT
0 0.447 0.741 RC
10.0 ML
0.667 LW
N
0 -4 M
0 4 L
-4 0 M
4 0 L
-2.828 -2.828 M
2.828 2.828 L
-2.828 2.828 M
2.828 -2.828 L
S
GR
%%Trailer
%%Pages: 1
%%EOF
