%!PS-Adobe-3.0 EPSF-3.0
%%Creator: cairo 1.12.16 (http://cairographics.org)
%%CreationDate: Sun Sep 03 23:24:05 2017
%%Pages: 1
%%DocumentData: Clean7Bit
%%LanguageLevel: 2
%%BoundingBox: 0 0 198 149
%%EndComments
%%BeginProlog
save
50 dict begin
/q { gsave } bind def
/Q { grestore } bind def
/cm { 6 array astore concat } bind def
/w { setlinewidth } bind def
/J { setlinecap } bind def
/j { setlinejoin } bind def
/M { setmiterlimit } bind def
/d { setdash } bind def
/m { moveto } bind def
/l { lineto } bind def
/c { curveto } bind def
/h { closepath } bind def
/re { exch dup neg 3 1 roll 5 3 roll moveto 0 rlineto
      0 exch rlineto 0 rlineto closepath } bind def
/S { stroke } bind def
/f { fill } bind def
/f* { eofill } bind def
/n { newpath } bind def
/W { clip } bind def
/W* { eoclip } bind def
/BT { } bind def
/ET { } bind def
/pdfmark where { pop globaldict /?pdfmark /exec load put }
    { globaldict begin /?pdfmark /pop load def /pdfmark
    /cleartomark load def end } ifelse
/BDC { mark 3 1 roll /BDC pdfmark } bind def
/EMC { mark /EMC pdfmark } bind def
/cairo_store_point { /cairo_point_y exch def /cairo_point_x exch def } def
/Tj { show currentpoint cairo_store_point } bind def
/TJ {
  {
    dup
    type /stringtype eq
    { show } { -0.001 mul 0 cairo_font_matrix dtransform rmoveto } ifelse
  } forall
  currentpoint cairo_store_point
} bind def
/cairo_selectfont { cairo_font_matrix aload pop pop pop 0 0 6 array astore
    cairo_font exch selectfont cairo_point_x cairo_point_y moveto } bind def
/Tf { pop /cairo_font exch def /cairo_font_matrix where
      { pop cairo_selectfont } if } bind def
/Td { matrix translate cairo_font_matrix matrix concatmatrix dup
      /cairo_font_matrix exch def dup 4 get exch 5 get cairo_store_point
      /cairo_font where { pop cairo_selectfont } if } bind def
/Tm { 2 copy 8 2 roll 6 array astore /cairo_font_matrix exch def
      cairo_store_point /cairo_font where { pop cairo_selectfont } if } bind def
/g { setgray } bind def
/rg { setrgbcolor } bind def
/d1 { setcachedevice } bind def
%%EndProlog
%%Page: 1 1
%%BeginPageSetup
%%PageBoundingBox: 0 0 198 149
%%EndPageSetup
q 0 0 198 149 rectclip q
1 g
0 0 198 149 rectfill
33.5 148.5 158.25 -118.5 re f
0.776471 g
0.50025 w
0 J
2 j
[ 0.75 2.25] 0 d
10 M 45.41 30 m 45.41 148.5 l S
[ 0.75 2.25] 0 d
52.375 30 m 52.375 148.5 l S
[ 0.75 2.25] 0 d
57.32 30 m 57.32 148.5 l S
[ 0.75 2.25] 0 d
61.152 30 m 61.152 148.5 l S
[ 0.75 2.25] 0 d
64.285 30 m 64.285 148.5 l S
[ 0.75 2.25] 0 d
66.934 30 m 66.934 148.5 l S
[ 0.75 2.25] 0 d
69.227 30 m 69.227 148.5 l S
[ 0.75 2.25] 0 d
71.254 30 m 71.254 148.5 l S
[ 0.75 2.25] 0 d
73.063 30 m 73.063 148.5 l S
[ 0.75 2.25] 0 d
84.973 30 m 84.973 148.5 l S
[ 0.75 2.25] 0 d
91.938 30 m 91.938 148.5 l S
[ 0.75 2.25] 0 d
96.883 30 m 96.883 148.5 l S
[ 0.75 2.25] 0 d
100.715 30 m 100.715 148.5 l S
[ 0.75 2.25] 0 d
103.848 30 m 103.848 148.5 l S
[ 0.75 2.25] 0 d
106.496 30 m 106.496 148.5 l S
[ 0.75 2.25] 0 d
108.789 30 m 108.789 148.5 l S
[ 0.75 2.25] 0 d
110.813 30 m 110.813 148.5 l S
[ 0.75 2.25] 0 d
124.535 30 m 124.535 148.5 l S
[ 0.75 2.25] 0 d
131.5 30 m 131.5 148.5 l S
[ 0.75 2.25] 0 d
136.445 30 m 136.445 148.5 l S
[ 0.75 2.25] 0 d
140.277 30 m 140.277 148.5 l S
[ 0.75 2.25] 0 d
143.41 30 m 143.41 148.5 l S
[ 0.75 2.25] 0 d
146.059 30 m 146.059 148.5 l S
[ 0.75 2.25] 0 d
148.355 30 m 148.355 148.5 l S
[ 0.75 2.25] 0 d
150.379 30 m 150.379 148.5 l S
[ 0.75 2.25] 0 d
152.188 30 m 152.188 148.5 l S
[ 0.75 2.25] 0 d
164.098 30 m 164.098 148.5 l S
[ 0.75 2.25] 0 d
171.063 30 m 171.063 148.5 l S
[ 0.75 2.25] 0 d
176.008 30 m 176.008 148.5 l S
[ 0.75 2.25] 0 d
179.84 30 m 179.84 148.5 l S
[ 0.75 2.25] 0 d
182.973 30 m 182.973 148.5 l S
[ 0.75 2.25] 0 d
185.621 30 m 185.621 148.5 l S
[ 0.75 2.25] 0 d
187.914 30 m 187.914 148.5 l S
[ 0.75 2.25] 0 d
189.938 30 m 189.938 148.5 l S
0.87451 g
1 j
[] 0.0 d
33.5 30 m 33.5 148.5 l S
112.625 30 m 112.625 148.5 l S
191.75 30 m 191.75 148.5 l S
0.776471 g
2 j
[ 0.75 2.25] 0 d
191.75 41.875 m 33.5 41.875 l S
[ 0.75 2.25] 0 d
191.75 48.82 m 33.5 48.82 l S
[ 0.75 2.25] 0 d
191.75 53.746 m 33.5 53.746 l S
[ 0.75 2.25] 0 d
191.75 57.57 m 33.5 57.57 l S
[ 0.75 2.25] 0 d
191.75 60.691 m 33.5 60.691 l S
[ 0.75 2.25] 0 d
191.75 63.332 m 33.5 63.332 l S
[ 0.75 2.25] 0 d
191.75 65.621 m 33.5 65.621 l S
[ 0.75 2.25] 0 d
191.75 67.637 m 33.5 67.637 l S
[ 0.75 2.25] 0 d
191.75 69.445 m 33.5 69.445 l S
[ 0.75 2.25] 0 d
191.75 81.316 m 33.5 81.316 l S
[ 0.75 2.25] 0 d
191.75 88.262 m 33.5 88.262 l S
[ 0.75 2.25] 0 d
191.75 93.191 m 33.5 93.191 l S
[ 0.75 2.25] 0 d
191.75 97.012 m 33.5 97.012 l S
[ 0.75 2.25] 0 d
191.75 100.137 m 33.5 100.137 l S
[ 0.75 2.25] 0 d
191.75 102.777 m 33.5 102.777 l S
[ 0.75 2.25] 0 d
191.75 105.063 m 33.5 105.063 l S
[ 0.75 2.25] 0 d
191.75 107.082 m 33.5 107.082 l S
[ 0.75 2.25] 0 d
191.75 120.762 m 33.5 120.762 l S
[ 0.75 2.25] 0 d
191.75 127.703 m 33.5 127.703 l S
[ 0.75 2.25] 0 d
191.75 132.633 m 33.5 132.633 l S
[ 0.75 2.25] 0 d
191.75 136.457 m 33.5 136.457 l S
[ 0.75 2.25] 0 d
191.75 139.578 m 33.5 139.578 l S
[ 0.75 2.25] 0 d
191.75 142.219 m 33.5 142.219 l S
[ 0.75 2.25] 0 d
191.75 144.508 m 33.5 144.508 l S
[ 0.75 2.25] 0 d
191.75 146.523 m 33.5 146.523 l S
[ 0.75 2.25] 0 d
191.75 148.328 m 33.5 148.328 l S
0.87451 g
1 j
[] 0.0 d
191.75 30 m 33.5 30 l S
191.75 108.887 m 33.5 108.887 l S
0.14902 g
2 J
33.5 30 m 191.75 30 l S
33.5 148.5 m 191.75 148.5 l S
33.5 30 m 33.5 31.582 l S
112.625 30 m 112.625 31.582 l S
191.75 30 m 191.75 31.582 l S
33.5 148.5 m 33.5 146.918 l S
112.625 148.5 m 112.625 146.918 l S
191.75 148.5 m 191.75 146.918 l S
33.5 30 m 33.5 30.793 l S
45.41 30 m 45.41 30.793 l S
52.375 30 m 52.375 30.793 l S
57.32 30 m 57.32 30.793 l S
61.152 30 m 61.152 30.793 l S
64.285 30 m 64.285 30.793 l S
66.934 30 m 66.934 30.793 l S
69.227 30 m 69.227 30.793 l S
71.254 30 m 71.254 30.793 l S
73.063 30 m 73.063 30.793 l S
84.973 30 m 84.973 30.793 l S
91.938 30 m 91.938 30.793 l S
96.883 30 m 96.883 30.793 l S
100.715 30 m 100.715 30.793 l S
103.848 30 m 103.848 30.793 l S
106.496 30 m 106.496 30.793 l S
108.789 30 m 108.789 30.793 l S
110.813 30 m 110.813 30.793 l S
112.625 30 m 112.625 30.793 l S
124.535 30 m 124.535 30.793 l S
131.5 30 m 131.5 30.793 l S
136.445 30 m 136.445 30.793 l S
140.277 30 m 140.277 30.793 l S
143.41 30 m 143.41 30.793 l S
146.059 30 m 146.059 30.793 l S
148.355 30 m 148.355 30.793 l S
150.379 30 m 150.379 30.793 l S
152.188 30 m 152.188 30.793 l S
164.098 30 m 164.098 30.793 l S
171.063 30 m 171.063 30.793 l S
176.008 30 m 176.008 30.793 l S
179.84 30 m 179.84 30.793 l S
182.973 30 m 182.973 30.793 l S
185.621 30 m 185.621 30.793 l S
187.914 30 m 187.914 30.793 l S
189.938 30 m 189.938 30.793 l S
191.75 30 m 191.75 30.793 l S
33.5 148.5 m 33.5 147.711 l S
45.41 148.5 m 45.41 147.711 l S
52.375 148.5 m 52.375 147.711 l S
57.32 148.5 m 57.32 147.711 l S
61.152 148.5 m 61.152 147.711 l S
64.285 148.5 m 64.285 147.711 l S
66.934 148.5 m 66.934 147.711 l S
69.227 148.5 m 69.227 147.711 l S
71.254 148.5 m 71.254 147.711 l S
73.063 148.5 m 73.063 147.711 l S
84.973 148.5 m 84.973 147.711 l S
91.938 148.5 m 91.938 147.711 l S
96.883 148.5 m 96.883 147.711 l S
100.715 148.5 m 100.715 147.711 l S
103.848 148.5 m 103.848 147.711 l S
106.496 148.5 m 106.496 147.711 l S
108.789 148.5 m 108.789 147.711 l S
110.813 148.5 m 110.813 147.711 l S
112.625 148.5 m 112.625 147.711 l S
124.535 148.5 m 124.535 147.711 l S
131.5 148.5 m 131.5 147.711 l S
136.445 148.5 m 136.445 147.711 l S
140.277 148.5 m 140.277 147.711 l S
143.41 148.5 m 143.41 147.711 l S
146.059 148.5 m 146.059 147.711 l S
148.355 148.5 m 148.355 147.711 l S
150.379 148.5 m 150.379 147.711 l S
152.188 148.5 m 152.188 147.711 l S
164.098 148.5 m 164.098 147.711 l S
171.063 148.5 m 171.063 147.711 l S
176.008 148.5 m 176.008 147.711 l S
179.84 148.5 m 179.84 147.711 l S
182.973 148.5 m 182.973 147.711 l S
185.621 148.5 m 185.621 147.711 l S
187.914 148.5 m 187.914 147.711 l S
189.938 148.5 m 189.938 147.711 l S
191.75 148.5 m 191.75 147.711 l S
27.402 17.602 m 27.402 17.941 l 28.215 17.941 28.621 18.047 28.621 18.258
 c 28.621 23.367 l 28.285 23.211 27.859 23.133 27.344 23.133 c 27.344 23.473
 l 28.141 23.473 28.742 23.68 29.148 24.094 c 29.289 24.094 l 29.313 24.094
 29.332 24.086 29.352 24.07 c 29.371 24.055 29.383 24.035 29.383 24.012 
c 29.383 18.258 l 29.383 18.047 29.789 17.941 30.602 17.941 c 30.602 17.602
 l 27.402 17.602 l f
33.938 17.391 m 33.141 17.391 32.598 17.719 32.313 18.375 c 32.031 19.031
 31.887 19.809 31.887 20.707 c 31.887 21.277 31.938 21.809 32.039 22.305
 c 32.141 22.801 32.344 23.223 32.648 23.57 c 32.953 23.918 33.383 24.094
 33.938 24.094 c 34.367 24.094 34.719 23.988 34.992 23.781 c 35.266 23.574
 35.473 23.305 35.613 22.973 c 35.754 22.641 35.852 22.285 35.906 21.906
 c 35.961 21.527 35.988 21.129 35.988 20.707 c 35.988 20.152 35.938 19.629
 35.832 19.141 c 35.723 18.652 35.523 18.238 35.219 17.898 c 34.918 17.559
 34.492 17.391 33.938 17.391 c h
33.938 17.637 m 34.297 17.637 34.566 17.82 34.746 18.191 c 34.926 18.563
 35.035 18.977 35.074 19.43 c 35.113 19.883 35.133 20.363 35.133 20.867 
c 35.133 21.355 35.113 21.805 35.074 22.219 c 35.035 22.633 34.926 23.008
 34.75 23.344 c 34.578 23.68 34.305 23.848 33.938 23.848 c 33.57 23.848 
33.297 23.676 33.117 23.336 c 32.938 22.996 32.828 22.621 32.789 22.211 
c 32.75 21.801 32.73 21.355 32.73 20.867 c 32.73 20.504 32.738 20.16 32.754
 19.84 c 32.77 19.52 32.816 19.188 32.895 18.848 c 32.973 18.508 33.094 
18.223 33.266 17.988 c 33.43 17.754 33.656 17.637 33.938 17.637 c f
36.84 21.23 m 36.84 21.406 l 36.84 21.422 36.844 21.438 36.852 21.453 c
 37.895 22.609 l 38.059 22.785 38.191 22.926 38.285 23.039 c 38.387 23.152
 38.48 23.285 38.578 23.438 c 38.676 23.59 38.754 23.746 38.809 23.902 c
 38.863 24.059 38.891 24.227 38.891 24.406 c 38.891 24.586 38.855 24.762
 38.785 24.934 c 38.715 25.105 38.613 25.238 38.48 25.336 c 38.348 25.434
 38.184 25.48 37.988 25.48 c 37.793 25.48 37.617 25.422 37.461 25.309 c 
37.305 25.191 37.195 25.039 37.133 24.852 c 37.156 24.859 37.18 24.859 37.203
 24.859 c 37.305 24.859 37.395 24.828 37.469 24.762 c 37.543 24.695 37.578
 24.609 37.578 24.5 c 37.578 24.398 37.543 24.309 37.469 24.234 c 37.395
 24.16 37.305 24.125 37.203 24.125 c 37.102 24.125 37.016 24.16 36.945 24.234
 c 36.875 24.309 36.84 24.398 36.84 24.5 c 36.84 24.664 36.871 24.82 36.934
 24.969 c 36.996 25.117 37.09 25.25 37.207 25.367 c 37.332 25.484 37.465
 25.574 37.613 25.637 c 37.762 25.699 37.922 25.73 38.094 25.73 c 38.352
 25.73 38.594 25.676 38.816 25.566 c 39.035 25.457 39.215 25.301 39.344 
25.102 c 39.469 24.902 39.535 24.672 39.535 24.406 c 39.535 24.211 39.492
 24.023 39.406 23.848 c 39.32 23.672 39.211 23.512 39.078 23.367 c 38.945
 23.223 38.773 23.059 38.563 22.875 c 38.352 22.691 38.215 22.57 38.152 
22.508 c 37.379 21.781 l 38.035 21.781 l 38.355 21.781 38.621 21.781 38.832
 21.785 c 39.043 21.789 39.156 21.801 39.172 21.816 c 39.227 21.871 39.281
 22.078 39.336 22.438 c 39.535 22.438 l 39.336 21.23 l 36.84 21.23 l f
106.527 17.602 m 106.527 17.941 l 107.34 17.941 107.746 18.047 107.746 
18.258 c 107.746 23.367 l 107.41 23.211 106.984 23.133 106.469 23.133 c 
106.469 23.473 l 107.266 23.473 107.867 23.68 108.273 24.094 c 108.414 24.094
 l 108.438 24.094 108.461 24.086 108.477 24.07 c 108.496 24.055 108.508 
24.035 108.508 24.012 c 108.508 18.258 l 108.508 18.047 108.914 17.941 109.727
 17.941 c 109.727 17.602 l 106.527 17.602 l f
113.063 17.391 m 112.266 17.391 111.727 17.719 111.438 18.375 c 111.152
 19.031 111.012 19.809 111.012 20.707 c 111.012 21.277 111.063 21.809 111.164
 22.305 c 111.266 22.801 111.469 23.223 111.773 23.57 c 112.078 23.918 112.508
 24.094 113.063 24.094 c 113.492 24.094 113.844 23.988 114.117 23.781 c 
114.391 23.574 114.598 23.305 114.738 22.973 c 114.879 22.641 114.977 22.285
 115.031 21.906 c 115.086 21.527 115.113 21.129 115.113 20.707 c 115.113
 20.152 115.063 19.629 114.953 19.141 c 114.852 18.652 114.645 18.238 114.344
 17.898 c 114.047 17.559 113.617 17.391 113.063 17.391 c h
113.063 17.637 m 113.422 17.637 113.691 17.82 113.871 18.191 c 114.051 
18.563 114.16 18.977 114.199 19.43 c 114.238 19.883 114.258 20.363 114.258
 20.867 c 114.258 21.355 114.238 21.805 114.199 22.219 c 114.16 22.633 114.055
 23.008 113.879 23.344 c 113.699 23.68 113.43 23.848 113.063 23.848 c 112.695
 23.848 112.422 23.676 112.242 23.336 c 112.063 22.996 111.953 22.621 111.914
 22.211 c 111.875 21.801 111.855 21.355 111.855 20.867 c 111.855 20.504 
111.863 20.16 111.879 19.84 c 111.895 19.52 111.941 19.188 112.02 18.848
 c 112.098 18.508 112.223 18.223 112.391 17.988 c 112.559 17.754 112.781
 17.637 113.063 17.637 c f
115.813 22.344 m 115.813 22.578 l 117.898 25.695 l 117.914 25.719 117.938
 25.73 117.969 25.73 c 118.063 25.73 l 118.117 25.73 118.145 25.703 118.145
 25.648 c 118.145 22.578 l 118.801 22.578 l 118.801 22.344 l 118.145 22.344
 l 118.145 21.688 l 118.145 21.594 118.211 21.531 118.344 21.504 c 118.477
 21.477 118.629 21.465 118.801 21.465 c 118.801 21.23 l 116.938 21.23 l 
116.938 21.465 l 117.109 21.465 117.262 21.477 117.395 21.504 c 117.527 
21.531 117.594 21.594 117.594 21.688 c 117.594 22.344 l h
116.035 22.578 m 117.641 22.578 l 117.641 24.969 l 116.035 22.578 l f
185.652 17.602 m 185.652 17.941 l 186.465 17.941 186.871 18.047 186.871
 18.258 c 186.871 23.367 l 186.535 23.211 186.109 23.133 185.594 23.133 
c 185.594 23.473 l 186.391 23.473 186.992 23.68 187.398 24.094 c 187.539
 24.094 l 187.563 24.094 187.586 24.086 187.602 24.07 c 187.621 24.055 187.633
 24.035 187.633 24.012 c 187.633 18.258 l 187.633 18.047 188.039 17.941 
188.852 17.941 c 188.852 17.602 l 185.652 17.602 l f
192.188 17.391 m 191.391 17.391 190.852 17.719 190.563 18.375 c 190.277
 19.031 190.137 19.809 190.137 20.707 c 190.137 21.277 190.188 21.809 190.289
 22.305 c 190.391 22.801 190.594 23.223 190.898 23.57 c 191.203 23.918 191.633
 24.094 192.188 24.094 c 192.617 24.094 192.969 23.988 193.242 23.781 c 
193.516 23.574 193.723 23.305 193.863 22.973 c 194.004 22.641 194.102 22.285
 194.156 21.906 c 194.211 21.527 194.238 21.129 194.238 20.707 c 194.238
 20.152 194.188 19.629 194.078 19.141 c 193.977 18.652 193.77 18.238 193.469
 17.898 c 193.172 17.559 192.742 17.391 192.188 17.391 c h
192.188 17.637 m 192.547 17.637 192.816 17.82 192.996 18.191 c 193.176 
18.563 193.285 18.977 193.324 19.43 c 193.363 19.883 193.383 20.363 193.383
 20.867 c 193.383 21.355 193.363 21.805 193.324 22.219 c 193.285 22.633 
193.18 23.008 193.004 23.344 c 192.824 23.68 192.555 23.848 192.188 23.848
 c 191.82 23.848 191.547 23.676 191.367 23.336 c 191.188 22.996 191.078 
22.621 191.039 22.211 c 191 21.801 190.98 21.355 190.98 20.867 c 190.98 
20.504 190.988 20.16 191.004 19.84 c 191.02 19.52 191.066 19.188 191.145
 18.848 c 191.223 18.508 191.348 18.223 191.516 17.988 c 191.684 17.754 
191.906 17.637 192.188 17.637 c f
196.438 21.078 m 196.156 21.078 195.922 21.152 195.734 21.297 c 195.547
 21.449 195.402 21.641 195.301 21.879 c 195.199 22.117 195.129 22.367 195.09
 22.625 c 195.051 22.883 195.031 23.145 195.031 23.41 c 195.031 23.77 195.102
 24.125 195.242 24.48 c 195.383 24.836 195.59 25.133 195.859 25.371 c 196.129
 25.609 196.445 25.73 196.813 25.73 c 196.961 25.73 197.105 25.699 197.238
 25.641 c 197.379 25.582 197.48 25.496 197.559 25.383 c 197.633 25.27 197.668
 25.133 197.668 24.969 c 197.668 24.875 197.637 24.793 197.574 24.73 c 197.512
 24.668 197.434 24.641 197.34 24.641 c 197.254 24.641 197.18 24.672 197.117
 24.738 c 197.055 24.805 197.023 24.883 197.023 24.969 c 197.023 25.055 
197.055 25.129 197.117 25.195 c 197.18 25.262 197.254 25.293 197.34 25.293
 c 197.375 25.293 l 197.32 25.375 197.242 25.434 197.137 25.473 c 197.031
 25.512 196.922 25.531 196.813 25.531 c 196.672 25.531 196.547 25.5 196.434
 25.441 c 196.316 25.383 196.215 25.305 196.121 25.203 c 196.027 25.098 
195.949 24.988 195.887 24.867 c 195.824 24.746 195.777 24.609 195.746 24.453
 c 195.715 24.297 195.691 24.148 195.684 24.012 c 195.672 23.875 195.664
 23.707 195.664 23.504 c 195.75 23.684 195.867 23.832 196.012 23.949 c 196.156
 24.066 196.316 24.125 196.496 24.125 c 196.699 24.125 196.883 24.082 197.047
 24 c 197.211 23.918 197.352 23.809 197.469 23.668 c 197.586 23.527 197.676
 23.359 197.738 23.172 c 197.801 22.984 197.832 22.797 197.832 22.609 c 
197.832 22.348 197.773 22.094 197.656 21.855 c 197.539 21.617 197.375 21.43
 197.164 21.289 c 196.953 21.148 196.711 21.078 196.438 21.078 c h
196.438 21.297 m 196.609 21.297 196.746 21.34 196.855 21.418 c 196.961 
21.496 197.035 21.598 197.09 21.727 c 197.141 21.855 197.172 21.984 197.184
 22.121 c 197.191 22.254 197.199 22.418 197.199 22.609 c 197.199 22.871 
197.188 23.09 197.164 23.27 c 197.141 23.449 197.074 23.605 196.965 23.742
 c 196.855 23.879 196.691 23.949 196.473 23.949 c 196.285 23.949 196.133
 23.887 196.016 23.766 c 195.898 23.645 195.813 23.488 195.766 23.297 c 
195.715 23.105 195.688 22.926 195.688 22.754 c 195.688 22.59 l 195.688 22.395
 195.707 22.199 195.746 22.004 c 195.785 21.809 195.859 21.641 195.969 21.504
 c 196.078 21.367 196.234 21.297 196.438 21.297 c f
99.848 3.762 m 99.848 4.156 l 100.102 4.156 100.309 4.176 100.473 4.219
 c 100.637 4.258 100.715 4.355 100.715 4.512 c 100.715 8.215 l 99.859 8.215
 l 99.859 8.613 l 100.715 8.613 l 100.715 9.961 l 100.715 10.203 100.766
 10.43 100.867 10.641 c 100.969 10.852 101.105 11.035 101.277 11.191 c 101.449
 11.348 101.648 11.469 101.871 11.559 c 102.094 11.648 102.32 11.695 102.555
 11.695 c 102.805 11.695 103.031 11.617 103.234 11.465 c 103.438 11.313 
103.539 11.117 103.539 10.871 c 103.539 10.727 103.492 10.602 103.398 10.504
 c 103.309 10.406 103.188 10.359 103.035 10.359 c 102.895 10.359 102.773
 10.406 102.672 10.504 c 102.57 10.602 102.52 10.727 102.52 10.871 c 102.52
 11.105 102.621 11.266 102.824 11.344 c 102.711 11.383 102.598 11.402 102.496
 11.402 c 102.277 11.402 102.094 11.324 101.934 11.168 c 101.777 11.012 
101.664 10.82 101.59 10.598 c 101.516 10.375 101.48 10.156 101.48 9.938 
c 101.48 8.613 l 102.766 8.613 l 102.766 8.215 l 101.516 8.215 l 101.516
 4.512 l 101.516 4.363 101.621 4.266 101.84 4.223 c 102.063 4.18 102.313
 4.156 102.605 4.156 c 102.605 3.762 l 99.848 3.762 l f
107.84 0.949 m 107.84 12.199 l 109.387 12.199 l 109.387 11.754 l 108.297
 11.754 l 108.297 1.395 l 109.387 1.395 l 109.387 0.949 l 107.84 0.949 l
 f
109.922 3.762 m 109.922 4.156 l 110.688 4.156 111.07 4.273 111.07 4.512
 c 111.07 10.699 l 111.07 10.934 110.688 11.051 109.922 11.051 c 109.922
 11.449 l 113.285 11.449 l 113.285 11.051 l 112.512 11.051 112.125 10.934
 112.125 10.699 c 112.125 7.957 l 115.441 7.957 l 115.441 10.699 l 115.441
 10.934 115.055 11.051 114.281 11.051 c 114.281 11.449 l 117.645 11.449 
l 117.645 11.051 l 116.879 11.051 116.496 10.934 116.496 10.699 c 116.496
 4.512 l 116.496 4.273 116.879 4.156 117.645 4.156 c 117.645 3.762 l 114.281
 3.762 l 114.281 4.156 l 115.055 4.156 115.441 4.273 115.441 4.512 c 115.441
 7.559 l 112.125 7.559 l 112.125 4.512 l 112.125 4.273 112.512 4.156 113.285
 4.156 c 113.285 3.762 l 109.922 3.762 l f
118.266 3.762 m 118.18 3.762 118.137 3.805 118.137 3.891 c 118.137 3.969
 l 118.137 4.004 118.148 4.031 118.172 4.055 c 121.313 8.32 l 120.293 8.32
 l 119.98 8.32 119.719 8.297 119.512 8.254 c 119.305 8.211 119.133 8.137
 118.996 8.027 c 118.859 7.918 118.762 7.766 118.703 7.57 c 118.645 7.375
 118.617 7.102 118.617 6.75 c 118.289 6.75 l 118.418 8.613 l 122.191 8.613
 l 122.223 8.613 122.25 8.602 122.273 8.578 c 122.297 8.555 122.309 8.523
 122.309 8.484 c 122.309 8.426 l 122.309 8.402 122.301 8.375 122.285 8.344
 c 119.145 4.09 l 120.211 4.09 l 120.539 4.09 120.813 4.109 121.031 4.148
 c 121.25 4.188 121.438 4.285 121.594 4.438 c 121.734 4.582 121.828 4.773
 121.879 5.016 c 121.93 5.258 121.973 5.551 122.004 5.906 c 122.332 5.906
 l 122.133 3.762 l 118.266 3.762 l f
122.953 0.949 m 122.953 1.395 l 124.047 1.395 l 124.047 11.754 l 122.953
 11.754 l 122.953 12.199 l 124.5 12.199 l 124.5 0.949 l 122.953 0.949 l f
33.5 30 m 33.5 148.5 l S
191.75 30 m 191.75 148.5 l S
33.5 30 m 35.082 30 l S
33.5 108.887 m 35.082 108.887 l S
191.75 30 m 190.168 30 l S
191.75 108.887 m 190.168 108.887 l S
33.5 30 m 34.293 30 l S
33.5 41.875 m 34.293 41.875 l S
33.5 48.82 m 34.293 48.82 l S
33.5 53.746 m 34.293 53.746 l S
33.5 57.57 m 34.293 57.57 l S
33.5 60.691 m 34.293 60.691 l S
33.5 63.332 m 34.293 63.332 l S
33.5 65.621 m 34.293 65.621 l S
33.5 67.637 m 34.293 67.637 l S
33.5 69.445 m 34.293 69.445 l S
33.5 81.316 m 34.293 81.316 l S
33.5 88.262 m 34.293 88.262 l S
33.5 93.191 m 34.293 93.191 l S
33.5 97.012 m 34.293 97.012 l S
33.5 100.137 m 34.293 100.137 l S
33.5 102.777 m 34.293 102.777 l S
33.5 105.063 m 34.293 105.063 l S
33.5 107.082 m 34.293 107.082 l S
33.5 108.887 m 34.293 108.887 l S
33.5 120.762 m 34.293 120.762 l S
33.5 127.703 m 34.293 127.703 l S
33.5 132.633 m 34.293 132.633 l S
33.5 136.457 m 34.293 136.457 l S
33.5 139.578 m 34.293 139.578 l S
33.5 142.219 m 34.293 142.219 l S
33.5 144.508 m 34.293 144.508 l S
33.5 146.523 m 34.293 146.523 l S
33.5 148.328 m 34.293 148.328 l S
191.75 30 m 190.961 30 l S
191.75 41.875 m 190.961 41.875 l S
191.75 48.82 m 190.961 48.82 l S
191.75 53.746 m 190.961 53.746 l S
191.75 57.57 m 190.961 57.57 l S
191.75 60.691 m 190.961 60.691 l S
191.75 63.332 m 190.961 63.332 l S
191.75 65.621 m 190.961 65.621 l S
191.75 67.637 m 190.961 67.637 l S
191.75 69.445 m 190.961 69.445 l S
191.75 81.316 m 190.961 81.316 l S
191.75 88.262 m 190.961 88.262 l S
191.75 93.191 m 190.961 93.191 l S
191.75 97.012 m 190.961 97.012 l S
191.75 100.137 m 190.961 100.137 l S
191.75 102.777 m 190.961 102.777 l S
191.75 105.063 m 190.961 105.063 l S
191.75 107.082 m 190.961 107.082 l S
191.75 108.887 m 190.961 108.887 l S
191.75 120.762 m 190.961 120.762 l S
191.75 127.703 m 190.961 127.703 l S
191.75 132.633 m 190.961 132.633 l S
191.75 136.457 m 190.961 136.457 l S
191.75 139.578 m 190.961 139.578 l S
191.75 142.219 m 190.961 142.219 l S
191.75 144.508 m 190.961 144.508 l S
191.75 146.523 m 190.961 146.523 l S
191.75 148.328 m 190.961 148.328 l S
16.402 27.602 m 16.402 27.941 l 17.215 27.941 17.621 28.047 17.621 28.258
 c 17.621 33.367 l 17.285 33.211 16.859 33.133 16.344 33.133 c 16.344 33.473
 l 17.141 33.473 17.742 33.68 18.148 34.094 c 18.289 34.094 l 18.313 34.094
 18.336 34.086 18.352 34.07 c 18.371 34.055 18.383 34.035 18.383 34.012 
c 18.383 28.258 l 18.383 28.047 18.789 27.941 19.602 27.941 c 19.602 27.602
 l 16.402 27.602 l f
22.938 27.391 m 22.141 27.391 21.598 27.719 21.316 28.375 c 21.031 29.031
 20.887 29.809 20.887 30.707 c 20.887 31.277 20.938 31.809 21.039 32.305
 c 21.141 32.801 21.344 33.223 21.648 33.57 c 21.953 33.918 22.383 34.094
 22.938 34.094 c 23.367 34.094 23.719 33.988 23.992 33.781 c 24.266 33.574
 24.473 33.305 24.613 32.973 c 24.754 32.641 24.852 32.285 24.906 31.906
 c 24.961 31.527 24.988 31.129 24.988 30.707 c 24.988 30.152 24.934 29.629
 24.828 29.141 c 24.723 28.652 24.52 28.238 24.219 27.898 c 23.918 27.559
 23.492 27.391 22.938 27.391 c h
22.938 27.637 m 23.297 27.637 23.566 27.82 23.746 28.191 c 23.926 28.563
 24.035 28.977 24.074 29.43 c 24.113 29.883 24.133 30.363 24.133 30.867 
c 24.133 31.355 24.113 31.805 24.074 32.219 c 24.035 32.633 23.926 33.008
 23.754 33.344 c 23.578 33.68 23.305 33.848 22.938 33.848 c 22.57 33.848
 22.297 33.676 22.117 33.336 c 21.938 32.996 21.828 32.621 21.789 32.211
 c 21.75 31.801 21.73 31.355 21.73 30.867 c 21.73 30.504 21.738 30.16 21.754
 29.84 c 21.77 29.52 21.816 29.188 21.895 28.848 c 21.973 28.508 22.098 
28.223 22.266 27.988 c 22.43 27.754 22.656 27.637 22.938 27.637 c f
27.188 31.078 m 26.633 31.078 26.258 31.305 26.063 31.762 c 25.867 32.219
 25.77 32.762 25.77 33.387 c 25.77 33.777 25.805 34.145 25.875 34.484 c 
25.945 34.832 26.086 35.125 26.297 35.367 c 26.508 35.609 26.805 35.73 27.188
 35.73 c 27.484 35.73 27.727 35.656 27.914 35.512 c 28.102 35.367 28.246
 35.18 28.348 34.949 c 28.449 34.719 28.52 34.473 28.551 34.211 c 28.59 
33.949 28.605 33.676 28.605 33.387 c 28.605 32.996 28.57 32.633 28.5 32.293
 c 28.43 31.961 28.289 31.672 28.078 31.434 c 27.867 31.195 27.57 31.078
 27.188 31.078 c h
27.188 31.254 m 27.438 31.254 27.625 31.383 27.75 31.641 c 27.875 31.898
 27.953 32.184 27.977 32.496 c 28.008 32.809 28.02 33.141 28.02 33.492 c
 28.02 33.828 28.008 34.137 27.977 34.422 c 27.953 34.707 27.875 34.969 
27.75 35.203 c 27.625 35.438 27.438 35.555 27.188 35.555 c 26.93 35.555 
26.738 35.438 26.617 35.203 c 26.5 34.969 26.422 34.707 26.398 34.422 c 
26.367 34.137 26.355 33.828 26.355 33.492 c 26.355 33.242 26.359 33.004 
26.375 32.781 c 26.387 32.559 26.414 32.332 26.469 32.098 c 26.52 31.863
 26.602 31.664 26.719 31.5 c 26.836 31.336 26.992 31.254 27.188 31.254 c
 f
16.402 106.484 m 16.402 106.824 l 17.215 106.824 17.621 106.934 17.621 
107.145 c 17.621 112.254 l 17.285 112.098 16.859 112.02 16.344 112.02 c 
16.344 112.355 l 17.141 112.355 17.742 112.563 18.148 112.98 c 18.289 112.98
 l 18.313 112.98 18.336 112.973 18.352 112.953 c 18.371 112.938 18.383 112.922
 18.383 112.895 c 18.383 107.145 l 18.383 106.934 18.789 106.824 19.602 
106.824 c 19.602 106.484 l 16.402 106.484 l f
22.938 106.277 m 22.141 106.277 21.598 106.605 21.316 107.262 c 21.031 
107.914 20.887 108.695 20.887 109.594 c 20.887 110.16 20.938 110.695 21.039
 111.191 c 21.141 111.688 21.344 112.109 21.648 112.457 c 21.953 112.805
 22.383 112.98 22.938 112.98 c 23.367 112.98 23.719 112.875 23.992 112.668
 c 24.266 112.461 24.473 112.191 24.613 111.859 c 24.754 111.527 24.852 
111.172 24.906 110.793 c 24.961 110.414 24.988 110.016 24.988 109.594 c 
24.988 109.035 24.934 108.516 24.828 108.027 c 24.723 107.539 24.52 107.125
 24.219 106.785 c 23.918 106.445 23.492 106.277 22.938 106.277 c h
22.938 106.52 m 23.297 106.52 23.566 106.707 23.746 107.078 c 23.926 107.449
 24.035 107.859 24.074 108.316 c 24.113 108.77 24.133 109.246 24.133 109.754
 c 24.133 110.238 24.113 110.688 24.074 111.105 c 24.035 111.52 23.926 111.895
 23.754 112.23 c 23.578 112.563 23.305 112.73 22.938 112.73 c 22.57 112.73
 22.297 112.563 22.117 112.223 c 21.938 111.883 21.828 111.508 21.789 111.098
 c 21.75 110.688 21.73 110.238 21.73 109.754 c 21.73 109.391 21.738 109.047
 21.754 108.723 c 21.77 108.402 21.816 108.074 21.895 107.734 c 21.973 107.395
 22.098 107.105 22.266 106.871 c 22.43 106.641 22.656 106.52 22.938 106.52
 c f
25.84 110.117 m 25.84 110.289 l 25.84 110.309 25.844 110.32 25.852 110.34
 c 26.895 111.496 l 27.059 111.672 27.188 111.813 27.285 111.926 c 27.387
 112.039 27.48 112.172 27.582 112.324 c 27.676 112.477 27.754 112.633 27.809
 112.785 c 27.863 112.945 27.891 113.113 27.891 113.289 c 27.891 113.473
 27.855 113.645 27.785 113.816 c 27.715 113.988 27.613 114.125 27.48 114.223
 c 27.348 114.32 27.184 114.367 26.988 114.367 c 26.793 114.367 26.617 114.313
 26.461 114.191 c 26.305 114.078 26.195 113.926 26.133 113.738 c 26.156 
113.742 26.18 113.746 26.203 113.746 c 26.305 113.746 26.395 113.715 26.469
 113.648 c 26.539 113.582 26.578 113.496 26.578 113.387 c 26.578 113.281
 26.539 113.195 26.469 113.121 c 26.395 113.047 26.305 113.012 26.203 113.012
 c 26.102 113.012 26.016 113.047 25.945 113.121 c 25.875 113.195 25.84 113.281
 25.84 113.387 c 25.84 113.551 25.871 113.703 25.934 113.855 c 25.996 114.004
 26.09 114.137 26.211 114.254 c 26.332 114.371 26.465 114.461 26.613 114.523
 c 26.762 114.586 26.922 114.617 27.094 114.617 c 27.352 114.617 27.594 
114.563 27.816 114.453 c 28.035 114.344 28.215 114.188 28.344 113.988 c 
28.473 113.789 28.535 113.559 28.535 113.289 c 28.535 113.098 28.492 112.91
 28.406 112.734 c 28.32 112.559 28.211 112.398 28.078 112.254 c 27.945 112.109
 27.773 111.945 27.563 111.762 c 27.352 111.578 27.215 111.453 27.152 111.395
 c 26.379 110.664 l 27.035 110.664 l 27.355 110.664 27.621 110.668 27.832
 110.672 c 28.043 110.676 28.156 110.688 28.172 110.703 c 28.227 110.758
 28.281 110.965 28.336 111.32 c 28.535 111.32 l 28.336 110.117 l 25.84 110.117
 l f
0 0.447059 0.741176 rg
0 J
0 j
33.5 33.172 m 33.5 27.172 l 30.5 30.172 m 36.5 30.172 l 31.379 32.293 m
 35.621 28.051 l 31.379 28.051 m 35.621 32.293 l S
41.414 33.164 m 41.414 27.164 l 38.414 30.164 m 44.414 30.164 l 39.293 
32.285 m 43.535 28.043 l 39.293 28.043 m 43.535 32.285 l S
49.324 33.164 m 49.324 27.164 l 46.324 30.164 m 52.324 30.164 l 47.203 
32.285 m 51.445 28.043 l 47.203 28.043 m 51.445 32.285 l S
57.238 33.176 m 57.238 27.176 l 54.238 30.176 m 60.238 30.176 l 55.117 
32.297 m 59.359 28.055 l 55.117 28.055 m 59.359 32.297 l S
65.148 33.176 m 65.148 27.176 l 62.148 30.176 m 68.148 30.176 l 63.027 
32.297 m 67.27 28.055 l 63.027 28.055 m 67.27 32.297 l S
73.063 33.188 m 73.063 27.188 l 70.063 30.188 m 76.063 30.188 l 70.941 
32.309 m 75.184 28.066 l 70.941 28.066 m 75.184 32.309 l S
80.977 33.223 m 80.977 27.223 l 77.977 30.223 m 83.977 30.223 l 78.855 
32.344 m 83.098 28.102 l 78.855 28.102 m 83.098 32.344 l S
88.887 33.16 m 88.887 27.16 l 85.887 30.16 m 91.887 30.16 l 86.766 32.281
 m 91.008 28.039 l 86.766 28.039 m 91.008 32.281 l S
96.801 33.156 m 96.801 27.156 l 93.801 30.156 m 99.801 30.156 l 94.68 32.277
 m 98.922 28.035 l 94.68 28.035 m 98.922 32.277 l S
104.715 33.199 m 104.715 27.199 l 101.715 30.199 m 107.715 30.199 l 102.59
 32.32 m 106.836 28.078 l 102.59 28.078 m 106.836 32.32 l S
112.625 33.199 m 112.625 27.199 l 109.625 30.199 m 115.625 30.199 l 110.504
 32.32 m 114.746 28.078 l 110.504 28.078 m 114.746 32.32 l S
120.539 33.145 m 120.539 27.145 l 117.539 30.145 m 123.539 30.145 l 118.414
 32.266 m 122.66 28.023 l 118.414 28.023 m 122.66 32.266 l S
128.449 33.328 m 128.449 27.328 l 125.449 30.328 m 131.449 30.328 l 126.328
 32.449 m 130.57 28.207 l 126.328 28.207 m 130.57 32.449 l S
136.363 33.414 m 136.363 27.414 l 133.363 30.414 m 139.363 30.414 l 134.242
 32.535 m 138.484 28.293 l 134.242 28.293 m 138.484 32.535 l S
144.273 33.859 m 144.273 27.859 l 141.273 30.859 m 147.273 30.859 l 142.152
 32.98 m 146.395 28.738 l 142.152 28.738 m 146.395 32.98 l S
152.188 34.973 m 152.188 28.973 l 149.188 31.973 m 155.188 31.973 l 150.066
 34.094 m 154.309 29.852 l 150.066 29.852 m 154.309 34.094 l S
160.102 37.262 m 160.102 31.262 l 157.102 34.262 m 163.102 34.262 l 157.98
 36.383 m 162.223 32.141 l 157.98 32.141 m 162.223 36.383 l S
168.012 40.84 m 168.012 34.84 l 165.012 37.84 m 171.012 37.84 l 165.891
 39.961 m 170.133 35.719 l 165.891 35.719 m 170.133 39.961 l S
175.926 46.652 m 175.926 40.652 l 172.926 43.652 m 178.926 43.652 l 173.805
 45.773 m 178.047 41.531 l 173.805 41.531 m 178.047 45.773 l S
183.84 53.328 m 183.84 47.328 l 180.84 50.328 m 186.84 50.328 l 181.715
 52.449 m 185.961 48.207 l 181.715 48.207 m 185.961 52.449 l S
191.75 61.246 m 191.75 55.246 l 188.75 58.246 m 194.75 58.246 l 189.629
 60.367 m 193.871 56.125 l 189.629 56.125 m 193.871 60.367 l S
0.85098 0.32549 0.0980392 rg
73.063 33.117 m 73.063 27.117 l 70.063 30.117 m 76.063 30.117 l 70.941 
32.238 m 75.184 27.996 l 70.941 27.996 m 75.184 32.238 l S
80.977 33.594 m 80.977 27.594 l 77.977 30.594 m 83.977 30.594 l 78.855 
32.719 m 83.098 28.473 l 78.855 28.473 m 83.098 32.719 l S
88.887 34.664 m 88.887 28.664 l 85.887 31.664 m 91.887 31.664 l 86.766 
33.785 m 91.008 29.543 l 86.766 29.543 m 91.008 33.785 l S
96.801 36.797 m 96.801 30.797 l 93.801 33.797 m 99.801 33.797 l 94.68 35.918
 m 98.922 31.676 l 94.68 31.676 m 98.922 35.918 l S
104.715 40.188 m 104.715 34.188 l 101.715 37.188 m 107.715 37.188 l 102.59
 39.309 m 106.836 35.066 l 102.59 35.066 m 106.836 39.309 l S
112.625 46.012 m 112.625 40.012 l 109.625 43.012 m 115.625 43.012 l 110.504
 45.133 m 114.746 40.891 l 110.504 40.891 m 114.746 45.133 l S
120.539 52.152 m 120.539 46.152 l 117.539 49.152 m 123.539 49.152 l 118.414
 51.273 m 122.66 47.031 l 118.414 47.031 m 122.66 51.273 l S
128.449 59.34 m 128.449 53.34 l 125.449 56.34 m 131.449 56.34 l 126.328
 58.461 m 130.57 54.219 l 126.328 54.219 m 130.57 58.461 l S
136.363 66.223 m 136.363 60.223 l 133.363 63.223 m 139.363 63.223 l 134.242
 65.344 m 138.484 61.102 l 134.242 61.102 m 138.484 65.344 l S
144.273 73.676 m 144.273 67.676 l 141.273 70.676 m 147.273 70.676 l 142.152
 72.797 m 146.395 68.555 l 142.152 68.555 m 146.395 72.797 l S
152.188 81.094 m 152.188 75.094 l 149.188 78.094 m 155.188 78.094 l 150.066
 80.215 m 154.309 75.973 l 150.066 75.973 m 154.309 80.215 l S
160.102 88.574 m 160.102 82.574 l 157.102 85.574 m 163.102 85.574 l 157.98
 87.695 m 162.223 83.453 l 157.98 83.453 m 162.223 87.695 l S
168.012 96.035 m 168.012 90.035 l 165.012 93.035 m 171.012 93.035 l 165.891
 95.156 m 170.133 90.914 l 165.891 90.914 m 170.133 95.156 l S
175.926 104.176 m 175.926 98.176 l 172.926 101.176 m 178.926 101.176 l 
173.805 103.297 m 178.047 99.055 l 173.805 99.055 m 178.047 103.297 l S
183.84 144.074 m 183.84 138.074 l 180.84 141.074 m 186.84 141.074 l 181.715
 143.195 m 185.961 138.953 l 181.715 138.953 m 185.961 143.195 l S
191.75 128.023 m 191.75 122.023 l 188.75 125.023 m 194.75 125.023 l 189.629
 127.145 m 193.871 122.902 l 189.629 122.902 m 193.871 127.145 l S
0.14902 g
8.684 66.668 m 1.617 64.02 l 1.461 63.949 1.363 63.82 1.324 63.633 c 1.285
 63.445 1.266 63.207 1.266 62.918 c 0.867 62.918 l 0.867 66.012 l 1.266 
66.012 l 1.266 65.395 1.363 65.086 1.559 65.086 c 1.617 65.086 l 7.359 67.254
 l 1.934 69.293 l 1.902 69.301 1.855 69.305 1.793 69.305 c 1.613 69.305 
1.48 69.219 1.395 69.051 c 1.309 68.883 1.266 68.699 1.266 68.496 c 0.867
 68.496 l 0.867 70.922 l 1.266 70.922 l 1.266 70.641 1.32 70.391 1.426 70.176
 c 1.531 69.961 1.699 69.809 1.934 69.715 c 8.684 67.172 l 8.762 67.148 
8.801 67.09 8.801 66.996 c 8.801 66.844 l 8.801 66.75 8.762 66.691 8.684
 66.668 c f
8.684 72.84 m 8.684 72.379 8.563 71.957 8.32 71.582 c 8.078 71.199 7.758
 70.902 7.359 70.684 c 6.961 70.465 6.539 70.355 6.094 70.355 c 5.648 70.355
 5.23 70.453 4.836 70.652 c 4.441 70.852 4.121 71.133 3.879 71.488 c 3.637
 71.84 3.516 72.238 3.516 72.676 c 3.516 73.027 3.574 73.328 3.688 73.582
 c 3.801 73.84 3.957 74.047 4.164 74.211 c 4.371 74.375 4.613 74.496 4.895
 74.582 c 5.172 74.664 5.477 74.703 5.813 74.703 c 5.906 74.703 5.953 74.668
 5.953 74.598 c 5.953 71.34 l 6.082 71.34 l 6.699 71.34 7.234 71.465 7.684
 71.715 c 8.133 71.965 8.355 72.375 8.355 72.945 c 8.355 73.172 8.301 73.383
 8.195 73.578 c 8.09 73.773 7.949 73.941 7.77 74.09 c 7.59 74.23 7.395 74.332
 7.184 74.387 c 7.16 74.395 7.137 74.406 7.113 74.426 c 7.09 74.445 7.078
 74.469 7.078 74.492 c 7.078 74.598 l 7.078 74.668 7.129 74.703 7.23 74.703
 c 7.652 74.602 8 74.375 8.273 74.023 c 8.547 73.672 8.684 73.277 8.684 
72.84 c h
5.672 71.352 m 5.672 73.906 l 5.391 73.906 5.105 73.867 4.816 73.789 c 
4.527 73.711 4.289 73.578 4.098 73.395 c 3.906 73.215 3.809 72.973 3.809
 72.676 c 3.809 72.254 4.008 71.93 4.406 71.695 c 4.805 71.465 5.227 71.352
 5.672 71.352 c f
8.555 75.223 m 8.156 75.223 l 8.156 75.48 8.137 75.691 8.098 75.855 c 8.059
 76.02 7.961 76.102 7.805 76.102 c 4.734 76.102 l 4.531 76.102 4.387 76.07
 4.297 76.008 c 4.207 75.945 4.152 75.855 4.133 75.742 c 4.113 75.629 4.102
 75.457 4.102 75.223 c 3.703 75.223 l 3.586 76.828 l 4.688 76.828 l 4.359
 76.953 4.094 77.125 3.891 77.348 c 3.688 77.57 3.586 77.844 3.586 78.164
 c 3.586 78.383 3.652 78.578 3.785 78.754 c 3.918 78.93 4.09 79.016 4.301
 79.016 c 4.441 79.016 4.563 78.969 4.66 78.871 c 4.758 78.773 4.805 78.656
 4.805 78.516 c 4.805 78.371 4.758 78.254 4.66 78.156 c 4.563 78.059 4.441
 78.012 4.301 78.012 c 4.098 78.012 3.957 78.082 3.879 78.223 c 3.879 78.164
 l 3.879 77.855 3.988 77.609 4.207 77.418 c 4.426 77.227 4.699 77.09 5.023
 77.008 c 5.348 76.926 5.656 76.887 5.953 76.887 c 7.805 76.887 l 8.039 
76.887 8.156 77.246 8.156 77.977 c 8.555 77.977 l 8.555 75.223 l f
8.59 79.609 m 6.75 79.609 l 6.695 79.609 6.668 79.645 6.668 79.703 c 6.668
 79.844 l 6.668 79.891 6.695 79.922 6.75 79.938 c 7.836 80.145 8.379 80.648
 8.379 81.449 c 8.379 81.805 8.301 82.098 8.141 82.34 c 7.98 82.582 7.73
 82.703 7.395 82.703 c 7.152 82.703 6.949 82.609 6.781 82.426 c 6.613 82.234
 6.496 82.016 6.434 81.758 c 6.281 81.008 l 6.227 80.758 6.145 80.527 6.031
 80.32 c 5.918 80.113 5.766 79.941 5.578 79.809 c 5.391 79.68 5.172 79.609
 4.922 79.609 c 4.586 79.609 4.316 79.695 4.109 79.871 c 3.902 80.039 3.75
 80.266 3.656 80.551 c 3.563 80.828 3.516 81.133 3.516 81.449 c 3.516 81.832
 3.617 82.168 3.82 82.457 c 3.539 82.777 l 3.523 82.777 3.516 82.793 3.516
 82.832 c 3.516 82.914 l 3.516 82.941 3.527 82.961 3.547 82.98 c 3.566 83
 3.586 83.012 3.609 83.012 c 5.074 83.012 l 5.145 83.012 5.18 82.98 5.18
 82.914 c 5.18 82.777 l 5.18 82.715 5.145 82.684 5.074 82.684 c 4.684 82.684
 4.371 82.57 4.133 82.355 c 3.895 82.137 3.773 81.828 3.773 81.438 c 3.773
 81.102 3.836 80.813 3.961 80.566 c 4.086 80.32 4.301 80.195 4.605 80.195
 c 4.816 80.195 4.988 80.285 5.121 80.461 c 5.254 80.637 5.348 80.848 5.402
 81.09 c 5.555 81.848 l 5.609 82.098 5.707 82.336 5.848 82.559 c 5.988 82.781
 6.164 82.957 6.375 83.086 c 6.586 83.215 6.824 83.277 7.09 83.277 c 7.363
 83.277 7.602 83.234 7.801 83.145 c 8 83.055 8.164 82.926 8.297 82.758 c
 8.43 82.59 8.527 82.391 8.59 82.164 c 8.652 81.941 8.684 81.699 8.684 81.449
 c 8.684 80.98 8.523 80.578 8.203 80.246 c 8.648 79.832 l 8.672 79.832 8.684
 79.816 8.684 79.777 c 8.684 79.703 l 8.684 79.645 8.652 79.609 8.59 79.609
 c f
7.207 84.723 m 4.102 84.723 l 4.102 83.785 l 3.809 83.785 l 3.809 84.277
 3.582 84.641 3.125 84.871 c 2.668 85.102 2.168 85.215 1.629 85.215 c 1.629
 85.543 l 3.703 85.543 l 3.703 87.125 l 4.102 87.125 l 4.102 85.543 l 7.184
 85.543 l 7.496 85.543 7.77 85.598 8.004 85.703 c 8.238 85.809 8.355 85.992
 8.355 86.258 c 8.355 86.516 8.23 86.703 7.98 86.816 c 7.73 86.93 7.465 
86.984 7.184 86.984 c 6.516 86.984 l 6.516 87.313 l 7.207 87.313 l 7.441
 87.313 7.672 87.27 7.898 87.184 c 8.125 87.098 8.313 86.973 8.461 86.805
 c 8.609 86.637 8.684 86.43 8.684 86.188 c 8.684 85.734 8.551 85.379 8.281
 85.117 c 8.012 84.855 7.652 84.723 7.207 84.723 c f
1.605 88.988 m 1.449 88.988 1.316 89.047 1.203 89.16 c 1.09 89.273 1.031
 89.41 1.031 89.574 c 1.031 89.738 1.09 89.879 1.203 89.992 c 1.316 90.105
 1.449 90.16 1.605 90.16 c 1.777 90.16 1.922 90.105 2.035 89.992 c 2.148
 89.879 2.203 89.738 2.203 89.574 c 2.203 89.41 2.145 89.273 2.027 89.16
 c 1.91 89.047 1.77 88.988 1.605 88.988 c h
1.605 91.156 m 1.449 91.156 1.316 91.215 1.203 91.328 c 1.09 91.441 1.031
 91.578 1.031 91.742 c 1.031 91.906 1.09 92.047 1.203 92.16 c 1.316 92.273
 1.449 92.328 1.605 92.328 c 1.777 92.328 1.922 92.273 2.035 92.16 c 2.148
 92.047 2.203 91.906 2.203 91.742 c 2.203 91.578 2.145 91.441 2.027 91.328
 c 1.91 91.215 1.77 91.156 1.605 91.156 c f
7.453 88.297 m 7.008 88.297 6.645 88.473 6.363 88.824 c 6.082 89.176 5.883
 89.602 5.766 90.098 c 5.648 90.594 5.59 91.059 5.59 91.496 c 5.133 91.496
 l 4.914 91.496 4.703 91.449 4.5 91.355 c 4.297 91.262 4.133 91.125 4.004
 90.945 c 3.875 90.766 3.809 90.566 3.809 90.348 c 3.809 89.855 3.922 89.477
 4.148 89.211 c 4.148 89.359 4.203 89.48 4.309 89.57 c 4.414 89.66 4.539
 89.703 4.688 89.703 c 4.836 89.703 4.965 89.652 5.07 89.547 c 5.176 89.441
 5.227 89.316 5.227 89.176 c 5.227 89.02 5.176 88.891 5.07 88.785 c 4.965
 88.68 4.836 88.625 4.688 88.625 c 4.289 88.625 3.996 88.805 3.805 89.164
 c 3.613 89.523 3.516 89.918 3.516 90.348 c 3.516 90.652 3.582 90.961 3.711
 91.27 c 3.84 91.578 4.023 91.828 4.266 92.023 c 4.508 92.219 4.789 92.316
 5.109 92.316 c 7.641 92.316 l 7.789 92.316 7.926 92.348 8.047 92.41 c 8.164
 92.473 8.227 92.57 8.227 92.703 c 8.227 92.828 8.164 92.922 8.039 92.98
 c 7.914 93.039 7.781 93.066 7.641 93.066 c 6.926 93.066 l 6.926 93.395 
l 7.641 93.395 l 7.813 93.395 7.977 93.352 8.129 93.266 c 8.281 93.18 8.402
 93.063 8.492 92.914 c 8.582 92.766 8.625 92.605 8.625 92.434 c 8.625 92.215
 8.539 92.027 8.367 91.867 c 8.195 91.707 7.992 91.617 7.758 91.602 c 8.039
 91.461 8.266 91.258 8.434 90.988 c 8.602 90.719 8.684 90.426 8.684 90.113
 c 8.684 89.832 8.641 89.555 8.555 89.277 c 8.469 89 8.336 88.766 8.156 
88.578 c 7.977 88.391 7.742 88.297 7.453 88.297 c h
7.453 89.211 m 7.719 89.211 7.941 89.309 8.117 89.508 c 8.293 89.699 8.379
 89.93 8.379 90.195 c 8.379 90.438 8.32 90.656 8.203 90.852 c 8.086 91.047
 7.922 91.203 7.711 91.32 c 7.5 91.438 7.281 91.496 7.055 91.496 c 5.883
 91.496 l 5.883 91.16 5.938 90.813 6.047 90.453 c 6.156 90.094 6.332 89.797
 6.57 89.563 c 6.809 89.328 7.102 89.211 7.453 89.211 c f
8.555 93.645 m 8.156 93.645 l 8.156 93.902 8.137 94.113 8.098 94.277 c 
8.059 94.441 7.961 94.523 7.805 94.523 c 4.734 94.523 l 4.531 94.523 4.387
 94.492 4.297 94.43 c 4.207 94.367 4.152 94.281 4.133 94.168 c 4.113 94.055
 4.102 93.879 4.102 93.645 c 3.703 93.645 l 3.586 95.25 l 4.688 95.25 l 
4.359 95.375 4.094 95.551 3.891 95.773 c 3.688 95.996 3.586 96.266 3.586
 96.59 c 3.586 96.805 3.652 97.004 3.785 97.18 c 3.918 97.355 4.09 97.441
 4.301 97.441 c 4.441 97.441 4.563 97.395 4.66 97.297 c 4.758 97.199 4.805
 97.078 4.805 96.938 c 4.805 96.797 4.758 96.68 4.66 96.582 c 4.563 96.484
 4.441 96.434 4.301 96.434 c 4.098 96.434 3.957 96.504 3.879 96.645 c 3.879
 96.59 l 3.879 96.281 3.988 96.035 4.207 95.844 c 4.426 95.652 4.699 95.516
 5.023 95.434 c 5.348 95.352 5.656 95.309 5.953 95.309 c 7.805 95.309 l 
8.039 95.309 8.156 95.672 8.156 96.398 c 8.555 96.398 l 8.555 93.645 l f
8.555 97.953 m 8.156 97.953 l 8.156 98.211 8.137 98.422 8.098 98.586 c 
8.059 98.75 7.961 98.832 7.805 98.832 c 1.898 98.832 l 1.695 98.832 1.551
 98.801 1.461 98.738 c 1.371 98.676 1.316 98.59 1.297 98.477 c 1.277 98.363
 1.266 98.188 1.266 97.953 c 0.867 97.953 l 0.75 99.617 l 6.094 99.617 l
 4.77 101.129 l 4.621 101.277 4.488 101.352 4.371 101.352 c 4.285 101.352
 4.219 101.32 4.172 101.258 c 4.125 101.195 4.102 101.121 4.102 101.035 
c 3.703 101.035 l 3.703 103.145 l 4.102 103.145 l 4.102 102.637 4.324 102.129
 4.77 101.621 c 5.461 100.824 l 7.5 102.254 l 7.781 102.449 7.961 102.613
 8.039 102.746 c 8.117 102.879 8.156 103.102 8.156 103.414 c 8.555 103.414
 l 8.555 101.176 l 8.156 101.176 l 8.156 101.426 8.078 101.551 7.922 101.551
 c 7.813 101.551 7.672 101.484 7.5 101.352 c 5.953 100.273 l 6.551 99.582
 l 7.805 99.582 l 7.961 99.582 8.059 99.668 8.098 99.836 c 8.137 100.004
 8.156 100.211 8.156 100.461 c 8.555 100.461 l 8.555 97.953 l f
7.219 104.684 m 4.734 104.684 l 4.531 104.684 4.387 104.652 4.297 104.59
 c 4.207 104.527 4.152 104.441 4.133 104.328 c 4.113 104.215 4.102 104.039
 4.102 103.805 c 3.703 103.805 l 3.586 105.508 l 7.219 105.508 l 7.508 105.508
 7.734 105.527 7.898 105.57 c 8.063 105.613 8.184 105.703 8.262 105.84 c
 8.34 105.977 8.379 106.195 8.379 106.492 c 8.379 106.898 8.211 107.219 
7.875 107.457 c 7.539 107.695 7.156 107.816 6.727 107.816 c 4.734 107.816
 l 4.531 107.816 4.387 107.781 4.297 107.723 c 4.207 107.656 4.152 107.57
 4.133 107.457 c 4.113 107.344 4.102 107.168 4.102 106.934 c 3.703 106.934
 l 3.586 108.637 l 7.535 108.637 l 7.73 108.637 7.875 108.664 7.965 108.723
 c 8.055 108.781 8.109 108.867 8.129 108.98 c 8.148 109.094 8.156 109.273
 8.156 109.516 c 8.555 109.516 l 8.684 107.852 l 7.734 107.852 l 8.016 107.707
 8.246 107.516 8.422 107.266 c 8.598 107.016 8.684 106.738 8.684 106.441
 c 8.684 105.902 8.57 105.477 8.34 105.16 c 8.109 104.844 7.734 104.684 
7.219 104.684 c f
8.555 109.918 m 8.156 109.918 l 8.156 110.168 8.137 110.375 8.098 110.543
 c 8.059 110.715 7.961 110.797 7.805 110.797 c 4.734 110.797 l 4.531 110.797
 4.387 110.766 4.297 110.703 c 4.207 110.641 4.152 110.551 4.133 110.441
 c 4.113 110.324 4.102 110.152 4.102 109.918 c 3.703 109.918 l 3.586 111.547
 l 4.688 111.547 l 4.359 111.695 4.094 111.918 3.891 112.215 c 3.688 112.512
 3.586 112.832 3.586 113.176 c 3.586 113.699 3.711 114.09 3.961 114.355 
c 4.211 114.613 4.59 114.746 5.098 114.746 c 7.805 114.746 l 7.961 114.746
 8.059 114.828 8.098 114.992 c 8.137 115.156 8.156 115.367 8.156 115.625
 c 8.555 115.625 l 8.555 113.047 l 8.156 113.047 l 8.156 113.305 8.137 113.516
 8.098 113.68 c 8.059 113.844 7.961 113.926 7.805 113.926 c 5.133 113.926
 l 4.766 113.926 4.465 113.871 4.23 113.766 c 3.996 113.66 3.879 113.441
 3.879 113.105 c 3.879 112.676 4.055 112.32 4.402 112.039 c 4.75 111.758
 5.141 111.617 5.578 111.617 c 7.805 111.617 l 7.961 111.617 8.059 111.699
 8.098 111.863 c 8.137 112.027 8.156 112.234 8.156 112.484 c 8.555 112.484
 l 8.555 109.918 l f
9.434 116.004 m 9.168 116.004 8.938 116.102 8.738 116.293 c 8.539 116.484
 8.395 116.715 8.309 116.988 c 8.191 116.832 8.047 116.715 7.875 116.637
 c 7.703 116.559 7.52 116.52 7.324 116.52 c 6.973 116.52 6.664 116.633 6.398
 116.859 c 6.063 116.516 5.676 116.348 5.238 116.348 c 5.004 116.348 4.785
 116.398 4.578 116.496 c 4.371 116.598 4.191 116.738 4.043 116.918 c 3.895
 117.098 3.781 117.297 3.703 117.516 c 3.625 117.734 3.586 117.957 3.586
 118.184 c 3.586 118.633 3.715 119.031 3.973 119.391 c 3.809 119.547 3.684
 119.73 3.594 119.941 c 3.504 120.152 3.457 120.371 3.457 120.598 c 3.457
 120.758 3.516 120.883 3.633 120.984 c 3.75 121.09 3.887 121.137 4.043 121.137
 c 4.137 121.137 4.219 121.105 4.289 121.039 c 4.359 120.973 4.395 120.891
 4.395 120.797 c 4.395 120.703 4.359 120.621 4.289 120.551 c 4.219 120.48
 4.137 120.445 4.043 120.445 c 3.902 120.445 3.805 120.492 3.75 120.59 c
 3.75 120.195 3.887 119.859 4.16 119.578 c 4.293 119.719 4.457 119.832 4.652
 119.914 c 4.848 119.996 5.043 120.035 5.238 120.035 c 5.559 120.035 5.848
 119.949 6.102 119.773 c 6.355 119.598 6.551 119.363 6.691 119.074 c 6.832
 118.785 6.902 118.488 6.902 118.184 c 6.902 117.777 6.789 117.402 6.563
 117.059 c 6.711 116.957 6.875 116.906 7.055 116.906 c 7.258 116.906 7.434
 116.973 7.582 117.102 c 7.73 117.23 7.805 117.391 7.805 117.59 c 7.805 
118.512 l 7.805 118.957 7.844 119.359 7.922 119.723 c 8 120.078 8.16 120.383
 8.402 120.621 c 8.645 120.863 8.988 120.984 9.434 120.984 c 9.762 120.984
 10.035 120.848 10.254 120.57 c 10.473 120.293 10.633 119.961 10.727 119.574
 c 10.828 119.188 10.875 118.828 10.875 118.5 c 10.875 118.164 10.828 117.805
 10.727 117.418 c 10.633 117.031 10.473 116.699 10.254 116.422 c 10.035 
116.145 9.762 116.004 9.434 116.004 c h
9.434 116.637 m 9.684 116.637 9.895 116.738 10.066 116.941 c 10.238 117.145
 10.367 117.391 10.445 117.68 c 10.527 117.969 10.57 118.242 10.57 118.5
 c 10.57 118.75 10.527 119.023 10.445 119.309 c 10.367 119.598 10.238 119.844
 10.066 120.047 c 9.895 120.25 9.684 120.352 9.434 120.352 c 9.043 120.352
 8.789 120.176 8.672 119.82 c 8.555 119.465 8.496 119.027 8.496 118.512 
c 8.496 117.59 l 8.496 117.414 8.539 117.258 8.621 117.113 c 8.703 116.969
 8.816 116.852 8.965 116.766 c 9.113 116.68 9.27 116.637 9.434 116.637 c
 h
6.598 118.184 m 6.598 118.824 6.145 119.145 5.238 119.145 c 4.848 119.145
 4.527 119.078 4.273 118.941 c 4.02 118.805 3.891 118.551 3.891 118.184 
c 3.891 117.816 4.02 117.566 4.273 117.434 c 4.527 117.301 4.848 117.234
 5.238 117.234 c 5.488 117.234 5.715 117.262 5.914 117.313 c 6.113 117.363
 6.277 117.457 6.406 117.594 c 6.535 117.73 6.598 117.926 6.598 118.184 
c f
Q Q
showpage
%%Trailer
end restore
%%EOF
