%!PS-Adobe-3.0 EPSF-3.0
%%Creator: (MATLAB, The Mathworks, Inc. Version 9.1.0.441655 \(R2016b\). Operating System: Windows 7)
%%Title: ../Dokument/Abbildungen/V_Vergleich_emitter.eps
%%CreationDate: 2017-08-24T17:56:43
%%Pages: (atend)
%%BoundingBox:     4     0   199   153
%%LanguageLevel: 3
%%EndComments
%%BeginProlog
%%BeginResource: procset (Apache XML Graphics Std ProcSet) 1.2 0
%%Version: 1.2 0
%%Copyright: (Copyright 2001-2003,2010 The Apache Software Foundation. License terms: http://www.apache.org/licenses/LICENSE-2.0)
/bd{bind def}bind def
/ld{load def}bd
/GR/grestore ld
/M/moveto ld
/LJ/setlinejoin ld
/C/curveto ld
/f/fill ld
/LW/setlinewidth ld
/GC/setgray ld
/t/show ld
/N/newpath ld
/CT/concat ld
/cp/closepath ld
/S/stroke ld
/L/lineto ld
/CC/setcmykcolor ld
/A/ashow ld
/GS/gsave ld
/RC/setrgbcolor ld
/RM/rmoveto ld
/ML/setmiterlimit ld
/re {4 2 roll M
1 index 0 rlineto
0 exch rlineto
neg 0 rlineto
cp } bd
/_ctm matrix def
/_tm matrix def
/BT { _ctm currentmatrix pop matrix _tm copy pop 0 0 moveto } bd
/ET { _ctm setmatrix } bd
/iTm { _ctm setmatrix _tm concat } bd
/Tm { _tm astore pop iTm 0 0 moveto } bd
/ux 0.0 def
/uy 0.0 def
/F {
  /Tp exch def
  /Tf exch def
  Tf findfont Tp scalefont setfont
  /cf Tf def  /cs Tp def
} bd
/ULS {currentpoint /uy exch def /ux exch def} bd
/ULE {
  /Tcx currentpoint pop def
  gsave
  newpath
  cf findfont cs scalefont dup
  /FontMatrix get 0 get /Ts exch def /FontInfo get dup
  /UnderlinePosition get Ts mul /To exch def
  /UnderlineThickness get Ts mul /Tt exch def
  ux uy To add moveto  Tcx uy To add lineto
  Tt setlinewidth stroke
  grestore
} bd
/OLE {
  /Tcx currentpoint pop def
  gsave
  newpath
  cf findfont cs scalefont dup
  /FontMatrix get 0 get /Ts exch def /FontInfo get dup
  /UnderlinePosition get Ts mul /To exch def
  /UnderlineThickness get Ts mul /Tt exch def
  ux uy To add cs add moveto Tcx uy To add cs add lineto
  Tt setlinewidth stroke
  grestore
} bd
/SOE {
  /Tcx currentpoint pop def
  gsave
  newpath
  cf findfont cs scalefont dup
  /FontMatrix get 0 get /Ts exch def /FontInfo get dup
  /UnderlinePosition get Ts mul /To exch def
  /UnderlineThickness get Ts mul /Tt exch def
  ux uy To add cs 10 mul 26 idiv add moveto Tcx uy To add cs 10 mul 26 idiv add lineto
  Tt setlinewidth stroke
  grestore
} bd
/QT {
/Y22 exch store
/X22 exch store
/Y21 exch store
/X21 exch store
currentpoint
/Y21 load 2 mul add 3 div exch
/X21 load 2 mul add 3 div exch
/X21 load 2 mul /X22 load add 3 div
/Y21 load 2 mul /Y22 load add 3 div
/X22 load /Y22 load curveto
} bd
/SSPD {
dup length /d exch dict def
{
/v exch def
/k exch def
currentpagedevice k known {
/cpdv currentpagedevice k get def
v cpdv ne {
/upd false def
/nullv v type /nulltype eq def
/nullcpdv cpdv type /nulltype eq def
nullv nullcpdv or
{
/upd true def
} {
/sametype v type cpdv type eq def
sametype {
v type /arraytype eq {
/vlen v length def
/cpdvlen cpdv length def
vlen cpdvlen eq {
0 1 vlen 1 sub {
/i exch def
/obj v i get def
/cpdobj cpdv i get def
obj cpdobj ne {
/upd true def
exit
} if
} for
} {
/upd true def
} ifelse
} {
v type /dicttype eq {
v {
/dv exch def
/dk exch def
/cpddv cpdv dk get def
dv cpddv ne {
/upd true def
exit
} if
} forall
} {
/upd true def
} ifelse
} ifelse
} if
} ifelse
upd true eq {
d k v put
} if
} if
} if
} forall
d length 0 gt {
d setpagedevice
} if
} bd
/RE { % /NewFontName [NewEncodingArray] /FontName RE -
  findfont dup length dict begin
  {
    1 index /FID ne
    {def} {pop pop} ifelse
  } forall
  /Encoding exch def
  /FontName 1 index def
  currentdict definefont pop
  end
} bind def
%%EndResource
%%BeginResource: procset (Apache XML Graphics EPS ProcSet) 1.0 0
%%Version: 1.0 0
%%Copyright: (Copyright 2002-2003 The Apache Software Foundation. License terms: http://www.apache.org/licenses/LICENSE-2.0)
/BeginEPSF { %def
/b4_Inc_state save def         % Save state for cleanup
/dict_count countdictstack def % Count objects on dict stack
/op_count count 1 sub def      % Count objects on operand stack
userdict begin                 % Push userdict on dict stack
/showpage { } def              % Redefine showpage, { } = null proc
0 setgray 0 setlinecap         % Prepare graphics state
1 setlinewidth 0 setlinejoin
10 setmiterlimit [ ] 0 setdash newpath
/languagelevel where           % If level not equal to 1 then
{pop languagelevel             % set strokeadjust and
1 ne                           % overprint to their defaults.
{false setstrokeadjust false setoverprint
} if
} if
} bd
/EndEPSF { %def
count op_count sub {pop} repeat            % Clean up stacks
countdictstack dict_count sub {end} repeat
b4_Inc_state restore
} bd
%%EndResource
%FOPBeginFontDict
%%IncludeResource: font Courier-Bold
%%IncludeResource: font Helvetica
%%IncludeResource: font Courier-BoldOblique
%%IncludeResource: font Courier-Oblique
%%IncludeResource: font Times-Roman
%%IncludeResource: font Helvetica-BoldOblique
%%IncludeResource: font Helvetica-Bold
%%IncludeResource: font Helvetica-Oblique
%%IncludeResource: font Times-BoldItalic
%%IncludeResource: font Courier
%%IncludeResource: font Times-Italic
%%IncludeResource: font Times-Bold
%%IncludeResource: font Symbol
%%IncludeResource: font ZapfDingbats
%FOPEndFontDict
%%BeginResource: encoding WinAnsiEncoding
/WinAnsiEncoding [
/.notdef /.notdef /.notdef /.notdef /.notdef
/.notdef /.notdef /.notdef /.notdef /.notdef
/.notdef /.notdef /.notdef /.notdef /.notdef
/.notdef /.notdef /.notdef /.notdef /.notdef
/.notdef /.notdef /.notdef /.notdef /.notdef
/.notdef /.notdef /.notdef /.notdef /.notdef
/.notdef /.notdef /space /exclam /quotedbl
/numbersign /dollar /percent /ampersand /quotesingle
/parenleft /parenright /asterisk /plus /comma
/hyphen /period /slash /zero /one
/two /three /four /five /six
/seven /eight /nine /colon /semicolon
/less /equal /greater /question /at
/A /B /C /D /E
/F /G /H /I /J
/K /L /M /N /O
/P /Q /R /S /T
/U /V /W /X /Y
/Z /bracketleft /backslash /bracketright /asciicircum
/underscore /quoteleft /a /b /c
/d /e /f /g /h
/i /j /k /l /m
/n /o /p /q /r
/s /t /u /v /w
/x /y /z /braceleft /bar
/braceright /asciitilde /bullet /Euro /bullet
/quotesinglbase /florin /quotedblbase /ellipsis /dagger
/daggerdbl /circumflex /perthousand /Scaron /guilsinglleft
/OE /bullet /Zcaron /bullet /bullet
/quoteleft /quoteright /quotedblleft /quotedblright /bullet
/endash /emdash /asciitilde /trademark /scaron
/guilsinglright /oe /bullet /zcaron /Ydieresis
/space /exclamdown /cent /sterling /currency
/yen /brokenbar /section /dieresis /copyright
/ordfeminine /guillemotleft /logicalnot /sfthyphen /registered
/macron /degree /plusminus /twosuperior /threesuperior
/acute /mu /paragraph /middot /cedilla
/onesuperior /ordmasculine /guillemotright /onequarter /onehalf
/threequarters /questiondown /Agrave /Aacute /Acircumflex
/Atilde /Adieresis /Aring /AE /Ccedilla
/Egrave /Eacute /Ecircumflex /Edieresis /Igrave
/Iacute /Icircumflex /Idieresis /Eth /Ntilde
/Ograve /Oacute /Ocircumflex /Otilde /Odieresis
/multiply /Oslash /Ugrave /Uacute /Ucircumflex
/Udieresis /Yacute /Thorn /germandbls /agrave
/aacute /acircumflex /atilde /adieresis /aring
/ae /ccedilla /egrave /eacute /ecircumflex
/edieresis /igrave /iacute /icircumflex /idieresis
/eth /ntilde /ograve /oacute /ocircumflex
/otilde /odieresis /divide /oslash /ugrave
/uacute /ucircumflex /udieresis /yacute /thorn
/ydieresis
] def
%%EndResource
%FOPBeginFontReencode
/Courier-Bold findfont
dup length dict begin
  {1 index /FID ne {def} {pop pop} ifelse} forall
  /Encoding WinAnsiEncoding def
  currentdict
end
/Courier-Bold exch definefont pop
/Helvetica findfont
dup length dict begin
  {1 index /FID ne {def} {pop pop} ifelse} forall
  /Encoding WinAnsiEncoding def
  currentdict
end
/Helvetica exch definefont pop
/Courier-BoldOblique findfont
dup length dict begin
  {1 index /FID ne {def} {pop pop} ifelse} forall
  /Encoding WinAnsiEncoding def
  currentdict
end
/Courier-BoldOblique exch definefont pop
/Courier-Oblique findfont
dup length dict begin
  {1 index /FID ne {def} {pop pop} ifelse} forall
  /Encoding WinAnsiEncoding def
  currentdict
end
/Courier-Oblique exch definefont pop
/Times-Roman findfont
dup length dict begin
  {1 index /FID ne {def} {pop pop} ifelse} forall
  /Encoding WinAnsiEncoding def
  currentdict
end
/Times-Roman exch definefont pop
/Helvetica-BoldOblique findfont
dup length dict begin
  {1 index /FID ne {def} {pop pop} ifelse} forall
  /Encoding WinAnsiEncoding def
  currentdict
end
/Helvetica-BoldOblique exch definefont pop
/Helvetica-Bold findfont
dup length dict begin
  {1 index /FID ne {def} {pop pop} ifelse} forall
  /Encoding WinAnsiEncoding def
  currentdict
end
/Helvetica-Bold exch definefont pop
/Helvetica-Oblique findfont
dup length dict begin
  {1 index /FID ne {def} {pop pop} ifelse} forall
  /Encoding WinAnsiEncoding def
  currentdict
end
/Helvetica-Oblique exch definefont pop
/Times-BoldItalic findfont
dup length dict begin
  {1 index /FID ne {def} {pop pop} ifelse} forall
  /Encoding WinAnsiEncoding def
  currentdict
end
/Times-BoldItalic exch definefont pop
/Courier findfont
dup length dict begin
  {1 index /FID ne {def} {pop pop} ifelse} forall
  /Encoding WinAnsiEncoding def
  currentdict
end
/Courier exch definefont pop
/Times-Italic findfont
dup length dict begin
  {1 index /FID ne {def} {pop pop} ifelse} forall
  /Encoding WinAnsiEncoding def
  currentdict
end
/Times-Italic exch definefont pop
/Times-Bold findfont
dup length dict begin
  {1 index /FID ne {def} {pop pop} ifelse} forall
  /Encoding WinAnsiEncoding def
  currentdict
end
/Times-Bold exch definefont pop
%FOPEndFontReencode
%%EndProlog
%%Page: 1 1
%%PageBoundingBox: 0 0 213 161
%%BeginPageSetup
[1 0 0 -1 0 161] CT
%%EndPageSetup
GS
[0.75 0 0 0.75 0 0.5] CT
1 GC
N
0 0 284 214 re
f
GR
GS
[0.75 0 0 0.75 0 0.5] CT
1 GC
N
0 0 284 214 re
f
GR
GS
[0.75 0 0 0.75 0 0.5] CT
1 GC
N
37 174 M
257 174 L
257 16 L
37 16 L
cp
f
GR
GS
[0.75 0 0 0.75 0 0.5] CT
0.775 GC
[1 3] 0 setdash
2 LJ
0.667 LW
N
53.557 174 M
53.557 16 L
S
GR
GS
[0.75 0 0 0.75 0 0.5] CT
0.775 GC
[1 3] 0 setdash
2 LJ
0.667 LW
N
63.242 174 M
63.242 16 L
S
GR
GS
[0.75 0 0 0.75 0 0.5] CT
0.775 GC
[1 3] 0 setdash
2 LJ
0.667 LW
N
70.113 174 M
70.113 16 L
S
GR
GS
[0.75 0 0 0.75 0 0.5] CT
0.775 GC
[1 3] 0 setdash
2 LJ
0.667 LW
N
75.443 174 M
75.443 16 L
S
GR
GS
[0.75 0 0 0.75 0 0.5] CT
0.775 GC
[1 3] 0 setdash
2 LJ
0.667 LW
N
79.798 174 M
79.798 16 L
S
GR
GS
[0.75 0 0 0.75 0 0.5] CT
0.775 GC
[1 3] 0 setdash
2 LJ
0.667 LW
N
83.48 174 M
83.48 16 L
S
GR
GS
[0.75 0 0 0.75 0 0.5] CT
0.775 GC
[1 3] 0 setdash
2 LJ
0.667 LW
N
86.67 174 M
86.67 16 L
S
GR
GS
[0.75 0 0 0.75 0 0.5] CT
0.775 GC
[1 3] 0 setdash
2 LJ
0.667 LW
N
89.483 174 M
89.483 16 L
S
GR
GS
[0.75 0 0 0.75 0 0.5] CT
0.775 GC
[1 3] 0 setdash
2 LJ
0.667 LW
N
92 174 M
92 16 L
S
GR
GS
[0.75 0 0 0.75 0 0.5] CT
0.775 GC
[1 3] 0 setdash
2 LJ
0.667 LW
N
108.557 174 M
108.557 16 L
S
GR
GS
[0.75 0 0 0.75 0 0.5] CT
0.775 GC
[1 3] 0 setdash
2 LJ
0.667 LW
N
118.242 174 M
118.242 16 L
S
GR
GS
[0.75 0 0 0.75 0 0.5] CT
0.775 GC
[1 3] 0 setdash
2 LJ
0.667 LW
N
125.113 174 M
125.113 16 L
S
GR
GS
[0.75 0 0 0.75 0 0.5] CT
0.775 GC
[1 3] 0 setdash
2 LJ
0.667 LW
N
130.443 174 M
130.443 16 L
S
GR
GS
[0.75 0 0 0.75 0 0.5] CT
0.775 GC
[1 3] 0 setdash
2 LJ
0.667 LW
N
134.798 174 M
134.798 16 L
S
GR
GS
[0.75 0 0 0.75 0 0.5] CT
0.775 GC
[1 3] 0 setdash
2 LJ
0.667 LW
N
138.48 174 M
138.48 16 L
S
GR
GS
[0.75 0 0 0.75 0 0.5] CT
0.775 GC
[1 3] 0 setdash
2 LJ
0.667 LW
N
141.67 174 M
141.67 16 L
S
GR
GS
[0.75 0 0 0.75 0 0.5] CT
0.775 GC
[1 3] 0 setdash
2 LJ
0.667 LW
N
144.483 174 M
144.483 16 L
S
GR
GS
[0.75 0 0 0.75 0 0.5] CT
0.775 GC
[1 3] 0 setdash
2 LJ
0.667 LW
N
163.557 174 M
163.557 16 L
S
GR
GS
[0.75 0 0 0.75 0 0.5] CT
0.775 GC
[1 3] 0 setdash
2 LJ
0.667 LW
N
173.242 174 M
173.242 16 L
S
GR
GS
[0.75 0 0 0.75 0 0.5] CT
0.775 GC
[1 3] 0 setdash
2 LJ
0.667 LW
N
180.113 174 M
180.113 16 L
S
GR
GS
[0.75 0 0 0.75 0 0.5] CT
0.775 GC
[1 3] 0 setdash
2 LJ
0.667 LW
N
185.443 174 M
185.443 16 L
S
GR
GS
[0.75 0 0 0.75 0 0.5] CT
0.775 GC
[1 3] 0 setdash
2 LJ
0.667 LW
N
189.798 174 M
189.798 16 L
S
GR
GS
[0.75 0 0 0.75 0 0.5] CT
0.775 GC
[1 3] 0 setdash
2 LJ
0.667 LW
N
193.48 174 M
193.48 16 L
S
GR
GS
[0.75 0 0 0.75 0 0.5] CT
0.775 GC
[1 3] 0 setdash
2 LJ
0.667 LW
N
196.67 174 M
196.67 16 L
S
GR
GS
[0.75 0 0 0.75 0 0.5] CT
0.775 GC
[1 3] 0 setdash
2 LJ
0.667 LW
N
199.483 174 M
199.483 16 L
S
GR
GS
[0.75 0 0 0.75 0 0.5] CT
0.775 GC
[1 3] 0 setdash
2 LJ
0.667 LW
N
202 174 M
202 16 L
S
GR
GS
[0.75 0 0 0.75 0 0.5] CT
0.775 GC
[1 3] 0 setdash
2 LJ
0.667 LW
N
218.557 174 M
218.557 16 L
S
GR
GS
[0.75 0 0 0.75 0 0.5] CT
0.775 GC
[1 3] 0 setdash
2 LJ
0.667 LW
N
228.242 174 M
228.242 16 L
S
GR
GS
[0.75 0 0 0.75 0 0.5] CT
0.775 GC
[1 3] 0 setdash
2 LJ
0.667 LW
N
235.113 174 M
235.113 16 L
S
GR
GS
[0.75 0 0 0.75 0 0.5] CT
0.775 GC
[1 3] 0 setdash
2 LJ
0.667 LW
N
240.443 174 M
240.443 16 L
S
GR
GS
[0.75 0 0 0.75 0 0.5] CT
0.775 GC
[1 3] 0 setdash
2 LJ
0.667 LW
N
244.798 174 M
244.798 16 L
S
GR
GS
[0.75 0 0 0.75 0 0.5] CT
0.775 GC
[1 3] 0 setdash
2 LJ
0.667 LW
N
248.48 174 M
248.48 16 L
S
GR
GS
[0.75 0 0 0.75 0 0.5] CT
0.775 GC
[1 3] 0 setdash
2 LJ
0.667 LW
N
251.67 174 M
251.67 16 L
S
GR
GS
[0.75 0 0 0.75 0 0.5] CT
0.775 GC
[1 3] 0 setdash
2 LJ
0.667 LW
N
254.483 174 M
254.483 16 L
S
GR
GS
[0.75 0 0 0.75 0 0.5] CT
0.873 GC
1 LJ
0.667 LW
N
37 174 M
37 16 L
S
GR
GS
[0.75 0 0 0.75 0 0.5] CT
0.873 GC
1 LJ
0.667 LW
N
147 174 M
147 16 L
S
GR
GS
[0.75 0 0 0.75 0 0.5] CT
0.873 GC
1 LJ
0.667 LW
N
257 174 M
257 16 L
S
GR
GS
[0.75 0 0 0.75 0 0.5] CT
0.873 GC
1 LJ
0.667 LW
N
257 174 M
37 174 L
S
GR
GS
[0.75 0 0 0.75 0 0.5] CT
0.873 GC
1 LJ
0.667 LW
N
257 142.4 M
37 142.4 L
S
GR
GS
[0.75 0 0 0.75 0 0.5] CT
0.873 GC
1 LJ
0.667 LW
N
257 110.8 M
37 110.8 L
S
GR
GS
[0.75 0 0 0.75 0 0.5] CT
0.873 GC
1 LJ
0.667 LW
N
257 79.2 M
37 79.2 L
S
GR
GS
[0.75 0 0 0.75 0 0.5] CT
0.873 GC
1 LJ
0.667 LW
N
257 47.6 M
37 47.6 L
S
GR
GS
[0.75 0 0 0.75 0 0.5] CT
0.873 GC
1 LJ
0.667 LW
N
257 16 M
37 16 L
S
GR
GS
[0.75 0 0 0.75 0 0.5] CT
0.149 GC
2 setlinecap
1 LJ
0.667 LW
N
37 174 M
257 174 L
S
GR
GS
[0.75 0 0 0.75 0 0.5] CT
0.149 GC
2 setlinecap
1 LJ
0.667 LW
N
37 16 M
257 16 L
S
GR
GS
[0.75 0 0 0.75 0 0.5] CT
0.149 GC
2 setlinecap
1 LJ
0.667 LW
N
37 174 M
37 171.8 L
S
GR
GS
[0.75 0 0 0.75 0 0.5] CT
0.149 GC
2 setlinecap
1 LJ
0.667 LW
N
147 174 M
147 171.8 L
S
GR
GS
[0.75 0 0 0.75 0 0.5] CT
0.149 GC
2 setlinecap
1 LJ
0.667 LW
N
257 174 M
257 171.8 L
S
GR
GS
[0.75 0 0 0.75 0 0.5] CT
0.149 GC
2 setlinecap
1 LJ
0.667 LW
N
37 16 M
37 18.2 L
S
GR
GS
[0.75 0 0 0.75 0 0.5] CT
0.149 GC
2 setlinecap
1 LJ
0.667 LW
N
147 16 M
147 18.2 L
S
GR
GS
[0.75 0 0 0.75 0 0.5] CT
0.149 GC
2 setlinecap
1 LJ
0.667 LW
N
257 16 M
257 18.2 L
S
GR
GS
[0.75 0 0 0.75 0 0.5] CT
0.149 GC
2 setlinecap
1 LJ
0.667 LW
N
37 174 M
37 172.9 L
S
GR
GS
[0.75 0 0 0.75 0 0.5] CT
0.149 GC
2 setlinecap
1 LJ
0.667 LW
N
53.557 174 M
53.557 172.9 L
S
GR
GS
[0.75 0 0 0.75 0 0.5] CT
0.149 GC
2 setlinecap
1 LJ
0.667 LW
N
63.242 174 M
63.242 172.9 L
S
GR
GS
[0.75 0 0 0.75 0 0.5] CT
0.149 GC
2 setlinecap
1 LJ
0.667 LW
N
70.113 174 M
70.113 172.9 L
S
GR
GS
[0.75 0 0 0.75 0 0.5] CT
0.149 GC
2 setlinecap
1 LJ
0.667 LW
N
75.443 174 M
75.443 172.9 L
S
GR
GS
[0.75 0 0 0.75 0 0.5] CT
0.149 GC
2 setlinecap
1 LJ
0.667 LW
N
79.798 174 M
79.798 172.9 L
S
GR
GS
[0.75 0 0 0.75 0 0.5] CT
0.149 GC
2 setlinecap
1 LJ
0.667 LW
N
83.48 174 M
83.48 172.9 L
S
GR
GS
[0.75 0 0 0.75 0 0.5] CT
0.149 GC
2 setlinecap
1 LJ
0.667 LW
N
86.67 174 M
86.67 172.9 L
S
GR
GS
[0.75 0 0 0.75 0 0.5] CT
0.149 GC
2 setlinecap
1 LJ
0.667 LW
N
89.483 174 M
89.483 172.9 L
S
GR
GS
[0.75 0 0 0.75 0 0.5] CT
0.149 GC
2 setlinecap
1 LJ
0.667 LW
N
92 174 M
92 172.9 L
S
GR
GS
[0.75 0 0 0.75 0 0.5] CT
0.149 GC
2 setlinecap
1 LJ
0.667 LW
N
108.557 174 M
108.557 172.9 L
S
GR
GS
[0.75 0 0 0.75 0 0.5] CT
0.149 GC
2 setlinecap
1 LJ
0.667 LW
N
118.242 174 M
118.242 172.9 L
S
GR
GS
[0.75 0 0 0.75 0 0.5] CT
0.149 GC
2 setlinecap
1 LJ
0.667 LW
N
125.113 174 M
125.113 172.9 L
S
GR
GS
[0.75 0 0 0.75 0 0.5] CT
0.149 GC
2 setlinecap
1 LJ
0.667 LW
N
130.443 174 M
130.443 172.9 L
S
GR
GS
[0.75 0 0 0.75 0 0.5] CT
0.149 GC
2 setlinecap
1 LJ
0.667 LW
N
134.798 174 M
134.798 172.9 L
S
GR
GS
[0.75 0 0 0.75 0 0.5] CT
0.149 GC
2 setlinecap
1 LJ
0.667 LW
N
138.48 174 M
138.48 172.9 L
S
GR
GS
[0.75 0 0 0.75 0 0.5] CT
0.149 GC
2 setlinecap
1 LJ
0.667 LW
N
141.67 174 M
141.67 172.9 L
S
GR
GS
[0.75 0 0 0.75 0 0.5] CT
0.149 GC
2 setlinecap
1 LJ
0.667 LW
N
144.483 174 M
144.483 172.9 L
S
GR
GS
[0.75 0 0 0.75 0 0.5] CT
0.149 GC
2 setlinecap
1 LJ
0.667 LW
N
147 174 M
147 172.9 L
S
GR
GS
[0.75 0 0 0.75 0 0.5] CT
0.149 GC
2 setlinecap
1 LJ
0.667 LW
N
163.557 174 M
163.557 172.9 L
S
GR
GS
[0.75 0 0 0.75 0 0.5] CT
0.149 GC
2 setlinecap
1 LJ
0.667 LW
N
173.242 174 M
173.242 172.9 L
S
GR
GS
[0.75 0 0 0.75 0 0.5] CT
0.149 GC
2 setlinecap
1 LJ
0.667 LW
N
180.113 174 M
180.113 172.9 L
S
GR
GS
[0.75 0 0 0.75 0 0.5] CT
0.149 GC
2 setlinecap
1 LJ
0.667 LW
N
185.443 174 M
185.443 172.9 L
S
GR
GS
[0.75 0 0 0.75 0 0.5] CT
0.149 GC
2 setlinecap
1 LJ
0.667 LW
N
189.798 174 M
189.798 172.9 L
S
GR
GS
[0.75 0 0 0.75 0 0.5] CT
0.149 GC
2 setlinecap
1 LJ
0.667 LW
N
193.48 174 M
193.48 172.9 L
S
GR
GS
[0.75 0 0 0.75 0 0.5] CT
0.149 GC
2 setlinecap
1 LJ
0.667 LW
N
196.67 174 M
196.67 172.9 L
S
GR
GS
[0.75 0 0 0.75 0 0.5] CT
0.149 GC
2 setlinecap
1 LJ
0.667 LW
N
199.483 174 M
199.483 172.9 L
S
GR
GS
[0.75 0 0 0.75 0 0.5] CT
0.149 GC
2 setlinecap
1 LJ
0.667 LW
N
202 174 M
202 172.9 L
S
GR
GS
[0.75 0 0 0.75 0 0.5] CT
0.149 GC
2 setlinecap
1 LJ
0.667 LW
N
218.557 174 M
218.557 172.9 L
S
GR
GS
[0.75 0 0 0.75 0 0.5] CT
0.149 GC
2 setlinecap
1 LJ
0.667 LW
N
228.242 174 M
228.242 172.9 L
S
GR
GS
[0.75 0 0 0.75 0 0.5] CT
0.149 GC
2 setlinecap
1 LJ
0.667 LW
N
235.113 174 M
235.113 172.9 L
S
GR
GS
[0.75 0 0 0.75 0 0.5] CT
0.149 GC
2 setlinecap
1 LJ
0.667 LW
N
240.443 174 M
240.443 172.9 L
S
GR
GS
[0.75 0 0 0.75 0 0.5] CT
0.149 GC
2 setlinecap
1 LJ
0.667 LW
N
244.798 174 M
244.798 172.9 L
S
GR
GS
[0.75 0 0 0.75 0 0.5] CT
0.149 GC
2 setlinecap
1 LJ
0.667 LW
N
248.48 174 M
248.48 172.9 L
S
GR
GS
[0.75 0 0 0.75 0 0.5] CT
0.149 GC
2 setlinecap
1 LJ
0.667 LW
N
251.67 174 M
251.67 172.9 L
S
GR
GS
[0.75 0 0 0.75 0 0.5] CT
0.149 GC
2 setlinecap
1 LJ
0.667 LW
N
254.483 174 M
254.483 172.9 L
S
GR
GS
[0.75 0 0 0.75 0 0.5] CT
0.149 GC
2 setlinecap
1 LJ
0.667 LW
N
257 174 M
257 172.9 L
S
GR
GS
[0.75 0 0 0.75 0 0.5] CT
0.149 GC
2 setlinecap
1 LJ
0.667 LW
N
37 16 M
37 17.1 L
S
GR
GS
[0.75 0 0 0.75 0 0.5] CT
0.149 GC
2 setlinecap
1 LJ
0.667 LW
N
53.557 16 M
53.557 17.1 L
S
GR
GS
[0.75 0 0 0.75 0 0.5] CT
0.149 GC
2 setlinecap
1 LJ
0.667 LW
N
63.242 16 M
63.242 17.1 L
S
GR
GS
[0.75 0 0 0.75 0 0.5] CT
0.149 GC
2 setlinecap
1 LJ
0.667 LW
N
70.113 16 M
70.113 17.1 L
S
GR
GS
[0.75 0 0 0.75 0 0.5] CT
0.149 GC
2 setlinecap
1 LJ
0.667 LW
N
75.443 16 M
75.443 17.1 L
S
GR
GS
[0.75 0 0 0.75 0 0.5] CT
0.149 GC
2 setlinecap
1 LJ
0.667 LW
N
79.798 16 M
79.798 17.1 L
S
GR
GS
[0.75 0 0 0.75 0 0.5] CT
0.149 GC
2 setlinecap
1 LJ
0.667 LW
N
83.48 16 M
83.48 17.1 L
S
GR
GS
[0.75 0 0 0.75 0 0.5] CT
0.149 GC
2 setlinecap
1 LJ
0.667 LW
N
86.67 16 M
86.67 17.1 L
S
GR
GS
[0.75 0 0 0.75 0 0.5] CT
0.149 GC
2 setlinecap
1 LJ
0.667 LW
N
89.483 16 M
89.483 17.1 L
S
GR
GS
[0.75 0 0 0.75 0 0.5] CT
0.149 GC
2 setlinecap
1 LJ
0.667 LW
N
92 16 M
92 17.1 L
S
GR
GS
[0.75 0 0 0.75 0 0.5] CT
0.149 GC
2 setlinecap
1 LJ
0.667 LW
N
108.557 16 M
108.557 17.1 L
S
GR
GS
[0.75 0 0 0.75 0 0.5] CT
0.149 GC
2 setlinecap
1 LJ
0.667 LW
N
118.242 16 M
118.242 17.1 L
S
GR
GS
[0.75 0 0 0.75 0 0.5] CT
0.149 GC
2 setlinecap
1 LJ
0.667 LW
N
125.113 16 M
125.113 17.1 L
S
GR
GS
[0.75 0 0 0.75 0 0.5] CT
0.149 GC
2 setlinecap
1 LJ
0.667 LW
N
130.443 16 M
130.443 17.1 L
S
GR
GS
[0.75 0 0 0.75 0 0.5] CT
0.149 GC
2 setlinecap
1 LJ
0.667 LW
N
134.798 16 M
134.798 17.1 L
S
GR
GS
[0.75 0 0 0.75 0 0.5] CT
0.149 GC
2 setlinecap
1 LJ
0.667 LW
N
138.48 16 M
138.48 17.1 L
S
GR
GS
[0.75 0 0 0.75 0 0.5] CT
0.149 GC
2 setlinecap
1 LJ
0.667 LW
N
141.67 16 M
141.67 17.1 L
S
GR
GS
[0.75 0 0 0.75 0 0.5] CT
0.149 GC
2 setlinecap
1 LJ
0.667 LW
N
144.483 16 M
144.483 17.1 L
S
GR
GS
[0.75 0 0 0.75 0 0.5] CT
0.149 GC
2 setlinecap
1 LJ
0.667 LW
N
147 16 M
147 17.1 L
S
GR
GS
[0.75 0 0 0.75 0 0.5] CT
0.149 GC
2 setlinecap
1 LJ
0.667 LW
N
163.557 16 M
163.557 17.1 L
S
GR
GS
[0.75 0 0 0.75 0 0.5] CT
0.149 GC
2 setlinecap
1 LJ
0.667 LW
N
173.242 16 M
173.242 17.1 L
S
GR
GS
[0.75 0 0 0.75 0 0.5] CT
0.149 GC
2 setlinecap
1 LJ
0.667 LW
N
180.113 16 M
180.113 17.1 L
S
GR
GS
[0.75 0 0 0.75 0 0.5] CT
0.149 GC
2 setlinecap
1 LJ
0.667 LW
N
185.443 16 M
185.443 17.1 L
S
GR
GS
[0.75 0 0 0.75 0 0.5] CT
0.149 GC
2 setlinecap
1 LJ
0.667 LW
N
189.798 16 M
189.798 17.1 L
S
GR
GS
[0.75 0 0 0.75 0 0.5] CT
0.149 GC
2 setlinecap
1 LJ
0.667 LW
N
193.48 16 M
193.48 17.1 L
S
GR
GS
[0.75 0 0 0.75 0 0.5] CT
0.149 GC
2 setlinecap
1 LJ
0.667 LW
N
196.67 16 M
196.67 17.1 L
S
GR
GS
[0.75 0 0 0.75 0 0.5] CT
0.149 GC
2 setlinecap
1 LJ
0.667 LW
N
199.483 16 M
199.483 17.1 L
S
GR
GS
[0.75 0 0 0.75 0 0.5] CT
0.149 GC
2 setlinecap
1 LJ
0.667 LW
N
202 16 M
202 17.1 L
S
GR
GS
[0.75 0 0 0.75 0 0.5] CT
0.149 GC
2 setlinecap
1 LJ
0.667 LW
N
218.557 16 M
218.557 17.1 L
S
GR
GS
[0.75 0 0 0.75 0 0.5] CT
0.149 GC
2 setlinecap
1 LJ
0.667 LW
N
228.242 16 M
228.242 17.1 L
S
GR
GS
[0.75 0 0 0.75 0 0.5] CT
0.149 GC
2 setlinecap
1 LJ
0.667 LW
N
235.113 16 M
235.113 17.1 L
S
GR
GS
[0.75 0 0 0.75 0 0.5] CT
0.149 GC
2 setlinecap
1 LJ
0.667 LW
N
240.443 16 M
240.443 17.1 L
S
GR
GS
[0.75 0 0 0.75 0 0.5] CT
0.149 GC
2 setlinecap
1 LJ
0.667 LW
N
244.798 16 M
244.798 17.1 L
S
GR
GS
[0.75 0 0 0.75 0 0.5] CT
0.149 GC
2 setlinecap
1 LJ
0.667 LW
N
248.48 16 M
248.48 17.1 L
S
GR
GS
[0.75 0 0 0.75 0 0.5] CT
0.149 GC
2 setlinecap
1 LJ
0.667 LW
N
251.67 16 M
251.67 17.1 L
S
GR
GS
[0.75 0 0 0.75 0 0.5] CT
0.149 GC
2 setlinecap
1 LJ
0.667 LW
N
254.483 16 M
254.483 17.1 L
S
GR
GS
[0.75 0 0 0.75 0 0.5] CT
0.149 GC
2 setlinecap
1 LJ
0.667 LW
N
257 16 M
257 17.1 L
S
GR
GS
[0.75 0 0 0.75 27.75 135] CT
0.149 GC
N
-8.13 11.2 M
-8.13 10.747 L
-6.505 10.747 -6.505 10.325 QT
-6.505 3.512 L
-7.177 3.825 -8.208 3.825 QT
-8.208 3.372 L
-6.615 3.372 -5.802 2.544 QT
-5.615 2.544 L
-5.568 2.544 -5.529 2.575 QT
-5.49 2.606 -5.49 2.653 QT
-5.49 10.325 L
-5.49 10.747 -3.865 10.747 QT
-3.865 11.2 L
-8.13 11.2 L
cp
f
GR
GS
[0.75 0 0 0.75 27.75 135] CT
0.149 GC
N
0.583 11.481 M
-1.01 11.481 -1.581 10.169 QT
-2.151 8.856 -2.151 7.059 QT
-2.151 5.919 -1.948 4.927 QT
-1.745 3.934 -1.135 3.239 QT
-0.526 2.544 0.583 2.544 QT
1.443 2.544 1.99 2.958 QT
2.536 3.372 2.818 4.036 QT
3.099 4.7 3.208 5.458 QT
3.318 6.216 3.318 7.059 QT
3.318 8.169 3.107 9.145 QT
2.896 10.122 2.294 10.802 QT
1.693 11.481 0.583 11.481 QT
cp
0.583 11.153 M
1.302 11.153 1.661 10.411 QT
2.021 9.669 2.099 8.762 QT
2.177 7.856 2.177 6.841 QT
2.177 5.872 2.099 5.044 QT
2.021 4.216 1.669 3.544 QT
1.318 2.872 0.583 2.872 QT
-0.151 2.872 -0.51 3.552 QT
-0.87 4.231 -0.948 5.052 QT
-1.026 5.872 -1.026 6.841 QT
-1.026 7.575 -0.995 8.216 QT
-0.964 8.856 -0.807 9.536 QT
-0.651 10.216 -0.315 10.684 QT
0.021 11.153 0.583 11.153 QT
cp
f
GR
GS
[0.75 0 0 0.75 27.75 135] CT
0.149 GC
N
4.453 6.361 M
4.453 6.127 L
4.453 6.096 4.469 6.065 QT
5.859 4.518 L
6.188 4.174 6.383 3.947 QT
6.578 3.721 6.773 3.416 QT
6.969 3.111 7.078 2.799 QT
7.188 2.486 7.188 2.127 QT
7.188 1.768 7.047 1.424 QT
6.906 1.08 6.641 0.885 QT
6.375 0.69 5.984 0.69 QT
5.594 0.69 5.281 0.924 QT
4.969 1.158 4.844 1.533 QT
4.891 1.518 4.938 1.518 QT
5.141 1.518 5.289 1.65 QT
5.438 1.783 5.438 2.002 QT
5.438 2.205 5.289 2.354 QT
5.141 2.502 4.938 2.502 QT
4.734 2.502 4.594 2.354 QT
4.453 2.205 4.453 2.002 QT
4.453 1.674 4.578 1.377 QT
4.703 1.08 4.945 0.846 QT
5.188 0.611 5.484 0.486 QT
5.781 0.361 6.125 0.361 QT
6.641 0.361 7.086 0.58 QT
7.531 0.799 7.789 1.197 QT
8.047 1.596 8.047 2.127 QT
8.047 2.518 7.875 2.869 QT
7.703 3.221 7.438 3.51 QT
7.172 3.799 6.75 4.166 QT
6.328 4.533 6.203 4.658 QT
5.172 5.627 L
6.047 5.627 L
6.688 5.627 7.109 5.619 QT
7.531 5.611 7.563 5.58 QT
7.672 5.471 7.781 4.752 QT
8.047 4.752 L
7.781 6.361 L
4.453 6.361 L
cp
f
GR
GS
[0.75 0 0 0.75 110.25 135] CT
0.149 GC
N
/f117695946{-8.13 11.2 M
-8.13 10.747 L
-6.505 10.747 -6.505 10.325 QT
-6.505 3.512 L
-7.177 3.825 -8.208 3.825 QT
-8.208 3.372 L
-6.615 3.372 -5.802 2.544 QT
-5.615 2.544 L
-5.568 2.544 -5.529 2.575 QT
-5.49 2.606 -5.49 2.653 QT
-5.49 10.325 L
-5.49 10.747 -3.865 10.747 QT
-3.865 11.2 L
-8.13 11.2 L
cp}def
f117695946
f
GR
GS
[0.75 0 0 0.75 110.25 135] CT
0.149 GC
N
/f2138031099{0.583 11.481 M
-1.01 11.481 -1.581 10.169 QT
-2.151 8.856 -2.151 7.059 QT
-2.151 5.919 -1.948 4.927 QT
-1.745 3.934 -1.135 3.239 QT
-0.526 2.544 0.583 2.544 QT
1.443 2.544 1.99 2.958 QT
2.536 3.372 2.818 4.036 QT
3.099 4.7 3.208 5.458 QT
3.318 6.216 3.318 7.059 QT
3.318 8.169 3.107 9.145 QT
2.896 10.122 2.294 10.802 QT
1.693 11.481 0.583 11.481 QT
cp
0.583 11.153 M
1.302 11.153 1.661 10.411 QT
2.021 9.669 2.099 8.762 QT
2.177 7.856 2.177 6.841 QT
2.177 5.872 2.099 5.044 QT
2.021 4.216 1.669 3.544 QT
1.318 2.872 0.583 2.872 QT
-0.151 2.872 -0.51 3.552 QT
-0.87 4.231 -0.948 5.052 QT
-1.026 5.872 -1.026 6.841 QT
-1.026 7.575 -0.995 8.216 QT
-0.964 8.856 -0.807 9.536 QT
-0.651 10.216 -0.315 10.684 QT
0.021 11.153 0.583 11.153 QT
cp}def
f2138031099
f
GR
GS
[0.75 0 0 0.75 110.25 135] CT
0.149 GC
N
/f968019605{4.25 4.877 M
4.25 4.565 L
7.031 0.408 L
7.063 0.361 7.125 0.361 QT
7.25 0.361 L
7.359 0.361 7.359 0.471 QT
7.359 4.565 L
8.234 4.565 L
8.234 4.877 L
7.359 4.877 L
7.359 5.752 L
7.359 5.94 7.625 5.994 QT
7.891 6.049 8.234 6.049 QT
8.234 6.361 L
5.75 6.361 L
5.75 6.049 L
6.094 6.049 6.359 5.994 QT
6.625 5.94 6.625 5.752 QT
6.625 4.877 L
4.25 4.877 L
cp
4.547 4.565 M
6.688 4.565 L
6.688 1.377 L
4.547 4.565 L
cp}def
f968019605
f
GR
GS
[0.75 0 0 0.75 192.75 135] CT
0.149 GC
N
f117695946
f
GR
GS
[0.75 0 0 0.75 192.75 135] CT
0.149 GC
N
f2138031099
f
GR
GS
[0.75 0 0 0.75 192.75 135] CT
0.149 GC
N
/f-1214363871{6.25 6.565 M
5.688 6.565 5.313 6.268 QT
4.938 5.971 4.734 5.494 QT
4.531 5.018 4.453 4.502 QT
4.375 3.986 4.375 3.455 QT
4.375 2.736 4.656 2.025 QT
4.938 1.315 5.477 0.838 QT
6.016 0.361 6.75 0.361 QT
7.047 0.361 7.32 0.479 QT
7.594 0.596 7.742 0.822 QT
7.891 1.049 7.891 1.377 QT
7.891 1.565 7.766 1.69 QT
7.641 1.815 7.453 1.815 QT
7.281 1.815 7.156 1.682 QT
7.031 1.549 7.031 1.377 QT
7.031 1.205 7.156 1.072 QT
7.281 0.94 7.453 0.94 QT
7.5 0.94 L
7.391 0.783 7.18 0.705 QT
6.969 0.627 6.75 0.627 QT
6.469 0.627 6.242 0.744 QT
6.016 0.861 5.828 1.065 QT
5.641 1.268 5.516 1.51 QT
5.391 1.752 5.328 2.065 QT
5.266 2.377 5.242 2.65 QT
5.219 2.924 5.219 3.33 QT
5.391 2.971 5.68 2.736 QT
5.969 2.502 6.328 2.502 QT
6.734 2.502 7.063 2.666 QT
7.391 2.83 7.625 3.111 QT
7.859 3.393 7.984 3.768 QT
8.109 4.143 8.109 4.518 QT
8.109 5.049 7.875 5.525 QT
7.641 6.002 7.219 6.283 QT
6.797 6.565 6.25 6.565 QT
cp
6.25 6.268 M
6.594 6.268 6.805 6.111 QT
7.016 5.955 7.117 5.697 QT
7.219 5.44 7.242 5.174 QT
7.266 4.908 7.266 4.518 QT
7.266 4.002 7.219 3.643 QT
7.172 3.283 6.953 3.01 QT
6.734 2.736 6.297 2.736 QT
5.922 2.736 5.688 2.979 QT
5.453 3.221 5.352 3.604 QT
5.25 3.986 5.25 4.33 QT
5.25 4.44 5.25 4.502 QT
5.25 4.518 5.25 4.525 QT
5.25 4.533 5.25 4.549 QT
5.25 4.94 5.328 5.33 QT
5.406 5.721 5.625 5.994 QT
5.844 6.268 6.25 6.268 QT
cp}def
f-1214363871
f
GR
GS
[0.75 0 0 0.75 110.25008 148] CT
0.149 GC
N
/f-2035873689{-17.034 12.32 M
-17.034 11.789 L
-16.534 11.789 -16.206 11.711 QT
-15.878 11.632 -15.878 11.32 QT
-15.878 6.382 L
-17.019 6.382 L
-17.019 5.851 L
-15.878 5.851 L
-15.878 4.054 L
-15.878 3.57 -15.675 3.148 QT
-15.472 2.726 -15.128 2.414 QT
-14.784 2.101 -14.339 1.922 QT
-13.894 1.742 -13.425 1.742 QT
-12.925 1.742 -12.519 2.047 QT
-12.112 2.351 -12.112 2.836 QT
-12.112 3.132 -12.3 3.328 QT
-12.487 3.523 -12.784 3.523 QT
-13.065 3.523 -13.269 3.328 QT
-13.472 3.132 -13.472 2.836 QT
-13.472 2.367 -13.065 2.211 QT
-13.3 2.132 -13.503 2.132 QT
-13.94 2.132 -14.253 2.445 QT
-14.565 2.757 -14.714 3.203 QT
-14.862 3.648 -14.862 4.086 QT
-14.862 5.851 L
-13.144 5.851 L
-13.144 6.382 L
-14.815 6.382 L
-14.815 11.32 L
-14.815 11.617 -14.378 11.703 QT
-13.94 11.789 -13.362 11.789 QT
-13.362 12.32 L
-17.034 12.32 L
cp}def
f-2035873689
f
GR
GS
[0.75 0 0 0.75 110.25008 148] CT
0.149 GC
N
/f2028202385{-6.383 16.07 M
-6.383 1.07 L
-4.32 1.07 L
-4.32 1.664 L
-5.773 1.664 L
-5.773 15.476 L
-4.32 15.476 L
-4.32 16.07 L
-6.383 16.07 L
cp}def
f2028202385
f
GR
GS
[0.75 0 0 0.75 110.25008 148] CT
0.149 GC
N
/f-374141431{-3.605 12.32 M
-3.605 11.789 L
-2.074 11.789 -2.074 11.32 QT
-2.074 3.07 L
-2.074 2.601 -3.605 2.601 QT
-3.605 2.07 L
0.879 2.07 L
0.879 2.601 L
-0.668 2.601 -0.668 3.07 QT
-0.668 6.726 L
3.754 6.726 L
3.754 3.07 L
3.754 2.601 2.207 2.601 QT
2.207 2.07 L
6.692 2.07 L
6.692 2.601 L
5.16 2.601 5.16 3.07 QT
5.16 11.32 L
5.16 11.789 6.692 11.789 QT
6.692 12.32 L
2.207 12.32 L
2.207 11.789 L
3.754 11.789 3.754 11.32 QT
3.754 7.257 L
-0.668 7.257 L
-0.668 11.32 L
-0.668 11.789 0.879 11.789 QT
0.879 12.32 L
-3.605 12.32 L
cp}def
f-374141431
f
GR
GS
[0.75 0 0 0.75 110.25008 148] CT
0.149 GC
N
/f-353581992{7.52 12.32 M
7.348 12.32 7.348 12.148 QT
7.348 12.039 L
7.348 11.976 7.395 11.929 QT
11.582 6.242 L
10.223 6.242 L
9.598 6.242 9.184 6.328 QT
8.77 6.414 8.496 6.632 QT
8.223 6.851 8.106 7.242 QT
7.988 7.632 7.988 8.336 QT
7.551 8.336 L
7.723 5.851 L
12.754 5.851 L
12.817 5.851 12.863 5.898 QT
12.91 5.945 12.91 6.023 QT
12.91 6.101 L
12.91 6.148 12.879 6.211 QT
8.692 11.882 L
10.113 11.882 L
10.77 11.882 11.207 11.804 QT
11.645 11.726 11.957 11.414 QT
12.238 11.132 12.34 10.648 QT
12.442 10.164 12.504 9.461 QT
12.942 9.461 L
12.676 12.32 L
7.52 12.32 L
cp}def
f-353581992
f
GR
GS
[0.75 0 0 0.75 110.25008 148] CT
0.149 GC
N
/f-1726549143{13.773 16.07 M
13.773 15.476 L
15.226 15.476 L
15.226 1.664 L
13.773 1.664 L
13.773 1.07 L
15.835 1.07 L
15.835 16.07 L
13.773 16.07 L
cp}def
f-1726549143
f
GR
GS
[0.75 0 0 0.75 0 0.5] CT
0.149 GC
2 setlinecap
1 LJ
0.667 LW
N
37 174 M
37 16 L
S
GR
GS
[0.75 0 0 0.75 0 0.5] CT
0.149 GC
2 setlinecap
1 LJ
0.667 LW
N
257 174 M
257 16 L
S
GR
GS
[0.75 0 0 0.75 0 0.5] CT
0.149 GC
2 setlinecap
1 LJ
0.667 LW
N
37 174 M
39.2 174 L
S
GR
GS
[0.75 0 0 0.75 0 0.5] CT
0.149 GC
2 setlinecap
1 LJ
0.667 LW
N
37 142.4 M
39.2 142.4 L
S
GR
GS
[0.75 0 0 0.75 0 0.5] CT
0.149 GC
2 setlinecap
1 LJ
0.667 LW
N
37 110.8 M
39.2 110.8 L
S
GR
GS
[0.75 0 0 0.75 0 0.5] CT
0.149 GC
2 setlinecap
1 LJ
0.667 LW
N
37 79.2 M
39.2 79.2 L
S
GR
GS
[0.75 0 0 0.75 0 0.5] CT
0.149 GC
2 setlinecap
1 LJ
0.667 LW
N
37 47.6 M
39.2 47.6 L
S
GR
GS
[0.75 0 0 0.75 0 0.5] CT
0.149 GC
2 setlinecap
1 LJ
0.667 LW
N
37 16 M
39.2 16 L
S
GR
GS
[0.75 0 0 0.75 0 0.5] CT
0.149 GC
2 setlinecap
1 LJ
0.667 LW
N
257 174 M
254.8 174 L
S
GR
GS
[0.75 0 0 0.75 0 0.5] CT
0.149 GC
2 setlinecap
1 LJ
0.667 LW
N
257 142.4 M
254.8 142.4 L
S
GR
GS
[0.75 0 0 0.75 0 0.5] CT
0.149 GC
2 setlinecap
1 LJ
0.667 LW
N
257 110.8 M
254.8 110.8 L
S
GR
GS
[0.75 0 0 0.75 0 0.5] CT
0.149 GC
2 setlinecap
1 LJ
0.667 LW
N
257 79.2 M
254.8 79.2 L
S
GR
GS
[0.75 0 0 0.75 0 0.5] CT
0.149 GC
2 setlinecap
1 LJ
0.667 LW
N
257 47.6 M
254.8 47.6 L
S
GR
GS
[0.75 0 0 0.75 0 0.5] CT
0.149 GC
2 setlinecap
1 LJ
0.667 LW
N
257 16 M
254.8 16 L
S
GR
GS
[0.75 0 0 0.75 23.75 131] CT
0.149 GC
N
/f-1405947355{-5.464 3.2 M
-5.464 2.747 L
-3.839 2.747 -3.839 2.325 QT
-3.839 -4.488 L
-4.51 -4.175 -5.542 -4.175 QT
-5.542 -4.628 L
-3.948 -4.628 -3.135 -5.456 QT
-2.948 -5.456 L
-2.901 -5.456 -2.862 -5.425 QT
-2.823 -5.394 -2.823 -5.347 QT
-2.823 2.325 L
-2.823 2.747 -1.198 2.747 QT
-1.198 3.2 L
-5.464 3.2 L
cp}def
f-1405947355
f
GR
GS
[0.75 0 0 0.75 23.75 107.3] CT
0.149 GC
N
/f-1507413402{-6.026 3.2 M
-6.026 2.856 L
-6.026 2.825 -5.995 2.778 QT
-3.979 0.544 L
-3.51 0.044 -3.229 -0.292 QT
-2.948 -0.628 -2.667 -1.066 QT
-2.385 -1.503 -2.221 -1.956 QT
-2.057 -2.409 -2.057 -2.909 QT
-2.057 -3.441 -2.26 -3.933 QT
-2.464 -4.425 -2.854 -4.714 QT
-3.245 -5.003 -3.792 -5.003 QT
-4.354 -5.003 -4.807 -4.659 QT
-5.26 -4.316 -5.448 -3.784 QT
-5.385 -3.8 -5.307 -3.8 QT
-5.01 -3.8 -4.807 -3.605 QT
-4.604 -3.409 -4.604 -3.097 QT
-4.604 -2.8 -4.807 -2.589 QT
-5.01 -2.378 -5.307 -2.378 QT
-5.604 -2.378 -5.815 -2.589 QT
-6.026 -2.8 -6.026 -3.097 QT
-6.026 -3.581 -5.839 -4.011 QT
-5.651 -4.441 -5.307 -4.769 QT
-4.964 -5.097 -4.526 -5.277 QT
-4.089 -5.456 -3.604 -5.456 QT
-2.854 -5.456 -2.214 -5.144 QT
-1.573 -4.831 -1.198 -4.253 QT
-0.823 -3.675 -0.823 -2.909 QT
-0.823 -2.347 -1.073 -1.839 QT
-1.323 -1.331 -1.706 -0.917 QT
-2.089 -0.503 -2.698 0.028 QT
-3.307 0.559 -3.495 0.731 QT
-4.964 2.153 L
-3.714 2.153 L
-2.792 2.153 -2.174 2.137 QT
-1.557 2.122 -1.526 2.075 QT
-1.37 1.919 -1.214 0.887 QT
-0.823 0.887 L
-1.198 3.2 L
-6.026 3.2 L
cp}def
f-1507413402
f
GR
GS
[0.75 0 0 0.75 23.75 83.6] CT
0.149 GC
N
/f-990758672{-5.432 2.2 M
-5.12 2.637 -4.604 2.856 QT
-4.089 3.075 -3.51 3.075 QT
-2.745 3.075 -2.432 2.427 QT
-2.12 1.778 -2.12 0.966 QT
-2.12 0.591 -2.182 0.223 QT
-2.245 -0.144 -2.409 -0.456 QT
-2.573 -0.769 -2.846 -0.964 QT
-3.12 -1.159 -3.51 -1.159 QT
-4.385 -1.159 L
-4.495 -1.159 -4.495 -1.269 QT
-4.495 -1.394 L
-4.495 -1.488 -4.385 -1.488 QT
-3.667 -1.55 L
-3.214 -1.55 -2.909 -1.894 QT
-2.604 -2.238 -2.464 -2.73 QT
-2.323 -3.222 -2.323 -3.659 QT
-2.323 -4.284 -2.612 -4.683 QT
-2.901 -5.081 -3.51 -5.081 QT
-3.995 -5.081 -4.448 -4.894 QT
-4.901 -4.706 -5.167 -4.331 QT
-5.135 -4.331 -5.12 -4.339 QT
-5.104 -4.347 -5.073 -4.347 QT
-4.792 -4.347 -4.596 -4.144 QT
-4.401 -3.941 -4.401 -3.644 QT
-4.401 -3.363 -4.596 -3.159 QT
-4.792 -2.956 -5.073 -2.956 QT
-5.37 -2.956 -5.573 -3.159 QT
-5.776 -3.363 -5.776 -3.644 QT
-5.776 -4.206 -5.44 -4.62 QT
-5.104 -5.034 -4.573 -5.245 QT
-4.042 -5.456 -3.51 -5.456 QT
-3.104 -5.456 -2.667 -5.339 QT
-2.229 -5.222 -1.878 -5.003 QT
-1.526 -4.784 -1.299 -4.441 QT
-1.073 -4.097 -1.073 -3.659 QT
-1.073 -3.113 -1.315 -2.652 QT
-1.557 -2.191 -1.987 -1.855 QT
-2.417 -1.519 -2.917 -1.347 QT
-2.354 -1.238 -1.846 -0.925 QT
-1.339 -0.613 -1.034 -0.113 QT
-0.729 0.387 -0.729 0.95 QT
-0.729 1.669 -1.12 2.247 QT
-1.51 2.825 -2.151 3.153 QT
-2.792 3.481 -3.51 3.481 QT
-4.12 3.481 -4.729 3.255 QT
-5.339 3.028 -5.729 2.559 QT
-6.12 2.091 -6.12 1.45 QT
-6.12 1.122 -5.901 0.911 QT
-5.682 0.7 -5.37 0.7 QT
-5.151 0.7 -4.979 0.794 QT
-4.807 0.887 -4.706 1.067 QT
-4.604 1.247 -4.604 1.45 QT
-4.604 1.762 -4.831 1.981 QT
-5.057 2.2 -5.37 2.2 QT
-5.432 2.2 L
cp}def
f-990758672
f
GR
GS
[0.75 0 0 0.75 23.75 59.9] CT
0.149 GC
N
/f-1633144563{-6.307 1.059 M
-6.307 0.591 L
-2.292 -5.394 L
-2.245 -5.456 -2.151 -5.456 QT
-1.964 -5.456 L
-1.823 -5.456 -1.823 -5.316 QT
-1.823 0.591 L
-0.542 0.591 L
-0.542 1.059 L
-1.823 1.059 L
-1.823 2.325 L
-1.823 2.591 -1.44 2.669 QT
-1.057 2.747 -0.557 2.747 QT
-0.557 3.2 L
-4.135 3.2 L
-4.135 2.747 L
-3.635 2.747 -3.253 2.669 QT
-2.87 2.591 -2.87 2.325 QT
-2.87 1.059 L
-6.307 1.059 L
cp
-5.87 0.591 M
-2.792 0.591 L
-2.792 -4.003 L
-5.87 0.591 L
cp}def
f-1633144563
f
GR
GS
[0.75 0 0 0.75 23.75 36.2] CT
0.149 GC
N
/f1892466823{-5.542 1.716 M
-5.401 2.106 -5.128 2.419 QT
-4.854 2.731 -4.471 2.903 QT
-4.089 3.075 -3.682 3.075 QT
-2.745 3.075 -2.393 2.341 QT
-2.042 1.606 -2.042 0.575 QT
-2.042 0.122 -2.057 -0.183 QT
-2.073 -0.488 -2.135 -0.784 QT
-2.26 -1.238 -2.565 -1.581 QT
-2.87 -1.925 -3.307 -1.925 QT
-3.745 -1.925 -4.057 -1.792 QT
-4.37 -1.659 -4.565 -1.48 QT
-4.76 -1.3 -4.917 -1.105 QT
-5.073 -0.909 -5.104 -0.894 QT
-5.245 -0.894 L
-5.276 -0.894 -5.331 -0.933 QT
-5.385 -0.972 -5.385 -1.019 QT
-5.385 -5.363 L
-5.385 -5.394 -5.339 -5.425 QT
-5.292 -5.456 -5.245 -5.456 QT
-5.214 -5.456 L
-4.339 -5.034 -3.354 -5.034 QT
-2.385 -5.034 -1.495 -5.456 QT
-1.448 -5.456 L
-1.417 -5.456 -1.378 -5.425 QT
-1.339 -5.394 -1.339 -5.363 QT
-1.339 -5.238 L
-1.339 -5.175 -1.354 -5.175 QT
-1.807 -4.581 -2.479 -4.253 QT
-3.151 -3.925 -3.854 -3.925 QT
-4.385 -3.925 -4.932 -4.066 QT
-4.932 -1.613 L
-4.495 -1.956 -4.159 -2.105 QT
-3.823 -2.253 -3.292 -2.253 QT
-2.573 -2.253 -2.003 -1.847 QT
-1.432 -1.441 -1.128 -0.777 QT
-0.823 -0.113 -0.823 0.591 QT
-0.823 1.372 -1.206 2.036 QT
-1.589 2.7 -2.253 3.091 QT
-2.917 3.481 -3.682 3.481 QT
-4.323 3.481 -4.862 3.153 QT
-5.401 2.825 -5.714 2.27 QT
-6.026 1.716 -6.026 1.075 QT
-6.026 0.794 -5.831 0.606 QT
-5.635 0.419 -5.354 0.419 QT
-5.073 0.419 -4.878 0.606 QT
-4.682 0.794 -4.682 1.075 QT
-4.682 1.356 -4.878 1.552 QT
-5.073 1.747 -5.354 1.747 QT
-5.401 1.747 -5.456 1.739 QT
-5.51 1.731 -5.542 1.716 QT
cp}def
f1892466823
f
GR
GS
[0.75 0 0 0.75 23.75 12.5] CT
0.149 GC
N
/f-2003826503{-3.417 3.481 M
-4.229 3.481 -4.768 3.052 QT
-5.307 2.622 -5.596 1.942 QT
-5.885 1.262 -6.003 0.512 QT
-6.12 -0.238 -6.12 -1.003 QT
-6.12 -2.034 -5.721 -3.066 QT
-5.323 -4.097 -4.542 -4.777 QT
-3.76 -5.456 -2.698 -5.456 QT
-2.26 -5.456 -1.87 -5.292 QT
-1.479 -5.128 -1.26 -4.8 QT
-1.042 -4.472 -1.042 -4.003 QT
-1.042 -3.738 -1.229 -3.558 QT
-1.417 -3.378 -1.682 -3.378 QT
-1.932 -3.378 -2.112 -3.558 QT
-2.292 -3.738 -2.292 -4.003 QT
-2.292 -4.253 -2.112 -4.441 QT
-1.932 -4.628 -1.682 -4.628 QT
-1.604 -4.628 L
-1.776 -4.863 -2.073 -4.972 QT
-2.37 -5.081 -2.698 -5.081 QT
-3.089 -5.081 -3.424 -4.909 QT
-3.76 -4.738 -4.026 -4.448 QT
-4.292 -4.159 -4.471 -3.808 QT
-4.651 -3.456 -4.745 -3.003 QT
-4.839 -2.55 -4.87 -2.159 QT
-4.901 -1.769 -4.901 -1.175 QT
-4.667 -1.706 -4.245 -2.042 QT
-3.823 -2.378 -3.307 -2.378 QT
-2.729 -2.378 -2.253 -2.144 QT
-1.776 -1.909 -1.432 -1.495 QT
-1.089 -1.081 -0.909 -0.55 QT
-0.729 -0.019 -0.729 0.528 QT
-0.729 1.294 -1.065 1.981 QT
-1.401 2.669 -2.018 3.075 QT
-2.635 3.481 -3.417 3.481 QT
cp
-3.417 3.075 M
-2.917 3.075 -2.612 2.848 QT
-2.307 2.622 -2.167 2.239 QT
-2.026 1.856 -1.987 1.473 QT
-1.948 1.091 -1.948 0.528 QT
-1.948 -0.206 -2.018 -0.722 QT
-2.089 -1.238 -2.401 -1.636 QT
-2.714 -2.034 -3.354 -2.034 QT
-3.885 -2.034 -4.221 -1.683 QT
-4.557 -1.331 -4.714 -0.784 QT
-4.87 -0.238 -4.87 0.262 QT
-4.87 0.434 -4.854 0.528 QT
-4.854 0.544 -4.862 0.552 QT
-4.87 0.559 -4.87 0.591 QT
-4.87 1.137 -4.753 1.708 QT
-4.635 2.278 -4.315 2.677 QT
-3.995 3.075 -3.417 3.075 QT
cp}def
f-2003826503
f
GR
GS
[0 -0.75 0.75 0 15.74998 71.74994] CT
0.149 GC
N
/f-57894164{-0.219 -5.108 M
-3.75 -14.53 L
-3.891 -14.843 -4.266 -14.921 QT
-4.641 -14.999 -5.219 -14.999 QT
-5.219 -15.53 L
-1.094 -15.53 L
-1.094 -14.999 L
-2.328 -14.999 -2.328 -14.608 QT
-2.328 -14.593 -2.328 -14.569 QT
-2.328 -14.546 -2.328 -14.53 QT
0.563 -6.874 L
3.281 -14.108 L
3.297 -14.171 3.297 -14.296 QT
3.297 -14.655 2.961 -14.827 QT
2.625 -14.999 2.219 -14.999 QT
2.219 -15.53 L
5.453 -15.53 L
5.453 -14.999 L
4.891 -14.999 4.461 -14.788 QT
4.031 -14.577 3.844 -14.108 QT
0.453 -5.108 L
0.406 -4.952 0.219 -4.952 QT
0.016 -4.952 L
-0.172 -4.952 -0.219 -5.108 QT
cp}def
f-57894164
f
GR
GS
[0.75 0 0 0.75 27.75 130.87394] CT
0 0.447 0.741 RC
10.0 ML
0.667 LW
N
0 -4 M
0 4 L
-4 0 M
4 0 L
-2.828 -2.828 M
2.828 2.828 L
-2.828 2.828 M
2.828 -2.828 L
S
GR
GS
[0.75 0 0 0.75 36 130.88718] CT
0 0.447 0.741 RC
10.0 ML
0.667 LW
N
0 -4 M
0 4 L
-4 0 M
4 0 L
-2.828 -2.828 M
2.828 2.828 L
-2.828 2.828 M
2.828 -2.828 L
S
GR
GS
[0.75 0 0 0.75 44.25 130.88396] CT
0 0.447 0.741 RC
10.0 ML
0.667 LW
N
0 -4 M
0 4 L
-4 0 M
4 0 L
-2.828 -2.828 M
2.828 2.828 L
-2.828 2.828 M
2.828 -2.828 L
S
GR
GS
[0.75 0 0 0.75 52.5 130.88304] CT
0 0.447 0.741 RC
10.0 ML
0.667 LW
N
0 -4 M
0 4 L
-4 0 M
4 0 L
-2.828 -2.828 M
2.828 2.828 L
-2.828 2.828 M
2.828 -2.828 L
S
GR
GS
[0.75 0 0 0.75 60.75 130.88382] CT
0 0.447 0.741 RC
10.0 ML
0.667 LW
N
0 -4 M
0 4 L
-4 0 M
4 0 L
-2.828 -2.828 M
2.828 2.828 L
-2.828 2.828 M
2.828 -2.828 L
S
GR
GS
[0.75 0 0 0.75 69 130.89708] CT
0 0.447 0.741 RC
10.0 ML
0.667 LW
N
0 -4 M
0 4 L
-4 0 M
4 0 L
-2.828 -2.828 M
2.828 2.828 L
-2.828 2.828 M
2.828 -2.828 L
S
GR
GS
[0.75 0 0 0.75 77.25 130.88335] CT
0 0.447 0.741 RC
10.0 ML
0.667 LW
N
0 -4 M
0 4 L
-4 0 M
4 0 L
-2.828 -2.828 M
2.828 2.828 L
-2.828 2.828 M
2.828 -2.828 L
S
GR
GS
[0.75 0 0 0.75 85.5 130.84809] CT
0 0.447 0.741 RC
10.0 ML
0.667 LW
N
0 -4 M
0 4 L
-4 0 M
4 0 L
-2.828 -2.828 M
2.828 2.828 L
-2.828 2.828 M
2.828 -2.828 L
S
GR
GS
[0.75 0 0 0.75 93.75 130.84541] CT
0 0.447 0.741 RC
10.0 ML
0.667 LW
N
0 -4 M
0 4 L
-4 0 M
4 0 L
-2.828 -2.828 M
2.828 2.828 L
-2.828 2.828 M
2.828 -2.828 L
S
GR
GS
[0.75 0 0 0.75 102 130.80315] CT
0 0.447 0.741 RC
10.0 ML
0.667 LW
N
0 -4 M
0 4 L
-4 0 M
4 0 L
-2.828 -2.828 M
2.828 2.828 L
-2.828 2.828 M
2.828 -2.828 L
S
GR
GS
[0.75 0 0 0.75 110.25 130.75028] CT
0 0.447 0.741 RC
10.0 ML
0.667 LW
N
0 -4 M
0 4 L
-4 0 M
4 0 L
-2.828 -2.828 M
2.828 2.828 L
-2.828 2.828 M
2.828 -2.828 L
S
GR
GS
[0.75 0 0 0.75 118.5 130.73251] CT
0 0.447 0.741 RC
10.0 ML
0.667 LW
N
0 -4 M
0 4 L
-4 0 M
4 0 L
-2.828 -2.828 M
2.828 2.828 L
-2.828 2.828 M
2.828 -2.828 L
S
GR
GS
[0.75 0 0 0.75 126.75 130.6614] CT
0 0.447 0.741 RC
10.0 ML
0.667 LW
N
0 -4 M
0 4 L
-4 0 M
4 0 L
-2.828 -2.828 M
2.828 2.828 L
-2.828 2.828 M
2.828 -2.828 L
S
GR
GS
[0.75 0 0 0.75 135 130.33844] CT
0 0.447 0.741 RC
10.0 ML
0.667 LW
N
0 -4 M
0 4 L
-4 0 M
4 0 L
-2.828 -2.828 M
2.828 2.828 L
-2.828 2.828 M
2.828 -2.828 L
S
GR
GS
[0.75 0 0 0.75 143.25 129.74783] CT
0 0.447 0.741 RC
10.0 ML
0.667 LW
N
0 -4 M
0 4 L
-4 0 M
4 0 L
-2.828 -2.828 M
2.828 2.828 L
-2.828 2.828 M
2.828 -2.828 L
S
GR
GS
[0.75 0 0 0.75 151.5 128.1904] CT
0 0.447 0.741 RC
10.0 ML
0.667 LW
N
0 -4 M
0 4 L
-4 0 M
4 0 L
-2.828 -2.828 M
2.828 2.828 L
-2.828 2.828 M
2.828 -2.828 L
S
GR
GS
[0.75 0 0 0.75 159.75 124.30744] CT
0 0.447 0.741 RC
10.0 ML
0.667 LW
N
0 -4 M
0 4 L
-4 0 M
4 0 L
-2.828 -2.828 M
2.828 2.828 L
-2.828 2.828 M
2.828 -2.828 L
S
GR
GS
[0.75 0 0 0.75 168 117.25799] CT
0 0.447 0.741 RC
10.0 ML
0.667 LW
N
0 -4 M
0 4 L
-4 0 M
4 0 L
-2.828 -2.828 M
2.828 2.828 L
-2.828 2.828 M
2.828 -2.828 L
S
GR
GS
[0.75 0 0 0.75 176.25 102.22702] CT
0 0.447 0.741 RC
10.0 ML
0.667 LW
N
0 -4 M
0 4 L
-4 0 M
4 0 L
-2.828 -2.828 M
2.828 2.828 L
-2.828 2.828 M
2.828 -2.828 L
S
GR
GS
[0.75 0 0 0.75 184.5 77.08744] CT
0 0.447 0.741 RC
10.0 ML
0.667 LW
N
0 -4 M
0 4 L
-4 0 M
4 0 L
-2.828 -2.828 M
2.828 2.828 L
-2.828 2.828 M
2.828 -2.828 L
S
GR
GS
[0.75 0 0 0.75 192.75 31.18048] CT
0 0.447 0.741 RC
10.0 ML
0.667 LW
N
0 -4 M
0 4 L
-4 0 M
4 0 L
-2.828 -2.828 M
2.828 2.828 L
-2.828 2.828 M
2.828 -2.828 L
S
GR
%%Trailer
%%Pages: 1
%%EOF
