%!PS-Adobe-3.0 EPSF-3.0
%%Creator: (MATLAB, The Mathworks, Inc. Version 9.1.0.441655 \(R2016b\). Operating System: Windows 7)
%%Title: ../Dokument/Abbildungen/V_Vergleich_Fehler.eps
%%CreationDate: 2017-08-23T13:27:35
%%Pages: (atend)
%%BoundingBox:     0     3   197   153
%%LanguageLevel: 3
%%EndComments
%%BeginProlog
%%BeginResource: procset (Apache XML Graphics Std ProcSet) 1.2 0
%%Version: 1.2 0
%%Copyright: (Copyright 2001-2003,2010 The Apache Software Foundation. License terms: http://www.apache.org/licenses/LICENSE-2.0)
/bd{bind def}bind def
/ld{load def}bd
/GR/grestore ld
/M/moveto ld
/LJ/setlinejoin ld
/C/curveto ld
/f/fill ld
/LW/setlinewidth ld
/GC/setgray ld
/t/show ld
/N/newpath ld
/CT/concat ld
/cp/closepath ld
/S/stroke ld
/L/lineto ld
/CC/setcmykcolor ld
/A/ashow ld
/GS/gsave ld
/RC/setrgbcolor ld
/RM/rmoveto ld
/ML/setmiterlimit ld
/re {4 2 roll M
1 index 0 rlineto
0 exch rlineto
neg 0 rlineto
cp } bd
/_ctm matrix def
/_tm matrix def
/BT { _ctm currentmatrix pop matrix _tm copy pop 0 0 moveto } bd
/ET { _ctm setmatrix } bd
/iTm { _ctm setmatrix _tm concat } bd
/Tm { _tm astore pop iTm 0 0 moveto } bd
/ux 0.0 def
/uy 0.0 def
/F {
  /Tp exch def
  /Tf exch def
  Tf findfont Tp scalefont setfont
  /cf Tf def  /cs Tp def
} bd
/ULS {currentpoint /uy exch def /ux exch def} bd
/ULE {
  /Tcx currentpoint pop def
  gsave
  newpath
  cf findfont cs scalefont dup
  /FontMatrix get 0 get /Ts exch def /FontInfo get dup
  /UnderlinePosition get Ts mul /To exch def
  /UnderlineThickness get Ts mul /Tt exch def
  ux uy To add moveto  Tcx uy To add lineto
  Tt setlinewidth stroke
  grestore
} bd
/OLE {
  /Tcx currentpoint pop def
  gsave
  newpath
  cf findfont cs scalefont dup
  /FontMatrix get 0 get /Ts exch def /FontInfo get dup
  /UnderlinePosition get Ts mul /To exch def
  /UnderlineThickness get Ts mul /Tt exch def
  ux uy To add cs add moveto Tcx uy To add cs add lineto
  Tt setlinewidth stroke
  grestore
} bd
/SOE {
  /Tcx currentpoint pop def
  gsave
  newpath
  cf findfont cs scalefont dup
  /FontMatrix get 0 get /Ts exch def /FontInfo get dup
  /UnderlinePosition get Ts mul /To exch def
  /UnderlineThickness get Ts mul /Tt exch def
  ux uy To add cs 10 mul 26 idiv add moveto Tcx uy To add cs 10 mul 26 idiv add lineto
  Tt setlinewidth stroke
  grestore
} bd
/QT {
/Y22 exch store
/X22 exch store
/Y21 exch store
/X21 exch store
currentpoint
/Y21 load 2 mul add 3 div exch
/X21 load 2 mul add 3 div exch
/X21 load 2 mul /X22 load add 3 div
/Y21 load 2 mul /Y22 load add 3 div
/X22 load /Y22 load curveto
} bd
/SSPD {
dup length /d exch dict def
{
/v exch def
/k exch def
currentpagedevice k known {
/cpdv currentpagedevice k get def
v cpdv ne {
/upd false def
/nullv v type /nulltype eq def
/nullcpdv cpdv type /nulltype eq def
nullv nullcpdv or
{
/upd true def
} {
/sametype v type cpdv type eq def
sametype {
v type /arraytype eq {
/vlen v length def
/cpdvlen cpdv length def
vlen cpdvlen eq {
0 1 vlen 1 sub {
/i exch def
/obj v i get def
/cpdobj cpdv i get def
obj cpdobj ne {
/upd true def
exit
} if
} for
} {
/upd true def
} ifelse
} {
v type /dicttype eq {
v {
/dv exch def
/dk exch def
/cpddv cpdv dk get def
dv cpddv ne {
/upd true def
exit
} if
} forall
} {
/upd true def
} ifelse
} ifelse
} if
} ifelse
upd true eq {
d k v put
} if
} if
} if
} forall
d length 0 gt {
d setpagedevice
} if
} bd
/RE { % /NewFontName [NewEncodingArray] /FontName RE -
  findfont dup length dict begin
  {
    1 index /FID ne
    {def} {pop pop} ifelse
  } forall
  /Encoding exch def
  /FontName 1 index def
  currentdict definefont pop
  end
} bind def
%%EndResource
%%BeginResource: procset (Apache XML Graphics EPS ProcSet) 1.0 0
%%Version: 1.0 0
%%Copyright: (Copyright 2002-2003 The Apache Software Foundation. License terms: http://www.apache.org/licenses/LICENSE-2.0)
/BeginEPSF { %def
/b4_Inc_state save def         % Save state for cleanup
/dict_count countdictstack def % Count objects on dict stack
/op_count count 1 sub def      % Count objects on operand stack
userdict begin                 % Push userdict on dict stack
/showpage { } def              % Redefine showpage, { } = null proc
0 setgray 0 setlinecap         % Prepare graphics state
1 setlinewidth 0 setlinejoin
10 setmiterlimit [ ] 0 setdash newpath
/languagelevel where           % If level not equal to 1 then
{pop languagelevel             % set strokeadjust and
1 ne                           % overprint to their defaults.
{false setstrokeadjust false setoverprint
} if
} if
} bd
/EndEPSF { %def
count op_count sub {pop} repeat            % Clean up stacks
countdictstack dict_count sub {end} repeat
b4_Inc_state restore
} bd
%%EndResource
%FOPBeginFontDict
%%IncludeResource: font Courier-Bold
%%IncludeResource: font Helvetica
%%IncludeResource: font Courier-BoldOblique
%%IncludeResource: font Courier-Oblique
%%IncludeResource: font Times-Roman
%%IncludeResource: font Helvetica-BoldOblique
%%IncludeResource: font Helvetica-Bold
%%IncludeResource: font Helvetica-Oblique
%%IncludeResource: font Times-BoldItalic
%%IncludeResource: font Courier
%%IncludeResource: font Times-Italic
%%IncludeResource: font Times-Bold
%%IncludeResource: font Symbol
%%IncludeResource: font ZapfDingbats
%FOPEndFontDict
%%BeginResource: encoding WinAnsiEncoding
/WinAnsiEncoding [
/.notdef /.notdef /.notdef /.notdef /.notdef
/.notdef /.notdef /.notdef /.notdef /.notdef
/.notdef /.notdef /.notdef /.notdef /.notdef
/.notdef /.notdef /.notdef /.notdef /.notdef
/.notdef /.notdef /.notdef /.notdef /.notdef
/.notdef /.notdef /.notdef /.notdef /.notdef
/.notdef /.notdef /space /exclam /quotedbl
/numbersign /dollar /percent /ampersand /quotesingle
/parenleft /parenright /asterisk /plus /comma
/hyphen /period /slash /zero /one
/two /three /four /five /six
/seven /eight /nine /colon /semicolon
/less /equal /greater /question /at
/A /B /C /D /E
/F /G /H /I /J
/K /L /M /N /O
/P /Q /R /S /T
/U /V /W /X /Y
/Z /bracketleft /backslash /bracketright /asciicircum
/underscore /quoteleft /a /b /c
/d /e /f /g /h
/i /j /k /l /m
/n /o /p /q /r
/s /t /u /v /w
/x /y /z /braceleft /bar
/braceright /asciitilde /bullet /Euro /bullet
/quotesinglbase /florin /quotedblbase /ellipsis /dagger
/daggerdbl /circumflex /perthousand /Scaron /guilsinglleft
/OE /bullet /Zcaron /bullet /bullet
/quoteleft /quoteright /quotedblleft /quotedblright /bullet
/endash /emdash /asciitilde /trademark /scaron
/guilsinglright /oe /bullet /zcaron /Ydieresis
/space /exclamdown /cent /sterling /currency
/yen /brokenbar /section /dieresis /copyright
/ordfeminine /guillemotleft /logicalnot /sfthyphen /registered
/macron /degree /plusminus /twosuperior /threesuperior
/acute /mu /paragraph /middot /cedilla
/onesuperior /ordmasculine /guillemotright /onequarter /onehalf
/threequarters /questiondown /Agrave /Aacute /Acircumflex
/Atilde /Adieresis /Aring /AE /Ccedilla
/Egrave /Eacute /Ecircumflex /Edieresis /Igrave
/Iacute /Icircumflex /Idieresis /Eth /Ntilde
/Ograve /Oacute /Ocircumflex /Otilde /Odieresis
/multiply /Oslash /Ugrave /Uacute /Ucircumflex
/Udieresis /Yacute /Thorn /germandbls /agrave
/aacute /acircumflex /atilde /adieresis /aring
/ae /ccedilla /egrave /eacute /ecircumflex
/edieresis /igrave /iacute /icircumflex /idieresis
/eth /ntilde /ograve /oacute /ocircumflex
/otilde /odieresis /divide /oslash /ugrave
/uacute /ucircumflex /udieresis /yacute /thorn
/ydieresis
] def
%%EndResource
%FOPBeginFontReencode
/Courier-Bold findfont
dup length dict begin
  {1 index /FID ne {def} {pop pop} ifelse} forall
  /Encoding WinAnsiEncoding def
  currentdict
end
/Courier-Bold exch definefont pop
/Helvetica findfont
dup length dict begin
  {1 index /FID ne {def} {pop pop} ifelse} forall
  /Encoding WinAnsiEncoding def
  currentdict
end
/Helvetica exch definefont pop
/Courier-BoldOblique findfont
dup length dict begin
  {1 index /FID ne {def} {pop pop} ifelse} forall
  /Encoding WinAnsiEncoding def
  currentdict
end
/Courier-BoldOblique exch definefont pop
/Courier-Oblique findfont
dup length dict begin
  {1 index /FID ne {def} {pop pop} ifelse} forall
  /Encoding WinAnsiEncoding def
  currentdict
end
/Courier-Oblique exch definefont pop
/Times-Roman findfont
dup length dict begin
  {1 index /FID ne {def} {pop pop} ifelse} forall
  /Encoding WinAnsiEncoding def
  currentdict
end
/Times-Roman exch definefont pop
/Helvetica-BoldOblique findfont
dup length dict begin
  {1 index /FID ne {def} {pop pop} ifelse} forall
  /Encoding WinAnsiEncoding def
  currentdict
end
/Helvetica-BoldOblique exch definefont pop
/Helvetica-Bold findfont
dup length dict begin
  {1 index /FID ne {def} {pop pop} ifelse} forall
  /Encoding WinAnsiEncoding def
  currentdict
end
/Helvetica-Bold exch definefont pop
/Helvetica-Oblique findfont
dup length dict begin
  {1 index /FID ne {def} {pop pop} ifelse} forall
  /Encoding WinAnsiEncoding def
  currentdict
end
/Helvetica-Oblique exch definefont pop
/Times-BoldItalic findfont
dup length dict begin
  {1 index /FID ne {def} {pop pop} ifelse} forall
  /Encoding WinAnsiEncoding def
  currentdict
end
/Times-BoldItalic exch definefont pop
/Courier findfont
dup length dict begin
  {1 index /FID ne {def} {pop pop} ifelse} forall
  /Encoding WinAnsiEncoding def
  currentdict
end
/Courier exch definefont pop
/Times-Italic findfont
dup length dict begin
  {1 index /FID ne {def} {pop pop} ifelse} forall
  /Encoding WinAnsiEncoding def
  currentdict
end
/Times-Italic exch definefont pop
/Times-Bold findfont
dup length dict begin
  {1 index /FID ne {def} {pop pop} ifelse} forall
  /Encoding WinAnsiEncoding def
  currentdict
end
/Times-Bold exch definefont pop
%FOPEndFontReencode
%%EndProlog
%%Page: 1 1
%%PageBoundingBox: 0 0 213 161
%%BeginPageSetup
[1 0 0 -1 0 161] CT
%%EndPageSetup
GS
[0.75 0 0 0.75 0 0.5] CT
1 GC
N
0 0 284 214 re
f
GR
GS
[0.75 0 0 0.75 0 0.5] CT
1 GC
N
0 0 284 214 re
f
GR
GS
[0.75 0 0 0.75 0 0.5] CT
1 GC
N
48 174 M
257 174 L
257 16 L
48 16 L
cp
f
GR
GS
[0.75 0 0 0.75 0 0.5] CT
0.873 GC
1 LJ
0.667 LW
N
103.733 174 M
103.733 16 L
S
GR
GS
[0.75 0 0 0.75 0 0.5] CT
0.873 GC
1 LJ
0.667 LW
N
173.4 174 M
173.4 16 L
S
GR
GS
[0.75 0 0 0.75 0 0.5] CT
0.873 GC
1 LJ
0.667 LW
N
243.067 174 M
243.067 16 L
S
GR
GS
[0.75 0 0 0.75 0 0.5] CT
0.873 GC
1 LJ
0.667 LW
N
257 174 M
48 174 L
S
GR
GS
[0.75 0 0 0.75 0 0.5] CT
0.873 GC
1 LJ
0.667 LW
N
257 147.667 M
48 147.667 L
S
GR
GS
[0.75 0 0 0.75 0 0.5] CT
0.873 GC
1 LJ
0.667 LW
N
257 121.333 M
48 121.333 L
S
GR
GS
[0.75 0 0 0.75 0 0.5] CT
0.873 GC
1 LJ
0.667 LW
N
257 95 M
48 95 L
S
GR
GS
[0.75 0 0 0.75 0 0.5] CT
0.873 GC
1 LJ
0.667 LW
N
257 68.667 M
48 68.667 L
S
GR
GS
[0.75 0 0 0.75 0 0.5] CT
0.873 GC
1 LJ
0.667 LW
N
257 42.333 M
48 42.333 L
S
GR
GS
[0.75 0 0 0.75 0 0.5] CT
0.873 GC
1 LJ
0.667 LW
N
257 16 M
48 16 L
S
GR
GS
[0.75 0 0 0.75 0 0.5] CT
0.149 GC
2 setlinecap
1 LJ
0.667 LW
N
48 174 M
257 174 L
S
GR
GS
[0.75 0 0 0.75 0 0.5] CT
0.149 GC
2 setlinecap
1 LJ
0.667 LW
N
48 16 M
257 16 L
S
GR
GS
[0.75 0 0 0.75 0 0.5] CT
0.149 GC
2 setlinecap
1 LJ
0.667 LW
N
103.733 174 M
103.733 171.914 L
S
GR
GS
[0.75 0 0 0.75 0 0.5] CT
0.149 GC
2 setlinecap
1 LJ
0.667 LW
N
173.4 174 M
173.4 171.914 L
S
GR
GS
[0.75 0 0 0.75 0 0.5] CT
0.149 GC
2 setlinecap
1 LJ
0.667 LW
N
243.067 174 M
243.067 171.914 L
S
GR
GS
[0.75 0 0 0.75 0 0.5] CT
0.149 GC
2 setlinecap
1 LJ
0.667 LW
N
103.733 16 M
103.733 18.086 L
S
GR
GS
[0.75 0 0 0.75 0 0.5] CT
0.149 GC
2 setlinecap
1 LJ
0.667 LW
N
173.4 16 M
173.4 18.086 L
S
GR
GS
[0.75 0 0 0.75 0 0.5] CT
0.149 GC
2 setlinecap
1 LJ
0.667 LW
N
243.067 16 M
243.067 18.086 L
S
GR
GS
[0.75 0 0 0.75 77.8 135] CT
0.149 GC
N
-2.208 9.716 M
-2.068 10.106 -1.794 10.419 QT
-1.521 10.731 -1.138 10.903 QT
-0.755 11.075 -0.349 11.075 QT
0.589 11.075 0.94 10.341 QT
1.292 9.606 1.292 8.575 QT
1.292 8.122 1.276 7.817 QT
1.26 7.512 1.198 7.216 QT
1.073 6.762 0.768 6.419 QT
0.464 6.075 0.026 6.075 QT
-0.411 6.075 -0.724 6.208 QT
-1.036 6.341 -1.232 6.52 QT
-1.427 6.7 -1.583 6.895 QT
-1.74 7.091 -1.771 7.106 QT
-1.911 7.106 L
-1.943 7.106 -1.997 7.067 QT
-2.052 7.028 -2.052 6.981 QT
-2.052 2.637 L
-2.052 2.606 -2.005 2.575 QT
-1.958 2.544 -1.911 2.544 QT
-1.88 2.544 L
-1.005 2.966 -0.021 2.966 QT
0.948 2.966 1.839 2.544 QT
1.885 2.544 L
1.917 2.544 1.956 2.575 QT
1.995 2.606 1.995 2.637 QT
1.995 2.762 L
1.995 2.825 1.979 2.825 QT
1.526 3.419 0.854 3.747 QT
0.182 4.075 -0.521 4.075 QT
-1.052 4.075 -1.599 3.934 QT
-1.599 6.387 L
-1.161 6.044 -0.826 5.895 QT
-0.49 5.747 0.042 5.747 QT
0.76 5.747 1.331 6.153 QT
1.901 6.559 2.206 7.223 QT
2.51 7.887 2.51 8.591 QT
2.51 9.372 2.128 10.036 QT
1.745 10.7 1.081 11.091 QT
0.417 11.481 -0.349 11.481 QT
-0.99 11.481 -1.529 11.153 QT
-2.068 10.825 -2.38 10.27 QT
-2.693 9.716 -2.693 9.075 QT
-2.693 8.794 -2.497 8.606 QT
-2.302 8.419 -2.021 8.419 QT
-1.74 8.419 -1.544 8.606 QT
-1.349 8.794 -1.349 9.075 QT
-1.349 9.356 -1.544 9.552 QT
-1.74 9.747 -2.021 9.747 QT
-2.068 9.747 -2.122 9.739 QT
-2.177 9.731 -2.208 9.716 QT
cp
f
GR
GS
[0.75 0 0 0.75 130.05 135] CT
0.149 GC
N
-5.464 11.2 M
-5.464 10.747 L
-3.839 10.747 -3.839 10.325 QT
-3.839 3.512 L
-4.51 3.825 -5.542 3.825 QT
-5.542 3.372 L
-3.948 3.372 -3.135 2.544 QT
-2.948 2.544 L
-2.901 2.544 -2.862 2.575 QT
-2.823 2.606 -2.823 2.653 QT
-2.823 10.325 L
-2.823 10.747 -1.198 10.747 QT
-1.198 11.2 L
-5.464 11.2 L
cp
f
GR
GS
[0.75 0 0 0.75 130.05 135] CT
0.149 GC
N
3.25 11.481 M
1.656 11.481 1.086 10.169 QT
0.516 8.856 0.516 7.059 QT
0.516 5.919 0.719 4.927 QT
0.922 3.934 1.531 3.239 QT
2.141 2.544 3.25 2.544 QT
4.109 2.544 4.656 2.958 QT
5.203 3.372 5.484 4.036 QT
5.766 4.7 5.875 5.458 QT
5.984 6.216 5.984 7.059 QT
5.984 8.169 5.773 9.145 QT
5.563 10.122 4.961 10.802 QT
4.359 11.481 3.25 11.481 QT
cp
3.25 11.153 M
3.969 11.153 4.328 10.411 QT
4.688 9.669 4.766 8.762 QT
4.844 7.856 4.844 6.841 QT
4.844 5.872 4.766 5.044 QT
4.688 4.216 4.336 3.544 QT
3.984 2.872 3.25 2.872 QT
2.516 2.872 2.156 3.552 QT
1.797 4.231 1.719 5.052 QT
1.641 5.872 1.641 6.841 QT
1.641 7.575 1.672 8.216 QT
1.703 8.856 1.859 9.536 QT
2.016 10.216 2.352 10.684 QT
2.688 11.153 3.25 11.153 QT
cp
f
GR
GS
[0.75 0 0 0.75 182.3 135] CT
0.149 GC
N
/f-293306628{-5.464 11.2 M
-5.464 10.747 L
-3.839 10.747 -3.839 10.325 QT
-3.839 3.512 L
-4.51 3.825 -5.542 3.825 QT
-5.542 3.372 L
-3.948 3.372 -3.135 2.544 QT
-2.948 2.544 L
-2.901 2.544 -2.862 2.575 QT
-2.823 2.606 -2.823 2.653 QT
-2.823 10.325 L
-2.823 10.747 -1.198 10.747 QT
-1.198 11.2 L
-5.464 11.2 L
cp}def
f-293306628
f
GR
GS
[0.75 0 0 0.75 182.3 135] CT
0.149 GC
N
/f879275164{1.125 9.716 M
1.266 10.106 1.539 10.419 QT
1.813 10.731 2.195 10.903 QT
2.578 11.075 2.984 11.075 QT
3.922 11.075 4.273 10.341 QT
4.625 9.606 4.625 8.575 QT
4.625 8.122 4.609 7.817 QT
4.594 7.512 4.531 7.216 QT
4.406 6.762 4.102 6.419 QT
3.797 6.075 3.359 6.075 QT
2.922 6.075 2.609 6.208 QT
2.297 6.341 2.102 6.52 QT
1.906 6.7 1.75 6.895 QT
1.594 7.091 1.563 7.106 QT
1.422 7.106 L
1.391 7.106 1.336 7.067 QT
1.281 7.028 1.281 6.981 QT
1.281 2.637 L
1.281 2.606 1.328 2.575 QT
1.375 2.544 1.422 2.544 QT
1.453 2.544 L
2.328 2.966 3.313 2.966 QT
4.281 2.966 5.172 2.544 QT
5.219 2.544 L
5.25 2.544 5.289 2.575 QT
5.328 2.606 5.328 2.637 QT
5.328 2.762 L
5.328 2.825 5.313 2.825 QT
4.859 3.419 4.188 3.747 QT
3.516 4.075 2.813 4.075 QT
2.281 4.075 1.734 3.934 QT
1.734 6.387 L
2.172 6.044 2.508 5.895 QT
2.844 5.747 3.375 5.747 QT
4.094 5.747 4.664 6.153 QT
5.234 6.559 5.539 7.223 QT
5.844 7.887 5.844 8.591 QT
5.844 9.372 5.461 10.036 QT
5.078 10.7 4.414 11.091 QT
3.75 11.481 2.984 11.481 QT
2.344 11.481 1.805 11.153 QT
1.266 10.825 0.953 10.27 QT
0.641 9.716 0.641 9.075 QT
0.641 8.794 0.836 8.606 QT
1.031 8.419 1.313 8.419 QT
1.594 8.419 1.789 8.606 QT
1.984 8.794 1.984 9.075 QT
1.984 9.356 1.789 9.552 QT
1.594 9.747 1.313 9.747 QT
1.266 9.747 1.211 9.739 QT
1.156 9.731 1.125 9.716 QT
cp}def
f879275164
f
GR
GS
[0.75 0 0 0.75 114.37508 147.8] CT
0.149 GC
N
/f583498422{-15.656 12.539 M
-15.656 9.039 L
-15.656 8.914 -15.531 8.914 QT
-15.344 8.914 L
-15.297 8.914 -15.258 8.953 QT
-15.219 8.992 -15.219 9.039 QT
-15.219 10.507 -14.313 11.312 QT
-13.406 12.117 -11.922 12.117 QT
-11.406 12.117 -10.961 11.82 QT
-10.516 11.523 -10.273 11.039 QT
-10.031 10.554 -10.031 10.023 QT
-10.031 9.57 -10.219 9.14 QT
-10.406 8.711 -10.75 8.398 QT
-11.094 8.086 -11.516 7.976 QT
-13.469 7.507 L
-14.438 7.257 -15.047 6.461 QT
-15.656 5.664 -15.656 4.679 QT
-15.656 3.898 -15.258 3.218 QT
-14.859 2.539 -14.195 2.14 QT
-13.531 1.742 -12.75 1.742 QT
-11.25 1.742 -10.359 2.757 QT
-9.75 1.789 L
-9.703 1.742 -9.641 1.742 QT
-9.547 1.742 L
-9.5 1.742 -9.461 1.773 QT
-9.422 1.804 -9.422 1.867 QT
-9.422 5.351 L
-9.422 5.476 -9.547 5.476 QT
-9.719 5.476 L
-9.859 5.476 -9.859 5.351 QT
-9.859 4.961 -9.984 4.507 QT
-10.109 4.054 -10.336 3.64 QT
-10.563 3.226 -10.828 2.961 QT
-11.563 2.226 -12.75 2.226 QT
-13.266 2.226 -13.695 2.484 QT
-14.125 2.742 -14.383 3.195 QT
-14.641 3.648 -14.641 4.132 QT
-14.641 4.773 -14.242 5.297 QT
-13.844 5.82 -13.203 5.992 QT
-11.25 6.461 L
-10.766 6.586 -10.336 6.89 QT
-9.906 7.195 -9.625 7.593 QT
-9.344 7.992 -9.18 8.492 QT
-9.016 8.992 -9.016 9.507 QT
-9.016 10.32 -9.391 11.047 QT
-9.766 11.773 -10.438 12.211 QT
-11.109 12.648 -11.922 12.648 QT
-12.422 12.648 -12.938 12.539 QT
-13.453 12.429 -13.898 12.203 QT
-14.344 11.976 -14.703 11.617 QT
-15.328 12.601 L
-15.375 12.648 -15.438 12.648 QT
-15.531 12.648 L
-15.656 12.648 -15.656 12.539 QT
cp}def
f583498422
f
GR
GS
[0.75 0 0 0.75 114.37508 147.8] CT
0.149 GC
N
/f1830626617{-6.821 10.523 M
-6.821 6.382 L
-8.071 6.382 L
-8.071 5.992 L
-7.086 5.992 -6.625 5.078 QT
-6.164 4.164 -6.164 3.086 QT
-5.727 3.086 L
-5.727 5.851 L
-3.617 5.851 L
-3.617 6.382 L
-5.727 6.382 L
-5.727 10.492 L
-5.727 11.117 -5.516 11.586 QT
-5.305 12.054 -4.774 12.054 QT
-4.258 12.054 -4.032 11.554 QT
-3.805 11.054 -3.805 10.492 QT
-3.805 9.601 L
-3.367 9.601 L
-3.367 10.523 L
-3.367 10.992 -3.539 11.445 QT
-3.711 11.898 -4.047 12.195 QT
-4.383 12.492 -4.867 12.492 QT
-5.774 12.492 -6.297 11.953 QT
-6.821 11.414 -6.821 10.523 QT
cp}def
f1830626617
f
GR
GS
[0.75 0 0 0.75 114.37508 147.8] CT
0.149 GC
N
/f1774225081{-1.023 10.539 M
-1.023 7.226 L
-1.023 6.82 -1.148 6.64 QT
-1.273 6.461 -1.5 6.422 QT
-1.726 6.382 -2.195 6.382 QT
-2.195 5.851 L
0.071 5.695 L
0.071 10.539 L
0.071 11.117 0.157 11.445 QT
0.242 11.773 0.516 11.929 QT
0.789 12.086 1.383 12.086 QT
2.196 12.086 2.672 11.414 QT
3.149 10.742 3.149 9.882 QT
3.149 7.226 L
3.149 6.82 3.024 6.64 QT
2.899 6.461 2.672 6.422 QT
2.446 6.382 1.977 6.382 QT
1.977 5.851 L
4.242 5.695 L
4.242 10.961 L
4.242 11.351 4.36 11.531 QT
4.477 11.711 4.703 11.75 QT
4.93 11.789 5.414 11.789 QT
5.414 12.32 L
3.196 12.492 L
3.196 11.226 L
2.914 11.789 2.414 12.14 QT
1.914 12.492 1.321 12.492 QT
0.242 12.492 -0.39 12.031 QT
-1.023 11.57 -1.023 10.539 QT
cp}def
f1774225081
f
GR
GS
[0.75 0 0 0.75 114.37508 147.8] CT
0.149 GC
N
/f1268100366{5.984 12.32 M
5.984 11.789 L
6.484 11.789 6.813 11.711 QT
7.141 11.632 7.141 11.32 QT
7.141 6.382 L
6 6.382 L
6 5.851 L
7.141 5.851 L
7.141 4.054 L
7.141 3.57 7.344 3.148 QT
7.547 2.726 7.891 2.414 QT
8.234 2.101 8.68 1.922 QT
9.125 1.742 9.594 1.742 QT
10.094 1.742 10.5 2.047 QT
10.906 2.351 10.906 2.836 QT
10.906 3.132 10.719 3.328 QT
10.531 3.523 10.234 3.523 QT
9.953 3.523 9.75 3.328 QT
9.547 3.132 9.547 2.836 QT
9.547 2.367 9.953 2.211 QT
9.719 2.132 9.516 2.132 QT
9.078 2.132 8.766 2.445 QT
8.453 2.757 8.305 3.203 QT
8.156 3.648 8.156 4.086 QT
8.156 5.851 L
9.875 5.851 L
9.875 6.382 L
8.203 6.382 L
8.203 11.32 L
8.203 11.617 8.641 11.703 QT
9.078 11.789 9.656 11.789 QT
9.656 12.32 L
5.984 12.32 L
cp}def
f1268100366
f
GR
GS
[0.75 0 0 0.75 114.37508 147.8] CT
0.149 GC
N
/f2056304014{13.716 12.492 M
12.794 12.492 12.036 12.007 QT
11.278 11.523 10.841 10.726 QT
10.403 9.929 10.403 9.039 QT
10.403 8.148 10.802 7.359 QT
11.2 6.57 11.911 6.086 QT
12.622 5.601 13.497 5.601 QT
14.2 5.601 14.708 5.828 QT
15.216 6.054 15.544 6.468 QT
15.872 6.882 16.036 7.437 QT
16.2 7.992 16.2 8.664 QT
16.2 8.851 16.06 8.851 QT
11.716 8.851 L
11.716 9.023 L
11.716 10.257 12.216 11.156 QT
12.716 12.054 13.857 12.054 QT
14.31 12.054 14.7 11.843 QT
15.091 11.632 15.38 11.273 QT
15.669 10.914 15.778 10.492 QT
15.794 10.445 15.833 10.398 QT
15.872 10.351 15.919 10.351 QT
16.06 10.351 L
16.2 10.351 16.2 10.554 QT
15.997 11.398 15.294 11.945 QT
14.591 12.492 13.716 12.492 QT
cp
11.732 8.476 M
15.138 8.476 L
15.138 7.914 14.982 7.336 QT
14.825 6.757 14.458 6.375 QT
14.091 5.992 13.497 5.992 QT
12.653 5.992 12.192 6.789 QT
11.732 7.586 11.732 8.476 QT
cp}def
f2056304014
f
GR
GS
[0.75 0 0 0.75 0 0.5] CT
0.149 GC
2 setlinecap
1 LJ
0.667 LW
N
48 174 M
48 16 L
S
GR
GS
[0.75 0 0 0.75 0 0.5] CT
0.149 GC
2 setlinecap
1 LJ
0.667 LW
N
257 174 M
257 16 L
S
GR
GS
[0.75 0 0 0.75 0 0.5] CT
0.149 GC
2 setlinecap
1 LJ
0.667 LW
N
48 174 M
50.086 174 L
S
GR
GS
[0.75 0 0 0.75 0 0.5] CT
0.149 GC
2 setlinecap
1 LJ
0.667 LW
N
48 147.667 M
50.086 147.667 L
S
GR
GS
[0.75 0 0 0.75 0 0.5] CT
0.149 GC
2 setlinecap
1 LJ
0.667 LW
N
48 121.333 M
50.086 121.333 L
S
GR
GS
[0.75 0 0 0.75 0 0.5] CT
0.149 GC
2 setlinecap
1 LJ
0.667 LW
N
48 95 M
50.086 95 L
S
GR
GS
[0.75 0 0 0.75 0 0.5] CT
0.149 GC
2 setlinecap
1 LJ
0.667 LW
N
48 68.667 M
50.086 68.667 L
S
GR
GS
[0.75 0 0 0.75 0 0.5] CT
0.149 GC
2 setlinecap
1 LJ
0.667 LW
N
48 42.333 M
50.086 42.333 L
S
GR
GS
[0.75 0 0 0.75 0 0.5] CT
0.149 GC
2 setlinecap
1 LJ
0.667 LW
N
48 16 M
50.086 16 L
S
GR
GS
[0.75 0 0 0.75 0 0.5] CT
0.149 GC
2 setlinecap
1 LJ
0.667 LW
N
257 174 M
254.914 174 L
S
GR
GS
[0.75 0 0 0.75 0 0.5] CT
0.149 GC
2 setlinecap
1 LJ
0.667 LW
N
257 147.667 M
254.914 147.667 L
S
GR
GS
[0.75 0 0 0.75 0 0.5] CT
0.149 GC
2 setlinecap
1 LJ
0.667 LW
N
257 121.333 M
254.914 121.333 L
S
GR
GS
[0.75 0 0 0.75 0 0.5] CT
0.149 GC
2 setlinecap
1 LJ
0.667 LW
N
257 95 M
254.914 95 L
S
GR
GS
[0.75 0 0 0.75 0 0.5] CT
0.149 GC
2 setlinecap
1 LJ
0.667 LW
N
257 68.667 M
254.914 68.667 L
S
GR
GS
[0.75 0 0 0.75 0 0.5] CT
0.149 GC
2 setlinecap
1 LJ
0.667 LW
N
257 42.333 M
254.914 42.333 L
S
GR
GS
[0.75 0 0 0.75 0 0.5] CT
0.149 GC
2 setlinecap
1 LJ
0.667 LW
N
257 16 M
254.914 16 L
S
GR
GS
[0.75 0 0 0.75 32 131] CT
0.149 GC
N
/f-118155200{-21.341 0.794 M
-21.341 -0.019 L
-17.888 -0.019 L
-17.888 0.794 L
-21.341 0.794 L
cp}def
f-118155200
f
GR
GS
[0.75 0 0 0.75 32 131] CT
0.149 GC
N
/f-1217475840{-13.787 3.481 M
-15.381 3.481 -15.951 2.169 QT
-16.521 0.856 -16.521 -0.941 QT
-16.521 -2.081 -16.318 -3.073 QT
-16.115 -4.066 -15.506 -4.761 QT
-14.896 -5.456 -13.787 -5.456 QT
-12.928 -5.456 -12.381 -5.042 QT
-11.834 -4.628 -11.553 -3.964 QT
-11.271 -3.3 -11.162 -2.542 QT
-11.053 -1.784 -11.053 -0.941 QT
-11.053 0.169 -11.264 1.145 QT
-11.475 2.122 -12.076 2.802 QT
-12.678 3.481 -13.787 3.481 QT
cp
-13.787 3.153 M
-13.068 3.153 -12.709 2.411 QT
-12.35 1.669 -12.271 0.762 QT
-12.193 -0.144 -12.193 -1.159 QT
-12.193 -2.128 -12.271 -2.956 QT
-12.35 -3.784 -12.701 -4.456 QT
-13.053 -5.128 -13.787 -5.128 QT
-14.521 -5.128 -14.881 -4.448 QT
-15.24 -3.769 -15.318 -2.948 QT
-15.396 -2.128 -15.396 -1.159 QT
-15.396 -0.425 -15.365 0.216 QT
-15.334 0.856 -15.178 1.536 QT
-15.021 2.216 -14.686 2.684 QT
-14.35 3.153 -13.787 3.153 QT
cp}def
f-1217475840
f
GR
GS
[0.75 0 0 0.75 32 131] CT
0.149 GC
N
/f-751558118{-9.277 2.481 M
-9.277 2.184 -9.058 1.981 QT
-8.839 1.778 -8.558 1.778 QT
-8.386 1.778 -8.214 1.872 QT
-8.042 1.966 -7.949 2.137 QT
-7.855 2.309 -7.855 2.481 QT
-7.855 2.762 -8.066 2.981 QT
-8.277 3.2 -8.558 3.2 QT
-8.839 3.2 -9.058 2.981 QT
-9.277 2.762 -9.277 2.481 QT
cp}def
f-751558118
f
GR
GS
[0.75 0 0 0.75 32 131] CT
0.149 GC
N
/f-1507413402{-6.026 3.2 M
-6.026 2.856 L
-6.026 2.825 -5.995 2.778 QT
-3.979 0.544 L
-3.51 0.044 -3.229 -0.292 QT
-2.948 -0.628 -2.667 -1.066 QT
-2.385 -1.503 -2.221 -1.956 QT
-2.057 -2.409 -2.057 -2.909 QT
-2.057 -3.441 -2.26 -3.933 QT
-2.464 -4.425 -2.854 -4.714 QT
-3.245 -5.003 -3.792 -5.003 QT
-4.354 -5.003 -4.807 -4.659 QT
-5.26 -4.316 -5.448 -3.784 QT
-5.385 -3.8 -5.307 -3.8 QT
-5.01 -3.8 -4.807 -3.605 QT
-4.604 -3.409 -4.604 -3.097 QT
-4.604 -2.8 -4.807 -2.589 QT
-5.01 -2.378 -5.307 -2.378 QT
-5.604 -2.378 -5.815 -2.589 QT
-6.026 -2.8 -6.026 -3.097 QT
-6.026 -3.581 -5.839 -4.011 QT
-5.651 -4.441 -5.307 -4.769 QT
-4.964 -5.097 -4.526 -5.277 QT
-4.089 -5.456 -3.604 -5.456 QT
-2.854 -5.456 -2.214 -5.144 QT
-1.573 -4.831 -1.198 -4.253 QT
-0.823 -3.675 -0.823 -2.909 QT
-0.823 -2.347 -1.073 -1.839 QT
-1.323 -1.331 -1.706 -0.917 QT
-2.089 -0.503 -2.698 0.028 QT
-3.307 0.559 -3.495 0.731 QT
-4.964 2.153 L
-3.714 2.153 L
-2.792 2.153 -2.174 2.137 QT
-1.557 2.122 -1.526 2.075 QT
-1.37 1.919 -1.214 0.887 QT
-0.823 0.887 L
-1.198 3.2 L
-6.026 3.2 L
cp}def
f-1507413402
f
GR
GS
[0.75 0 0 0.75 32 111.25] CT
0.149 GC
N
/f-2026418800{-3.417 3.481 M
-5.01 3.481 -5.581 2.169 QT
-6.151 0.856 -6.151 -0.941 QT
-6.151 -2.081 -5.948 -3.073 QT
-5.745 -4.066 -5.135 -4.761 QT
-4.526 -5.456 -3.417 -5.456 QT
-2.557 -5.456 -2.01 -5.042 QT
-1.464 -4.628 -1.182 -3.964 QT
-0.901 -3.3 -0.792 -2.542 QT
-0.682 -1.784 -0.682 -0.941 QT
-0.682 0.169 -0.893 1.145 QT
-1.104 2.122 -1.706 2.802 QT
-2.307 3.481 -3.417 3.481 QT
cp
-3.417 3.153 M
-2.698 3.153 -2.339 2.411 QT
-1.979 1.669 -1.901 0.762 QT
-1.823 -0.144 -1.823 -1.159 QT
-1.823 -2.128 -1.901 -2.956 QT
-1.979 -3.784 -2.331 -4.456 QT
-2.682 -5.128 -3.417 -5.128 QT
-4.151 -5.128 -4.51 -4.448 QT
-4.87 -3.769 -4.948 -2.948 QT
-5.026 -2.128 -5.026 -1.159 QT
-5.026 -0.425 -4.995 0.216 QT
-4.964 0.856 -4.807 1.536 QT
-4.651 2.216 -4.315 2.684 QT
-3.979 3.153 -3.417 3.153 QT
cp}def
f-2026418800
f
GR
GS
[0.75 0 0 0.75 32 91.5] CT
0.149 GC
N
f-1217475840
f
GR
GS
[0.75 0 0 0.75 32 91.5] CT
0.149 GC
N
f-751558118
f
GR
GS
[0.75 0 0 0.75 32 91.5] CT
0.149 GC
N
f-1507413402
f
GR
GS
[0.75 0 0 0.75 32 71.75] CT
0.149 GC
N
f-1217475840
f
GR
GS
[0.75 0 0 0.75 32 71.75] CT
0.149 GC
N
f-751558118
f
GR
GS
[0.75 0 0 0.75 32 71.75] CT
0.149 GC
N
/f-1633144563{-6.307 1.059 M
-6.307 0.591 L
-2.292 -5.394 L
-2.245 -5.456 -2.151 -5.456 QT
-1.964 -5.456 L
-1.823 -5.456 -1.823 -5.316 QT
-1.823 0.591 L
-0.542 0.591 L
-0.542 1.059 L
-1.823 1.059 L
-1.823 2.325 L
-1.823 2.591 -1.44 2.669 QT
-1.057 2.747 -0.557 2.747 QT
-0.557 3.2 L
-4.135 3.2 L
-4.135 2.747 L
-3.635 2.747 -3.253 2.669 QT
-2.87 2.591 -2.87 2.325 QT
-2.87 1.059 L
-6.307 1.059 L
cp
-5.87 0.591 M
-2.792 0.591 L
-2.792 -4.003 L
-5.87 0.591 L
cp}def
f-1633144563
f
GR
GS
[0.75 0 0 0.75 32 52] CT
0.149 GC
N
f-1217475840
f
GR
GS
[0.75 0 0 0.75 32 52] CT
0.149 GC
N
f-751558118
f
GR
GS
[0.75 0 0 0.75 32 52] CT
0.149 GC
N
/f-2003826503{-3.417 3.481 M
-4.229 3.481 -4.768 3.052 QT
-5.307 2.622 -5.596 1.942 QT
-5.885 1.262 -6.003 0.512 QT
-6.12 -0.238 -6.12 -1.003 QT
-6.12 -2.034 -5.721 -3.066 QT
-5.323 -4.097 -4.542 -4.777 QT
-3.76 -5.456 -2.698 -5.456 QT
-2.26 -5.456 -1.87 -5.292 QT
-1.479 -5.128 -1.26 -4.8 QT
-1.042 -4.472 -1.042 -4.003 QT
-1.042 -3.738 -1.229 -3.558 QT
-1.417 -3.378 -1.682 -3.378 QT
-1.932 -3.378 -2.112 -3.558 QT
-2.292 -3.738 -2.292 -4.003 QT
-2.292 -4.253 -2.112 -4.441 QT
-1.932 -4.628 -1.682 -4.628 QT
-1.604 -4.628 L
-1.776 -4.863 -2.073 -4.972 QT
-2.37 -5.081 -2.698 -5.081 QT
-3.089 -5.081 -3.424 -4.909 QT
-3.76 -4.738 -4.026 -4.448 QT
-4.292 -4.159 -4.471 -3.808 QT
-4.651 -3.456 -4.745 -3.003 QT
-4.839 -2.55 -4.87 -2.159 QT
-4.901 -1.769 -4.901 -1.175 QT
-4.667 -1.706 -4.245 -2.042 QT
-3.823 -2.378 -3.307 -2.378 QT
-2.729 -2.378 -2.253 -2.144 QT
-1.776 -1.909 -1.432 -1.495 QT
-1.089 -1.081 -0.909 -0.55 QT
-0.729 -0.019 -0.729 0.528 QT
-0.729 1.294 -1.065 1.981 QT
-1.401 2.669 -2.018 3.075 QT
-2.635 3.481 -3.417 3.481 QT
cp
-3.417 3.075 M
-2.917 3.075 -2.612 2.848 QT
-2.307 2.622 -2.167 2.239 QT
-2.026 1.856 -1.987 1.473 QT
-1.948 1.091 -1.948 0.528 QT
-1.948 -0.206 -2.018 -0.722 QT
-2.089 -1.238 -2.401 -1.636 QT
-2.714 -2.034 -3.354 -2.034 QT
-3.885 -2.034 -4.221 -1.683 QT
-4.557 -1.331 -4.714 -0.784 QT
-4.87 -0.238 -4.87 0.262 QT
-4.87 0.434 -4.854 0.528 QT
-4.854 0.544 -4.862 0.552 QT
-4.87 0.559 -4.87 0.591 QT
-4.87 1.137 -4.753 1.708 QT
-4.635 2.278 -4.315 2.677 QT
-3.995 3.075 -3.417 3.075 QT
cp}def
f-2003826503
f
GR
GS
[0.75 0 0 0.75 32 32.25] CT
0.149 GC
N
f-1217475840
f
GR
GS
[0.75 0 0 0.75 32 32.25] CT
0.149 GC
N
f-751558118
f
GR
GS
[0.75 0 0 0.75 32 32.25] CT
0.149 GC
N
/f-974058328{-6.12 1.231 M
-6.12 0.45 -5.604 -0.152 QT
-5.089 -0.753 -4.292 -1.159 QT
-4.776 -1.472 L
-5.214 -1.753 -5.495 -2.238 QT
-5.776 -2.722 -5.776 -3.269 QT
-5.776 -3.878 -5.448 -4.386 QT
-5.12 -4.894 -4.573 -5.175 QT
-4.026 -5.456 -3.417 -5.456 QT
-2.839 -5.456 -2.299 -5.222 QT
-1.76 -4.988 -1.417 -4.55 QT
-1.073 -4.113 -1.073 -3.503 QT
-1.073 -3.066 -1.276 -2.691 QT
-1.479 -2.316 -1.839 -2.019 QT
-2.198 -1.722 -2.604 -1.519 QT
-1.87 -1.034 L
-1.354 -0.706 -1.042 -0.159 QT
-0.729 0.387 -0.729 0.997 QT
-0.729 1.7 -1.104 2.278 QT
-1.479 2.856 -2.104 3.169 QT
-2.729 3.481 -3.417 3.481 QT
-4.089 3.481 -4.714 3.208 QT
-5.339 2.934 -5.729 2.419 QT
-6.12 1.903 -6.12 1.231 QT
cp
-5.417 1.231 M
-5.417 1.747 -5.135 2.169 QT
-4.854 2.591 -4.385 2.833 QT
-3.917 3.075 -3.417 3.075 QT
-2.667 3.075 -2.049 2.63 QT
-1.432 2.184 -1.432 1.466 QT
-1.432 1.216 -1.526 0.973 QT
-1.62 0.731 -1.799 0.528 QT
-1.979 0.325 -2.198 0.2 QT
-3.932 -0.925 L
-4.339 -0.722 -4.682 -0.386 QT
-5.026 -0.05 -5.221 0.356 QT
-5.417 0.762 -5.417 1.231 QT
cp
-4.526 -2.738 M
-2.948 -1.722 L
-2.401 -2.05 -2.049 -2.495 QT
-1.698 -2.941 -1.698 -3.503 QT
-1.698 -3.941 -1.948 -4.308 QT
-2.198 -4.675 -2.589 -4.878 QT
-2.979 -5.081 -3.432 -5.081 QT
-3.823 -5.081 -4.221 -4.933 QT
-4.62 -4.784 -4.878 -4.48 QT
-5.135 -4.175 -5.135 -3.769 QT
-5.135 -3.159 -4.526 -2.738 QT
cp}def
f-974058328
f
GR
GS
[0.75 0 0 0.75 32 12.5] CT
0.149 GC
N
/f-1405947355{-5.464 3.2 M
-5.464 2.747 L
-3.839 2.747 -3.839 2.325 QT
-3.839 -4.488 L
-4.51 -4.175 -5.542 -4.175 QT
-5.542 -4.628 L
-3.948 -4.628 -3.135 -5.456 QT
-2.948 -5.456 L
-2.901 -5.456 -2.862 -5.425 QT
-2.823 -5.394 -2.823 -5.347 QT
-2.823 2.325 L
-2.823 2.747 -1.198 2.747 QT
-1.198 3.2 L
-5.464 3.2 L
cp}def
f-1405947355
f
GR
GS
[0 -0.75 0.75 0 13.2 71.74994] CT
0.149 GC
N
/f-724243643{-35.435 -1.796 M
-35.435 -16.264 L
-35.435 -16.374 -35.342 -16.452 QT
-35.248 -16.53 -35.123 -16.53 QT
-35.014 -16.53 -34.92 -16.452 QT
-34.826 -16.374 -34.826 -16.264 QT
-34.826 -1.796 L
-34.826 -1.686 -34.92 -1.608 QT
-35.014 -1.53 -35.123 -1.53 QT
-35.248 -1.53 -35.342 -1.608 QT
-35.435 -1.686 -35.435 -1.796 QT
cp}def
f-724243643
f
GR
GS
[0 -0.75 0.75 0 13.2 71.74994] CT
0.149 GC
N
/f987887661{-32.752 -5.28 M
-32.752 -5.811 L
-32.236 -5.811 -31.908 -5.889 QT
-31.58 -5.968 -31.58 -6.28 QT
-31.58 -10.374 L
-31.58 -10.78 -31.705 -10.96 QT
-31.83 -11.139 -32.057 -11.178 QT
-32.283 -11.218 -32.752 -11.218 QT
-32.752 -11.749 L
-30.611 -11.905 L
-30.611 -10.436 L
-30.361 -11.093 -29.916 -11.499 QT
-29.471 -11.905 -28.83 -11.905 QT
-28.393 -11.905 -28.041 -11.639 QT
-27.689 -11.374 -27.689 -10.952 QT
-27.689 -10.671 -27.885 -10.475 QT
-28.08 -10.28 -28.361 -10.28 QT
-28.643 -10.28 -28.838 -10.475 QT
-29.033 -10.671 -29.033 -10.952 QT
-29.033 -11.358 -28.752 -11.514 QT
-28.83 -11.514 L
-29.439 -11.514 -29.822 -11.077 QT
-30.205 -10.639 -30.369 -9.991 QT
-30.533 -9.343 -30.533 -8.749 QT
-30.533 -6.28 L
-30.533 -5.811 -29.08 -5.811 QT
-29.08 -5.28 L
-32.752 -5.28 L
cp}def
f987887661
f
GR
GS
[0 -0.75 0.75 0 13.2 71.74994] CT
0.149 GC
N
/f-803605762{-23.664 -5.108 M
-24.586 -5.108 -25.343 -5.593 QT
-26.101 -6.077 -26.539 -6.874 QT
-26.976 -7.671 -26.976 -8.561 QT
-26.976 -9.452 -26.578 -10.241 QT
-26.179 -11.03 -25.468 -11.514 QT
-24.758 -11.999 -23.883 -11.999 QT
-23.179 -11.999 -22.672 -11.772 QT
-22.164 -11.546 -21.836 -11.132 QT
-21.508 -10.718 -21.343 -10.163 QT
-21.179 -9.608 -21.179 -8.936 QT
-21.179 -8.749 -21.32 -8.749 QT
-25.664 -8.749 L
-25.664 -8.577 L
-25.664 -7.343 -25.164 -6.444 QT
-24.664 -5.546 -23.523 -5.546 QT
-23.07 -5.546 -22.679 -5.757 QT
-22.289 -5.968 -22 -6.327 QT
-21.711 -6.686 -21.601 -7.108 QT
-21.586 -7.155 -21.547 -7.202 QT
-21.508 -7.249 -21.461 -7.249 QT
-21.32 -7.249 L
-21.179 -7.249 -21.179 -7.046 QT
-21.383 -6.202 -22.086 -5.655 QT
-22.789 -5.108 -23.664 -5.108 QT
cp
-25.648 -9.124 M
-22.242 -9.124 L
-22.242 -9.686 -22.398 -10.264 QT
-22.554 -10.843 -22.922 -11.225 QT
-23.289 -11.608 -23.883 -11.608 QT
-24.726 -11.608 -25.187 -10.811 QT
-25.648 -10.014 -25.648 -9.124 QT
cp}def
f-803605762
f
GR
GS
[0 -0.75 0.75 0 13.2 71.74994] CT
0.149 GC
N
/f-699620603{-20.411 -5.28 M
-20.411 -5.811 L
-19.911 -5.811 -19.575 -5.889 QT
-19.239 -5.968 -19.239 -6.28 QT
-19.239 -14.155 L
-19.239 -14.561 -19.364 -14.741 QT
-19.489 -14.921 -19.716 -14.96 QT
-19.942 -14.999 -20.411 -14.999 QT
-20.411 -15.53 L
-18.192 -15.686 L
-18.192 -6.28 L
-18.192 -5.968 -17.864 -5.889 QT
-17.536 -5.811 -17.02 -5.811 QT
-17.02 -5.28 L
-20.411 -5.28 L
cp}def
f-699620603
f
GR
GS
[0 -0.75 0.75 0 13.2 71.74994] CT
0.149 GC
N
/f2025304570{-15.54 -6.108 M
-15.54 -6.452 -15.29 -6.686 QT
-15.04 -6.921 -14.712 -6.921 QT
-14.509 -6.921 -14.313 -6.811 QT
-14.118 -6.702 -14.009 -6.507 QT
-13.899 -6.311 -13.899 -6.108 QT
-13.899 -5.78 -14.142 -5.53 QT
-14.384 -5.28 -14.712 -5.28 QT
-15.04 -5.28 -15.29 -5.53 QT
-15.54 -5.78 -15.54 -6.108 QT
cp}def
f2025304570
f
GR
GS
[0 -0.75 0.75 0 13.2 71.74994] CT
0.149 GC
N
/f-2143609113{-5.744 -5.28 M
-5.744 -5.811 L
-4.213 -5.811 -4.213 -6.28 QT
-4.213 -14.53 L
-4.213 -14.999 -5.744 -14.999 QT
-5.744 -15.53 L
2.521 -15.53 L
2.928 -12.093 L
2.506 -12.093 L
2.396 -13.03 2.225 -13.577 QT
2.053 -14.124 1.725 -14.436 QT
1.396 -14.749 0.842 -14.874 QT
0.287 -14.999 -0.682 -14.999 QT
-2.041 -14.999 L
-2.322 -14.999 -2.471 -14.975 QT
-2.619 -14.952 -2.713 -14.85 QT
-2.807 -14.749 -2.807 -14.53 QT
-2.807 -10.671 L
-1.744 -10.671 L
-0.979 -10.671 -0.619 -10.803 QT
-0.26 -10.936 -0.127 -11.296 QT
0.006 -11.655 0.006 -12.421 QT
0.443 -12.421 L
0.443 -8.389 L
0.006 -8.389 L
0.006 -9.155 -0.127 -9.514 QT
-0.26 -9.874 -0.619 -10.007 QT
-0.979 -10.139 -1.744 -10.139 QT
-2.807 -10.139 L
-2.807 -6.28 L
-2.807 -5.811 -0.885 -5.811 QT
-0.885 -5.28 L
-5.744 -5.28 L
cp}def
f-2143609113
f
GR
GS
[0 -0.75 0.75 0 13.2 71.74994] CT
0.149 GC
N
/f1447152289{5.873 -5.108 M
4.951 -5.108 4.194 -5.593 QT
3.436 -6.077 2.998 -6.874 QT
2.561 -7.671 2.561 -8.561 QT
2.561 -9.452 2.959 -10.241 QT
3.358 -11.03 4.069 -11.514 QT
4.78 -11.999 5.655 -11.999 QT
6.358 -11.999 6.865 -11.772 QT
7.373 -11.546 7.701 -11.132 QT
8.03 -10.718 8.194 -10.163 QT
8.358 -9.608 8.358 -8.936 QT
8.358 -8.749 8.217 -8.749 QT
3.873 -8.749 L
3.873 -8.577 L
3.873 -7.343 4.373 -6.444 QT
4.873 -5.546 6.014 -5.546 QT
6.467 -5.546 6.858 -5.757 QT
7.248 -5.968 7.537 -6.327 QT
7.826 -6.686 7.936 -7.108 QT
7.951 -7.155 7.99 -7.202 QT
8.03 -7.249 8.076 -7.249 QT
8.217 -7.249 L
8.358 -7.249 8.358 -7.046 QT
8.155 -6.202 7.451 -5.655 QT
6.748 -5.108 5.873 -5.108 QT
cp
3.889 -9.124 M
7.295 -9.124 L
7.295 -9.686 7.139 -10.264 QT
6.983 -10.843 6.615 -11.225 QT
6.248 -11.608 5.655 -11.608 QT
4.811 -11.608 4.35 -10.811 QT
3.889 -10.014 3.889 -9.124 QT
cp}def
f1447152289
f
GR
GS
[0 -0.75 0.75 0 13.2 71.74994] CT
0.149 GC
N
/f208855904{9.111 -5.28 M
9.111 -5.811 L
9.611 -5.811 9.946 -5.889 QT
10.282 -5.968 10.282 -6.28 QT
10.282 -14.155 L
10.282 -14.561 10.157 -14.741 QT
10.032 -14.921 9.806 -14.96 QT
9.579 -14.999 9.111 -14.999 QT
9.111 -15.53 L
11.329 -15.686 L
11.329 -10.53 L
11.642 -11.155 12.204 -11.53 QT
12.767 -11.905 13.454 -11.905 QT
14.501 -11.905 15.025 -11.405 QT
15.548 -10.905 15.548 -9.889 QT
15.548 -6.28 L
15.548 -5.968 15.876 -5.889 QT
16.204 -5.811 16.72 -5.811 QT
16.72 -5.28 L
13.282 -5.28 L
13.282 -5.811 L
13.798 -5.811 14.126 -5.889 QT
14.454 -5.968 14.454 -6.28 QT
14.454 -9.843 L
14.454 -10.577 14.243 -11.046 QT
14.032 -11.514 13.361 -11.514 QT
12.501 -11.514 11.939 -10.819 QT
11.376 -10.124 11.376 -9.249 QT
11.376 -6.28 L
11.376 -5.968 11.704 -5.889 QT
12.032 -5.811 12.532 -5.811 QT
12.532 -5.28 L
9.111 -5.28 L
cp}def
f208855904
f
GR
GS
[0 -0.75 0.75 0 13.2 71.74994] CT
0.149 GC
N
/f2009801600{17.274 -5.28 M
17.274 -5.811 L
17.774 -5.811 18.11 -5.889 QT
18.446 -5.968 18.446 -6.28 QT
18.446 -14.155 L
18.446 -14.561 18.321 -14.741 QT
18.196 -14.921 17.97 -14.96 QT
17.743 -14.999 17.274 -14.999 QT
17.274 -15.53 L
19.493 -15.686 L
19.493 -6.28 L
19.493 -5.968 19.821 -5.889 QT
20.149 -5.811 20.665 -5.811 QT
20.665 -5.28 L
17.274 -5.28 L
cp}def
f2009801600
f
GR
GS
[0 -0.75 0.75 0 13.2 71.74994] CT
0.149 GC
N
/f461723710{24.614 -5.108 M
23.692 -5.108 22.934 -5.593 QT
22.177 -6.077 21.739 -6.874 QT
21.302 -7.671 21.302 -8.561 QT
21.302 -9.452 21.7 -10.241 QT
22.098 -11.03 22.809 -11.514 QT
23.52 -11.999 24.395 -11.999 QT
25.098 -11.999 25.606 -11.772 QT
26.114 -11.546 26.442 -11.132 QT
26.77 -10.718 26.934 -10.163 QT
27.098 -9.608 27.098 -8.936 QT
27.098 -8.749 26.958 -8.749 QT
22.614 -8.749 L
22.614 -8.577 L
22.614 -7.343 23.114 -6.444 QT
23.614 -5.546 24.755 -5.546 QT
25.208 -5.546 25.598 -5.757 QT
25.989 -5.968 26.278 -6.327 QT
26.567 -6.686 26.677 -7.108 QT
26.692 -7.155 26.731 -7.202 QT
26.77 -7.249 26.817 -7.249 QT
26.958 -7.249 L
27.098 -7.249 27.098 -7.046 QT
26.895 -6.202 26.192 -5.655 QT
25.489 -5.108 24.614 -5.108 QT
cp
22.63 -9.124 M
26.036 -9.124 L
26.036 -9.686 25.88 -10.264 QT
25.723 -10.843 25.356 -11.225 QT
24.989 -11.608 24.395 -11.608 QT
23.552 -11.608 23.091 -10.811 QT
22.63 -10.014 22.63 -9.124 QT
cp}def
f461723710
f
GR
GS
[0 -0.75 0.75 0 13.2 71.74994] CT
0.149 GC
N
/f-1465422943{27.789 -5.28 M
27.789 -5.811 L
28.304 -5.811 28.633 -5.889 QT
28.961 -5.968 28.961 -6.28 QT
28.961 -10.374 L
28.961 -10.78 28.836 -10.96 QT
28.711 -11.139 28.484 -11.178 QT
28.258 -11.218 27.789 -11.218 QT
27.789 -11.749 L
29.929 -11.905 L
29.929 -10.436 L
30.179 -11.093 30.625 -11.499 QT
31.07 -11.905 31.711 -11.905 QT
32.148 -11.905 32.5 -11.639 QT
32.851 -11.374 32.851 -10.952 QT
32.851 -10.671 32.656 -10.475 QT
32.461 -10.28 32.179 -10.28 QT
31.898 -10.28 31.703 -10.475 QT
31.508 -10.671 31.508 -10.952 QT
31.508 -11.358 31.789 -11.514 QT
31.711 -11.514 L
31.101 -11.514 30.719 -11.077 QT
30.336 -10.639 30.172 -9.991 QT
30.008 -9.343 30.008 -8.749 QT
30.008 -6.28 L
30.008 -5.811 31.461 -5.811 QT
31.461 -5.28 L
27.789 -5.28 L
cp}def
f-1465422943
f
GR
GS
[0 -0.75 0.75 0 13.2 71.74994] CT
0.149 GC
N
/f-2042723644{34.924 -1.796 M
34.924 -16.264 L
34.924 -16.374 35.018 -16.452 QT
35.111 -16.53 35.236 -16.53 QT
35.346 -16.53 35.44 -16.452 QT
35.533 -16.374 35.533 -16.264 QT
35.533 -1.796 L
35.533 -1.686 35.44 -1.608 QT
35.346 -1.53 35.236 -1.53 QT
35.111 -1.53 35.018 -1.608 QT
34.924 -1.686 34.924 -1.796 QT
cp}def
f-2042723644
f
GR
GS
[0.75 0 0 0.75 36 110.75347] CT
0 0.447 0.741 RC
10.0 ML
0.667 LW
N
0 -4 M
0 4 L
-4 0 M
4 0 L
-2.828 -2.828 M
2.828 2.828 L
-2.828 2.828 M
2.828 -2.828 L
S
GR
GS
[0.75 0 0 0.75 46.45 112.32181] CT
0 0.447 0.741 RC
10.0 ML
0.667 LW
N
0 -4 M
0 4 L
-4 0 M
4 0 L
-2.828 -2.828 M
2.828 2.828 L
-2.828 2.828 M
2.828 -2.828 L
S
GR
GS
[0.75 0 0 0.75 56.9 113.557] CT
0 0.447 0.741 RC
10.0 ML
0.667 LW
N
0 -4 M
0 4 L
-4 0 M
4 0 L
-2.828 -2.828 M
2.828 2.828 L
-2.828 2.828 M
2.828 -2.828 L
S
GR
GS
[0.75 0 0 0.75 67.35 112.86458] CT
0 0.447 0.741 RC
10.0 ML
0.667 LW
N
0 -4 M
0 4 L
-4 0 M
4 0 L
-2.828 -2.828 M
2.828 2.828 L
-2.828 2.828 M
2.828 -2.828 L
S
GR
GS
[0.75 0 0 0.75 77.8 111.89448] CT
0 0.447 0.741 RC
10.0 ML
0.667 LW
N
0 -4 M
0 4 L
-4 0 M
4 0 L
-2.828 -2.828 M
2.828 2.828 L
-2.828 2.828 M
2.828 -2.828 L
S
GR
GS
[0.75 0 0 0.75 88.25 111.70993] CT
0 0.447 0.741 RC
10.0 ML
0.667 LW
N
0 -4 M
0 4 L
-4 0 M
4 0 L
-2.828 -2.828 M
2.828 2.828 L
-2.828 2.828 M
2.828 -2.828 L
S
GR
GS
[0.75 0 0 0.75 98.7 17.25394] CT
0 0.447 0.741 RC
10.0 ML
0.667 LW
N
0 -4 M
0 4 L
-4 0 M
4 0 L
-2.828 -2.828 M
2.828 2.828 L
-2.828 2.828 M
2.828 -2.828 L
S
GR
GS
[0.75 0 0 0.75 109.15001 112.79679] CT
0 0.447 0.741 RC
10.0 ML
0.667 LW
N
0 -4 M
0 4 L
-4 0 M
4 0 L
-2.828 -2.828 M
2.828 2.828 L
-2.828 2.828 M
2.828 -2.828 L
S
GR
GS
[0.75 0 0 0.75 119.59999 111.97002] CT
0 0.447 0.741 RC
10.0 ML
0.667 LW
N
0 -4 M
0 4 L
-4 0 M
4 0 L
-2.828 -2.828 M
2.828 2.828 L
-2.828 2.828 M
2.828 -2.828 L
S
GR
GS
[0.75 0 0 0.75 130.05 110.61803] CT
0 0.447 0.741 RC
10.0 ML
0.667 LW
N
0 -4 M
0 4 L
-4 0 M
4 0 L
-2.828 -2.828 M
2.828 2.828 L
-2.828 2.828 M
2.828 -2.828 L
S
GR
GS
[0.75 0 0 0.75 140.5 107.9264] CT
0 0.447 0.741 RC
10.0 ML
0.667 LW
N
0 -4 M
0 4 L
-4 0 M
4 0 L
-2.828 -2.828 M
2.828 2.828 L
-2.828 2.828 M
2.828 -2.828 L
S
GR
GS
[0.75 0 0 0.75 150.95 107.6945] CT
0 0.447 0.741 RC
10.0 ML
0.667 LW
N
0 -4 M
0 4 L
-4 0 M
4 0 L
-2.828 -2.828 M
2.828 2.828 L
-2.828 2.828 M
2.828 -2.828 L
S
GR
GS
[0.75 0 0 0.75 161.4 95.27802] CT
0 0.447 0.741 RC
10.0 ML
0.667 LW
N
0 -4 M
0 4 L
-4 0 M
4 0 L
-2.828 -2.828 M
2.828 2.828 L
-2.828 2.828 M
2.828 -2.828 L
S
GR
GS
[0.75 0 0 0.75 171.85 78.47172] CT
0 0.447 0.741 RC
10.0 ML
0.667 LW
N
0 -4 M
0 4 L
-4 0 M
4 0 L
-2.828 -2.828 M
2.828 2.828 L
-2.828 2.828 M
2.828 -2.828 L
S
GR
GS
[0.75 0 0 0.75 182.3 66.77987] CT
0 0.447 0.741 RC
10.0 ML
0.667 LW
N
0 -4 M
0 4 L
-4 0 M
4 0 L
-2.828 -2.828 M
2.828 2.828 L
-2.828 2.828 M
2.828 -2.828 L
S
GR
GS
[0.75 0 0 0.75 192.75 32.85404] CT
0 0.447 0.741 RC
10.0 ML
0.667 LW
N
0 -4 M
0 4 L
-4 0 M
4 0 L
-2.828 -2.828 M
2.828 2.828 L
-2.828 2.828 M
2.828 -2.828 L
S
GR
%%Trailer
%%Pages: 1
%%EOF
