%!PS-Adobe-3.0 EPSF-3.0
%%Creator: (MATLAB, The Mathworks, Inc. Version 9.1.0.441655 \(R2016b\). Operating System: Windows 8)
%%Title: ../Dokument/Abbildungen/V_Vergleich.eps
%%CreationDate: 2017-09-03T23:11:55
%%Pages: (atend)
%%BoundingBox:     1     3   202   156
%%LanguageLevel: 3
%%EndComments
%%BeginProlog
%%BeginResource: procset (Apache XML Graphics Std ProcSet) 1.2 0
%%Version: 1.2 0
%%Copyright: (Copyright 2001-2003,2010 The Apache Software Foundation. License terms: http://www.apache.org/licenses/LICENSE-2.0)
/bd{bind def}bind def
/ld{load def}bd
/GR/grestore ld
/M/moveto ld
/LJ/setlinejoin ld
/C/curveto ld
/f/fill ld
/LW/setlinewidth ld
/GC/setgray ld
/t/show ld
/N/newpath ld
/CT/concat ld
/cp/closepath ld
/S/stroke ld
/L/lineto ld
/CC/setcmykcolor ld
/A/ashow ld
/GS/gsave ld
/RC/setrgbcolor ld
/RM/rmoveto ld
/ML/setmiterlimit ld
/re {4 2 roll M
1 index 0 rlineto
0 exch rlineto
neg 0 rlineto
cp } bd
/_ctm matrix def
/_tm matrix def
/BT { _ctm currentmatrix pop matrix _tm copy pop 0 0 moveto } bd
/ET { _ctm setmatrix } bd
/iTm { _ctm setmatrix _tm concat } bd
/Tm { _tm astore pop iTm 0 0 moveto } bd
/ux 0.0 def
/uy 0.0 def
/F {
  /Tp exch def
  /Tf exch def
  Tf findfont Tp scalefont setfont
  /cf Tf def  /cs Tp def
} bd
/ULS {currentpoint /uy exch def /ux exch def} bd
/ULE {
  /Tcx currentpoint pop def
  gsave
  newpath
  cf findfont cs scalefont dup
  /FontMatrix get 0 get /Ts exch def /FontInfo get dup
  /UnderlinePosition get Ts mul /To exch def
  /UnderlineThickness get Ts mul /Tt exch def
  ux uy To add moveto  Tcx uy To add lineto
  Tt setlinewidth stroke
  grestore
} bd
/OLE {
  /Tcx currentpoint pop def
  gsave
  newpath
  cf findfont cs scalefont dup
  /FontMatrix get 0 get /Ts exch def /FontInfo get dup
  /UnderlinePosition get Ts mul /To exch def
  /UnderlineThickness get Ts mul /Tt exch def
  ux uy To add cs add moveto Tcx uy To add cs add lineto
  Tt setlinewidth stroke
  grestore
} bd
/SOE {
  /Tcx currentpoint pop def
  gsave
  newpath
  cf findfont cs scalefont dup
  /FontMatrix get 0 get /Ts exch def /FontInfo get dup
  /UnderlinePosition get Ts mul /To exch def
  /UnderlineThickness get Ts mul /Tt exch def
  ux uy To add cs 10 mul 26 idiv add moveto Tcx uy To add cs 10 mul 26 idiv add lineto
  Tt setlinewidth stroke
  grestore
} bd
/QT {
/Y22 exch store
/X22 exch store
/Y21 exch store
/X21 exch store
currentpoint
/Y21 load 2 mul add 3 div exch
/X21 load 2 mul add 3 div exch
/X21 load 2 mul /X22 load add 3 div
/Y21 load 2 mul /Y22 load add 3 div
/X22 load /Y22 load curveto
} bd
/SSPD {
dup length /d exch dict def
{
/v exch def
/k exch def
currentpagedevice k known {
/cpdv currentpagedevice k get def
v cpdv ne {
/upd false def
/nullv v type /nulltype eq def
/nullcpdv cpdv type /nulltype eq def
nullv nullcpdv or
{
/upd true def
} {
/sametype v type cpdv type eq def
sametype {
v type /arraytype eq {
/vlen v length def
/cpdvlen cpdv length def
vlen cpdvlen eq {
0 1 vlen 1 sub {
/i exch def
/obj v i get def
/cpdobj cpdv i get def
obj cpdobj ne {
/upd true def
exit
} if
} for
} {
/upd true def
} ifelse
} {
v type /dicttype eq {
v {
/dv exch def
/dk exch def
/cpddv cpdv dk get def
dv cpddv ne {
/upd true def
exit
} if
} forall
} {
/upd true def
} ifelse
} ifelse
} if
} ifelse
upd true eq {
d k v put
} if
} if
} if
} forall
d length 0 gt {
d setpagedevice
} if
} bd
/RE { % /NewFontName [NewEncodingArray] /FontName RE -
  findfont dup length dict begin
  {
    1 index /FID ne
    {def} {pop pop} ifelse
  } forall
  /Encoding exch def
  /FontName 1 index def
  currentdict definefont pop
  end
} bind def
%%EndResource
%%BeginResource: procset (Apache XML Graphics EPS ProcSet) 1.0 0
%%Version: 1.0 0
%%Copyright: (Copyright 2002-2003 The Apache Software Foundation. License terms: http://www.apache.org/licenses/LICENSE-2.0)
/BeginEPSF { %def
/b4_Inc_state save def         % Save state for cleanup
/dict_count countdictstack def % Count objects on dict stack
/op_count count 1 sub def      % Count objects on operand stack
userdict begin                 % Push userdict on dict stack
/showpage { } def              % Redefine showpage, { } = null proc
0 setgray 0 setlinecap         % Prepare graphics state
1 setlinewidth 0 setlinejoin
10 setmiterlimit [ ] 0 setdash newpath
/languagelevel where           % If level not equal to 1 then
{pop languagelevel             % set strokeadjust and
1 ne                           % overprint to their defaults.
{false setstrokeadjust false setoverprint
} if
} if
} bd
/EndEPSF { %def
count op_count sub {pop} repeat            % Clean up stacks
countdictstack dict_count sub {end} repeat
b4_Inc_state restore
} bd
%%EndResource
%FOPBeginFontDict
%%IncludeResource: font Courier-Bold
%%IncludeResource: font Helvetica
%%IncludeResource: font Courier-BoldOblique
%%IncludeResource: font Courier-Oblique
%%IncludeResource: font Times-Roman
%%IncludeResource: font Helvetica-BoldOblique
%%IncludeResource: font Helvetica-Bold
%%IncludeResource: font Helvetica-Oblique
%%IncludeResource: font Times-BoldItalic
%%IncludeResource: font Courier
%%IncludeResource: font Times-Italic
%%IncludeResource: font Times-Bold
%%IncludeResource: font Symbol
%%IncludeResource: font ZapfDingbats
%FOPEndFontDict
%%BeginResource: encoding WinAnsiEncoding
/WinAnsiEncoding [
/.notdef /.notdef /.notdef /.notdef /.notdef
/.notdef /.notdef /.notdef /.notdef /.notdef
/.notdef /.notdef /.notdef /.notdef /.notdef
/.notdef /.notdef /.notdef /.notdef /.notdef
/.notdef /.notdef /.notdef /.notdef /.notdef
/.notdef /.notdef /.notdef /.notdef /.notdef
/.notdef /.notdef /space /exclam /quotedbl
/numbersign /dollar /percent /ampersand /quotesingle
/parenleft /parenright /asterisk /plus /comma
/hyphen /period /slash /zero /one
/two /three /four /five /six
/seven /eight /nine /colon /semicolon
/less /equal /greater /question /at
/A /B /C /D /E
/F /G /H /I /J
/K /L /M /N /O
/P /Q /R /S /T
/U /V /W /X /Y
/Z /bracketleft /backslash /bracketright /asciicircum
/underscore /quoteleft /a /b /c
/d /e /f /g /h
/i /j /k /l /m
/n /o /p /q /r
/s /t /u /v /w
/x /y /z /braceleft /bar
/braceright /asciitilde /bullet /Euro /bullet
/quotesinglbase /florin /quotedblbase /ellipsis /dagger
/daggerdbl /circumflex /perthousand /Scaron /guilsinglleft
/OE /bullet /Zcaron /bullet /bullet
/quoteleft /quoteright /quotedblleft /quotedblright /bullet
/endash /emdash /asciitilde /trademark /scaron
/guilsinglright /oe /bullet /zcaron /Ydieresis
/space /exclamdown /cent /sterling /currency
/yen /brokenbar /section /dieresis /copyright
/ordfeminine /guillemotleft /logicalnot /sfthyphen /registered
/macron /degree /plusminus /twosuperior /threesuperior
/acute /mu /paragraph /middot /cedilla
/onesuperior /ordmasculine /guillemotright /onequarter /onehalf
/threequarters /questiondown /Agrave /Aacute /Acircumflex
/Atilde /Adieresis /Aring /AE /Ccedilla
/Egrave /Eacute /Ecircumflex /Edieresis /Igrave
/Iacute /Icircumflex /Idieresis /Eth /Ntilde
/Ograve /Oacute /Ocircumflex /Otilde /Odieresis
/multiply /Oslash /Ugrave /Uacute /Ucircumflex
/Udieresis /Yacute /Thorn /germandbls /agrave
/aacute /acircumflex /atilde /adieresis /aring
/ae /ccedilla /egrave /eacute /ecircumflex
/edieresis /igrave /iacute /icircumflex /idieresis
/eth /ntilde /ograve /oacute /ocircumflex
/otilde /odieresis /divide /oslash /ugrave
/uacute /ucircumflex /udieresis /yacute /thorn
/ydieresis
] def
%%EndResource
%FOPBeginFontReencode
/Courier-Bold findfont
dup length dict begin
  {1 index /FID ne {def} {pop pop} ifelse} forall
  /Encoding WinAnsiEncoding def
  currentdict
end
/Courier-Bold exch definefont pop
/Helvetica findfont
dup length dict begin
  {1 index /FID ne {def} {pop pop} ifelse} forall
  /Encoding WinAnsiEncoding def
  currentdict
end
/Helvetica exch definefont pop
/Courier-BoldOblique findfont
dup length dict begin
  {1 index /FID ne {def} {pop pop} ifelse} forall
  /Encoding WinAnsiEncoding def
  currentdict
end
/Courier-BoldOblique exch definefont pop
/Courier-Oblique findfont
dup length dict begin
  {1 index /FID ne {def} {pop pop} ifelse} forall
  /Encoding WinAnsiEncoding def
  currentdict
end
/Courier-Oblique exch definefont pop
/Times-Roman findfont
dup length dict begin
  {1 index /FID ne {def} {pop pop} ifelse} forall
  /Encoding WinAnsiEncoding def
  currentdict
end
/Times-Roman exch definefont pop
/Helvetica-BoldOblique findfont
dup length dict begin
  {1 index /FID ne {def} {pop pop} ifelse} forall
  /Encoding WinAnsiEncoding def
  currentdict
end
/Helvetica-BoldOblique exch definefont pop
/Helvetica-Bold findfont
dup length dict begin
  {1 index /FID ne {def} {pop pop} ifelse} forall
  /Encoding WinAnsiEncoding def
  currentdict
end
/Helvetica-Bold exch definefont pop
/Helvetica-Oblique findfont
dup length dict begin
  {1 index /FID ne {def} {pop pop} ifelse} forall
  /Encoding WinAnsiEncoding def
  currentdict
end
/Helvetica-Oblique exch definefont pop
/Times-BoldItalic findfont
dup length dict begin
  {1 index /FID ne {def} {pop pop} ifelse} forall
  /Encoding WinAnsiEncoding def
  currentdict
end
/Times-BoldItalic exch definefont pop
/Courier findfont
dup length dict begin
  {1 index /FID ne {def} {pop pop} ifelse} forall
  /Encoding WinAnsiEncoding def
  currentdict
end
/Courier exch definefont pop
/Times-Italic findfont
dup length dict begin
  {1 index /FID ne {def} {pop pop} ifelse} forall
  /Encoding WinAnsiEncoding def
  currentdict
end
/Times-Italic exch definefont pop
/Times-Bold findfont
dup length dict begin
  {1 index /FID ne {def} {pop pop} ifelse} forall
  /Encoding WinAnsiEncoding def
  currentdict
end
/Times-Bold exch definefont pop
%FOPEndFontReencode
%%EndProlog
%%Page: 1 1
%%PageBoundingBox: 0 0 219 164
%%BeginPageSetup
[1 0 0 -1 0 164] CT
%%EndPageSetup
GS
[0.75 0 0 0.75 0 0.5] CT
1 GC
N
0 0 292 218 re
f
GR
GS
[0.75 0 0 0.75 0 0.5] CT
1 GC
N
0 0 292 218 re
f
GR
GS
[0.75 0 0 0.75 0 0.5] CT
1 GC
N
46 178 M
264 178 L
264 16 L
46 16 L
cp
f
GR
GS
[0.75 0 0 0.75 0 0.5] CT
0.873 GC
1 LJ
0.667 LW
N
104.133 178 M
104.133 16 L
S
GR
GS
[0.75 0 0 0.75 0 0.5] CT
0.873 GC
1 LJ
0.667 LW
N
176.8 178 M
176.8 16 L
S
GR
GS
[0.75 0 0 0.75 0 0.5] CT
0.873 GC
1 LJ
0.667 LW
N
249.467 178 M
249.467 16 L
S
GR
GS
[0.75 0 0 0.75 0 0.5] CT
0.775 GC
[1 3] 0 setdash
2 LJ
0.667 LW
N
264 178 M
46 178 L
S
GR
GS
[0.75 0 0 0.75 0 0.5] CT
0.775 GC
[1 3] 0 setdash
2 LJ
0.667 LW
N
264 175.026 M
46 175.026 L
S
GR
GS
[0.75 0 0 0.75 0 0.5] CT
0.775 GC
[1 3] 0 setdash
2 LJ
0.667 LW
N
264 172.403 M
46 172.403 L
S
GR
GS
[0.75 0 0 0.75 0 0.5] CT
0.775 GC
[1 3] 0 setdash
2 LJ
0.667 LW
N
264 154.621 M
46 154.621 L
S
GR
GS
[0.75 0 0 0.75 0 0.5] CT
0.775 GC
[1 3] 0 setdash
2 LJ
0.667 LW
N
264 145.591 M
46 145.591 L
S
GR
GS
[0.75 0 0 0.75 0 0.5] CT
0.775 GC
[1 3] 0 setdash
2 LJ
0.667 LW
N
264 139.184 M
46 139.184 L
S
GR
GS
[0.75 0 0 0.75 0 0.5] CT
0.775 GC
[1 3] 0 setdash
2 LJ
0.667 LW
N
264 134.215 M
46 134.215 L
S
GR
GS
[0.75 0 0 0.75 0 0.5] CT
0.775 GC
[1 3] 0 setdash
2 LJ
0.667 LW
N
264 130.154 M
46 130.154 L
S
GR
GS
[0.75 0 0 0.75 0 0.5] CT
0.775 GC
[1 3] 0 setdash
2 LJ
0.667 LW
N
264 126.722 M
46 126.722 L
S
GR
GS
[0.75 0 0 0.75 0 0.5] CT
0.775 GC
[1 3] 0 setdash
2 LJ
0.667 LW
N
264 123.748 M
46 123.748 L
S
GR
GS
[0.75 0 0 0.75 0 0.5] CT
0.775 GC
[1 3] 0 setdash
2 LJ
0.667 LW
N
264 121.125 M
46 121.125 L
S
GR
GS
[0.75 0 0 0.75 0 0.5] CT
0.775 GC
[1 3] 0 setdash
2 LJ
0.667 LW
N
264 118.778 M
46 118.778 L
S
GR
GS
[0.75 0 0 0.75 0 0.5] CT
0.775 GC
[1 3] 0 setdash
2 LJ
0.667 LW
N
264 103.342 M
46 103.342 L
S
GR
GS
[0.75 0 0 0.75 0 0.5] CT
0.775 GC
[1 3] 0 setdash
2 LJ
0.667 LW
N
264 94.312 M
46 94.312 L
S
GR
GS
[0.75 0 0 0.75 0 0.5] CT
0.775 GC
[1 3] 0 setdash
2 LJ
0.667 LW
N
264 87.906 M
46 87.906 L
S
GR
GS
[0.75 0 0 0.75 0 0.5] CT
0.775 GC
[1 3] 0 setdash
2 LJ
0.667 LW
N
264 82.936 M
46 82.936 L
S
GR
GS
[0.75 0 0 0.75 0 0.5] CT
0.775 GC
[1 3] 0 setdash
2 LJ
0.667 LW
N
264 78.876 M
46 78.876 L
S
GR
GS
[0.75 0 0 0.75 0 0.5] CT
0.775 GC
[1 3] 0 setdash
2 LJ
0.667 LW
N
264 75.443 M
46 75.443 L
S
GR
GS
[0.75 0 0 0.75 0 0.5] CT
0.775 GC
[1 3] 0 setdash
2 LJ
0.667 LW
N
264 72.469 M
46 72.469 L
S
GR
GS
[0.75 0 0 0.75 0 0.5] CT
0.775 GC
[1 3] 0 setdash
2 LJ
0.667 LW
N
264 69.846 M
46 69.846 L
S
GR
GS
[0.75 0 0 0.75 0 0.5] CT
0.775 GC
[1 3] 0 setdash
2 LJ
0.667 LW
N
264 52.064 M
46 52.064 L
S
GR
GS
[0.75 0 0 0.75 0 0.5] CT
0.775 GC
[1 3] 0 setdash
2 LJ
0.667 LW
N
264 43.034 M
46 43.034 L
S
GR
GS
[0.75 0 0 0.75 0 0.5] CT
0.775 GC
[1 3] 0 setdash
2 LJ
0.667 LW
N
264 36.627 M
46 36.627 L
S
GR
GS
[0.75 0 0 0.75 0 0.5] CT
0.775 GC
[1 3] 0 setdash
2 LJ
0.667 LW
N
264 31.658 M
46 31.658 L
S
GR
GS
[0.75 0 0 0.75 0 0.5] CT
0.775 GC
[1 3] 0 setdash
2 LJ
0.667 LW
N
264 27.598 M
46 27.598 L
S
GR
GS
[0.75 0 0 0.75 0 0.5] CT
0.775 GC
[1 3] 0 setdash
2 LJ
0.667 LW
N
264 24.165 M
46 24.165 L
S
GR
GS
[0.75 0 0 0.75 0 0.5] CT
0.775 GC
[1 3] 0 setdash
2 LJ
0.667 LW
N
264 21.191 M
46 21.191 L
S
GR
GS
[0.75 0 0 0.75 0 0.5] CT
0.775 GC
[1 3] 0 setdash
2 LJ
0.667 LW
N
264 18.568 M
46 18.568 L
S
GR
GS
[0.75 0 0 0.75 0 0.5] CT
0.775 GC
[1 3] 0 setdash
2 LJ
0.667 LW
N
264 16.222 M
46 16.222 L
S
GR
GS
[0.75 0 0 0.75 0 0.5] CT
0.873 GC
1 LJ
0.667 LW
N
264 170.057 M
46 170.057 L
S
GR
GS
[0.75 0 0 0.75 0 0.5] CT
0.873 GC
1 LJ
0.667 LW
N
264 67.5 M
46 67.5 L
S
GR
GS
[0.75 0 0 0.75 0 0.5] CT
0.149 GC
2 setlinecap
1 LJ
0.667 LW
N
46 178 M
264 178 L
S
GR
GS
[0.75 0 0 0.75 0 0.5] CT
0.149 GC
2 setlinecap
1 LJ
0.667 LW
N
46 16 M
264 16 L
S
GR
GS
[0.75 0 0 0.75 0 0.5] CT
0.149 GC
2 setlinecap
1 LJ
0.667 LW
N
104.133 178 M
104.133 175.82 L
S
GR
GS
[0.75 0 0 0.75 0 0.5] CT
0.149 GC
2 setlinecap
1 LJ
0.667 LW
N
176.8 178 M
176.8 175.82 L
S
GR
GS
[0.75 0 0 0.75 0 0.5] CT
0.149 GC
2 setlinecap
1 LJ
0.667 LW
N
249.467 178 M
249.467 175.82 L
S
GR
GS
[0.75 0 0 0.75 0 0.5] CT
0.149 GC
2 setlinecap
1 LJ
0.667 LW
N
104.133 16 M
104.133 18.18 L
S
GR
GS
[0.75 0 0 0.75 0 0.5] CT
0.149 GC
2 setlinecap
1 LJ
0.667 LW
N
176.8 16 M
176.8 18.18 L
S
GR
GS
[0.75 0 0 0.75 0 0.5] CT
0.149 GC
2 setlinecap
1 LJ
0.667 LW
N
249.467 16 M
249.467 18.18 L
S
GR
GS
[0.75 0 0 0.75 78.1 138] CT
0.149 GC
N
-2.208 9.716 M
-2.068 10.106 -1.794 10.419 QT
-1.521 10.731 -1.138 10.903 QT
-0.755 11.075 -0.349 11.075 QT
0.589 11.075 0.94 10.341 QT
1.292 9.606 1.292 8.575 QT
1.292 8.122 1.276 7.817 QT
1.26 7.512 1.198 7.216 QT
1.073 6.762 0.768 6.419 QT
0.464 6.075 0.026 6.075 QT
-0.411 6.075 -0.724 6.208 QT
-1.036 6.341 -1.232 6.52 QT
-1.427 6.7 -1.583 6.895 QT
-1.74 7.091 -1.771 7.106 QT
-1.911 7.106 L
-1.943 7.106 -1.997 7.067 QT
-2.052 7.028 -2.052 6.981 QT
-2.052 2.637 L
-2.052 2.606 -2.005 2.575 QT
-1.958 2.544 -1.911 2.544 QT
-1.88 2.544 L
-1.005 2.966 -0.021 2.966 QT
0.948 2.966 1.839 2.544 QT
1.885 2.544 L
1.917 2.544 1.956 2.575 QT
1.995 2.606 1.995 2.637 QT
1.995 2.762 L
1.995 2.825 1.979 2.825 QT
1.526 3.419 0.854 3.747 QT
0.182 4.075 -0.521 4.075 QT
-1.052 4.075 -1.599 3.934 QT
-1.599 6.387 L
-1.161 6.044 -0.826 5.895 QT
-0.49 5.747 0.042 5.747 QT
0.76 5.747 1.331 6.153 QT
1.901 6.559 2.206 7.223 QT
2.51 7.887 2.51 8.591 QT
2.51 9.372 2.128 10.036 QT
1.745 10.7 1.081 11.091 QT
0.417 11.481 -0.349 11.481 QT
-0.99 11.481 -1.529 11.153 QT
-2.068 10.825 -2.38 10.27 QT
-2.693 9.716 -2.693 9.075 QT
-2.693 8.794 -2.497 8.606 QT
-2.302 8.419 -2.021 8.419 QT
-1.74 8.419 -1.544 8.606 QT
-1.349 8.794 -1.349 9.075 QT
-1.349 9.356 -1.544 9.552 QT
-1.74 9.747 -2.021 9.747 QT
-2.068 9.747 -2.122 9.739 QT
-2.177 9.731 -2.208 9.716 QT
cp
f
GR
GS
[0.75 0 0 0.75 132.6 138] CT
0.149 GC
N
-5.464 11.2 M
-5.464 10.747 L
-3.839 10.747 -3.839 10.325 QT
-3.839 3.512 L
-4.51 3.825 -5.542 3.825 QT
-5.542 3.372 L
-3.948 3.372 -3.135 2.544 QT
-2.948 2.544 L
-2.901 2.544 -2.862 2.575 QT
-2.823 2.606 -2.823 2.653 QT
-2.823 10.325 L
-2.823 10.747 -1.198 10.747 QT
-1.198 11.2 L
-5.464 11.2 L
cp
f
GR
GS
[0.75 0 0 0.75 132.6 138] CT
0.149 GC
N
3.25 11.481 M
1.656 11.481 1.086 10.169 QT
0.516 8.856 0.516 7.059 QT
0.516 5.919 0.719 4.927 QT
0.922 3.934 1.531 3.239 QT
2.141 2.544 3.25 2.544 QT
4.109 2.544 4.656 2.958 QT
5.203 3.372 5.484 4.036 QT
5.766 4.7 5.875 5.458 QT
5.984 6.216 5.984 7.059 QT
5.984 8.169 5.773 9.145 QT
5.563 10.122 4.961 10.802 QT
4.359 11.481 3.25 11.481 QT
cp
3.25 11.153 M
3.969 11.153 4.328 10.411 QT
4.688 9.669 4.766 8.762 QT
4.844 7.856 4.844 6.841 QT
4.844 5.872 4.766 5.044 QT
4.688 4.216 4.336 3.544 QT
3.984 2.872 3.25 2.872 QT
2.516 2.872 2.156 3.552 QT
1.797 4.231 1.719 5.052 QT
1.641 5.872 1.641 6.841 QT
1.641 7.575 1.672 8.216 QT
1.703 8.856 1.859 9.536 QT
2.016 10.216 2.352 10.684 QT
2.688 11.153 3.25 11.153 QT
cp
f
GR
GS
[0.75 0 0 0.75 187.10001 138] CT
0.149 GC
N
/f-293306628{-5.464 11.2 M
-5.464 10.747 L
-3.839 10.747 -3.839 10.325 QT
-3.839 3.512 L
-4.51 3.825 -5.542 3.825 QT
-5.542 3.372 L
-3.948 3.372 -3.135 2.544 QT
-2.948 2.544 L
-2.901 2.544 -2.862 2.575 QT
-2.823 2.606 -2.823 2.653 QT
-2.823 10.325 L
-2.823 10.747 -1.198 10.747 QT
-1.198 11.2 L
-5.464 11.2 L
cp}def
f-293306628
f
GR
GS
[0.75 0 0 0.75 187.10001 138] CT
0.149 GC
N
/f879275164{1.125 9.716 M
1.266 10.106 1.539 10.419 QT
1.813 10.731 2.195 10.903 QT
2.578 11.075 2.984 11.075 QT
3.922 11.075 4.273 10.341 QT
4.625 9.606 4.625 8.575 QT
4.625 8.122 4.609 7.817 QT
4.594 7.512 4.531 7.216 QT
4.406 6.762 4.102 6.419 QT
3.797 6.075 3.359 6.075 QT
2.922 6.075 2.609 6.208 QT
2.297 6.341 2.102 6.52 QT
1.906 6.7 1.75 6.895 QT
1.594 7.091 1.563 7.106 QT
1.422 7.106 L
1.391 7.106 1.336 7.067 QT
1.281 7.028 1.281 6.981 QT
1.281 2.637 L
1.281 2.606 1.328 2.575 QT
1.375 2.544 1.422 2.544 QT
1.453 2.544 L
2.328 2.966 3.313 2.966 QT
4.281 2.966 5.172 2.544 QT
5.219 2.544 L
5.25 2.544 5.289 2.575 QT
5.328 2.606 5.328 2.637 QT
5.328 2.762 L
5.328 2.825 5.313 2.825 QT
4.859 3.419 4.188 3.747 QT
3.516 4.075 2.813 4.075 QT
2.281 4.075 1.734 3.934 QT
1.734 6.387 L
2.172 6.044 2.508 5.895 QT
2.844 5.747 3.375 5.747 QT
4.094 5.747 4.664 6.153 QT
5.234 6.559 5.539 7.223 QT
5.844 7.887 5.844 8.591 QT
5.844 9.372 5.461 10.036 QT
5.078 10.7 4.414 11.091 QT
3.75 11.481 2.984 11.481 QT
2.344 11.481 1.805 11.153 QT
1.266 10.825 0.953 10.27 QT
0.641 9.716 0.641 9.075 QT
0.641 8.794 0.836 8.606 QT
1.031 8.419 1.313 8.419 QT
1.594 8.419 1.789 8.606 QT
1.984 8.794 1.984 9.075 QT
1.984 9.356 1.789 9.552 QT
1.594 9.747 1.313 9.747 QT
1.266 9.747 1.211 9.739 QT
1.156 9.731 1.125 9.716 QT
cp}def
f879275164
f
GR
GS
[0.75 0 0 0.75 116.25008 151] CT
0.149 GC
N
/f583498422{-15.656 12.539 M
-15.656 9.039 L
-15.656 8.914 -15.531 8.914 QT
-15.344 8.914 L
-15.297 8.914 -15.258 8.953 QT
-15.219 8.992 -15.219 9.039 QT
-15.219 10.507 -14.313 11.312 QT
-13.406 12.117 -11.922 12.117 QT
-11.406 12.117 -10.961 11.82 QT
-10.516 11.523 -10.273 11.039 QT
-10.031 10.554 -10.031 10.023 QT
-10.031 9.57 -10.219 9.14 QT
-10.406 8.711 -10.75 8.398 QT
-11.094 8.086 -11.516 7.976 QT
-13.469 7.507 L
-14.438 7.257 -15.047 6.461 QT
-15.656 5.664 -15.656 4.679 QT
-15.656 3.898 -15.258 3.218 QT
-14.859 2.539 -14.195 2.14 QT
-13.531 1.742 -12.75 1.742 QT
-11.25 1.742 -10.359 2.757 QT
-9.75 1.789 L
-9.703 1.742 -9.641 1.742 QT
-9.547 1.742 L
-9.5 1.742 -9.461 1.773 QT
-9.422 1.804 -9.422 1.867 QT
-9.422 5.351 L
-9.422 5.476 -9.547 5.476 QT
-9.719 5.476 L
-9.859 5.476 -9.859 5.351 QT
-9.859 4.961 -9.984 4.507 QT
-10.109 4.054 -10.336 3.64 QT
-10.563 3.226 -10.828 2.961 QT
-11.563 2.226 -12.75 2.226 QT
-13.266 2.226 -13.695 2.484 QT
-14.125 2.742 -14.383 3.195 QT
-14.641 3.648 -14.641 4.132 QT
-14.641 4.773 -14.242 5.297 QT
-13.844 5.82 -13.203 5.992 QT
-11.25 6.461 L
-10.766 6.586 -10.336 6.89 QT
-9.906 7.195 -9.625 7.593 QT
-9.344 7.992 -9.18 8.492 QT
-9.016 8.992 -9.016 9.507 QT
-9.016 10.32 -9.391 11.047 QT
-9.766 11.773 -10.438 12.211 QT
-11.109 12.648 -11.922 12.648 QT
-12.422 12.648 -12.938 12.539 QT
-13.453 12.429 -13.898 12.203 QT
-14.344 11.976 -14.703 11.617 QT
-15.328 12.601 L
-15.375 12.648 -15.438 12.648 QT
-15.531 12.648 L
-15.656 12.648 -15.656 12.539 QT
cp}def
f583498422
f
GR
GS
[0.75 0 0 0.75 116.25008 151] CT
0.149 GC
N
/f1830626617{-6.821 10.523 M
-6.821 6.382 L
-8.071 6.382 L
-8.071 5.992 L
-7.086 5.992 -6.625 5.078 QT
-6.164 4.164 -6.164 3.086 QT
-5.727 3.086 L
-5.727 5.851 L
-3.617 5.851 L
-3.617 6.382 L
-5.727 6.382 L
-5.727 10.492 L
-5.727 11.117 -5.516 11.586 QT
-5.305 12.054 -4.774 12.054 QT
-4.258 12.054 -4.032 11.554 QT
-3.805 11.054 -3.805 10.492 QT
-3.805 9.601 L
-3.367 9.601 L
-3.367 10.523 L
-3.367 10.992 -3.539 11.445 QT
-3.711 11.898 -4.047 12.195 QT
-4.383 12.492 -4.867 12.492 QT
-5.774 12.492 -6.297 11.953 QT
-6.821 11.414 -6.821 10.523 QT
cp}def
f1830626617
f
GR
GS
[0.75 0 0 0.75 116.25008 151] CT
0.149 GC
N
/f1774225081{-1.023 10.539 M
-1.023 7.226 L
-1.023 6.82 -1.148 6.64 QT
-1.273 6.461 -1.5 6.422 QT
-1.726 6.382 -2.195 6.382 QT
-2.195 5.851 L
0.071 5.695 L
0.071 10.539 L
0.071 11.117 0.157 11.445 QT
0.242 11.773 0.516 11.929 QT
0.789 12.086 1.383 12.086 QT
2.196 12.086 2.672 11.414 QT
3.149 10.742 3.149 9.882 QT
3.149 7.226 L
3.149 6.82 3.024 6.64 QT
2.899 6.461 2.672 6.422 QT
2.446 6.382 1.977 6.382 QT
1.977 5.851 L
4.242 5.695 L
4.242 10.961 L
4.242 11.351 4.36 11.531 QT
4.477 11.711 4.703 11.75 QT
4.93 11.789 5.414 11.789 QT
5.414 12.32 L
3.196 12.492 L
3.196 11.226 L
2.914 11.789 2.414 12.14 QT
1.914 12.492 1.321 12.492 QT
0.242 12.492 -0.39 12.031 QT
-1.023 11.57 -1.023 10.539 QT
cp}def
f1774225081
f
GR
GS
[0.75 0 0 0.75 116.25008 151] CT
0.149 GC
N
/f1268100366{5.984 12.32 M
5.984 11.789 L
6.484 11.789 6.813 11.711 QT
7.141 11.632 7.141 11.32 QT
7.141 6.382 L
6 6.382 L
6 5.851 L
7.141 5.851 L
7.141 4.054 L
7.141 3.57 7.344 3.148 QT
7.547 2.726 7.891 2.414 QT
8.234 2.101 8.68 1.922 QT
9.125 1.742 9.594 1.742 QT
10.094 1.742 10.5 2.047 QT
10.906 2.351 10.906 2.836 QT
10.906 3.132 10.719 3.328 QT
10.531 3.523 10.234 3.523 QT
9.953 3.523 9.75 3.328 QT
9.547 3.132 9.547 2.836 QT
9.547 2.367 9.953 2.211 QT
9.719 2.132 9.516 2.132 QT
9.078 2.132 8.766 2.445 QT
8.453 2.757 8.305 3.203 QT
8.156 3.648 8.156 4.086 QT
8.156 5.851 L
9.875 5.851 L
9.875 6.382 L
8.203 6.382 L
8.203 11.32 L
8.203 11.617 8.641 11.703 QT
9.078 11.789 9.656 11.789 QT
9.656 12.32 L
5.984 12.32 L
cp}def
f1268100366
f
GR
GS
[0.75 0 0 0.75 116.25008 151] CT
0.149 GC
N
/f2056304014{13.716 12.492 M
12.794 12.492 12.036 12.007 QT
11.278 11.523 10.841 10.726 QT
10.403 9.929 10.403 9.039 QT
10.403 8.148 10.802 7.359 QT
11.2 6.57 11.911 6.086 QT
12.622 5.601 13.497 5.601 QT
14.2 5.601 14.708 5.828 QT
15.216 6.054 15.544 6.468 QT
15.872 6.882 16.036 7.437 QT
16.2 7.992 16.2 8.664 QT
16.2 8.851 16.06 8.851 QT
11.716 8.851 L
11.716 9.023 L
11.716 10.257 12.216 11.156 QT
12.716 12.054 13.857 12.054 QT
14.31 12.054 14.7 11.843 QT
15.091 11.632 15.38 11.273 QT
15.669 10.914 15.778 10.492 QT
15.794 10.445 15.833 10.398 QT
15.872 10.351 15.919 10.351 QT
16.06 10.351 L
16.2 10.351 16.2 10.554 QT
15.997 11.398 15.294 11.945 QT
14.591 12.492 13.716 12.492 QT
cp
11.732 8.476 M
15.138 8.476 L
15.138 7.914 14.982 7.336 QT
14.825 6.757 14.458 6.375 QT
14.091 5.992 13.497 5.992 QT
12.653 5.992 12.192 6.789 QT
11.732 7.586 11.732 8.476 QT
cp}def
f2056304014
f
GR
GS
[0.75 0 0 0.75 0 0.5] CT
0.149 GC
2 setlinecap
1 LJ
0.667 LW
N
46 178 M
46 16 L
S
GR
GS
[0.75 0 0 0.75 0 0.5] CT
0.149 GC
2 setlinecap
1 LJ
0.667 LW
N
264 178 M
264 16 L
S
GR
GS
[0.75 0 0 0.75 0 0.5] CT
0.149 GC
2 setlinecap
1 LJ
0.667 LW
N
46 170.057 M
48.18 170.057 L
S
GR
GS
[0.75 0 0 0.75 0 0.5] CT
0.149 GC
2 setlinecap
1 LJ
0.667 LW
N
46 67.5 M
48.18 67.5 L
S
GR
GS
[0.75 0 0 0.75 0 0.5] CT
0.149 GC
2 setlinecap
1 LJ
0.667 LW
N
264 170.057 M
261.82 170.057 L
S
GR
GS
[0.75 0 0 0.75 0 0.5] CT
0.149 GC
2 setlinecap
1 LJ
0.667 LW
N
264 67.5 M
261.82 67.5 L
S
GR
GS
[0.75 0 0 0.75 0 0.5] CT
0.149 GC
2 setlinecap
1 LJ
0.667 LW
N
46 178 M
47.09 178 L
S
GR
GS
[0.75 0 0 0.75 0 0.5] CT
0.149 GC
2 setlinecap
1 LJ
0.667 LW
N
46 175.026 M
47.09 175.026 L
S
GR
GS
[0.75 0 0 0.75 0 0.5] CT
0.149 GC
2 setlinecap
1 LJ
0.667 LW
N
46 172.403 M
47.09 172.403 L
S
GR
GS
[0.75 0 0 0.75 0 0.5] CT
0.149 GC
2 setlinecap
1 LJ
0.667 LW
N
46 170.057 M
47.09 170.057 L
S
GR
GS
[0.75 0 0 0.75 0 0.5] CT
0.149 GC
2 setlinecap
1 LJ
0.667 LW
N
46 154.621 M
47.09 154.621 L
S
GR
GS
[0.75 0 0 0.75 0 0.5] CT
0.149 GC
2 setlinecap
1 LJ
0.667 LW
N
46 145.591 M
47.09 145.591 L
S
GR
GS
[0.75 0 0 0.75 0 0.5] CT
0.149 GC
2 setlinecap
1 LJ
0.667 LW
N
46 139.184 M
47.09 139.184 L
S
GR
GS
[0.75 0 0 0.75 0 0.5] CT
0.149 GC
2 setlinecap
1 LJ
0.667 LW
N
46 134.215 M
47.09 134.215 L
S
GR
GS
[0.75 0 0 0.75 0 0.5] CT
0.149 GC
2 setlinecap
1 LJ
0.667 LW
N
46 130.154 M
47.09 130.154 L
S
GR
GS
[0.75 0 0 0.75 0 0.5] CT
0.149 GC
2 setlinecap
1 LJ
0.667 LW
N
46 126.722 M
47.09 126.722 L
S
GR
GS
[0.75 0 0 0.75 0 0.5] CT
0.149 GC
2 setlinecap
1 LJ
0.667 LW
N
46 123.748 M
47.09 123.748 L
S
GR
GS
[0.75 0 0 0.75 0 0.5] CT
0.149 GC
2 setlinecap
1 LJ
0.667 LW
N
46 121.125 M
47.09 121.125 L
S
GR
GS
[0.75 0 0 0.75 0 0.5] CT
0.149 GC
2 setlinecap
1 LJ
0.667 LW
N
46 118.778 M
47.09 118.778 L
S
GR
GS
[0.75 0 0 0.75 0 0.5] CT
0.149 GC
2 setlinecap
1 LJ
0.667 LW
N
46 103.342 M
47.09 103.342 L
S
GR
GS
[0.75 0 0 0.75 0 0.5] CT
0.149 GC
2 setlinecap
1 LJ
0.667 LW
N
46 94.312 M
47.09 94.312 L
S
GR
GS
[0.75 0 0 0.75 0 0.5] CT
0.149 GC
2 setlinecap
1 LJ
0.667 LW
N
46 87.906 M
47.09 87.906 L
S
GR
GS
[0.75 0 0 0.75 0 0.5] CT
0.149 GC
2 setlinecap
1 LJ
0.667 LW
N
46 82.936 M
47.09 82.936 L
S
GR
GS
[0.75 0 0 0.75 0 0.5] CT
0.149 GC
2 setlinecap
1 LJ
0.667 LW
N
46 78.876 M
47.09 78.876 L
S
GR
GS
[0.75 0 0 0.75 0 0.5] CT
0.149 GC
2 setlinecap
1 LJ
0.667 LW
N
46 75.443 M
47.09 75.443 L
S
GR
GS
[0.75 0 0 0.75 0 0.5] CT
0.149 GC
2 setlinecap
1 LJ
0.667 LW
N
46 72.469 M
47.09 72.469 L
S
GR
GS
[0.75 0 0 0.75 0 0.5] CT
0.149 GC
2 setlinecap
1 LJ
0.667 LW
N
46 69.846 M
47.09 69.846 L
S
GR
GS
[0.75 0 0 0.75 0 0.5] CT
0.149 GC
2 setlinecap
1 LJ
0.667 LW
N
46 67.5 M
47.09 67.5 L
S
GR
GS
[0.75 0 0 0.75 0 0.5] CT
0.149 GC
2 setlinecap
1 LJ
0.667 LW
N
46 52.064 M
47.09 52.064 L
S
GR
GS
[0.75 0 0 0.75 0 0.5] CT
0.149 GC
2 setlinecap
1 LJ
0.667 LW
N
46 43.034 M
47.09 43.034 L
S
GR
GS
[0.75 0 0 0.75 0 0.5] CT
0.149 GC
2 setlinecap
1 LJ
0.667 LW
N
46 36.627 M
47.09 36.627 L
S
GR
GS
[0.75 0 0 0.75 0 0.5] CT
0.149 GC
2 setlinecap
1 LJ
0.667 LW
N
46 31.658 M
47.09 31.658 L
S
GR
GS
[0.75 0 0 0.75 0 0.5] CT
0.149 GC
2 setlinecap
1 LJ
0.667 LW
N
46 27.598 M
47.09 27.598 L
S
GR
GS
[0.75 0 0 0.75 0 0.5] CT
0.149 GC
2 setlinecap
1 LJ
0.667 LW
N
46 24.165 M
47.09 24.165 L
S
GR
GS
[0.75 0 0 0.75 0 0.5] CT
0.149 GC
2 setlinecap
1 LJ
0.667 LW
N
46 21.191 M
47.09 21.191 L
S
GR
GS
[0.75 0 0 0.75 0 0.5] CT
0.149 GC
2 setlinecap
1 LJ
0.667 LW
N
46 18.568 M
47.09 18.568 L
S
GR
GS
[0.75 0 0 0.75 0 0.5] CT
0.149 GC
2 setlinecap
1 LJ
0.667 LW
N
46 16.222 M
47.09 16.222 L
S
GR
GS
[0.75 0 0 0.75 0 0.5] CT
0.149 GC
2 setlinecap
1 LJ
0.667 LW
N
264 178 M
262.91 178 L
S
GR
GS
[0.75 0 0 0.75 0 0.5] CT
0.149 GC
2 setlinecap
1 LJ
0.667 LW
N
264 175.026 M
262.91 175.026 L
S
GR
GS
[0.75 0 0 0.75 0 0.5] CT
0.149 GC
2 setlinecap
1 LJ
0.667 LW
N
264 172.403 M
262.91 172.403 L
S
GR
GS
[0.75 0 0 0.75 0 0.5] CT
0.149 GC
2 setlinecap
1 LJ
0.667 LW
N
264 170.057 M
262.91 170.057 L
S
GR
GS
[0.75 0 0 0.75 0 0.5] CT
0.149 GC
2 setlinecap
1 LJ
0.667 LW
N
264 154.621 M
262.91 154.621 L
S
GR
GS
[0.75 0 0 0.75 0 0.5] CT
0.149 GC
2 setlinecap
1 LJ
0.667 LW
N
264 145.591 M
262.91 145.591 L
S
GR
GS
[0.75 0 0 0.75 0 0.5] CT
0.149 GC
2 setlinecap
1 LJ
0.667 LW
N
264 139.184 M
262.91 139.184 L
S
GR
GS
[0.75 0 0 0.75 0 0.5] CT
0.149 GC
2 setlinecap
1 LJ
0.667 LW
N
264 134.215 M
262.91 134.215 L
S
GR
GS
[0.75 0 0 0.75 0 0.5] CT
0.149 GC
2 setlinecap
1 LJ
0.667 LW
N
264 130.154 M
262.91 130.154 L
S
GR
GS
[0.75 0 0 0.75 0 0.5] CT
0.149 GC
2 setlinecap
1 LJ
0.667 LW
N
264 126.722 M
262.91 126.722 L
S
GR
GS
[0.75 0 0 0.75 0 0.5] CT
0.149 GC
2 setlinecap
1 LJ
0.667 LW
N
264 123.748 M
262.91 123.748 L
S
GR
GS
[0.75 0 0 0.75 0 0.5] CT
0.149 GC
2 setlinecap
1 LJ
0.667 LW
N
264 121.125 M
262.91 121.125 L
S
GR
GS
[0.75 0 0 0.75 0 0.5] CT
0.149 GC
2 setlinecap
1 LJ
0.667 LW
N
264 118.778 M
262.91 118.778 L
S
GR
GS
[0.75 0 0 0.75 0 0.5] CT
0.149 GC
2 setlinecap
1 LJ
0.667 LW
N
264 103.342 M
262.91 103.342 L
S
GR
GS
[0.75 0 0 0.75 0 0.5] CT
0.149 GC
2 setlinecap
1 LJ
0.667 LW
N
264 94.312 M
262.91 94.312 L
S
GR
GS
[0.75 0 0 0.75 0 0.5] CT
0.149 GC
2 setlinecap
1 LJ
0.667 LW
N
264 87.906 M
262.91 87.906 L
S
GR
GS
[0.75 0 0 0.75 0 0.5] CT
0.149 GC
2 setlinecap
1 LJ
0.667 LW
N
264 82.936 M
262.91 82.936 L
S
GR
GS
[0.75 0 0 0.75 0 0.5] CT
0.149 GC
2 setlinecap
1 LJ
0.667 LW
N
264 78.876 M
262.91 78.876 L
S
GR
GS
[0.75 0 0 0.75 0 0.5] CT
0.149 GC
2 setlinecap
1 LJ
0.667 LW
N
264 75.443 M
262.91 75.443 L
S
GR
GS
[0.75 0 0 0.75 0 0.5] CT
0.149 GC
2 setlinecap
1 LJ
0.667 LW
N
264 72.469 M
262.91 72.469 L
S
GR
GS
[0.75 0 0 0.75 0 0.5] CT
0.149 GC
2 setlinecap
1 LJ
0.667 LW
N
264 69.846 M
262.91 69.846 L
S
GR
GS
[0.75 0 0 0.75 0 0.5] CT
0.149 GC
2 setlinecap
1 LJ
0.667 LW
N
264 67.5 M
262.91 67.5 L
S
GR
GS
[0.75 0 0 0.75 0 0.5] CT
0.149 GC
2 setlinecap
1 LJ
0.667 LW
N
264 52.064 M
262.91 52.064 L
S
GR
GS
[0.75 0 0 0.75 0 0.5] CT
0.149 GC
2 setlinecap
1 LJ
0.667 LW
N
264 43.034 M
262.91 43.034 L
S
GR
GS
[0.75 0 0 0.75 0 0.5] CT
0.149 GC
2 setlinecap
1 LJ
0.667 LW
N
264 36.627 M
262.91 36.627 L
S
GR
GS
[0.75 0 0 0.75 0 0.5] CT
0.149 GC
2 setlinecap
1 LJ
0.667 LW
N
264 31.658 M
262.91 31.658 L
S
GR
GS
[0.75 0 0 0.75 0 0.5] CT
0.149 GC
2 setlinecap
1 LJ
0.667 LW
N
264 27.598 M
262.91 27.598 L
S
GR
GS
[0.75 0 0 0.75 0 0.5] CT
0.149 GC
2 setlinecap
1 LJ
0.667 LW
N
264 24.165 M
262.91 24.165 L
S
GR
GS
[0.75 0 0 0.75 0 0.5] CT
0.149 GC
2 setlinecap
1 LJ
0.667 LW
N
264 21.191 M
262.91 21.191 L
S
GR
GS
[0.75 0 0 0.75 0 0.5] CT
0.149 GC
2 setlinecap
1 LJ
0.667 LW
N
264 18.568 M
262.91 18.568 L
S
GR
GS
[0.75 0 0 0.75 0 0.5] CT
0.149 GC
2 setlinecap
1 LJ
0.667 LW
N
264 16.222 M
262.91 16.222 L
S
GR
GS
[0.75 0 0 0.75 30.5 128.04265] CT
0.149 GC
N
/f221049253{-17.464 3.2 M
-17.464 2.747 L
-15.839 2.747 -15.839 2.325 QT
-15.839 -4.488 L
-16.51 -4.175 -17.542 -4.175 QT
-17.542 -4.628 L
-15.948 -4.628 -15.135 -5.456 QT
-14.948 -5.456 L
-14.901 -5.456 -14.862 -5.425 QT
-14.823 -5.394 -14.823 -5.347 QT
-14.823 2.325 L
-14.823 2.747 -13.198 2.747 QT
-13.198 3.2 L
-17.464 3.2 L
cp}def
f221049253
f
GR
GS
[0.75 0 0 0.75 30.5 128.04265] CT
0.149 GC
N
/f-1964057359{-8.75 3.481 M
-10.344 3.481 -10.914 2.169 QT
-11.484 0.856 -11.484 -0.941 QT
-11.484 -2.081 -11.281 -3.073 QT
-11.078 -4.066 -10.469 -4.761 QT
-9.859 -5.456 -8.75 -5.456 QT
-7.891 -5.456 -7.344 -5.042 QT
-6.797 -4.628 -6.516 -3.964 QT
-6.234 -3.3 -6.125 -2.542 QT
-6.016 -1.784 -6.016 -0.941 QT
-6.016 0.169 -6.227 1.145 QT
-6.438 2.122 -7.039 2.802 QT
-7.641 3.481 -8.75 3.481 QT
cp
-8.75 3.153 M
-8.031 3.153 -7.672 2.411 QT
-7.313 1.669 -7.234 0.762 QT
-7.156 -0.144 -7.156 -1.159 QT
-7.156 -2.128 -7.234 -2.956 QT
-7.313 -3.784 -7.664 -4.456 QT
-8.016 -5.128 -8.75 -5.128 QT
-9.484 -5.128 -9.844 -4.448 QT
-10.203 -3.769 -10.281 -2.948 QT
-10.359 -2.128 -10.359 -1.159 QT
-10.359 -0.425 -10.328 0.216 QT
-10.297 0.856 -10.141 1.536 QT
-9.984 2.216 -9.648 2.684 QT
-9.313 3.153 -8.75 3.153 QT
cp}def
f-1964057359
f
GR
GS
[0.75 0 0 0.75 30.5 128.04265] CT
0.149 GC
N
/f-1748042050{-3.083 -1.435 M
-4.193 -1.435 -4.583 -2.35 QT
-4.974 -3.264 -4.974 -4.514 QT
-4.974 -5.295 -4.833 -5.982 QT
-4.693 -6.67 -4.271 -7.154 QT
-3.849 -7.639 -3.083 -7.639 QT
-2.49 -7.639 -2.115 -7.35 QT
-1.74 -7.06 -1.536 -6.6 QT
-1.333 -6.139 -1.263 -5.615 QT
-1.193 -5.092 -1.193 -4.514 QT
-1.193 -3.732 -1.333 -3.06 QT
-1.474 -2.389 -1.896 -1.912 QT
-2.318 -1.435 -3.083 -1.435 QT
cp
-3.083 -1.67 M
-2.583 -1.67 -2.333 -2.185 QT
-2.083 -2.701 -2.029 -3.326 QT
-1.974 -3.951 -1.974 -4.654 QT
-1.974 -5.326 -2.029 -5.896 QT
-2.083 -6.467 -2.333 -6.935 QT
-2.583 -7.404 -3.083 -7.404 QT
-3.599 -7.404 -3.841 -6.935 QT
-4.083 -6.467 -4.138 -5.896 QT
-4.193 -5.326 -4.193 -4.654 QT
-4.193 -4.154 -4.169 -3.709 QT
-4.146 -3.264 -4.044 -2.795 QT
-3.943 -2.326 -3.708 -1.998 QT
-3.474 -1.67 -3.083 -1.67 QT
cp}def
f-1748042050
f
GR
GS
[0.75 0 0 0.75 30.5 51.12502] CT
0.149 GC
N
f221049253
f
GR
GS
[0.75 0 0 0.75 30.5 51.12502] CT
0.149 GC
N
f-1964057359
f
GR
GS
[0.75 0 0 0.75 30.5 51.12502] CT
0.149 GC
N
/f1096009165{-4.88 -1.639 M
-4.88 -1.873 L
-4.88 -1.904 -4.865 -1.935 QT
-3.474 -3.482 L
-3.146 -3.826 -2.951 -4.053 QT
-2.755 -4.279 -2.56 -4.584 QT
-2.365 -4.889 -2.255 -5.201 QT
-2.146 -5.514 -2.146 -5.873 QT
-2.146 -6.232 -2.286 -6.576 QT
-2.427 -6.92 -2.693 -7.115 QT
-2.958 -7.31 -3.349 -7.31 QT
-3.74 -7.31 -4.052 -7.076 QT
-4.365 -6.842 -4.49 -6.467 QT
-4.443 -6.482 -4.396 -6.482 QT
-4.193 -6.482 -4.044 -6.35 QT
-3.896 -6.217 -3.896 -5.998 QT
-3.896 -5.795 -4.044 -5.646 QT
-4.193 -5.498 -4.396 -5.498 QT
-4.599 -5.498 -4.74 -5.646 QT
-4.88 -5.795 -4.88 -5.998 QT
-4.88 -6.326 -4.755 -6.623 QT
-4.63 -6.92 -4.388 -7.154 QT
-4.146 -7.389 -3.849 -7.514 QT
-3.552 -7.639 -3.208 -7.639 QT
-2.693 -7.639 -2.247 -7.42 QT
-1.802 -7.201 -1.544 -6.803 QT
-1.286 -6.404 -1.286 -5.873 QT
-1.286 -5.482 -1.458 -5.131 QT
-1.63 -4.779 -1.896 -4.49 QT
-2.161 -4.201 -2.583 -3.834 QT
-3.005 -3.467 -3.13 -3.342 QT
-4.161 -2.373 L
-3.286 -2.373 L
-2.646 -2.373 -2.224 -2.381 QT
-1.802 -2.389 -1.771 -2.42 QT
-1.661 -2.529 -1.552 -3.248 QT
-1.286 -3.248 L
-1.552 -1.639 L
-4.88 -1.639 L
cp}def
f1096009165
f
GR
GS
[0 -0.75 0.75 0 13.49997 73.24994] CT
0.149 GC
N
/f1471436696{-33.708 -5.108 M
-37.239 -14.53 L
-37.38 -14.843 -37.755 -14.921 QT
-38.13 -14.999 -38.708 -14.999 QT
-38.708 -15.53 L
-34.583 -15.53 L
-34.583 -14.999 L
-35.817 -14.999 -35.817 -14.608 QT
-35.817 -14.593 -35.817 -14.569 QT
-35.817 -14.546 -35.817 -14.53 QT
-32.926 -6.874 L
-30.208 -14.108 L
-30.192 -14.171 -30.192 -14.296 QT
-30.192 -14.655 -30.528 -14.827 QT
-30.864 -14.999 -31.27 -14.999 QT
-31.27 -15.53 L
-28.036 -15.53 L
-28.036 -14.999 L
-28.598 -14.999 -29.028 -14.788 QT
-29.458 -14.577 -29.645 -14.108 QT
-33.036 -5.108 L
-33.083 -4.952 -33.27 -4.952 QT
-33.473 -4.952 L
-33.661 -4.952 -33.708 -5.108 QT
cp}def
f1471436696
f
GR
GS
[0 -0.75 0.75 0 13.49997 73.24994] CT
0.149 GC
N
/f248889357{-25.477 -5.108 M
-26.399 -5.108 -27.156 -5.593 QT
-27.914 -6.077 -28.352 -6.874 QT
-28.789 -7.671 -28.789 -8.561 QT
-28.789 -9.452 -28.391 -10.241 QT
-27.992 -11.03 -27.281 -11.514 QT
-26.571 -11.999 -25.696 -11.999 QT
-24.992 -11.999 -24.485 -11.772 QT
-23.977 -11.546 -23.649 -11.132 QT
-23.321 -10.718 -23.156 -10.163 QT
-22.992 -9.608 -22.992 -8.936 QT
-22.992 -8.749 -23.133 -8.749 QT
-27.477 -8.749 L
-27.477 -8.577 L
-27.477 -7.343 -26.977 -6.444 QT
-26.477 -5.546 -25.336 -5.546 QT
-24.883 -5.546 -24.492 -5.757 QT
-24.102 -5.968 -23.813 -6.327 QT
-23.524 -6.686 -23.414 -7.108 QT
-23.399 -7.155 -23.36 -7.202 QT
-23.321 -7.249 -23.274 -7.249 QT
-23.133 -7.249 L
-22.992 -7.249 -22.992 -7.046 QT
-23.196 -6.202 -23.899 -5.655 QT
-24.602 -5.108 -25.477 -5.108 QT
cp
-27.461 -9.124 M
-24.055 -9.124 L
-24.055 -9.686 -24.211 -10.264 QT
-24.367 -10.843 -24.735 -11.225 QT
-25.102 -11.608 -25.696 -11.608 QT
-26.539 -11.608 -27 -10.811 QT
-27.461 -10.014 -27.461 -9.124 QT
cp}def
f248889357
f
GR
GS
[0 -0.75 0.75 0 13.49997 73.24994] CT
0.149 GC
N
/f1113709462{-22.302 -5.28 M
-22.302 -5.811 L
-21.786 -5.811 -21.458 -5.889 QT
-21.13 -5.968 -21.13 -6.28 QT
-21.13 -10.374 L
-21.13 -10.78 -21.255 -10.96 QT
-21.38 -11.139 -21.607 -11.178 QT
-21.833 -11.218 -22.302 -11.218 QT
-22.302 -11.749 L
-20.161 -11.905 L
-20.161 -10.436 L
-19.911 -11.093 -19.466 -11.499 QT
-19.021 -11.905 -18.38 -11.905 QT
-17.943 -11.905 -17.591 -11.639 QT
-17.24 -11.374 -17.24 -10.952 QT
-17.24 -10.671 -17.435 -10.475 QT
-17.63 -10.28 -17.911 -10.28 QT
-18.193 -10.28 -18.388 -10.475 QT
-18.583 -10.671 -18.583 -10.952 QT
-18.583 -11.358 -18.302 -11.514 QT
-18.38 -11.514 L
-18.99 -11.514 -19.372 -11.077 QT
-19.755 -10.639 -19.919 -9.991 QT
-20.083 -9.343 -20.083 -8.749 QT
-20.083 -6.28 L
-20.083 -5.811 -18.63 -5.811 QT
-18.63 -5.28 L
-22.302 -5.28 L
cp}def
f1113709462
f
GR
GS
[0 -0.75 0.75 0 13.49997 73.24994] CT
0.149 GC
N
/f842706954{-16.448 -5.233 M
-16.448 -7.686 L
-16.448 -7.796 -16.323 -7.796 QT
-16.136 -7.796 L
-16.042 -7.796 -16.011 -7.686 QT
-15.604 -5.514 -13.995 -5.514 QT
-13.292 -5.514 -12.808 -5.835 QT
-12.323 -6.155 -12.323 -6.827 QT
-12.323 -7.311 -12.698 -7.647 QT
-13.073 -7.983 -13.589 -8.108 QT
-14.589 -8.311 L
-15.089 -8.421 -15.503 -8.647 QT
-15.917 -8.874 -16.183 -9.249 QT
-16.448 -9.624 -16.448 -10.124 QT
-16.448 -10.796 -16.104 -11.21 QT
-15.761 -11.624 -15.198 -11.811 QT
-14.636 -11.999 -13.995 -11.999 QT
-13.229 -11.999 -12.651 -11.593 QT
-12.229 -11.968 L
-12.229 -11.999 -12.151 -11.999 QT
-12.042 -11.999 L
-11.995 -11.999 -11.956 -11.96 QT
-11.917 -11.921 -11.917 -11.874 QT
-11.917 -9.921 L
-11.917 -9.78 -12.042 -9.78 QT
-12.229 -9.78 L
-12.354 -9.78 -12.354 -9.921 QT
-12.354 -10.702 -12.792 -11.178 QT
-13.229 -11.655 -14.011 -11.655 QT
-14.683 -11.655 -15.175 -11.405 QT
-15.667 -11.155 -15.667 -10.546 QT
-15.667 -10.124 -15.315 -9.858 QT
-14.964 -9.593 -14.479 -9.483 QT
-13.464 -9.28 L
-12.964 -9.171 -12.519 -8.889 QT
-12.073 -8.608 -11.815 -8.186 QT
-11.558 -7.764 -11.558 -7.233 QT
-11.558 -6.686 -11.737 -6.288 QT
-11.917 -5.889 -12.253 -5.624 QT
-12.589 -5.358 -13.042 -5.233 QT
-13.495 -5.108 -13.995 -5.108 QT
-14.933 -5.108 -15.604 -5.749 QT
-16.151 -5.155 L
-16.151 -5.108 -16.229 -5.108 QT
-16.323 -5.108 L
-16.448 -5.108 -16.448 -5.233 QT
cp}def
f842706954
f
GR
GS
[0 -0.75 0.75 0 13.49997 73.24994] CT
0.149 GC
N
/f-1172726492{-9.632 -7.077 M
-9.632 -11.218 L
-10.882 -11.218 L
-10.882 -11.608 L
-9.897 -11.608 -9.436 -12.522 QT
-8.976 -13.436 -8.976 -14.514 QT
-8.538 -14.514 L
-8.538 -11.749 L
-6.429 -11.749 L
-6.429 -11.218 L
-8.538 -11.218 L
-8.538 -7.108 L
-8.538 -6.483 -8.327 -6.014 QT
-8.116 -5.546 -7.585 -5.546 QT
-7.069 -5.546 -6.843 -6.046 QT
-6.616 -6.546 -6.616 -7.108 QT
-6.616 -7.999 L
-6.179 -7.999 L
-6.179 -7.077 L
-6.179 -6.608 -6.351 -6.155 QT
-6.522 -5.702 -6.858 -5.405 QT
-7.194 -5.108 -7.679 -5.108 QT
-8.585 -5.108 -9.108 -5.647 QT
-9.632 -6.186 -9.632 -7.077 QT
cp}def
f-1172726492
f
GR
GS
[0 -0.75 0.75 0 13.49997 73.24994] CT
0.149 GC
N
/f-490826193{-3.944 -14.546 M
-3.944 -14.858 -3.717 -15.085 QT
-3.491 -15.311 -3.162 -15.311 QT
-2.834 -15.311 -2.608 -15.085 QT
-2.381 -14.858 -2.381 -14.546 QT
-2.381 -14.202 -2.608 -13.975 QT
-2.834 -13.749 -3.162 -13.749 QT
-3.491 -13.749 -3.717 -13.983 QT
-3.944 -14.218 -3.944 -14.546 QT
cp
-1.053 -14.546 M
-1.053 -14.858 -0.827 -15.085 QT
-0.6 -15.311 -0.272 -15.311 QT
0.056 -15.311 0.283 -15.085 QT
0.509 -14.858 0.509 -14.546 QT
0.509 -14.202 0.283 -13.975 QT
0.056 -13.749 -0.272 -13.749 QT
-0.6 -13.749 -0.827 -13.983 QT
-1.053 -14.218 -1.053 -14.546 QT
cp}def
f-490826193
f
GR
GS
[0 -0.75 0.75 0 13.49997 73.24994] CT
0.149 GC
N
/f-224072903{-4.866 -6.749 M
-4.866 -7.639 -4.162 -8.202 QT
-3.459 -8.764 -2.467 -8.999 QT
-1.475 -9.233 -0.6 -9.233 QT
-0.6 -9.843 L
-0.6 -10.28 -0.787 -10.686 QT
-0.975 -11.093 -1.334 -11.35 QT
-1.694 -11.608 -2.131 -11.608 QT
-3.116 -11.608 -3.647 -11.155 QT
-3.35 -11.155 -3.17 -10.944 QT
-2.991 -10.733 -2.991 -10.436 QT
-2.991 -10.139 -3.202 -9.928 QT
-3.412 -9.718 -3.694 -9.718 QT
-4.006 -9.718 -4.217 -9.928 QT
-4.428 -10.139 -4.428 -10.436 QT
-4.428 -11.233 -3.709 -11.616 QT
-2.991 -11.999 -2.131 -11.999 QT
-1.522 -11.999 -0.905 -11.741 QT
-0.287 -11.483 0.103 -10.999 QT
0.494 -10.514 0.494 -9.874 QT
0.494 -6.499 L
0.494 -6.202 0.619 -5.96 QT
0.744 -5.718 1.009 -5.718 QT
1.259 -5.718 1.377 -5.968 QT
1.494 -6.218 1.494 -6.499 QT
1.494 -7.452 L
1.931 -7.452 L
1.931 -6.499 L
1.931 -6.155 1.759 -5.85 QT
1.588 -5.546 1.291 -5.366 QT
0.994 -5.186 0.65 -5.186 QT
0.213 -5.186 -0.108 -5.53 QT
-0.428 -5.874 -0.459 -6.343 QT
-0.741 -5.78 -1.28 -5.444 QT
-1.819 -5.108 -2.444 -5.108 QT
-3.006 -5.108 -3.561 -5.28 QT
-4.116 -5.452 -4.491 -5.811 QT
-4.866 -6.171 -4.866 -6.749 QT
cp
-3.647 -6.749 M
-3.647 -6.218 -3.256 -5.866 QT
-2.866 -5.514 -2.334 -5.514 QT
-1.85 -5.514 -1.459 -5.749 QT
-1.069 -5.983 -0.834 -6.405 QT
-0.6 -6.827 -0.6 -7.28 QT
-0.6 -8.843 L
-1.272 -8.843 -1.991 -8.624 QT
-2.709 -8.405 -3.178 -7.928 QT
-3.647 -7.452 -3.647 -6.749 QT
cp}def
f-224072903
f
GR
GS
[0 -0.75 0.75 0 13.49997 73.24994] CT
0.149 GC
N
/f-1418686386{2.265 -5.28 M
2.265 -5.811 L
2.78 -5.811 3.108 -5.889 QT
3.437 -5.968 3.437 -6.28 QT
3.437 -10.374 L
3.437 -10.78 3.312 -10.96 QT
3.187 -11.139 2.96 -11.178 QT
2.733 -11.218 2.265 -11.218 QT
2.265 -11.749 L
4.405 -11.905 L
4.405 -10.436 L
4.655 -11.093 5.101 -11.499 QT
5.546 -11.905 6.187 -11.905 QT
6.624 -11.905 6.976 -11.639 QT
7.327 -11.374 7.327 -10.952 QT
7.327 -10.671 7.132 -10.475 QT
6.937 -10.28 6.655 -10.28 QT
6.374 -10.28 6.179 -10.475 QT
5.983 -10.671 5.983 -10.952 QT
5.983 -11.358 6.265 -11.514 QT
6.187 -11.514 L
5.577 -11.514 5.194 -11.077 QT
4.812 -10.639 4.647 -9.991 QT
4.483 -9.343 4.483 -8.749 QT
4.483 -6.28 L
4.483 -5.811 5.937 -5.811 QT
5.937 -5.28 L
2.265 -5.28 L
cp}def
f-1418686386
f
GR
GS
[0 -0.75 0.75 0 13.49997 73.24994] CT
0.149 GC
N
/f1188156670{8.009 -5.28 M
8.009 -5.811 L
8.525 -5.811 8.853 -5.889 QT
9.181 -5.968 9.181 -6.28 QT
9.181 -14.155 L
9.181 -14.561 9.056 -14.741 QT
8.931 -14.921 8.704 -14.96 QT
8.478 -14.999 8.009 -14.999 QT
8.009 -15.53 L
10.228 -15.686 L
10.228 -8.561 L
12.243 -10.327 L
12.54 -10.624 12.54 -10.858 QT
12.54 -11.03 12.415 -11.124 QT
12.29 -11.218 12.118 -11.218 QT
12.118 -11.749 L
14.931 -11.749 L
14.931 -11.218 L
13.915 -11.218 12.9 -10.327 QT
11.837 -9.405 L
13.743 -6.686 L
14.134 -6.124 14.4 -5.968 QT
14.665 -5.811 15.29 -5.811 QT
15.29 -5.28 L
12.306 -5.28 L
12.306 -5.811 L
12.806 -5.811 12.806 -6.124 QT
12.806 -6.343 12.54 -6.686 QT
11.103 -8.749 L
10.181 -7.952 L
10.181 -6.28 L
10.181 -5.968 10.517 -5.889 QT
10.853 -5.811 11.353 -5.811 QT
11.353 -5.28 L
8.009 -5.28 L
cp}def
f1188156670
f
GR
GS
[0 -0.75 0.75 0 13.49997 73.24994] CT
0.149 GC
N
/f466723749{16.984 -7.061 M
16.984 -10.374 L
16.984 -10.78 16.859 -10.96 QT
16.734 -11.139 16.508 -11.178 QT
16.281 -11.218 15.812 -11.218 QT
15.812 -11.749 L
18.078 -11.905 L
18.078 -7.061 L
18.078 -6.483 18.164 -6.155 QT
18.25 -5.827 18.523 -5.671 QT
18.797 -5.514 19.391 -5.514 QT
20.203 -5.514 20.68 -6.186 QT
21.156 -6.858 21.156 -7.718 QT
21.156 -10.374 L
21.156 -10.78 21.031 -10.96 QT
20.906 -11.139 20.68 -11.178 QT
20.453 -11.218 19.984 -11.218 QT
19.984 -11.749 L
22.25 -11.905 L
22.25 -6.639 L
22.25 -6.249 22.367 -6.069 QT
22.484 -5.889 22.711 -5.85 QT
22.937 -5.811 23.422 -5.811 QT
23.422 -5.28 L
21.203 -5.108 L
21.203 -6.374 L
20.922 -5.811 20.422 -5.46 QT
19.922 -5.108 19.328 -5.108 QT
18.25 -5.108 17.617 -5.569 QT
16.984 -6.03 16.984 -7.061 QT
cp}def
f466723749
f
GR
GS
[0 -0.75 0.75 0 13.49997 73.24994] CT
0.149 GC
N
/f445207966{23.961 -5.28 M
23.961 -5.811 L
24.461 -5.811 24.797 -5.889 QT
25.132 -5.968 25.132 -6.28 QT
25.132 -10.374 L
25.132 -10.78 25.007 -10.96 QT
24.882 -11.139 24.656 -11.178 QT
24.429 -11.218 23.961 -11.218 QT
23.961 -11.749 L
26.132 -11.905 L
26.132 -10.436 L
26.429 -11.093 27.023 -11.499 QT
27.617 -11.905 28.304 -11.905 QT
29.351 -11.905 29.875 -11.405 QT
30.398 -10.905 30.398 -9.889 QT
30.398 -6.28 L
30.398 -5.968 30.726 -5.889 QT
31.054 -5.811 31.57 -5.811 QT
31.57 -5.28 L
28.132 -5.28 L
28.132 -5.811 L
28.648 -5.811 28.976 -5.889 QT
29.304 -5.968 29.304 -6.28 QT
29.304 -9.843 L
29.304 -10.577 29.093 -11.046 QT
28.882 -11.514 28.211 -11.514 QT
27.351 -11.514 26.789 -10.819 QT
26.226 -10.124 26.226 -9.249 QT
26.226 -6.28 L
26.226 -5.968 26.554 -5.889 QT
26.882 -5.811 27.382 -5.811 QT
27.382 -5.28 L
23.961 -5.28 L
cp}def
f445207966
f
GR
GS
[0 -0.75 0.75 0 13.49997 73.24994] CT
0.149 GC
N
/f-121345517{32.077 -4.108 M
32.077 -4.639 32.46 -5.038 QT
32.843 -5.436 33.39 -5.608 QT
33.077 -5.843 32.921 -6.186 QT
32.765 -6.53 32.765 -6.921 QT
32.765 -7.624 33.218 -8.155 QT
32.531 -8.827 32.531 -9.702 QT
32.531 -10.171 32.734 -10.585 QT
32.937 -10.999 33.296 -11.296 QT
33.656 -11.593 34.093 -11.749 QT
34.531 -11.905 34.984 -11.905 QT
35.874 -11.905 36.593 -11.389 QT
36.906 -11.718 37.327 -11.897 QT
37.749 -12.077 38.202 -12.077 QT
38.515 -12.077 38.718 -11.843 QT
38.921 -11.608 38.921 -11.296 QT
38.921 -11.108 38.788 -10.968 QT
38.656 -10.827 38.468 -10.827 QT
38.281 -10.827 38.14 -10.968 QT
37.999 -11.108 37.999 -11.296 QT
37.999 -11.577 38.187 -11.686 QT
37.406 -11.686 36.843 -11.139 QT
37.124 -10.874 37.288 -10.483 QT
37.452 -10.093 37.452 -9.702 QT
37.452 -9.061 37.101 -8.553 QT
36.749 -8.046 36.171 -7.764 QT
35.593 -7.483 34.984 -7.483 QT
34.171 -7.483 33.484 -7.936 QT
33.281 -7.639 33.281 -7.28 QT
33.281 -6.874 33.538 -6.577 QT
33.796 -6.28 34.187 -6.28 QT
35.421 -6.28 L
36.312 -6.28 37.031 -6.124 QT
37.749 -5.968 38.234 -5.483 QT
38.718 -4.999 38.718 -4.108 QT
38.718 -3.452 38.163 -3.014 QT
37.609 -2.577 36.835 -2.382 QT
36.062 -2.186 35.406 -2.186 QT
34.734 -2.186 33.96 -2.382 QT
33.187 -2.577 32.632 -3.014 QT
32.077 -3.452 32.077 -4.108 QT
cp
32.921 -4.108 M
32.921 -3.608 33.327 -3.264 QT
33.734 -2.921 34.312 -2.757 QT
34.89 -2.593 35.406 -2.593 QT
35.906 -2.593 36.484 -2.757 QT
37.062 -2.921 37.468 -3.264 QT
37.874 -3.608 37.874 -4.108 QT
37.874 -4.889 37.163 -5.124 QT
36.452 -5.358 35.421 -5.358 QT
34.187 -5.358 L
33.843 -5.358 33.554 -5.194 QT
33.265 -5.03 33.093 -4.733 QT
32.921 -4.436 32.921 -4.108 QT
cp
34.984 -7.889 M
36.265 -7.889 36.265 -9.702 QT
36.265 -10.483 35.992 -10.991 QT
35.718 -11.499 34.984 -11.499 QT
34.249 -11.499 33.984 -10.991 QT
33.718 -10.483 33.718 -9.702 QT
33.718 -9.202 33.82 -8.803 QT
33.921 -8.405 34.195 -8.147 QT
34.468 -7.889 34.984 -7.889 QT
cp}def
f-121345517
f
GR
GS
[0.75 0 0 0.75 34.5 120.9469] CT
0 0.447 0.741 RC
10.0 ML
0.667 LW
N
0 -4 M
0 4 L
-4 0 M
4 0 L
S
GR
GS
[0.75 0 0 0.75 45.4 113.22972] CT
0 0.447 0.741 RC
10.0 ML
0.667 LW
N
0 -4 M
0 4 L
-4 0 M
4 0 L
S
GR
GS
[0.75 0 0 0.75 56.3 106.20548] CT
0 0.447 0.741 RC
10.0 ML
0.667 LW
N
0 -4 M
0 4 L
-4 0 M
4 0 L
S
GR
GS
[0.75 0 0 0.75 67.2 98.83544] CT
0 0.447 0.741 RC
10.0 ML
0.667 LW
N
0 -4 M
0 4 L
-4 0 M
4 0 L
S
GR
GS
[0.75 0 0 0.75 78.1 92.16084] CT
0 0.447 0.741 RC
10.0 ML
0.667 LW
N
0 -4 M
0 4 L
-4 0 M
4 0 L
S
GR
GS
[0.75 0 0 0.75 89 84.93007] CT
0 0.447 0.741 RC
10.0 ML
0.667 LW
N
0 -4 M
0 4 L
-4 0 M
4 0 L
S
GR
GS
[0.75 0 0 0.75 99.9 128.18835] CT
0 0.447 0.741 RC
10.0 ML
0.667 LW
N
0 -4 M
0 4 L
-4 0 M
4 0 L
S
GR
GS
[0.75 0 0 0.75 110.8 70.30026] CT
0 0.447 0.741 RC
10.0 ML
0.667 LW
N
0 -4 M
0 4 L
-4 0 M
4 0 L
S
GR
GS
[0.75 0 0 0.75 121.70001 62.65026] CT
0 0.447 0.741 RC
10.0 ML
0.667 LW
N
0 -4 M
0 4 L
-4 0 M
4 0 L
S
GR
GS
[0.75 0 0 0.75 132.6 55.78379] CT
0 0.447 0.741 RC
10.0 ML
0.667 LW
N
0 -4 M
0 4 L
-4 0 M
4 0 L
S
GR
GS
[0.75 0 0 0.75 143.50001 49.12272] CT
0 0.447 0.741 RC
10.0 ML
0.667 LW
N
0 -4 M
0 4 L
-4 0 M
4 0 L
S
GR
GS
[0.75 0 0 0.75 154.4 41.95673] CT
0 0.447 0.741 RC
10.0 ML
0.667 LW
N
0 -4 M
0 4 L
-4 0 M
4 0 L
S
GR
GS
[0.75 0 0 0.75 165.30001 37.15825] CT
0 0.447 0.741 RC
10.0 ML
0.667 LW
N
0 -4 M
0 4 L
-4 0 M
4 0 L
S
GR
GS
[0.75 0 0 0.75 176.2 33.75644] CT
0 0.447 0.741 RC
10.0 ML
0.667 LW
N
0 -4 M
0 4 L
-4 0 M
4 0 L
S
GR
GS
[0.75 0 0 0.75 187.10001 29.8093] CT
0 0.447 0.741 RC
10.0 ML
0.667 LW
N
0 -4 M
0 4 L
-4 0 M
4 0 L
S
GR
GS
[0.75 0 0 0.75 198 38.98438] CT
0 0.447 0.741 RC
10.0 ML
0.667 LW
N
0 -4 M
0 4 L
-4 0 M
4 0 L
S
GR
GS
[0.75 0 0 0.75 34.5 120.86271] CT
0.851 0.325 0.098 RC
10.0 ML
0.667 LW
N
3.5 -0.5 M
3.5 -2.709 1.709 -4.5 -0.5 -4.5 C
-2.709 -4.5 -4.5 -2.709 -4.5 -0.5 C
-4.5 1.709 -2.709 3.5 -0.5 3.5 C
1.709 3.5 3.5 1.709 3.5 -0.5 C
S
GR
GS
[0.75 0 0 0.75 45.4 113.41002] CT
0.851 0.325 0.098 RC
10.0 ML
0.667 LW
N
3.5 -0.5 M
3.5 -2.709 1.709 -4.5 -0.5 -4.5 C
-2.709 -4.5 -4.5 -2.709 -4.5 -0.5 C
-4.5 1.709 -2.709 3.5 -0.5 3.5 C
1.709 3.5 3.5 1.709 3.5 -0.5 C
S
GR
GS
[0.75 0 0 0.75 56.3 106.59121] CT
0.851 0.325 0.098 RC
10.0 ML
0.667 LW
N
3.5 -0.5 M
3.5 -2.709 1.709 -4.5 -0.5 -4.5 C
-2.709 -4.5 -4.5 -2.709 -4.5 -0.5 C
-4.5 1.709 -2.709 3.5 -0.5 3.5 C
1.709 3.5 3.5 1.709 3.5 -0.5 C
S
GR
GS
[0.75 0 0 0.75 67.2 99.10632] CT
0.851 0.325 0.098 RC
10.0 ML
0.667 LW
N
3.5 -0.5 M
3.5 -2.709 1.709 -4.5 -0.5 -4.5 C
-2.709 -4.5 -4.5 -2.709 -4.5 -0.5 C
-4.5 1.709 -2.709 3.5 -0.5 3.5 C
1.709 3.5 3.5 1.709 3.5 -0.5 C
S
GR
GS
[0.75 0 0 0.75 78.1 92.26949] CT
0.851 0.325 0.098 RC
10.0 ML
0.667 LW
N
3.5 -0.5 M
3.5 -2.709 1.709 -4.5 -0.5 -4.5 C
-2.709 -4.5 -4.5 -2.709 -4.5 -0.5 C
-4.5 1.709 -2.709 3.5 -0.5 3.5 C
1.709 3.5 3.5 1.709 3.5 -0.5 C
S
GR
GS
[0.75 0 0 0.75 89 85.00768] CT
0.851 0.325 0.098 RC
10.0 ML
0.667 LW
N
3.5 -0.5 M
3.5 -2.709 1.709 -4.5 -0.5 -4.5 C
-2.709 -4.5 -4.5 -2.709 -4.5 -0.5 C
-4.5 1.709 -2.709 3.5 -0.5 3.5 C
1.709 3.5 3.5 1.709 3.5 -0.5 C
S
GR
GS
[0.75 0 0 0.75 99.9 77.51949] CT
0.851 0.325 0.098 RC
10.0 ML
0.667 LW
N
3.5 -0.5 M
3.5 -2.709 1.709 -4.5 -0.5 -4.5 C
-2.709 -4.5 -4.5 -2.709 -4.5 -0.5 C
-4.5 1.709 -2.709 3.5 -0.5 3.5 C
1.709 3.5 3.5 1.709 3.5 -0.5 C
S
GR
GS
[0.75 0 0 0.75 110.8 70.55985] CT
0.851 0.325 0.098 RC
10.0 ML
0.667 LW
N
3.5 -0.5 M
3.5 -2.709 1.709 -4.5 -0.5 -4.5 C
-2.709 -4.5 -4.5 -2.709 -4.5 -0.5 C
-4.5 1.709 -2.709 3.5 -0.5 3.5 C
1.709 3.5 3.5 1.709 3.5 -0.5 C
S
GR
GS
[0.75 0 0 0.75 121.70001 62.7716] CT
0.851 0.325 0.098 RC
10.0 ML
0.667 LW
N
3.5 -0.5 M
3.5 -2.709 1.709 -4.5 -0.5 -4.5 C
-2.709 -4.5 -4.5 -2.709 -4.5 -0.5 C
-4.5 1.709 -2.709 3.5 -0.5 3.5 C
1.709 3.5 3.5 1.709 3.5 -0.5 C
S
GR
GS
[0.75 0 0 0.75 132.6 55.67656] CT
0.851 0.325 0.098 RC
10.0 ML
0.667 LW
N
3.5 -0.5 M
3.5 -2.709 1.709 -4.5 -0.5 -4.5 C
-2.709 -4.5 -4.5 -2.709 -4.5 -0.5 C
-4.5 1.709 -2.709 3.5 -0.5 3.5 C
1.709 3.5 3.5 1.709 3.5 -0.5 C
S
GR
GS
[0.75 0 0 0.75 143.50001 48.5509] CT
0.851 0.325 0.098 RC
10.0 ML
0.667 LW
N
3.5 -0.5 M
3.5 -2.709 1.709 -4.5 -0.5 -4.5 C
-2.709 -4.5 -4.5 -2.709 -4.5 -0.5 C
-4.5 1.709 -2.709 3.5 -0.5 3.5 C
1.709 3.5 3.5 1.709 3.5 -0.5 C
S
GR
GS
[0.75 0 0 0.75 154.4 41.34426] CT
0.851 0.325 0.098 RC
10.0 ML
0.667 LW
N
3.5 -0.5 M
3.5 -2.709 1.709 -4.5 -0.5 -4.5 C
-2.709 -4.5 -4.5 -2.709 -4.5 -0.5 C
-4.5 1.709 -2.709 3.5 -0.5 3.5 C
1.709 3.5 3.5 1.709 3.5 -0.5 C
S
GR
GS
[0.75 0 0 0.75 165.30001 34.21145] CT
0.851 0.325 0.098 RC
10.0 ML
0.667 LW
N
3.5 -0.5 M
3.5 -2.709 1.709 -4.5 -0.5 -4.5 C
-2.709 -4.5 -4.5 -2.709 -4.5 -0.5 C
-4.5 1.709 -2.709 3.5 -0.5 3.5 C
1.709 3.5 3.5 1.709 3.5 -0.5 C
S
GR
GS
[0.75 0 0 0.75 176.2 27.01925] CT
0.851 0.325 0.098 RC
10.0 ML
0.667 LW
N
3.5 -0.5 M
3.5 -2.709 1.709 -4.5 -0.5 -4.5 C
-2.709 -4.5 -4.5 -2.709 -4.5 -0.5 C
-4.5 1.709 -2.709 3.5 -0.5 3.5 C
1.709 3.5 3.5 1.709 3.5 -0.5 C
S
GR
GS
[0.75 0 0 0.75 187.10001 19.81392] CT
0.851 0.325 0.098 RC
10.0 ML
0.667 LW
N
3.5 -0.5 M
3.5 -2.709 1.709 -4.5 -0.5 -4.5 C
-2.709 -4.5 -4.5 -2.709 -4.5 -0.5 C
-4.5 1.709 -2.709 3.5 -0.5 3.5 C
1.709 3.5 3.5 1.709 3.5 -0.5 C
S
GR
GS
[0.75 0 0 0.75 198 12.60599] CT
0.851 0.325 0.098 RC
10.0 ML
0.667 LW
N
3.5 -0.5 M
3.5 -2.709 1.709 -4.5 -0.5 -4.5 C
-2.709 -4.5 -4.5 -2.709 -4.5 -0.5 C
-4.5 1.709 -2.709 3.5 -0.5 3.5 C
1.709 3.5 3.5 1.709 3.5 -0.5 C
S
GR
%%Trailer
%%Pages: 1
%%EOF
