%!PS-Adobe-3.0 EPSF-3.0
%%Creator: cairo 1.12.16 (http://cairographics.org)
%%CreationDate: Sun Sep 03 23:22:04 2017
%%Pages: 1
%%DocumentData: Clean7Bit
%%LanguageLevel: 2
%%BoundingBox: 0 0 382 153
%%EndComments
%%BeginProlog
save
50 dict begin
/q { gsave } bind def
/Q { grestore } bind def
/cm { 6 array astore concat } bind def
/w { setlinewidth } bind def
/J { setlinecap } bind def
/j { setlinejoin } bind def
/M { setmiterlimit } bind def
/d { setdash } bind def
/m { moveto } bind def
/l { lineto } bind def
/c { curveto } bind def
/h { closepath } bind def
/re { exch dup neg 3 1 roll 5 3 roll moveto 0 rlineto
      0 exch rlineto 0 rlineto closepath } bind def
/S { stroke } bind def
/f { fill } bind def
/f* { eofill } bind def
/n { newpath } bind def
/W { clip } bind def
/W* { eoclip } bind def
/BT { } bind def
/ET { } bind def
/pdfmark where { pop globaldict /?pdfmark /exec load put }
    { globaldict begin /?pdfmark /pop load def /pdfmark
    /cleartomark load def end } ifelse
/BDC { mark 3 1 roll /BDC pdfmark } bind def
/EMC { mark /EMC pdfmark } bind def
/cairo_store_point { /cairo_point_y exch def /cairo_point_x exch def } def
/Tj { show currentpoint cairo_store_point } bind def
/TJ {
  {
    dup
    type /stringtype eq
    { show } { -0.001 mul 0 cairo_font_matrix dtransform rmoveto } ifelse
  } forall
  currentpoint cairo_store_point
} bind def
/cairo_selectfont { cairo_font_matrix aload pop pop pop 0 0 6 array astore
    cairo_font exch selectfont cairo_point_x cairo_point_y moveto } bind def
/Tf { pop /cairo_font exch def /cairo_font_matrix where
      { pop cairo_selectfont } if } bind def
/Td { matrix translate cairo_font_matrix matrix concatmatrix dup
      /cairo_font_matrix exch def dup 4 get exch 5 get cairo_store_point
      /cairo_font where { pop cairo_selectfont } if } bind def
/Tm { 2 copy 8 2 roll 6 array astore /cairo_font_matrix exch def
      cairo_store_point /cairo_font where { pop cairo_selectfont } if } bind def
/g { setgray } bind def
/rg { setrgbcolor } bind def
/d1 { setcachedevice } bind def
%%EndProlog
%%Page: 1 1
%%BeginPageSetup
%%PageBoundingBox: 0 0 382 153
%%EndPageSetup
q 0 0 382 153 rectclip q
1 g
0 0 382 153 rectfill
42 148.5 339.75 -118.5 re f
0.776471 g
0.50025 w
0 J
2 j
[ 0.75 2.25] 0 d
10 M q 1 0 0 1 0 153 cm
54.512 -123 m 54.512 -4.5 l S Q
[ 0.75 2.25] 0 d
q 1 0 0 1 0 153 cm
70.18 -123 m 70.18 -4.5 l S Q
[ 0.75 2.25] 0 d
q 1 0 0 1 0 153 cm
82.332 -123 m 82.332 -4.5 l S Q
[ 0.75 2.25] 0 d
q 1 0 0 1 0 153 cm
92.262 -123 m 92.262 -4.5 l S Q
[ 0.75 2.25] 0 d
q 1 0 0 1 0 153 cm
100.656 -123 m 100.656 -4.5 l S Q
[ 0.75 2.25] 0 d
q 1 0 0 1 0 153 cm
107.93 -123 m 107.93 -4.5 l S Q
[ 0.75 2.25] 0 d
q 1 0 0 1 0 153 cm
114.344 -123 m 114.344 -4.5 l S Q
[ 0.75 2.25] 0 d
q 1 0 0 1 0 153 cm
157.832 -123 m 157.832 -4.5 l S Q
[ 0.75 2.25] 0 d
q 1 0 0 1 0 153 cm
179.914 -123 m 179.914 -4.5 l S Q
[ 0.75 2.25] 0 d
q 1 0 0 1 0 153 cm
195.586 -123 m 195.586 -4.5 l S Q
[ 0.75 2.25] 0 d
q 1 0 0 1 0 153 cm
207.734 -123 m 207.734 -4.5 l S Q
[ 0.75 2.25] 0 d
q 1 0 0 1 0 153 cm
217.664 -123 m 217.664 -4.5 l S Q
[ 0.75 2.25] 0 d
q 1 0 0 1 0 153 cm
226.063 -123 m 226.063 -4.5 l S Q
[ 0.75 2.25] 0 d
q 1 0 0 1 0 153 cm
233.332 -123 m 233.332 -4.5 l S Q
[ 0.75 2.25] 0 d
q 1 0 0 1 0 153 cm
239.746 -123 m 239.746 -4.5 l S Q
[ 0.75 2.25] 0 d
q 1 0 0 1 0 153 cm
283.234 -123 m 283.234 -4.5 l S Q
[ 0.75 2.25] 0 d
q 1 0 0 1 0 153 cm
305.316 -123 m 305.316 -4.5 l S Q
[ 0.75 2.25] 0 d
q 1 0 0 1 0 153 cm
320.984 -123 m 320.984 -4.5 l S Q
[ 0.75 2.25] 0 d
q 1 0 0 1 0 153 cm
333.141 -123 m 333.141 -4.5 l S Q
[ 0.75 2.25] 0 d
q 1 0 0 1 0 153 cm
343.07 -123 m 343.07 -4.5 l S Q
[ 0.75 2.25] 0 d
q 1 0 0 1 0 153 cm
351.465 -123 m 351.465 -4.5 l S Q
[ 0.75 2.25] 0 d
q 1 0 0 1 0 153 cm
358.734 -123 m 358.734 -4.5 l S Q
[ 0.75 2.25] 0 d
q 1 0 0 1 0 153 cm
365.152 -123 m 365.152 -4.5 l S Q
0.87451 g
1 j
[] 0.0 d
q 1 0 0 1 0 153 cm
120.082 -123 m 120.082 -4.5 l S Q
q 1 0 0 1 0 153 cm
245.484 -123 m 245.484 -4.5 l S Q
q 1 0 0 1 0 153 cm
370.891 -123 m 370.891 -4.5 l S Q
q 1 0 0 1 0 153 cm
381.75 -123 m 42 -123 l S Q
q 1 0 0 1 0 153 cm
381.75 -99.301 m 42 -99.301 l S Q
q 1 0 0 1 0 153 cm
381.75 -75.602 m 42 -75.602 l S Q
q 1 0 0 1 0 153 cm
381.75 -51.898 m 42 -51.898 l S Q
q 1 0 0 1 0 153 cm
381.75 -28.199 m 42 -28.199 l S Q
q 1 0 0 1 0 153 cm
381.75 -4.5 m 42 -4.5 l S Q
0.14902 g
2 J
q 1 0 0 1 0 153 cm
42 -123 m 381.75 -123 l S Q
q 1 0 0 1 0 153 cm
42 -4.5 m 381.75 -4.5 l S Q
q 1 0 0 1 0 153 cm
120.082 -123 m 120.082 -119.602 l S Q
q 1 0 0 1 0 153 cm
245.484 -123 m 245.484 -119.602 l S Q
q 1 0 0 1 0 153 cm
370.891 -123 m 370.891 -119.602 l S Q
q 1 0 0 1 0 153 cm
120.082 -4.5 m 120.082 -7.898 l S Q
q 1 0 0 1 0 153 cm
245.484 -4.5 m 245.484 -7.898 l S Q
q 1 0 0 1 0 153 cm
370.891 -4.5 m 370.891 -7.898 l S Q
q 1 0 0 1 0 153 cm
54.512 -123 m 54.512 -121.301 l S Q
q 1 0 0 1 0 153 cm
70.18 -123 m 70.18 -121.301 l S Q
q 1 0 0 1 0 153 cm
82.332 -123 m 82.332 -121.301 l S Q
q 1 0 0 1 0 153 cm
92.262 -123 m 92.262 -121.301 l S Q
q 1 0 0 1 0 153 cm
100.656 -123 m 100.656 -121.301 l S Q
q 1 0 0 1 0 153 cm
107.93 -123 m 107.93 -121.301 l S Q
q 1 0 0 1 0 153 cm
114.344 -123 m 114.344 -121.301 l S Q
q 1 0 0 1 0 153 cm
120.082 -123 m 120.082 -121.301 l S Q
q 1 0 0 1 0 153 cm
157.832 -123 m 157.832 -121.301 l S Q
q 1 0 0 1 0 153 cm
179.914 -123 m 179.914 -121.301 l S Q
q 1 0 0 1 0 153 cm
195.586 -123 m 195.586 -121.301 l S Q
q 1 0 0 1 0 153 cm
207.734 -123 m 207.734 -121.301 l S Q
q 1 0 0 1 0 153 cm
217.664 -123 m 217.664 -121.301 l S Q
q 1 0 0 1 0 153 cm
226.063 -123 m 226.063 -121.301 l S Q
q 1 0 0 1 0 153 cm
233.332 -123 m 233.332 -121.301 l S Q
q 1 0 0 1 0 153 cm
239.746 -123 m 239.746 -121.301 l S Q
q 1 0 0 1 0 153 cm
245.484 -123 m 245.484 -121.301 l S Q
q 1 0 0 1 0 153 cm
283.234 -123 m 283.234 -121.301 l S Q
q 1 0 0 1 0 153 cm
305.316 -123 m 305.316 -121.301 l S Q
q 1 0 0 1 0 153 cm
320.984 -123 m 320.984 -121.301 l S Q
q 1 0 0 1 0 153 cm
333.141 -123 m 333.141 -121.301 l S Q
q 1 0 0 1 0 153 cm
343.07 -123 m 343.07 -121.301 l S Q
q 1 0 0 1 0 153 cm
351.465 -123 m 351.465 -121.301 l S Q
q 1 0 0 1 0 153 cm
358.734 -123 m 358.734 -121.301 l S Q
q 1 0 0 1 0 153 cm
365.152 -123 m 365.152 -121.301 l S Q
q 1 0 0 1 0 153 cm
370.891 -123 m 370.891 -121.301 l S Q
q 1 0 0 1 0 153 cm
54.512 -4.5 m 54.512 -6.199 l S Q
q 1 0 0 1 0 153 cm
70.18 -4.5 m 70.18 -6.199 l S Q
q 1 0 0 1 0 153 cm
82.332 -4.5 m 82.332 -6.199 l S Q
q 1 0 0 1 0 153 cm
92.262 -4.5 m 92.262 -6.199 l S Q
q 1 0 0 1 0 153 cm
100.656 -4.5 m 100.656 -6.199 l S Q
q 1 0 0 1 0 153 cm
107.93 -4.5 m 107.93 -6.199 l S Q
q 1 0 0 1 0 153 cm
114.344 -4.5 m 114.344 -6.199 l S Q
q 1 0 0 1 0 153 cm
120.082 -4.5 m 120.082 -6.199 l S Q
q 1 0 0 1 0 153 cm
157.832 -4.5 m 157.832 -6.199 l S Q
q 1 0 0 1 0 153 cm
179.914 -4.5 m 179.914 -6.199 l S Q
q 1 0 0 1 0 153 cm
195.586 -4.5 m 195.586 -6.199 l S Q
q 1 0 0 1 0 153 cm
207.734 -4.5 m 207.734 -6.199 l S Q
q 1 0 0 1 0 153 cm
217.664 -4.5 m 217.664 -6.199 l S Q
q 1 0 0 1 0 153 cm
226.063 -4.5 m 226.063 -6.199 l S Q
q 1 0 0 1 0 153 cm
233.332 -4.5 m 233.332 -6.199 l S Q
q 1 0 0 1 0 153 cm
239.746 -4.5 m 239.746 -6.199 l S Q
q 1 0 0 1 0 153 cm
245.484 -4.5 m 245.484 -6.199 l S Q
q 1 0 0 1 0 153 cm
283.234 -4.5 m 283.234 -6.199 l S Q
q 1 0 0 1 0 153 cm
305.316 -4.5 m 305.316 -6.199 l S Q
q 1 0 0 1 0 153 cm
320.984 -4.5 m 320.984 -6.199 l S Q
q 1 0 0 1 0 153 cm
333.141 -4.5 m 333.141 -6.199 l S Q
q 1 0 0 1 0 153 cm
343.07 -4.5 m 343.07 -6.199 l S Q
q 1 0 0 1 0 153 cm
351.465 -4.5 m 351.465 -6.199 l S Q
q 1 0 0 1 0 153 cm
358.734 -4.5 m 358.734 -6.199 l S Q
q 1 0 0 1 0 153 cm
365.152 -4.5 m 365.152 -6.199 l S Q
q 1 0 0 1 0 153 cm
370.891 -4.5 m 370.891 -6.199 l S Q
113.984 17.602 m 113.984 17.941 l 114.797 17.941 115.203 18.047 115.203
 18.258 c 115.203 23.367 l 114.867 23.211 114.441 23.133 113.926 23.133 
c 113.926 23.473 l 114.723 23.473 115.324 23.68 115.73 24.094 c 115.871 
24.094 l 115.895 24.094 115.918 24.086 115.938 24.07 c 115.957 24.055 115.965
 24.035 115.965 24.012 c 115.965 18.258 l 115.965 18.047 116.371 17.941 
117.184 17.941 c 117.184 17.602 l 113.984 17.602 l f
120.52 17.391 m 119.723 17.391 119.184 17.719 118.898 18.375 c 118.613 
19.031 118.469 19.809 118.469 20.707 c 118.469 21.277 118.52 21.809 118.621
 22.305 c 118.723 22.801 118.926 23.223 119.23 23.57 c 119.535 23.918 119.965
 24.094 120.52 24.094 c 120.949 24.094 121.301 23.988 121.574 23.781 c 121.848
 23.574 122.055 23.305 122.195 22.973 c 122.336 22.641 122.434 22.285 122.488
 21.906 c 122.543 21.527 122.57 21.129 122.57 20.707 c 122.57 20.152 122.52
 19.629 122.414 19.141 c 122.309 18.652 122.105 18.238 121.805 17.898 c 
121.504 17.559 121.074 17.391 120.52 17.391 c h
120.52 17.637 m 120.879 17.637 121.148 17.82 121.328 18.191 c 121.508 18.563
 121.617 18.977 121.656 19.43 c 121.695 19.883 121.715 20.363 121.715 20.867
 c 121.715 21.355 121.695 21.805 121.656 22.219 c 121.617 22.633 121.512
 23.008 121.336 23.344 c 121.16 23.68 120.887 23.848 120.52 23.848 c 120.152
 23.848 119.879 23.676 119.699 23.336 c 119.52 22.996 119.41 22.621 119.371
 22.211 c 119.332 21.801 119.313 21.355 119.313 20.867 c 119.313 20.504 
119.32 20.16 119.336 19.84 c 119.352 19.52 119.398 19.188 119.477 18.848
 c 119.555 18.508 119.68 18.223 119.848 17.988 c 120.016 17.754 120.238 
17.637 120.52 17.637 c f
123.422 21.23 m 123.422 21.406 l 123.422 21.422 123.426 21.438 123.434 
21.453 c 124.477 22.609 l 124.641 22.785 124.773 22.926 124.871 23.039 c
 124.969 23.152 125.066 23.285 125.164 23.438 c 125.262 23.59 125.336 23.746
 125.391 23.902 c 125.445 24.059 125.473 24.227 125.473 24.406 c 125.473
 24.586 125.438 24.762 125.367 24.934 c 125.297 25.105 125.195 25.238 125.063
 25.336 c 124.93 25.434 124.766 25.48 124.57 25.48 c 124.375 25.48 124.199
 25.422 124.043 25.309 c 123.887 25.191 123.777 25.039 123.715 24.852 c 
123.738 24.859 123.762 24.859 123.785 24.859 c 123.887 24.859 123.977 24.828
 124.051 24.762 c 124.125 24.695 124.16 24.609 124.16 24.5 c 124.16 24.398
 124.125 24.309 124.051 24.234 c 123.977 24.16 123.887 24.125 123.785 24.125
 c 123.684 24.125 123.598 24.16 123.527 24.234 c 123.457 24.309 123.422 
24.398 123.422 24.5 c 123.422 24.664 123.453 24.82 123.516 24.969 c 123.578
 25.117 123.672 25.25 123.793 25.367 c 123.914 25.484 124.047 25.574 124.195
 25.637 c 124.344 25.699 124.504 25.73 124.676 25.73 c 124.934 25.73 125.176
 25.676 125.398 25.566 c 125.621 25.457 125.797 25.301 125.926 25.102 c 
126.055 24.902 126.117 24.672 126.117 24.406 c 126.117 24.211 126.074 24.023
 125.988 23.848 c 125.902 23.672 125.793 23.512 125.66 23.367 c 125.527 
23.223 125.355 23.059 125.145 22.875 c 124.934 22.691 124.797 22.57 124.734
 22.508 c 123.961 21.781 l 124.617 21.781 l 124.938 21.781 125.203 21.781
 125.414 21.785 c 125.625 21.789 125.738 21.801 125.754 21.816 c 125.809
 21.871 125.863 22.078 125.918 22.438 c 126.117 22.438 l 125.918 21.23 l
 123.422 21.23 l f
239.391 17.602 m 239.391 17.941 l 240.199 17.941 240.605 18.047 240.605
 18.258 c 240.605 23.367 l 240.27 23.211 239.848 23.133 239.328 23.133 c
 239.328 23.473 l 240.129 23.473 240.727 23.68 241.137 24.094 c 241.273 
24.094 l 241.297 24.094 241.32 24.086 241.34 24.07 c 241.359 24.055 241.367
 24.035 241.367 24.012 c 241.367 18.258 l 241.367 18.047 241.773 17.941 
242.59 17.941 c 242.59 17.602 l 239.391 17.602 l f
245.922 17.391 m 245.129 17.391 244.586 17.719 244.301 18.375 c 244.016
 19.031 243.871 19.809 243.871 20.707 c 243.871 21.277 243.922 21.809 244.023
 22.305 c 244.129 22.801 244.328 23.223 244.637 23.57 c 244.938 23.918 245.367
 24.094 245.922 24.094 c 246.355 24.094 246.703 23.988 246.98 23.781 c 247.254
 23.574 247.461 23.305 247.602 22.973 c 247.738 22.641 247.84 22.285 247.891
 21.906 c 247.945 21.527 247.977 21.129 247.977 20.707 c 247.977 20.152 
247.922 19.629 247.816 19.141 c 247.711 18.652 247.508 18.238 247.207 17.898
 c 246.906 17.559 246.48 17.391 245.922 17.391 c h
245.922 17.637 m 246.281 17.637 246.551 17.82 246.73 18.191 c 246.91 18.563
 247.02 18.977 247.059 19.43 c 247.098 19.883 247.117 20.363 247.117 20.867
 c 247.117 21.355 247.098 21.805 247.059 22.219 c 247.02 22.633 246.914 
23.008 246.738 23.344 c 246.563 23.68 246.289 23.848 245.922 23.848 c 245.555
 23.848 245.281 23.676 245.105 23.336 c 244.922 22.996 244.813 22.621 244.773
 22.211 c 244.734 21.801 244.715 21.355 244.715 20.867 c 244.715 20.504 
244.723 20.16 244.738 19.84 c 244.754 19.52 244.801 19.188 244.883 18.848
 c 244.961 18.508 245.082 18.223 245.25 17.988 c 245.418 17.754 245.641 
17.637 245.922 17.637 c f
249.129 21.746 m 249.23 21.598 249.371 21.484 249.555 21.41 c 249.73 21.336
 249.922 21.297 250.129 21.297 c 250.395 21.297 250.578 21.41 250.688 21.633
 c 250.797 21.855 250.852 22.109 250.852 22.391 c 250.852 22.516 250.84 
22.641 250.816 22.77 c 250.797 22.898 250.758 23.02 250.699 23.129 c 250.645
 23.238 250.57 23.324 250.473 23.391 c 250.375 23.457 250.262 23.492 250.129
 23.492 c 249.672 23.492 l 249.629 23.492 249.609 23.512 249.609 23.547 
c 249.609 23.605 l 249.609 23.648 249.629 23.668 249.672 23.668 c 250.047
 23.691 l 250.199 23.691 250.332 23.75 250.438 23.871 c 250.543 23.992 250.617
 24.137 250.664 24.305 c 250.715 24.473 250.734 24.637 250.734 24.793 c 
250.734 25.012 250.688 25.188 250.59 25.324 c 250.492 25.461 250.34 25.531
 250.129 25.531 c 249.953 25.531 249.789 25.496 249.633 25.43 c 249.48 25.363
 249.355 25.27 249.258 25.145 c 249.309 25.145 l 249.406 25.145 249.492 
25.109 249.563 25.039 c 249.637 24.969 249.672 24.883 249.672 24.781 c 249.672
 24.688 249.637 24.605 249.563 24.535 c 249.492 24.465 249.406 24.43 249.309
 24.43 c 249.215 24.43 249.129 24.465 249.063 24.535 c 248.988 24.605 248.953
 24.688 248.953 24.781 c 248.953 24.977 249.012 25.145 249.125 25.289 c 
249.238 25.434 249.387 25.543 249.57 25.617 c 249.754 25.691 249.938 25.73
 250.129 25.73 c 250.27 25.73 250.41 25.707 250.563 25.664 c 250.711 25.621
 250.848 25.563 250.973 25.488 c 251.098 25.414 251.195 25.316 251.273 25.195
 c 251.355 25.074 251.391 24.941 251.391 24.793 c 251.391 24.605 251.348
 24.43 251.262 24.27 c 251.176 24.109 251.059 23.973 250.91 23.855 c 250.766
 23.738 250.605 23.652 250.434 23.598 c 250.629 23.559 250.813 23.484 250.988
 23.375 c 251.164 23.266 251.305 23.125 251.41 22.953 c 251.516 22.781 251.566
 22.598 251.566 22.402 c 251.566 22.152 251.5 21.926 251.363 21.723 c 251.227
 21.52 251.051 21.359 250.828 21.246 c 250.609 21.133 250.379 21.078 250.129
 21.078 c 249.914 21.078 249.703 21.117 249.492 21.199 c 249.281 21.281 
249.109 21.402 248.973 21.563 c 248.836 21.723 248.766 21.918 248.766 22.145
 c 248.766 22.254 248.805 22.344 248.879 22.418 c 248.953 22.492 249.047
 22.531 249.164 22.531 c 249.234 22.531 249.301 22.512 249.359 22.477 c 
249.418 22.441 249.465 22.395 249.5 22.336 c 249.535 22.277 249.555 22.215
 249.555 22.145 c 249.555 22.035 249.516 21.941 249.438 21.859 c 249.355
 21.785 249.266 21.746 249.164 21.746 c 249.129 21.746 l f
364.789 17.602 m 364.789 17.941 l 365.605 17.941 366.012 18.047 366.012
 18.258 c 366.012 23.367 l 365.676 23.211 365.246 23.133 364.734 23.133 
c 364.734 23.473 l 365.527 23.473 366.133 23.68 366.539 24.094 c 366.68 
24.094 l 366.699 24.094 366.723 24.086 366.742 24.07 c 366.762 24.055 366.77
 24.035 366.77 24.012 c 366.77 18.258 l 366.77 18.047 367.18 17.941 367.988
 17.941 c 367.988 17.602 l 364.789 17.602 l f
371.324 17.391 m 370.531 17.391 369.988 17.719 369.703 18.375 c 369.418
 19.031 369.277 19.809 369.277 20.707 c 369.277 21.277 369.328 21.809 369.43
 22.305 c 369.527 22.801 369.734 23.223 370.039 23.57 c 370.344 23.918 370.77
 24.094 371.324 24.094 c 371.758 24.094 372.109 23.988 372.383 23.781 c 
372.652 23.574 372.859 23.305 373.004 22.973 c 373.145 22.641 373.238 22.285
 373.297 21.906 c 373.352 21.527 373.379 21.129 373.379 20.707 c 373.379
 20.152 373.324 19.629 373.219 19.141 c 373.113 18.652 372.91 18.238 372.609
 17.898 c 372.309 17.559 371.883 17.391 371.324 17.391 c h
371.324 17.637 m 371.688 17.637 371.953 17.82 372.137 18.191 c 372.313 
18.563 372.426 18.977 372.465 19.43 c 372.504 19.883 372.52 20.363 372.52
 20.867 c 372.52 21.355 372.504 21.805 372.465 22.219 c 372.426 22.633 372.316
 23.008 372.141 23.344 c 371.965 23.68 371.695 23.848 371.324 23.848 c 370.961
 23.848 370.688 23.676 370.508 23.336 c 370.328 22.996 370.219 22.621 370.18
 22.211 c 370.141 21.801 370.121 21.355 370.121 20.867 c 370.121 20.504 
370.129 20.16 370.145 19.84 c 370.156 19.52 370.203 19.188 370.285 18.848
 c 370.363 18.508 370.484 18.223 370.652 17.988 c 370.82 17.754 371.047 
17.637 371.324 17.637 c f
374.078 22.344 m 374.078 22.578 l 376.16 25.695 l 376.18 25.719 376.203
 25.73 376.234 25.73 c 376.328 25.73 l 376.383 25.73 376.406 25.703 376.406
 25.648 c 376.406 22.578 l 377.063 22.578 l 377.063 22.344 l 376.406 22.344
 l 376.406 21.688 l 376.406 21.594 376.477 21.531 376.609 21.504 c 376.742
 21.477 376.895 21.465 377.063 21.465 c 377.063 21.23 l 375.203 21.23 l 
375.203 21.465 l 375.371 21.465 375.527 21.477 375.656 21.504 c 375.789 
21.531 375.859 21.594 375.859 21.688 c 375.859 22.344 l h
374.301 22.578 m 375.906 22.578 l 375.906 24.969 l 374.301 22.578 l f
199.102 3.762 m 199.102 4.156 l 199.352 4.156 199.559 4.176 199.723 4.219
 c 199.887 4.258 199.969 4.355 199.969 4.512 c 199.969 8.215 l 199.109 8.215
 l 199.109 8.613 l 199.969 8.613 l 199.969 9.961 l 199.969 10.203 200.02
 10.43 200.117 10.641 c 200.219 10.852 200.355 11.035 200.527 11.191 c 200.699
 11.348 200.898 11.469 201.121 11.559 c 201.344 11.648 201.57 11.695 201.805
 11.695 c 202.055 11.695 202.281 11.617 202.484 11.465 c 202.688 11.313 
202.789 11.117 202.789 10.871 c 202.789 10.727 202.742 10.602 202.648 10.504
 c 202.559 10.406 202.438 10.359 202.285 10.359 c 202.145 10.359 202.023
 10.406 201.922 10.504 c 201.82 10.602 201.77 10.727 201.77 10.871 c 201.77
 11.105 201.871 11.266 202.078 11.344 c 201.961 11.383 201.848 11.402 201.746
 11.402 c 201.527 11.402 201.344 11.324 201.188 11.168 c 201.027 11.012 
200.914 10.82 200.84 10.598 c 200.766 10.375 200.73 10.156 200.73 9.938 
c 200.73 8.613 l 202.016 8.613 l 202.016 8.215 l 200.766 8.215 l 200.766
 4.512 l 200.766 4.363 200.871 4.266 201.094 4.223 c 201.313 4.18 201.566
 4.156 201.855 4.156 c 201.855 3.762 l 199.102 3.762 l f
207.09 0.949 m 207.09 12.199 l 208.637 12.199 l 208.637 11.754 l 207.547
 11.754 l 207.547 1.395 l 208.637 1.395 l 208.637 0.949 l 207.09 0.949 l
 f
209.172 3.762 m 209.172 4.156 l 209.938 4.156 210.32 4.273 210.32 4.512
 c 210.32 10.699 l 210.32 10.934 209.938 11.051 209.172 11.051 c 209.172
 11.449 l 212.535 11.449 l 212.535 11.051 l 211.762 11.051 211.375 10.934
 211.375 10.699 c 211.375 7.957 l 214.691 7.957 l 214.691 10.699 l 214.691
 10.934 214.305 11.051 213.531 11.051 c 213.531 11.449 l 216.895 11.449 
l 216.895 11.051 l 216.129 11.051 215.746 10.934 215.746 10.699 c 215.746
 4.512 l 215.746 4.273 216.129 4.156 216.895 4.156 c 216.895 3.762 l 213.531
 3.762 l 213.531 4.156 l 214.305 4.156 214.691 4.273 214.691 4.512 c 214.691
 7.559 l 211.375 7.559 l 211.375 4.512 l 211.375 4.273 211.762 4.156 212.535
 4.156 c 212.535 3.762 l 209.172 3.762 l f
217.516 3.762 m 217.43 3.762 217.387 3.805 217.387 3.891 c 217.387 3.969
 l 217.387 4.004 217.398 4.031 217.422 4.055 c 220.563 8.32 l 219.543 8.32
 l 219.23 8.32 218.969 8.297 218.762 8.254 c 218.555 8.211 218.383 8.137
 218.246 8.027 c 218.109 7.918 218.012 7.766 217.953 7.57 c 217.895 7.375
 217.867 7.102 217.867 6.75 c 217.539 6.75 l 217.668 8.613 l 221.441 8.613
 l 221.473 8.613 221.5 8.602 221.523 8.578 c 221.547 8.555 221.559 8.523
 221.559 8.484 c 221.559 8.426 l 221.559 8.402 221.551 8.375 221.535 8.344
 c 218.395 4.09 l 219.461 4.09 l 219.789 4.09 220.063 4.109 220.281 4.148
 c 220.5 4.188 220.688 4.285 220.844 4.438 c 220.984 4.582 221.078 4.773
 221.129 5.016 c 221.18 5.258 221.223 5.551 221.254 5.906 c 221.582 5.906
 l 221.383 3.762 l 217.516 3.762 l f
222.203 0.949 m 222.203 1.395 l 223.297 1.395 l 223.297 11.754 l 222.203
 11.754 l 222.203 12.199 l 223.754 12.199 l 223.754 0.949 l 222.203 0.949
 l f
q 1 0 0 1 0 153 cm
42 -123 m 42 -4.5 l S Q
q 1 0 0 1 0 153 cm
381.75 -123 m 381.75 -4.5 l S Q
q 1 0 0 1 0 153 cm
42 -123 m 45.398 -123 l S Q
q 1 0 0 1 0 153 cm
42 -99.301 m 45.398 -99.301 l S Q
q 1 0 0 1 0 153 cm
42 -75.602 m 45.398 -75.602 l S Q
q 1 0 0 1 0 153 cm
42 -51.898 m 45.398 -51.898 l S Q
q 1 0 0 1 0 153 cm
42 -28.199 m 45.398 -28.199 l S Q
q 1 0 0 1 0 153 cm
42 -4.5 m 45.398 -4.5 l S Q
q 1 0 0 1 0 153 cm
381.75 -123 m 378.352 -123 l S Q
q 1 0 0 1 0 153 cm
381.75 -99.301 m 378.352 -99.301 l S Q
q 1 0 0 1 0 153 cm
381.75 -75.602 m 378.352 -75.602 l S Q
q 1 0 0 1 0 153 cm
381.75 -51.898 m 378.352 -51.898 l S Q
q 1 0 0 1 0 153 cm
381.75 -28.199 m 378.352 -28.199 l S Q
q 1 0 0 1 0 153 cm
381.75 -4.5 m 378.352 -4.5 l S Q
22.66 27.391 m 21.863 27.391 21.32 27.719 21.035 28.375 c 20.75 29.031 
20.609 29.809 20.609 30.707 c 20.609 31.277 20.66 31.809 20.762 32.305 c
 20.863 32.801 21.066 33.223 21.371 33.57 c 21.676 33.918 22.105 34.094 
22.66 34.094 c 23.09 34.094 23.441 33.988 23.715 33.781 c 23.988 33.574 
24.195 33.305 24.336 32.973 c 24.477 32.641 24.574 32.285 24.629 31.906 
c 24.684 31.527 24.711 31.129 24.711 30.707 c 24.711 30.152 24.656 29.629
 24.551 29.141 c 24.445 28.652 24.242 28.238 23.941 27.898 c 23.641 27.559
 23.215 27.391 22.66 27.391 c h
22.66 27.637 m 23.02 27.637 23.289 27.82 23.469 28.191 c 23.648 28.563 
23.758 28.977 23.797 29.43 c 23.836 29.883 23.855 30.363 23.855 30.867 c
 23.855 31.355 23.836 31.805 23.797 32.219 c 23.758 32.633 23.648 33.008
 23.473 33.344 c 23.297 33.68 23.027 33.848 22.66 33.848 c 22.293 33.848
 22.02 33.676 21.84 33.336 c 21.66 32.996 21.551 32.621 21.512 32.211 c 
21.473 31.801 21.453 31.355 21.453 30.867 c 21.453 30.504 21.461 30.16 21.477
 29.84 c 21.492 29.52 21.539 29.188 21.617 28.848 c 21.695 28.508 21.816
 28.223 21.984 27.988 c 22.152 27.754 22.379 27.637 22.66 27.637 c f
26.043 28.141 m 26.043 28.289 26.098 28.414 26.207 28.516 c 26.316 28.617
 26.441 28.668 26.582 28.668 c 26.668 28.668 26.754 28.645 26.84 28.598 
c 26.926 28.547 26.992 28.484 27.039 28.398 c 27.086 28.313 27.109 28.227
 27.109 28.141 c 27.109 28 27.055 27.875 26.953 27.766 c 26.844 27.656 26.723
 27.602 26.582 27.602 c 26.441 27.602 26.316 27.656 26.207 27.766 c 26.098
 27.875 26.043 28 26.043 28.141 c f
29.102 28.012 m 29.281 27.801 29.59 27.695 30.027 27.695 c 30.277 27.695
 30.512 27.777 30.723 27.945 c 30.938 28.113 31.105 28.32 31.223 28.563 
c 31.355 28.844 31.441 29.141 31.48 29.453 c 31.52 29.766 31.539 30.152 
31.539 30.613 c 31.43 30.348 31.27 30.129 31.059 29.961 c 30.848 29.793 
30.609 29.711 30.344 29.711 c 29.969 29.711 29.633 29.813 29.336 30.02 c
 29.039 30.227 28.809 30.5 28.652 30.836 c 28.492 31.172 28.41 31.527 28.41
 31.902 c 28.41 32.293 28.5 32.656 28.672 32.992 c 28.848 33.328 29.094 
33.594 29.41 33.793 c 29.727 33.992 30.086 34.094 30.484 34.094 c 30.875
 34.094 31.203 33.984 31.469 33.77 c 31.734 33.555 31.938 33.281 32.078 
32.945 c 32.219 32.609 32.316 32.25 32.371 31.871 c 32.426 31.492 32.453
 31.121 32.453 30.754 c 32.453 30.254 32.359 29.742 32.176 29.219 c 31.992
 28.695 31.719 28.258 31.352 27.91 c 30.984 27.563 30.543 27.391 30.027 
27.391 c 29.645 27.391 29.32 27.48 29.055 27.66 c 28.789 27.84 28.656 28.113
 28.656 28.48 c 28.656 28.613 28.703 28.723 28.789 28.813 c 28.883 28.902
 28.992 28.949 29.125 28.949 c 29.258 28.949 29.367 28.902 29.461 28.813
 c 29.547 28.723 29.594 28.613 29.594 28.48 c 29.594 28.355 29.547 28.246
 29.453 28.152 c 29.359 28.059 29.25 28.012 29.125 28.012 c h
30.379 29.969 m 30.645 29.969 30.863 30.059 31.035 30.238 c 31.207 30.418
 31.332 30.641 31.406 30.906 c 31.477 31.172 31.516 31.438 31.516 31.703
 c 31.516 31.926 l 31.516 32.418 31.445 32.855 31.305 33.238 c 31.164 33.621
 30.891 33.813 30.484 33.813 c 30.227 33.813 30.02 33.754 29.855 33.641 
c 29.699 33.527 29.582 33.379 29.504 33.191 c 29.43 33.004 29.383 32.805
 29.359 32.594 c 29.336 32.383 29.324 32.152 29.324 31.902 c 29.324 31.535
 29.344 31.219 29.379 30.957 c 29.41 30.695 29.508 30.465 29.664 30.266 
c 29.82 30.066 30.059 29.969 30.379 29.969 c f
33.41 29.078 m 33.41 29.469 33.539 29.813 33.797 30.113 c 34.055 30.414
 34.383 30.668 34.781 30.867 c 34.418 31.105 l 34.199 31.246 34.02 31.438
 33.879 31.68 c 33.738 31.922 33.668 32.18 33.668 32.453 c 33.668 32.758
 33.75 33.035 33.914 33.289 c 34.078 33.543 34.297 33.742 34.57 33.883 c
 34.844 34.023 35.133 34.094 35.438 34.094 c 35.727 34.094 36.008 34.035
 36.277 33.918 c 36.547 33.801 36.766 33.633 36.938 33.414 c 37.109 33.195
 37.195 32.934 37.195 32.629 c 37.195 32.41 37.145 32.207 37.043 32.02 c
 36.941 31.832 36.801 31.664 36.621 31.516 c 36.441 31.367 36.25 31.242 
36.047 31.141 c 36.598 30.777 l 36.855 30.609 37.063 30.395 37.219 30.117
 c 37.375 29.848 37.453 29.559 37.453 29.254 c 37.453 28.902 37.359 28.582
 37.172 28.293 c 36.984 28.004 36.734 27.781 36.422 27.625 c 36.109 27.469
 35.781 27.391 35.438 27.391 c 35.102 27.391 34.777 27.457 34.465 27.594
 c 34.152 27.73 33.898 27.93 33.703 28.188 c 33.508 28.445 33.41 28.742 
33.41 29.078 c h
33.938 29.078 m 33.938 28.82 34.008 28.586 34.148 28.375 c 34.289 28.16
 34.477 27.996 34.711 27.875 c 34.945 27.754 35.188 27.695 35.438 27.695
 c 35.813 27.695 36.156 27.805 36.465 28.027 c 36.773 28.25 36.926 28.543
 36.926 28.902 c 36.926 29.027 36.902 29.148 36.855 29.27 c 36.809 29.391
 36.738 29.504 36.652 29.605 c 36.563 29.707 36.461 29.789 36.352 29.852
 c 35.051 30.695 l 34.848 30.594 34.66 30.457 34.488 30.289 c 34.316 30.121
 34.18 29.938 34.086 29.734 c 33.984 29.531 33.938 29.313 33.938 29.078 
c h
34.605 32.055 m 35.789 31.293 l 36.063 31.457 36.285 31.648 36.465 31.871
 c 36.641 32.094 36.727 32.348 36.727 32.629 c 36.727 32.848 36.664 33.047
 36.539 33.23 c 36.414 33.414 36.254 33.559 36.059 33.66 c 35.863 33.762
 35.652 33.813 35.426 33.813 c 35.23 33.813 35.031 33.773 34.836 33.699 
c 34.637 33.625 34.469 33.512 34.34 33.359 c 34.215 33.207 34.148 33.031
 34.148 32.828 c 34.148 32.523 34.301 32.266 34.605 32.055 c f
17.66 51.09 m 16.863 51.09 16.32 51.418 16.035 52.074 c 15.75 52.73 15.609
 53.508 15.609 54.406 c 15.609 54.977 15.66 55.508 15.762 56.004 c 15.863
 56.5 16.066 56.922 16.371 57.27 c 16.676 57.617 17.105 57.793 17.66 57.793
 c 18.09 57.793 18.441 57.688 18.715 57.48 c 18.988 57.273 19.195 57.004
 19.336 56.672 c 19.477 56.34 19.574 55.984 19.629 55.605 c 19.684 55.227
 19.711 54.828 19.711 54.406 c 19.711 53.852 19.656 53.328 19.551 52.84 
c 19.445 52.352 19.242 51.938 18.941 51.598 c 18.641 51.258 18.215 51.09
 17.66 51.09 c h
17.66 51.336 m 18.02 51.336 18.289 51.52 18.469 51.891 c 18.648 52.262 
18.758 52.676 18.797 53.129 c 18.836 53.582 18.855 54.063 18.855 54.57 c
 18.855 55.055 18.836 55.504 18.797 55.918 c 18.758 56.332 18.648 56.707
 18.473 57.043 c 18.297 57.379 18.027 57.547 17.66 57.547 c 17.293 57.547
 17.02 57.375 16.84 57.035 c 16.66 56.695 16.551 56.32 16.512 55.91 c 16.473
 55.5 16.453 55.055 16.453 54.57 c 16.453 54.203 16.461 53.859 16.477 53.539
 c 16.492 53.219 16.539 52.887 16.617 52.547 c 16.695 52.207 16.816 51.922
 16.984 51.688 c 17.152 51.453 17.379 51.336 17.66 51.336 c f
21.043 51.84 m 21.043 51.988 21.098 52.113 21.207 52.215 c 21.316 52.316
 21.441 52.367 21.582 52.367 c 21.668 52.367 21.754 52.344 21.84 52.297 
c 21.926 52.25 21.992 52.184 22.039 52.098 c 22.086 52.012 22.109 51.926
 22.109 51.84 c 22.109 51.699 22.055 51.574 21.949 51.465 c 21.844 51.355
 21.723 51.301 21.582 51.301 c 21.441 51.301 21.316 51.355 21.207 51.465
 c 21.098 51.574 21.043 51.699 21.043 51.84 c f
24.102 51.711 m 24.281 51.5 24.59 51.395 25.027 51.395 c 25.277 51.395 
25.512 51.477 25.723 51.645 c 25.938 51.813 26.105 52.02 26.223 52.262 c
 26.355 52.543 26.441 52.84 26.48 53.152 c 26.52 53.465 26.539 53.852 26.539
 54.313 c 26.43 54.047 26.27 53.828 26.059 53.66 c 25.848 53.492 25.609 
53.41 25.344 53.41 c 24.969 53.41 24.633 53.512 24.336 53.719 c 24.039 53.926
 23.809 54.199 23.652 54.535 c 23.488 54.871 23.41 55.227 23.41 55.602 c
 23.41 55.992 23.496 56.355 23.672 56.691 c 23.848 57.027 24.094 57.293 
24.41 57.492 c 24.73 57.691 25.086 57.793 25.484 57.793 c 25.875 57.793 
26.203 57.684 26.469 57.469 c 26.734 57.254 26.938 56.98 27.078 56.645 c
 27.219 56.309 27.316 55.949 27.371 55.57 c 27.426 55.191 27.453 54.82 27.453
 54.453 c 27.453 53.953 27.359 53.441 27.176 52.918 c 26.992 52.395 26.719
 51.957 26.352 51.609 c 25.984 51.262 25.543 51.09 25.027 51.09 c 24.645
 51.09 24.32 51.18 24.055 51.359 c 23.789 51.539 23.656 51.813 23.656 52.18
 c 23.656 52.313 23.703 52.422 23.793 52.512 c 23.883 52.602 23.992 52.648
 24.125 52.648 c 24.258 52.648 24.367 52.602 24.457 52.512 c 24.547 52.422
 24.594 52.313 24.594 52.18 c 24.594 52.055 24.547 51.945 24.453 51.852 
c 24.359 51.758 24.25 51.711 24.125 51.711 c h
25.379 53.668 m 25.645 53.668 25.863 53.758 26.035 53.938 c 26.207 54.117
 26.332 54.34 26.406 54.605 c 26.477 54.871 26.516 55.137 26.516 55.402 
c 26.516 55.625 l 26.516 56.117 26.445 56.555 26.305 56.938 c 26.164 57.32
 25.891 57.512 25.484 57.512 c 25.227 57.512 25.02 57.453 24.859 57.34 c
 24.699 57.227 24.582 57.078 24.508 56.891 c 24.43 56.703 24.383 56.504 
24.359 56.293 c 24.336 56.082 24.324 55.852 24.324 55.602 c 24.324 55.234
 24.344 54.918 24.379 54.656 c 24.41 54.395 24.508 54.164 24.664 53.965 
c 24.82 53.766 25.059 53.668 25.379 53.668 c f
28.41 52.777 m 28.41 53.168 28.539 53.512 28.797 53.813 c 29.055 54.113
 29.383 54.367 29.781 54.57 c 29.418 54.805 l 29.199 54.945 29.02 55.137
 28.879 55.379 c 28.738 55.621 28.668 55.879 28.668 56.152 c 28.668 56.457
 28.75 56.734 28.914 56.988 c 29.078 57.242 29.297 57.441 29.57 57.582 c
 29.844 57.723 30.133 57.793 30.438 57.793 c 30.727 57.793 31.008 57.734
 31.277 57.617 c 31.543 57.5 31.766 57.332 31.938 57.113 c 32.109 56.895
 32.195 56.633 32.195 56.328 c 32.195 56.109 32.145 55.906 32.043 55.719
 c 31.941 55.531 31.801 55.363 31.621 55.215 c 31.441 55.066 31.25 54.941
 31.047 54.84 c 31.598 54.477 l 31.855 54.313 32.063 54.094 32.219 53.82
 c 32.375 53.547 32.453 53.258 32.453 52.953 c 32.453 52.602 32.359 52.281
 32.172 51.992 c 31.984 51.703 31.734 51.48 31.422 51.324 c 31.109 51.168
 30.781 51.09 30.438 51.09 c 30.102 51.09 29.777 51.156 29.465 51.293 c 
29.152 51.43 28.898 51.629 28.703 51.887 c 28.508 52.145 28.41 52.441 28.41
 52.777 c h
28.938 52.777 m 28.938 52.52 29.008 52.285 29.148 52.074 c 29.289 51.863
 29.477 51.695 29.711 51.574 c 29.945 51.453 30.188 51.395 30.438 51.395
 c 30.813 51.395 31.156 51.504 31.465 51.727 c 31.773 51.949 31.926 52.242
 31.926 52.602 c 31.926 52.727 31.902 52.848 31.855 52.969 c 31.809 53.09
 31.742 53.203 31.652 53.305 c 31.559 53.406 31.461 53.488 31.352 53.551
 c 30.051 54.395 l 29.848 54.293 29.66 54.156 29.488 53.988 c 29.316 53.82
 29.18 53.637 29.086 53.434 c 28.984 53.23 28.938 53.012 28.938 52.777 c
 h
29.605 55.754 m 30.789 54.992 l 31.063 55.156 31.285 55.348 31.465 55.57
 c 31.641 55.793 31.727 56.047 31.727 56.328 c 31.727 56.547 31.664 56.746
 31.539 56.93 c 31.414 57.113 31.254 57.258 31.059 57.359 c 30.863 57.461
 30.652 57.512 30.426 57.512 c 30.23 57.512 30.031 57.473 29.836 57.398 
c 29.637 57.324 29.473 57.211 29.344 57.059 c 29.215 56.906 29.148 56.73
 29.148 56.527 c 29.148 56.223 29.301 55.965 29.605 55.754 c f
33.844 52.414 m 33.914 52.219 34.02 52.043 34.152 51.887 c 34.289 51.73
 34.457 51.609 34.648 51.523 c 34.84 51.438 35.035 51.395 35.238 51.395 
c 35.707 51.395 36.031 51.578 36.207 51.945 c 36.383 52.313 36.469 52.754
 36.469 53.27 c 36.469 53.496 36.465 53.684 36.457 53.836 c 36.449 53.988
 36.43 54.141 36.398 54.289 c 36.336 54.516 36.23 54.715 36.078 54.887 c
 35.922 55.059 35.738 55.145 35.52 55.145 c 35.301 55.145 35.113 55.109 
34.957 55.043 c 34.801 54.977 34.672 54.898 34.578 54.809 c 34.48 54.719
 34.391 54.625 34.313 54.527 c 34.234 54.43 34.188 54.379 34.172 54.371 
c 34.066 54.371 l 34.051 54.371 34.031 54.379 34 54.398 c 33.973 54.418 
33.961 54.441 33.961 54.465 c 33.961 57.723 l 33.961 57.738 33.973 57.754
 33.996 57.77 c 34.02 57.785 34.043 57.793 34.066 57.793 c 34.09 57.793 
l 34.527 57.582 34.992 57.477 35.484 57.477 c 35.969 57.477 36.434 57.582
 36.879 57.793 c 36.914 57.793 l 36.93 57.793 36.945 57.785 36.965 57.77
 c 36.984 57.754 36.996 57.738 36.996 57.723 c 36.996 57.629 l 36.996 57.598
 36.992 57.582 36.984 57.582 c 36.758 57.285 36.477 57.055 36.141 56.891
 c 35.805 56.727 35.461 56.645 35.109 56.645 c 34.844 56.645 34.574 56.68
 34.301 56.75 c 34.301 54.91 l 34.52 55.082 34.715 55.203 34.883 55.277 
c 35.047 55.352 35.266 55.391 35.531 55.391 c 35.891 55.391 36.215 55.289
 36.496 55.086 c 36.781 54.883 37.004 54.613 37.152 54.281 c 37.305 53.949
 37.383 53.609 37.383 53.258 c 37.383 52.867 37.285 52.504 37.094 52.172
 c 36.902 51.84 36.641 51.578 36.309 51.383 c 35.977 51.188 35.621 51.09
 35.238 51.09 c 34.918 51.09 34.621 51.172 34.352 51.336 c 34.086 51.5 33.871
 51.719 33.715 51.996 c 33.559 52.273 33.48 52.574 33.48 52.895 c 33.48 
53.035 33.531 53.152 33.625 53.246 c 33.723 53.34 33.844 53.387 33.984 53.387
 c 34.125 53.387 34.242 53.34 34.34 53.246 c 34.441 53.152 34.488 53.035
 34.488 52.895 c 34.488 52.754 34.441 52.633 34.34 52.535 c 34.242 52.438
 34.125 52.391 33.984 52.391 c 33.961 52.391 33.934 52.391 33.906 52.395
 c 33.883 52.398 33.859 52.406 33.844 52.414 c f
22.66 74.789 m 21.863 74.789 21.32 75.117 21.035 75.773 c 20.75 76.43 20.609
 77.207 20.609 78.105 c 20.609 78.676 20.66 79.207 20.762 79.703 c 20.863
 80.203 21.066 80.625 21.371 80.969 c 21.676 81.32 22.105 81.492 22.66 81.492
 c 23.09 81.492 23.441 81.391 23.715 81.18 c 23.988 80.973 24.195 80.707
 24.336 80.371 c 24.477 80.039 24.574 79.684 24.629 79.305 c 24.684 78.926
 24.711 78.527 24.711 78.105 c 24.711 77.551 24.656 77.031 24.551 76.543
 c 24.445 76.051 24.242 75.641 23.941 75.297 c 23.641 74.961 23.215 74.789
 22.66 74.789 c h
22.66 75.035 m 23.02 75.035 23.289 75.219 23.469 75.594 c 23.648 75.965
 23.758 76.375 23.797 76.828 c 23.836 77.281 23.855 77.762 23.855 78.27 
c 23.855 78.754 23.836 79.203 23.797 79.617 c 23.758 80.031 23.648 80.406
 23.473 80.742 c 23.297 81.078 23.027 81.246 22.66 81.246 c 22.293 81.246
 22.02 81.078 21.84 80.734 c 21.66 80.398 21.551 80.023 21.512 79.609 c 
21.473 79.203 21.453 78.754 21.453 78.27 c 21.453 77.902 21.461 77.559 21.477
 77.238 c 21.492 76.918 21.539 76.59 21.617 76.246 c 21.695 75.906 21.816
 75.621 21.984 75.387 c 22.152 75.152 22.379 75.035 22.66 75.035 c f
26.043 75.539 m 26.043 75.688 26.098 75.813 26.207 75.914 c 26.316 76.016
 26.441 76.066 26.582 76.066 c 26.668 76.066 26.754 76.043 26.84 75.996 
c 26.926 75.949 26.992 75.883 27.039 75.797 c 27.086 75.711 27.109 75.625
 27.109 75.539 c 27.109 75.398 27.055 75.273 26.953 75.164 c 26.844 75.055
 26.723 75 26.582 75 c 26.441 75 26.316 75.055 26.207 75.164 c 26.098 75.273
 26.043 75.398 26.043 75.539 c f
29.102 75.41 m 29.281 75.199 29.59 75.094 30.027 75.094 c 30.277 75.094
 30.512 75.176 30.723 75.344 c 30.938 75.516 31.105 75.719 31.223 75.961
 c 31.355 76.242 31.441 76.539 31.48 76.852 c 31.52 77.164 31.539 77.551
 31.539 78.012 c 31.43 77.746 31.27 77.527 31.059 77.359 c 30.848 77.195
 30.609 77.109 30.344 77.109 c 29.969 77.109 29.633 77.215 29.336 77.422
 c 29.039 77.629 28.809 77.898 28.652 78.234 c 28.492 78.57 28.41 78.926
 28.41 79.301 c 28.41 79.691 28.5 80.055 28.672 80.391 c 28.848 80.727 29.094
 80.992 29.41 81.195 c 29.727 81.395 30.086 81.492 30.484 81.492 c 30.875
 81.492 31.203 81.387 31.469 81.172 c 31.734 80.957 31.938 80.68 32.078 
80.344 c 32.219 80.008 32.316 79.652 32.371 79.27 c 32.426 78.895 32.453
 78.52 32.453 78.152 c 32.453 77.652 32.359 77.141 32.176 76.617 c 31.992
 76.094 31.719 75.656 31.352 75.309 c 30.984 74.965 30.543 74.789 30.027
 74.789 c 29.645 74.789 29.32 74.879 29.055 75.059 c 28.789 75.238 28.656
 75.512 28.656 75.879 c 28.656 76.012 28.703 76.125 28.789 76.215 c 28.883
 76.301 28.992 76.348 29.125 76.348 c 29.258 76.348 29.367 76.301 29.461
 76.215 c 29.547 76.125 29.594 76.012 29.594 75.879 c 29.594 75.754 29.547
 75.645 29.453 75.551 c 29.359 75.457 29.25 75.41 29.125 75.41 c h
30.379 77.367 m 30.645 77.367 30.863 77.457 31.035 77.637 c 31.207 77.816
 31.332 78.039 31.406 78.305 c 31.477 78.57 31.516 78.836 31.516 79.102 
c 31.516 79.324 l 31.516 79.816 31.445 80.254 31.305 80.637 c 31.164 81.02
 30.891 81.211 30.484 81.211 c 30.227 81.211 30.02 81.156 29.855 81.043 
c 29.699 80.926 29.582 80.777 29.504 80.59 c 29.43 80.402 29.383 80.203 
29.359 79.992 c 29.336 79.781 29.324 79.551 29.324 79.301 c 29.324 78.934
 29.344 78.617 29.379 78.359 c 29.41 78.094 29.508 77.863 29.664 77.668 
c 29.82 77.469 30.059 77.367 30.379 77.367 c f
34.102 75.41 m 34.281 75.199 34.59 75.094 35.027 75.094 c 35.277 75.094
 35.508 75.176 35.723 75.344 c 35.941 75.516 36.105 75.719 36.223 75.961
 c 36.355 76.242 36.441 76.539 36.48 76.852 c 36.52 77.164 36.539 77.551
 36.539 78.012 c 36.43 77.746 36.27 77.527 36.059 77.359 c 35.848 77.195
 35.609 77.109 35.344 77.109 c 34.969 77.109 34.633 77.215 34.336 77.422
 c 34.039 77.629 33.813 77.898 33.652 78.234 c 33.488 78.57 33.41 78.926
 33.41 79.301 c 33.41 79.691 33.496 80.055 33.672 80.391 c 33.848 80.727
 34.094 80.992 34.41 81.195 c 34.727 81.395 35.086 81.492 35.484 81.492 
c 35.875 81.492 36.203 81.387 36.469 81.172 c 36.734 80.957 36.938 80.68
 37.078 80.344 c 37.219 80.008 37.316 79.652 37.371 79.27 c 37.426 78.895
 37.453 78.52 37.453 78.152 c 37.453 77.652 37.359 77.141 37.18 76.617 c
 36.992 76.094 36.719 75.656 36.352 75.309 c 35.984 74.965 35.543 74.789
 35.027 74.789 c 34.645 74.789 34.32 74.879 34.055 75.059 c 33.789 75.238
 33.656 75.512 33.656 75.879 c 33.656 76.012 33.703 76.125 33.789 76.215
 c 33.883 76.301 33.992 76.348 34.125 76.348 c 34.258 76.348 34.367 76.301
 34.461 76.215 c 34.547 76.125 34.594 76.012 34.594 75.879 c 34.594 75.754
 34.547 75.645 34.453 75.551 c 34.359 75.457 34.25 75.41 34.125 75.41 c 
h
35.379 77.367 m 35.645 77.367 35.863 77.457 36.035 77.637 c 36.207 77.816
 36.332 78.039 36.402 78.305 c 36.477 78.57 36.516 78.836 36.516 79.102 
c 36.516 79.324 l 36.516 79.816 36.445 80.254 36.305 80.637 c 36.164 81.02
 35.891 81.211 35.484 81.211 c 35.227 81.211 35.02 81.156 34.855 81.043 
c 34.699 80.926 34.582 80.777 34.508 80.59 c 34.43 80.402 34.383 80.203 
34.359 79.992 c 34.336 79.781 34.324 79.551 34.324 79.301 c 34.324 78.934
 34.344 78.617 34.375 78.359 c 34.41 78.094 34.508 77.863 34.664 77.668 
c 34.82 77.469 35.059 77.367 35.379 77.367 c f
17.66 98.488 m 16.863 98.488 16.32 98.816 16.035 99.473 c 15.75 100.129
 15.609 100.906 15.609 101.805 c 15.609 102.375 15.66 102.91 15.762 103.406
 c 15.863 103.902 16.066 104.324 16.371 104.672 c 16.676 105.02 17.105 105.191
 17.66 105.191 c 18.09 105.191 18.441 105.09 18.715 104.883 c 18.988 104.676
 19.195 104.406 19.336 104.074 c 19.477 103.742 19.574 103.387 19.629 103.008
 c 19.684 102.629 19.711 102.227 19.711 101.805 c 19.711 101.25 19.656 100.73
 19.551 100.242 c 19.445 99.754 19.242 99.34 18.941 99 c 18.641 98.66 18.215
 98.488 17.66 98.488 c h
17.66 98.734 m 18.02 98.734 18.289 98.922 18.469 99.293 c 18.648 99.664
 18.758 100.074 18.797 100.527 c 18.836 100.98 18.855 101.461 18.855 101.969
 c 18.855 102.453 18.836 102.902 18.797 103.316 c 18.758 103.73 18.648 104.105
 18.473 104.441 c 18.297 104.777 18.027 104.945 17.66 104.945 c 17.293 104.945
 17.02 104.777 16.84 104.438 c 16.66 104.098 16.551 103.723 16.512 103.313
 c 16.473 102.902 16.453 102.453 16.453 101.969 c 16.453 101.602 16.461 
101.258 16.477 100.938 c 16.492 100.617 16.539 100.289 16.617 99.949 c 16.695
 99.609 16.816 99.32 16.984 99.086 c 17.152 98.852 17.379 98.734 17.66 98.734
 c f
21.043 99.238 m 21.043 99.387 21.098 99.512 21.207 99.613 c 21.316 99.715
 21.441 99.766 21.582 99.766 c 21.668 99.766 21.754 99.742 21.84 99.695 
c 21.926 99.648 21.992 99.582 22.039 99.496 c 22.086 99.41 22.109 99.324
 22.109 99.238 c 22.109 99.098 22.055 98.973 21.949 98.863 c 21.844 98.754
 21.723 98.699 21.582 98.699 c 21.441 98.699 21.316 98.754 21.207 98.863
 c 21.098 98.973 21.043 99.098 21.043 99.238 c f
24.102 99.109 m 24.281 98.898 24.59 98.793 25.027 98.793 c 25.277 98.793
 25.512 98.879 25.723 99.047 c 25.938 99.215 26.105 99.418 26.223 99.66 
c 26.355 99.941 26.441 100.238 26.48 100.551 c 26.52 100.863 26.539 101.25
 26.539 101.711 c 26.43 101.445 26.27 101.23 26.059 101.063 c 25.848 100.895
 25.609 100.809 25.344 100.809 c 24.969 100.809 24.633 100.914 24.336 101.121
 c 24.039 101.328 23.809 101.598 23.652 101.934 c 23.488 102.27 23.41 102.625
 23.41 103 c 23.41 103.391 23.496 103.754 23.672 104.09 c 23.848 104.426
 24.094 104.695 24.41 104.895 c 24.73 105.094 25.086 105.191 25.484 105.191
 c 25.875 105.191 26.203 105.086 26.469 104.871 c 26.734 104.656 26.938 
104.379 27.078 104.043 c 27.219 103.707 27.316 103.352 27.371 102.973 c 
27.426 102.594 27.453 102.219 27.453 101.852 c 27.453 101.352 27.359 100.84
 27.176 100.316 c 26.992 99.793 26.719 99.359 26.352 99.012 c 25.984 98.664
 25.543 98.488 25.027 98.488 c 24.645 98.488 24.32 98.578 24.055 98.758 
c 23.789 98.938 23.656 99.211 23.656 99.578 c 23.656 99.711 23.703 99.824
 23.793 99.914 c 23.883 100.004 23.992 100.047 24.125 100.047 c 24.258 100.047
 24.367 100.004 24.457 99.914 c 24.547 99.824 24.594 99.711 24.594 99.578
 c 24.594 99.453 24.547 99.344 24.453 99.25 c 24.359 99.156 24.25 99.109
 24.125 99.109 c h
25.379 101.066 m 25.645 101.066 25.863 101.156 26.035 101.336 c 26.207 
101.516 26.332 101.738 26.406 102.004 c 26.477 102.27 26.516 102.535 26.516
 102.801 c 26.516 103.023 l 26.516 103.516 26.445 103.953 26.305 104.336
 c 26.164 104.719 25.891 104.91 25.484 104.91 c 25.227 104.91 25.02 104.855
 24.859 104.742 c 24.699 104.629 24.582 104.477 24.508 104.289 c 24.43 104.102
 24.383 103.902 24.359 103.691 c 24.336 103.48 24.324 103.25 24.324 103 
c 24.324 102.633 24.344 102.32 24.379 102.059 c 24.41 101.797 24.508 101.566
 24.664 101.367 c 24.82 101.168 25.059 101.066 25.379 101.066 c f
29.102 99.109 m 29.281 98.898 29.59 98.793 30.027 98.793 c 30.277 98.793
 30.512 98.879 30.723 99.047 c 30.938 99.215 31.105 99.418 31.223 99.66 
c 31.355 99.941 31.441 100.238 31.48 100.551 c 31.52 100.863 31.539 101.25
 31.539 101.711 c 31.43 101.445 31.27 101.23 31.059 101.063 c 30.848 100.895
 30.609 100.809 30.344 100.809 c 29.969 100.809 29.633 100.914 29.336 101.121
 c 29.039 101.328 28.809 101.598 28.652 101.934 c 28.492 102.27 28.41 102.625
 28.41 103 c 28.41 103.391 28.5 103.754 28.672 104.09 c 28.848 104.426 29.094
 104.695 29.41 104.895 c 29.727 105.094 30.086 105.191 30.484 105.191 c 
30.875 105.191 31.203 105.086 31.469 104.871 c 31.734 104.656 31.938 104.379
 32.078 104.043 c 32.219 103.707 32.316 103.352 32.371 102.973 c 32.426 
102.594 32.453 102.219 32.453 101.852 c 32.453 101.352 32.359 100.84 32.176
 100.316 c 31.992 99.793 31.719 99.359 31.352 99.012 c 30.984 98.664 30.543
 98.488 30.027 98.488 c 29.645 98.488 29.32 98.578 29.055 98.758 c 28.789
 98.938 28.656 99.211 28.656 99.578 c 28.656 99.711 28.703 99.824 28.789
 99.914 c 28.883 100.004 28.992 100.047 29.125 100.047 c 29.258 100.047 
29.367 100.004 29.461 99.914 c 29.547 99.824 29.594 99.711 29.594 99.578
 c 29.594 99.453 29.547 99.344 29.453 99.25 c 29.359 99.156 29.25 99.109
 29.125 99.109 c h
30.379 101.066 m 30.645 101.066 30.863 101.156 31.035 101.336 c 31.207 
101.516 31.332 101.738 31.406 102.004 c 31.477 102.27 31.516 102.535 31.516
 102.801 c 31.516 103.023 l 31.516 103.516 31.445 103.953 31.305 104.336
 c 31.164 104.719 30.891 104.91 30.484 104.91 c 30.227 104.91 30.02 104.855
 29.855 104.742 c 29.699 104.629 29.582 104.477 29.504 104.289 c 29.43 104.102
 29.383 103.902 29.359 103.691 c 29.336 103.48 29.324 103.25 29.324 103 
c 29.324 102.633 29.344 102.32 29.379 102.059 c 29.41 101.797 29.508 101.566
 29.664 101.367 c 29.82 101.168 30.059 101.066 30.379 101.066 c f
33.844 99.813 m 33.914 99.617 34.02 99.441 34.152 99.285 c 34.289 99.129
 34.457 99.008 34.648 98.922 c 34.84 98.836 35.035 98.793 35.238 98.793 
c 35.707 98.793 36.031 98.977 36.207 99.344 c 36.383 99.711 36.469 100.152
 36.469 100.668 c 36.469 100.895 36.465 101.086 36.457 101.238 c 36.449 
101.391 36.43 101.539 36.398 101.688 c 36.336 101.914 36.23 102.113 36.078
 102.285 c 35.922 102.457 35.738 102.543 35.52 102.543 c 35.301 102.543 
35.113 102.512 34.957 102.445 c 34.801 102.379 34.672 102.301 34.578 102.211
 c 34.48 102.121 34.391 102.027 34.313 101.93 c 34.234 101.832 34.188 101.777
 34.172 101.77 c 34.066 101.77 l 34.051 101.77 34.031 101.781 34 101.801
 c 33.973 101.82 33.961 101.84 33.961 101.863 c 33.961 105.121 l 33.961 
105.137 33.973 105.152 33.996 105.168 c 34.02 105.184 34.043 105.191 34.066
 105.191 c 34.09 105.191 l 34.527 104.98 34.992 104.875 35.484 104.875 c
 35.969 104.875 36.434 104.98 36.879 105.191 c 36.914 105.191 l 36.93 105.191
 36.945 105.184 36.965 105.168 c 36.984 105.152 36.996 105.137 36.996 105.121
 c 36.996 105.027 l 36.996 104.996 36.992 104.98 36.984 104.98 c 36.758 
104.684 36.477 104.453 36.141 104.289 c 35.805 104.125 35.461 104.043 35.109
 104.043 c 34.844 104.043 34.574 104.078 34.301 104.148 c 34.301 102.309
 l 34.52 102.48 34.715 102.605 34.883 102.68 c 35.047 102.754 35.266 102.789
 35.531 102.789 c 35.891 102.789 36.215 102.688 36.496 102.484 c 36.781 
102.281 37.004 102.016 37.152 101.684 c 37.305 101.352 37.383 101.008 37.383
 100.656 c 37.383 100.266 37.285 99.906 37.094 99.574 c 36.902 99.242 36.641
 98.977 36.309 98.781 c 35.977 98.586 35.621 98.488 35.238 98.488 c 34.918
 98.488 34.621 98.57 34.352 98.734 c 34.086 98.898 33.871 99.121 33.715 
99.398 c 33.559 99.676 33.48 99.973 33.48 100.293 c 33.48 100.434 33.531
 100.551 33.625 100.645 c 33.723 100.738 33.844 100.785 33.984 100.785 c
 34.125 100.785 34.242 100.738 34.34 100.645 c 34.441 100.551 34.488 100.434
 34.488 100.293 c 34.488 100.152 34.441 100.035 34.34 99.938 c 34.242 99.84
 34.125 99.789 33.984 99.789 c 33.961 99.789 33.934 99.793 33.906 99.797
 c 33.883 99.801 33.859 99.805 33.844 99.813 c f
33.902 122.398 m 33.902 122.738 l 34.715 122.738 35.121 122.844 35.121 
123.055 c 35.121 128.164 l 34.785 128.008 34.359 127.93 33.844 127.93 c 
33.844 128.27 l 34.641 128.27 35.242 128.477 35.648 128.891 c 35.789 128.891
 l 35.813 128.891 35.836 128.883 35.852 128.867 c 35.871 128.852 35.883 
128.836 35.883 128.809 c 35.883 123.055 l 35.883 122.844 36.289 122.738 
37.102 122.738 c 37.102 122.398 l 33.902 122.398 l f
16.125 146.102 m 16.125 146.441 l 16.938 146.441 17.344 146.547 17.344 
146.758 c 17.344 151.867 l 17.008 151.711 16.582 151.633 16.066 151.633 
c 16.066 151.973 l 16.863 151.973 17.465 152.18 17.871 152.594 c 18.012 
152.594 l 18.035 152.594 18.055 152.586 18.074 152.57 c 18.094 152.555 18.105
 152.535 18.105 152.512 c 18.105 146.758 l 18.105 146.547 18.512 146.441
 19.324 146.441 c 19.324 146.102 l 16.125 146.102 l f
21.043 146.641 m 21.043 146.789 21.098 146.914 21.207 147.016 c 21.316 
147.117 21.441 147.164 21.582 147.164 c 21.668 147.164 21.754 147.145 21.84
 147.098 c 21.926 147.051 21.992 146.984 22.039 146.898 c 22.086 146.813
 22.109 146.727 22.109 146.641 c 22.109 146.5 22.055 146.375 21.949 146.266
 c 21.844 146.156 21.723 146.102 21.582 146.102 c 21.441 146.102 21.316 
146.156 21.207 146.266 c 21.098 146.375 21.043 146.5 21.043 146.641 c f
25.438 145.891 m 24.641 145.891 24.098 146.219 23.816 146.871 c 23.531 
147.531 23.387 148.309 23.387 149.207 c 23.387 149.777 23.438 150.309 23.539
 150.805 c 23.641 151.301 23.844 151.723 24.148 152.07 c 24.453 152.418 
24.883 152.594 25.438 152.594 c 25.867 152.594 26.219 152.488 26.492 152.281
 c 26.766 152.074 26.973 151.805 27.113 151.473 c 27.254 151.141 27.352 
150.785 27.406 150.406 c 27.461 150.027 27.488 149.629 27.488 149.207 c 
27.488 148.652 27.434 148.129 27.328 147.641 c 27.223 147.152 27.02 146.738
 26.719 146.398 c 26.418 146.059 25.992 145.891 25.438 145.891 c h
25.438 146.137 m 25.797 146.137 26.066 146.32 26.246 146.691 c 26.426 147.063
 26.535 147.477 26.574 147.93 c 26.613 148.383 26.633 148.863 26.633 149.367
 c 26.633 149.855 26.613 150.305 26.574 150.719 c 26.535 151.133 26.426 
151.508 26.254 151.844 c 26.078 152.18 25.805 152.348 25.438 152.348 c 25.07
 152.348 24.797 152.176 24.617 151.836 c 24.438 151.496 24.328 151.121 24.289
 150.711 c 24.25 150.301 24.23 149.855 24.23 149.367 c 24.23 149.004 24.238
 148.66 24.254 148.34 c 24.27 148.02 24.316 147.688 24.395 147.348 c 24.473
 147.008 24.598 146.723 24.766 146.488 c 24.93 146.254 25.156 146.137 25.438
 146.137 c f
30.438 145.891 m 29.641 145.891 29.098 146.219 28.816 146.871 c 28.531 
147.531 28.387 148.309 28.387 149.207 c 28.387 149.777 28.438 150.309 28.539
 150.805 c 28.641 151.301 28.844 151.723 29.148 152.07 c 29.453 152.418 
29.883 152.594 30.438 152.594 c 30.867 152.594 31.219 152.488 31.492 152.281
 c 31.766 152.074 31.973 151.805 32.113 151.473 c 32.254 151.141 32.352 
150.785 32.406 150.406 c 32.461 150.027 32.488 149.629 32.488 149.207 c 
32.488 148.652 32.434 148.129 32.332 147.641 c 32.223 147.152 32.023 146.738
 31.723 146.398 c 31.418 146.059 30.992 145.891 30.438 145.891 c h
30.438 146.137 m 30.797 146.137 31.066 146.32 31.246 146.691 c 31.426 147.063
 31.535 147.477 31.574 147.93 c 31.613 148.383 31.633 148.863 31.633 149.367
 c 31.633 149.855 31.613 150.305 31.574 150.719 c 31.535 151.133 31.426 
151.508 31.254 151.844 c 31.078 152.18 30.805 152.348 30.438 152.348 c 30.07
 152.348 29.797 152.176 29.617 151.836 c 29.438 151.496 29.328 151.121 29.289
 150.711 c 29.25 150.301 29.23 149.855 29.23 149.367 c 29.23 149.004 29.238
 148.66 29.254 148.34 c 29.27 148.02 29.316 147.688 29.395 147.348 c 29.473
 147.008 29.594 146.723 29.766 146.488 c 29.93 146.254 30.156 146.137 30.438
 146.137 c f
33.844 147.215 m 33.914 147.02 34.02 146.844 34.152 146.688 c 34.289 146.531
 34.457 146.41 34.648 146.324 c 34.84 146.238 35.035 146.195 35.238 146.195
 c 35.707 146.195 36.031 146.379 36.207 146.742 c 36.383 147.113 36.469 
147.555 36.469 148.07 c 36.469 148.297 36.465 148.484 36.457 148.637 c 36.449
 148.789 36.43 148.941 36.398 149.09 c 36.336 149.316 36.23 149.516 36.078
 149.688 c 35.922 149.859 35.738 149.945 35.52 149.945 c 35.301 149.945 
35.113 149.91 34.957 149.844 c 34.801 149.777 34.672 149.699 34.578 149.609
 c 34.48 149.52 34.391 149.426 34.313 149.328 c 34.234 149.23 34.188 149.18
 34.172 149.172 c 34.066 149.172 l 34.051 149.172 34.031 149.18 34 149.199
 c 33.973 149.219 33.961 149.242 33.961 149.266 c 33.961 152.523 l 33.961
 152.539 33.973 152.555 33.996 152.57 c 34.02 152.586 34.043 152.594 34.066
 152.594 c 34.09 152.594 l 34.527 152.383 34.992 152.273 35.484 152.273 
c 35.969 152.273 36.434 152.383 36.879 152.594 c 36.914 152.594 l 36.93 
152.594 36.945 152.586 36.965 152.57 c 36.984 152.555 36.996 152.539 36.996
 152.523 c 36.996 152.43 l 36.996 152.398 36.992 152.383 36.984 152.383 
c 36.758 152.086 36.477 151.855 36.141 151.691 c 35.805 151.527 35.461 151.445
 35.109 151.445 c 34.844 151.445 34.574 151.48 34.301 151.551 c 34.301 149.711
 l 34.52 149.883 34.715 150.004 34.883 150.078 c 35.047 150.152 35.266 150.191
 35.531 150.191 c 35.891 150.191 36.215 150.09 36.496 149.887 c 36.781 149.684
 37.004 149.414 37.152 149.082 c 37.305 148.75 37.383 148.41 37.383 148.059
 c 37.383 147.664 37.285 147.305 37.094 146.973 c 36.902 146.641 36.641 
146.379 36.309 146.184 c 35.977 145.988 35.621 145.891 35.238 145.891 c 
34.918 145.891 34.621 145.973 34.352 146.137 c 34.086 146.301 33.871 146.52
 33.715 146.797 c 33.559 147.074 33.48 147.371 33.48 147.695 c 33.48 147.836
 33.531 147.953 33.625 148.047 c 33.723 148.141 33.844 148.188 33.984 148.188
 c 34.125 148.188 34.242 148.141 34.34 148.047 c 34.441 147.953 34.488 147.836
 34.488 147.695 c 34.488 147.555 34.441 147.434 34.34 147.336 c 34.242 147.238
 34.125 147.191 33.984 147.191 c 33.961 147.191 33.934 147.191 33.906 147.195
 c 33.883 147.199 33.859 147.203 33.844 147.215 c f
0 0.447059 0.741176 rg
0 J
q 1 0 0 1 0 153 cm
62.902 -25.453 m 62.902 -31.633 l S Q
q 1 0 0 1 0 153 cm
83.801 -27.324 m 83.801 -32.125 l S Q
q 1 0 0 1 0 153 cm
104.703 -56.805 m 104.703 -77.559 l S Q
q 1 0 0 1 0 153 cm
125.602 -35.273 m 125.602 -49.758 l S Q
q 1 0 0 1 0 153 cm
146.504 -21.488 m 146.504 -32.734 l S Q
q 1 0 0 1 0 153 cm
167.402 -22.703 m 167.402 -32.133 l S Q
q 1 0 0 1 0 153 cm
188.305 -28.863 m 188.305 -34.484 l S Q
q 1 0 0 1 0 153 cm
209.203 -28.625 m 209.203 -33.73 l S Q
q 1 0 0 1 0 153 cm
230.105 -34.004 m 230.105 -38.332 l S Q
q 1 0 0 1 0 153 cm
251.004 -44.703 m 251.004 -49.715 l S Q
q 1 0 0 1 0 153 cm
271.906 -55.551 m 271.906 -65.199 l S Q
q 1 0 0 1 0 153 cm
292.805 -94.215 m 292.805 -102.113 l S Q
q 1 0 0 1 0 153 cm
62.902 -25.453 m 62.902 -19.273 l S Q
q 1 0 0 1 0 153 cm
83.801 -27.324 m 83.801 -22.523 l S Q
q 1 0 0 1 0 153 cm
104.703 -56.805 m 104.703 -36.047 l S Q
q 1 0 0 1 0 153 cm
125.602 -35.273 m 125.602 -20.789 l S Q
q 1 0 0 1 0 153 cm
146.504 -21.488 m 146.504 -10.246 l S Q
q 1 0 0 1 0 153 cm
167.402 -22.703 m 167.402 -13.277 l S Q
q 1 0 0 1 0 153 cm
188.305 -28.863 m 188.305 -23.242 l S Q
q 1 0 0 1 0 153 cm
209.203 -28.625 m 209.203 -23.52 l S Q
q 1 0 0 1 0 153 cm
230.105 -34.004 m 230.105 -29.68 l S Q
q 1 0 0 1 0 153 cm
251.004 -44.703 m 251.004 -39.691 l S Q
q 1 0 0 1 0 153 cm
271.906 -55.551 m 271.906 -45.898 l S Q
q 1 0 0 1 0 153 cm
292.805 -94.215 m 292.805 -86.316 l S Q
0 j
q 1 0 0 1 0 153 cm
62.902 -22.453 m 62.902 -28.453 l 59.902 -25.453 m 65.902 -25.453 l 60.781
 -23.332 m 65.023 -27.574 l 60.781 -27.574 m 65.023 -23.332 l S Q
q 1 0 0 1 0 153 cm
83.801 -24.324 m 83.801 -30.324 l 80.801 -27.324 m 86.801 -27.324 l 81.68
 -25.203 m 85.922 -29.445 l 81.68 -29.445 m 85.922 -25.203 l S Q
q 1 0 0 1 0 153 cm
104.703 -53.805 m 104.703 -59.805 l 101.703 -56.805 m 107.703 -56.805 l
 102.578 -54.684 m 106.82 -58.926 l 102.578 -58.926 m 106.82 -54.684 l S Q
q 1 0 0 1 0 153 cm
125.602 -32.273 m 125.602 -38.273 l 122.602 -35.273 m 128.602 -35.273 l
 123.48 -33.152 m 127.723 -37.395 l 123.48 -37.395 m 127.723 -33.152 l S Q
q 1 0 0 1 0 153 cm
146.504 -18.488 m 146.504 -24.488 l 143.504 -21.488 m 149.504 -21.488 l
 144.383 -19.367 m 148.621 -23.609 l 144.383 -23.609 m 148.621 -19.367 l
 S Q
q 1 0 0 1 0 153 cm
167.402 -19.703 m 167.402 -25.703 l 164.402 -22.703 m 170.402 -22.703 l
 165.281 -20.582 m 169.523 -24.824 l 165.281 -24.824 m 169.523 -20.582 l
 S Q
q 1 0 0 1 0 153 cm
188.305 -25.863 m 188.305 -31.863 l 185.305 -28.863 m 191.305 -28.863 l
 186.184 -26.742 m 190.426 -30.984 l 186.184 -30.984 m 190.426 -26.742 l
 S Q
q 1 0 0 1 0 153 cm
209.203 -25.625 m 209.203 -31.625 l 206.203 -28.625 m 212.203 -28.625 l
 207.082 -26.504 m 211.324 -30.746 l 207.082 -30.746 m 211.324 -26.504 l
 S Q
q 1 0 0 1 0 153 cm
230.105 -31.004 m 230.105 -37.004 l 227.105 -34.004 m 233.105 -34.004 l
 227.984 -31.883 m 232.227 -36.125 l 227.984 -36.125 m 232.227 -31.883 l
 S Q
q 1 0 0 1 0 153 cm
251.004 -41.703 m 251.004 -47.703 l 248.004 -44.703 m 254.004 -44.703 l
 248.883 -42.582 m 253.125 -46.824 l 248.883 -46.824 m 253.125 -42.582 l
 S Q
q 1 0 0 1 0 153 cm
271.906 -52.551 m 271.906 -58.551 l 268.906 -55.551 m 274.906 -55.551 l
 269.785 -53.43 m 274.027 -57.672 l 269.785 -57.672 m 274.027 -53.43 l S Q
q 1 0 0 1 0 153 cm
292.805 -91.215 m 292.805 -97.215 l 289.805 -94.215 m 295.805 -94.215 l
 290.684 -92.094 m 294.926 -96.336 l 290.684 -96.336 m 294.926 -92.094 l
 S Q
q 1 0 0 1 0 153 cm
59.902 -31.633 m 65.902 -31.633 l S Q
q 1 0 0 1 0 153 cm
80.801 -32.125 m 86.801 -32.125 l S Q
q 1 0 0 1 0 153 cm
101.703 -77.563 m 107.703 -77.563 l S Q
q 1 0 0 1 0 153 cm
122.602 -49.758 m 128.602 -49.758 l S Q
q 1 0 0 1 0 153 cm
143.504 -32.734 m 149.504 -32.734 l S Q
q 1 0 0 1 0 153 cm
164.402 -32.133 m 170.402 -32.133 l S Q
q 1 0 0 1 0 153 cm
185.305 -34.488 m 191.305 -34.488 l S Q
q 1 0 0 1 0 153 cm
206.203 -33.73 m 212.203 -33.73 l S Q
q 1 0 0 1 0 153 cm
227.105 -38.332 m 233.105 -38.332 l S Q
q 1 0 0 1 0 153 cm
248.004 -49.715 m 254.004 -49.715 l S Q
q 1 0 0 1 0 153 cm
268.906 -65.199 m 274.906 -65.199 l S Q
q 1 0 0 1 0 153 cm
289.805 -102.113 m 295.805 -102.113 l S Q
q 1 0 0 1 0 153 cm
59.902 -19.273 m 65.902 -19.273 l S Q
q 1 0 0 1 0 153 cm
80.801 -22.523 m 86.801 -22.523 l S Q
q 1 0 0 1 0 153 cm
101.703 -36.047 m 107.703 -36.047 l S Q
q 1 0 0 1 0 153 cm
122.602 -20.789 m 128.602 -20.789 l S Q
q 1 0 0 1 0 153 cm
143.504 -10.246 m 149.504 -10.246 l S Q
q 1 0 0 1 0 153 cm
164.402 -13.277 m 170.402 -13.277 l S Q
q 1 0 0 1 0 153 cm
185.305 -23.242 m 191.305 -23.242 l S Q
q 1 0 0 1 0 153 cm
206.203 -23.52 m 212.203 -23.52 l S Q
q 1 0 0 1 0 153 cm
227.105 -29.68 m 233.105 -29.68 l S Q
q 1 0 0 1 0 153 cm
248.004 -39.691 m 254.004 -39.691 l S Q
q 1 0 0 1 0 153 cm
268.906 -45.898 m 274.906 -45.898 l S Q
q 1 0 0 1 0 153 cm
289.805 -86.316 m 295.805 -86.316 l S Q
0.85098 0.32549 0.0980392 rg
1 j
q 1 0 0 1 0 153 cm
72.402 -28.223 m 110.152 -28.289 l 132.234 -28.406 l 147.902 -28.563 l 
160.059 -28.77 l 169.984 -29.02 l 178.383 -29.313 l 185.652 -29.652 l 192.066
 -30.039 l 197.809 -30.473 l 202.996 -30.945 l 207.734 -31.469 l 212.098
 -32.035 l 216.133 -32.648 l 219.891 -33.309 l 223.402 -34.012 l 226.703
 -34.762 l 229.82 -35.555 l 232.762 -36.395 l 235.555 -37.277 l 238.215 
-38.211 l 240.746 -39.184 l 243.168 -40.203 l 245.484 -41.27 l 247.711 -42.383
 l 249.844 -43.535 l 251.902 -44.738 l 253.883 -45.984 l 255.793 -47.277
 l 257.641 -48.613 l 259.426 -49.992 l 261.152 -51.422 l 262.828 -52.895
 l 264.453 -54.41 l 266.035 -55.973 l 267.566 -57.578 l 269.059 -59.23 l
 270.512 -60.926 l 271.926 -62.668 l 273.309 -64.453 l 274.652 -66.285 l
 275.965 -68.16 l 277.246 -70.082 l 278.496 -72.043 l 279.723 -74.055 l 
280.918 -76.109 l 282.09 -78.207 l 283.234 -80.352 l 284.359 -82.539 l 285.461
 -84.773 l 286.539 -87.051 l 287.594 -89.371 l 288.633 -91.734 l 289.652
 -94.148 l 290.648 -96.602 l 291.633 -99.098 l 292.594 -101.641 l 293.543
 -104.23 l 294.473 -106.859 l 295.391 -109.535 l 296.289 -112.254 l 297.176
 -115.02 l 298.047 -117.824 l 298.902 -120.676 l 299.586 -123.016 l S Q
0.14902 g
8.43 63.469 m 1.363 60.82 l 1.207 60.75 1.109 60.621 1.07 60.434 c 1.031
 60.246 1.012 60.008 1.012 59.719 c 0.613 59.719 l 0.613 62.813 l 1.012 
62.813 l 1.012 62.195 1.109 61.887 1.305 61.887 c 1.363 61.887 l 7.105 64.055
 l 1.68 66.094 l 1.648 66.102 1.602 66.105 1.539 66.105 c 1.359 66.105 1.227
 66.023 1.141 65.852 c 1.055 65.684 1.012 65.5 1.012 65.297 c 0.613 65.297
 l 0.613 67.723 l 1.012 67.723 l 1.012 67.441 1.066 67.195 1.172 66.977 
c 1.277 66.762 1.445 66.609 1.68 66.516 c 8.43 63.973 l 8.508 63.949 8.547
 63.891 8.547 63.797 c 8.547 63.645 l 8.547 63.551 8.508 63.492 8.43 63.469
 c f
8.43 69.641 m 8.43 69.18 8.309 68.762 8.066 68.383 c 7.824 68.004 7.504
 67.703 7.105 67.484 c 6.707 67.266 6.285 67.156 5.84 67.156 c 5.395 67.156
 4.977 67.258 4.582 67.457 c 4.188 67.656 3.867 67.934 3.625 68.289 c 3.383
 68.645 3.262 69.039 3.262 69.477 c 3.262 69.828 3.32 70.133 3.434 70.387
 c 3.547 70.641 3.707 70.848 3.914 71.012 c 4.121 71.176 4.363 71.301 4.641
 71.383 c 4.918 71.465 5.223 71.508 5.559 71.508 c 5.652 71.508 5.699 71.469
 5.699 71.398 c 5.699 68.141 l 5.828 68.141 l 6.445 68.141 6.98 68.266 7.43
 68.516 c 7.879 68.766 8.102 69.176 8.102 69.746 c 8.102 69.973 8.051 70.184
 7.945 70.383 c 7.84 70.574 7.695 70.746 7.516 70.891 c 7.336 71.035 7.141
 71.133 6.93 71.188 c 6.906 71.195 6.883 71.211 6.859 71.23 c 6.836 71.25
 6.824 71.27 6.824 71.293 c 6.824 71.398 l 6.824 71.469 6.875 71.508 6.977
 71.508 c 7.398 71.402 7.746 71.176 8.02 70.824 c 8.293 70.473 8.43 70.078
 8.43 69.641 c h
5.418 68.152 m 5.418 70.707 l 5.137 70.707 4.852 70.668 4.563 70.59 c 4.273
 70.512 4.035 70.383 3.844 70.199 c 3.652 70.016 3.555 69.773 3.555 69.477
 c 3.555 69.055 3.754 68.73 4.152 68.5 c 4.551 68.27 4.973 68.152 5.418 
68.152 c f
8.301 72.023 m 7.902 72.023 l 7.902 72.281 7.883 72.492 7.844 72.656 c 
7.805 72.82 7.707 72.902 7.551 72.902 c 4.48 72.902 l 4.277 72.902 4.133
 72.871 4.043 72.809 c 3.953 72.746 3.898 72.66 3.879 72.543 c 3.859 72.43
 3.848 72.258 3.848 72.023 c 3.449 72.023 l 3.332 73.629 l 4.434 73.629 
l 4.105 73.754 3.84 73.926 3.637 74.148 c 3.434 74.371 3.332 74.645 3.332
 74.965 c 3.332 75.184 3.398 75.379 3.531 75.555 c 3.664 75.73 3.836 75.82
 4.047 75.82 c 4.188 75.82 4.309 75.77 4.406 75.672 c 4.504 75.574 4.551
 75.457 4.551 75.316 c 4.551 75.176 4.504 75.055 4.406 74.957 c 4.309 74.859
 4.188 74.813 4.047 74.813 c 3.844 74.813 3.703 74.883 3.625 75.023 c 3.625
 74.965 l 3.625 74.66 3.734 74.41 3.953 74.219 c 4.172 74.027 4.445 73.891
 4.77 73.809 c 5.094 73.727 5.402 73.688 5.699 73.688 c 7.551 73.688 l 7.785
 73.688 7.902 74.051 7.902 74.777 c 8.301 74.777 l 8.301 72.023 l f
8.336 76.414 m 6.496 76.414 l 6.441 76.414 6.414 76.445 6.414 76.508 c 
6.414 76.648 l 6.414 76.695 6.441 76.727 6.496 76.742 c 7.582 76.945 8.125
 77.449 8.125 78.254 c 8.125 78.605 8.047 78.902 7.887 79.145 c 7.727 79.387
 7.477 79.508 7.141 79.508 c 6.898 79.508 6.695 79.414 6.527 79.227 c 6.359
 79.039 6.242 78.816 6.18 78.559 c 6.027 77.809 l 5.973 77.559 5.891 77.328
 5.777 77.121 c 5.664 76.914 5.512 76.746 5.324 76.613 c 5.137 76.48 4.918
 76.414 4.668 76.414 c 4.332 76.414 4.063 76.5 3.855 76.672 c 3.648 76.844
 3.496 77.07 3.402 77.352 c 3.309 77.633 3.262 77.934 3.262 78.254 c 3.262
 78.637 3.363 78.973 3.566 79.262 c 3.285 79.578 l 3.27 79.578 3.262 79.598
 3.262 79.637 c 3.262 79.719 l 3.262 79.742 3.273 79.762 3.293 79.785 c 
3.313 79.801 3.332 79.813 3.355 79.813 c 4.82 79.813 l 4.891 79.813 4.926
 79.781 4.926 79.719 c 4.926 79.578 l 4.926 79.516 4.891 79.484 4.82 79.484
 c 4.43 79.484 4.117 79.375 3.879 79.156 c 3.641 78.938 3.52 78.633 3.52
 78.242 c 3.52 77.906 3.582 77.613 3.707 77.367 c 3.832 77.121 4.047 77 
4.352 77 c 4.563 77 4.734 77.086 4.867 77.262 c 5 77.438 5.094 77.648 5.148
 77.891 c 5.301 78.652 l 5.355 78.902 5.453 79.137 5.594 79.359 c 5.734 
79.582 5.91 79.758 6.121 79.887 c 6.332 80.016 6.57 80.082 6.836 80.082 
c 7.109 80.082 7.348 80.035 7.547 79.945 c 7.746 79.855 7.91 79.727 8.043
 79.559 c 8.176 79.391 8.273 79.195 8.336 78.969 c 8.398 78.742 8.43 78.504
 8.43 78.254 c 8.43 77.785 8.27 77.383 7.949 77.047 c 8.395 76.637 l 8.418
 76.637 8.43 76.617 8.43 76.578 c 8.43 76.508 l 8.43 76.445 8.398 76.414
 8.336 76.414 c f
6.953 81.523 m 3.848 81.523 l 3.848 80.59 l 3.555 80.59 l 3.555 81.082 
3.328 81.441 2.871 81.672 c 2.414 81.902 1.914 82.016 1.375 82.016 c 1.375
 82.348 l 3.449 82.348 l 3.449 83.93 l 3.848 83.93 l 3.848 82.348 l 6.93
 82.348 l 7.242 82.348 7.516 82.398 7.75 82.504 c 7.984 82.609 8.102 82.797
 8.102 83.063 c 8.102 83.316 7.977 83.504 7.727 83.617 c 7.477 83.73 7.211
 83.789 6.93 83.789 c 6.262 83.789 l 6.262 84.113 l 6.953 84.113 l 7.188
 84.113 7.418 84.07 7.645 83.984 c 7.871 83.898 8.059 83.773 8.207 83.605
 c 8.355 83.438 8.43 83.234 8.43 82.988 c 8.43 82.539 8.297 82.18 8.027 
81.918 c 7.758 81.656 7.398 81.523 6.953 81.523 c f
1.352 85.793 m 1.195 85.793 1.063 85.848 0.949 85.961 c 0.836 86.074 0.777
 86.215 0.777 86.379 c 0.777 86.543 0.836 86.68 0.949 86.793 c 1.063 86.906
 1.195 86.965 1.352 86.965 c 1.523 86.965 1.668 86.906 1.781 86.793 c 1.895
 86.68 1.949 86.543 1.949 86.379 c 1.949 86.215 1.891 86.074 1.773 85.961
 c 1.656 85.848 1.516 85.793 1.352 85.793 c h
1.352 87.961 m 1.195 87.961 1.063 88.016 0.949 88.129 c 0.836 88.242 0.777
 88.383 0.777 88.547 c 0.777 88.711 0.836 88.848 0.949 88.961 c 1.063 89.074
 1.195 89.133 1.352 89.133 c 1.523 89.133 1.668 89.074 1.781 88.961 c 1.895
 88.848 1.949 88.711 1.949 88.547 c 1.949 88.383 1.891 88.242 1.773 88.129
 c 1.656 88.016 1.516 87.961 1.352 87.961 c f
7.199 85.102 m 6.754 85.102 6.391 85.277 6.109 85.629 c 5.828 85.98 5.629
 86.402 5.512 86.898 c 5.395 87.395 5.336 87.863 5.336 88.301 c 4.879 88.301
 l 4.66 88.301 4.449 88.254 4.246 88.16 c 4.043 88.066 3.879 87.93 3.75 
87.75 c 3.621 87.57 3.555 87.371 3.555 87.152 c 3.555 86.66 3.668 86.281
 3.895 86.016 c 3.895 86.164 3.949 86.281 4.055 86.371 c 4.16 86.461 4.285
 86.508 4.434 86.508 c 4.582 86.508 4.711 86.453 4.816 86.348 c 4.922 86.242
 4.973 86.121 4.973 85.98 c 4.973 85.824 4.922 85.691 4.816 85.586 c 4.711
 85.48 4.582 85.43 4.434 85.43 c 4.035 85.43 3.742 85.609 3.551 85.969 c
 3.359 86.328 3.262 86.723 3.262 87.152 c 3.262 87.457 3.328 87.762 3.457
 88.07 c 3.586 88.379 3.77 88.633 4.012 88.828 c 4.254 89.023 4.535 89.121
 4.855 89.121 c 7.387 89.121 l 7.535 89.121 7.672 89.152 7.793 89.215 c 
7.914 89.277 7.973 89.375 7.973 89.508 c 7.973 89.633 7.91 89.723 7.785 
89.781 c 7.66 89.84 7.527 89.871 7.387 89.871 c 6.672 89.871 l 6.672 90.199
 l 7.387 90.199 l 7.559 90.199 7.723 90.156 7.875 90.066 c 8.027 89.984 
8.148 89.867 8.238 89.719 c 8.328 89.57 8.371 89.41 8.371 89.238 c 8.371
 89.02 8.285 88.828 8.113 88.668 c 7.941 88.508 7.738 88.422 7.504 88.406
 c 7.785 88.266 8.012 88.059 8.18 87.789 c 8.348 87.52 8.43 87.23 8.43 86.918
 c 8.43 86.637 8.387 86.355 8.301 86.078 c 8.215 85.801 8.082 85.566 7.902
 85.383 c 7.723 85.191 7.488 85.102 7.199 85.102 c h
7.199 86.016 m 7.465 86.016 7.688 86.113 7.863 86.309 c 8.039 86.504 8.125
 86.734 8.125 87 c 8.125 87.242 8.066 87.461 7.949 87.656 c 7.832 87.852
 7.668 88.008 7.457 88.125 c 7.246 88.242 7.027 88.301 6.801 88.301 c 5.629
 88.301 l 5.629 87.965 5.684 87.617 5.793 87.258 c 5.902 86.898 6.078 86.602
 6.316 86.367 c 6.555 86.133 6.848 86.016 7.199 86.016 c f
8.301 90.449 m 7.902 90.449 l 7.902 90.707 7.883 90.918 7.844 91.082 c 
7.805 91.246 7.707 91.328 7.551 91.328 c 4.48 91.328 l 4.277 91.328 4.133
 91.297 4.043 91.234 c 3.953 91.172 3.898 91.082 3.879 90.969 c 3.859 90.855
 3.848 90.684 3.848 90.449 c 3.449 90.449 l 3.332 92.055 l 4.434 92.055 
l 4.105 92.18 3.84 92.352 3.637 92.574 c 3.434 92.797 3.332 93.07 3.332 
93.391 c 3.332 93.609 3.398 93.805 3.531 93.98 c 3.664 94.156 3.836 94.246
 4.047 94.246 c 4.188 94.246 4.309 94.195 4.406 94.098 c 4.504 94 4.551 
93.883 4.551 93.742 c 4.551 93.602 4.504 93.48 4.406 93.383 c 4.309 93.285
 4.188 93.238 4.047 93.238 c 3.844 93.238 3.703 93.309 3.625 93.449 c 3.625
 93.391 l 3.625 93.086 3.734 92.836 3.953 92.645 c 4.172 92.453 4.445 92.316
 4.77 92.234 c 5.094 92.152 5.402 92.113 5.699 92.113 c 7.551 92.113 l 7.785
 92.113 7.902 92.477 7.902 93.203 c 8.301 93.203 l 8.301 90.449 l f
8.301 94.758 m 7.902 94.758 l 7.902 95.016 7.883 95.227 7.844 95.391 c 
7.805 95.555 7.707 95.637 7.551 95.637 c 1.645 95.637 l 1.441 95.637 1.297
 95.605 1.207 95.543 c 1.117 95.48 1.063 95.391 1.043 95.277 c 1.023 95.164
 1.012 94.992 1.012 94.758 c 0.613 94.758 l 0.496 96.422 l 5.84 96.422 l
 4.516 97.934 l 4.367 98.082 4.234 98.152 4.117 98.152 c 4.031 98.152 3.965
 98.125 3.918 98.063 c 3.871 98 3.848 97.926 3.848 97.84 c 3.449 97.84 l
 3.449 99.949 l 3.848 99.949 l 3.848 99.441 4.07 98.934 4.516 98.426 c 5.207
 97.629 l 7.246 99.059 l 7.527 99.254 7.707 99.418 7.785 99.551 c 7.863 
99.684 7.902 99.902 7.902 100.219 c 8.301 100.219 l 8.301 97.98 l 7.902 
97.98 l 7.902 98.23 7.824 98.355 7.668 98.355 c 7.559 98.355 7.418 98.289
 7.246 98.152 c 5.699 97.078 l 6.297 96.387 l 7.551 96.387 l 7.707 96.387
 7.805 96.469 7.844 96.637 c 7.883 96.805 7.902 97.016 7.902 97.266 c 8.301
 97.266 l 8.301 94.758 l f
6.965 101.488 m 4.48 101.488 l 4.277 101.488 4.133 101.457 4.043 101.395
 c 3.953 101.332 3.898 101.242 3.879 101.133 c 3.859 101.016 3.848 100.844
 3.848 100.609 c 3.449 100.609 l 3.332 102.309 l 6.965 102.309 l 7.254 102.309
 7.48 102.328 7.645 102.371 c 7.809 102.414 7.93 102.504 8.008 102.641 c
 8.086 102.777 8.125 102.996 8.125 103.293 c 8.125 103.699 7.957 104.02 
7.621 104.258 c 7.285 104.496 6.902 104.617 6.473 104.617 c 4.48 104.617
 l 4.277 104.617 4.133 104.586 4.043 104.523 c 3.953 104.461 3.898 104.371
 3.879 104.258 c 3.859 104.145 3.848 103.973 3.848 103.738 c 3.449 103.738
 l 3.332 105.438 l 7.281 105.438 l 7.477 105.438 7.621 105.465 7.711 105.523
 c 7.801 105.582 7.855 105.668 7.875 105.785 c 7.895 105.895 7.902 106.074
 7.902 106.316 c 8.301 106.316 l 8.43 104.652 l 7.48 104.652 l 7.762 104.512
 7.992 104.316 8.168 104.066 c 8.344 103.816 8.43 103.543 8.43 103.246 c
 8.43 102.707 8.316 102.277 8.086 101.961 c 7.855 101.645 7.48 101.488 6.965
 101.488 c f
8.301 106.719 m 7.902 106.719 l 7.902 106.969 7.883 107.18 7.844 107.348
 c 7.805 107.516 7.707 107.598 7.551 107.598 c 4.48 107.598 l 4.277 107.598
 4.133 107.566 4.043 107.504 c 3.953 107.441 3.898 107.355 3.879 107.242
 c 3.859 107.129 3.848 106.953 3.848 106.719 c 3.449 106.719 l 3.332 108.348
 l 4.434 108.348 l 4.105 108.496 3.84 108.719 3.637 109.016 c 3.434 109.313
 3.332 109.633 3.332 109.977 c 3.332 110.5 3.457 110.895 3.707 111.156 c
 3.957 111.418 4.336 111.547 4.844 111.547 c 7.551 111.547 l 7.707 111.547
 7.805 111.629 7.844 111.793 c 7.883 111.957 7.902 112.168 7.902 112.426
 c 8.301 112.426 l 8.301 109.848 l 7.902 109.848 l 7.902 110.105 7.883 110.316
 7.844 110.48 c 7.805 110.645 7.707 110.727 7.551 110.727 c 4.879 110.727
 l 4.512 110.727 4.211 110.676 3.977 110.57 c 3.742 110.465 3.625 110.242
 3.625 109.91 c 3.625 109.477 3.801 109.121 4.148 108.84 c 4.496 108.559
 4.887 108.418 5.324 108.418 c 7.551 108.418 l 7.707 108.418 7.805 108.5
 7.844 108.664 c 7.883 108.828 7.902 109.035 7.902 109.285 c 8.301 109.285
 l 8.301 106.719 l f
9.18 112.809 m 8.914 112.809 8.684 112.902 8.484 113.094 c 8.285 113.285
 8.141 113.52 8.055 113.793 c 7.938 113.637 7.793 113.52 7.621 113.441 c
 7.449 113.363 7.266 113.324 7.07 113.324 c 6.719 113.324 6.41 113.438 6.145
 113.664 c 5.809 113.32 5.422 113.148 4.984 113.148 c 4.75 113.148 4.531
 113.199 4.324 113.301 c 4.117 113.402 3.938 113.543 3.789 113.723 c 3.641
 113.902 3.527 114.102 3.449 114.32 c 3.371 114.539 3.332 114.762 3.332 
114.988 c 3.332 115.434 3.461 115.836 3.719 116.195 c 3.555 116.352 3.43
 116.535 3.34 116.746 c 3.25 116.957 3.203 117.176 3.203 117.402 c 3.203
 117.559 3.262 117.688 3.379 117.789 c 3.496 117.891 3.633 117.941 3.789
 117.941 c 3.883 117.941 3.965 117.906 4.035 117.84 c 4.105 117.773 4.141
 117.695 4.141 117.602 c 4.141 117.508 4.105 117.426 4.035 117.355 c 3.965
 117.285 3.883 117.25 3.789 117.25 c 3.648 117.25 3.551 117.297 3.496 117.391
 c 3.496 117 3.633 116.664 3.906 116.383 c 4.039 116.523 4.203 116.633 4.398
 116.715 c 4.594 116.797 4.789 116.84 4.984 116.84 c 5.305 116.84 5.594 
116.75 5.848 116.574 c 6.102 116.398 6.297 116.168 6.438 115.879 c 6.578
 115.59 6.648 115.293 6.648 114.988 c 6.648 114.582 6.535 114.207 6.309 
113.863 c 6.457 113.762 6.621 113.711 6.801 113.711 c 7.004 113.711 7.18
 113.773 7.328 113.902 c 7.477 114.031 7.551 114.195 7.551 114.391 c 7.551
 115.316 l 7.551 115.762 7.59 116.164 7.668 116.523 c 7.746 116.883 7.906
 117.184 8.148 117.426 c 8.391 117.668 8.734 117.789 9.18 117.789 c 9.508
 117.789 9.781 117.648 10 117.371 c 10.219 117.094 10.379 116.762 10.477
 116.375 c 10.574 115.988 10.621 115.633 10.621 115.305 c 10.621 114.969
 10.574 114.605 10.477 114.219 c 10.379 113.832 10.219 113.5 10 113.223 
c 9.781 112.945 9.508 112.809 9.18 112.809 c h
9.18 113.441 m 9.43 113.441 9.641 113.543 9.813 113.746 c 9.984 113.949
 10.113 114.195 10.195 114.484 c 10.277 114.773 10.316 115.047 10.316 115.305
 c 10.316 115.555 10.277 115.824 10.195 116.113 c 10.113 116.402 9.984 116.648
 9.813 116.852 c 9.641 117.055 9.43 117.156 9.18 117.156 c 8.789 117.156
 8.535 116.977 8.418 116.621 c 8.301 116.266 8.242 115.832 8.242 115.316
 c 8.242 114.391 l 8.242 114.219 8.285 114.059 8.367 113.914 c 8.449 113.77
 8.563 113.656 8.711 113.57 c 8.859 113.484 9.016 113.441 9.18 113.441 c
 h
6.344 114.988 m 6.344 115.629 5.891 115.949 4.984 115.949 c 4.594 115.949
 4.273 115.879 4.02 115.742 c 3.766 115.605 3.637 115.355 3.637 114.988 
c 3.637 114.621 3.766 114.371 4.02 114.238 c 4.273 114.105 4.594 114.039
 4.984 114.039 c 5.234 114.039 5.461 114.063 5.66 114.113 c 5.859 114.164
 6.023 114.258 6.152 114.395 c 6.281 114.531 6.344 114.73 6.344 114.988 
c f
Q Q
showpage
%%Trailer
end restore
%%EOF
